0.749850,0.000000
0.764147,0.100602
0.804998,0.215698
0.866380,0.358866
0.938572,0.541885
1.008570,0.773903
1.052117,1.052117
0.773903,1.008570
0.541885,0.938572
0.358866,0.866380
0.215698,0.804998
0.100602,0.764147
0.000000,0.749850
-0.100602,0.764147
-0.215698,0.804998
-0.358866,0.866380
-0.541885,0.938572
-0.773903,1.008570
-1.052117,1.052117
-1.008570,0.773903
-0.938572,0.541885
-0.866380,0.358866
-0.804998,0.215698
-0.764147,0.100602
-0.749850,0.000000
-0.764147,-0.100602
-0.804998,-0.215698
-0.866380,-0.358866
-0.938572,-0.541885
-1.008570,-0.773903
-1.052117,-1.052117
-0.773903,-1.008570
-0.541885,-0.938572
-0.358866,-0.866380
-0.215698,-0.804998
-0.100602,-0.764147
0.000000,-0.749850
0.100602,-0.764147
0.215698,-0.804998
0.358866,-0.866380
0.541885,-0.938572
0.773903,-1.008570
1.052117,-1.052117
1.008570,-0.773903
0.938572,-0.541885
0.866380,-0.358866
0.804998,-0.215698
0.764147,-0.100602
-0.000000,-0.000000
0.366926,0.000000
0.310418,0.112638
0.254258,0.222021
0.248177,-0.000000
0.188076,0.110064
0.125043,-0.000000
0.195617,0.326434
0.065185,0.320499
-0.065185,0.320499
0.127701,0.217141
0.000000,0.215408
0.062964,0.108529
-0.195617,0.326434
-0.254258,0.222021
-0.310418,0.112638
-0.127701,0.217141
-0.188076,0.110064
-0.062964,0.108529
-0.366926,-0.000000
-0.310418,-0.112638
-0.254258,-0.222021
-0.248177,-0.000000
-0.188076,-0.110064
-0.125043,-0.000000
-0.195617,-0.326434
-0.065185,-0.320499
0.065185,-0.320499
-0.127701,-0.217141
-0.000000,-0.215408
-0.062964,-0.108529
0.195617,-0.326434
0.254258,-0.222021
0.310418,-0.112638
0.127701,-0.217141
0.188076,-0.110064
0.062964,-0.108529
0.477823,0.000000
0.410866,0.153275
0.343788,0.301732
0.267383,0.437945
0.088560,0.421441
-0.088560,0.421441
-0.267383,0.437945
-0.343788,0.301732
-0.410866,0.153275
-0.477823,-0.000000
-0.410866,-0.153275
-0.343788,-0.301732
-0.267383,-0.437945
-0.088560,-0.421441
0.088560,-0.421441
0.267383,-0.437945
0.343788,-0.301732
0.410866,-0.153275
0.605816,0.000000
0.599833,0.090299
0.545270,0.000000
0.601568,0.183155
0.577836,0.294528
0.551558,0.407594
0.536967,0.091424
0.492639,0.223136
0.445529,0.352749
0.514283,0.513840
0.445450,0.558536
0.388479,0.472840
0.369635,0.593898
0.274097,0.596198
0.317995,0.514508
0.181827,0.600955
0.059816,0.586267
-0.059816,0.586267
0.227244,0.525290
0.074811,0.508532
-0.074811,0.508532
-0.181827,0.600955
-0.274097,0.596198
-0.227244,0.525290
-0.369635,0.593898
-0.445450,0.558536
-0.317995,0.514508
-0.514283,0.513840
-0.551558,0.407594
-0.577836,0.294528
-0.388479,0.472840
-0.445529,0.352749
-0.492639,0.223136
-0.601568,0.183155
-0.599833,0.090299
-0.536967,0.091424
-0.605816,-0.000000
-0.599833,-0.090299
-0.545270,-0.000000
-0.601568,-0.183155
-0.577836,-0.294528
-0.551558,-0.407594
-0.536967,-0.091424
-0.492639,-0.223136
-0.445529,-0.352749
-0.514283,-0.513840
-0.445450,-0.558536
-0.388479,-0.472840
-0.369635,-0.593898
-0.274097,-0.596198
-0.317995,-0.514508
-0.181827,-0.600955
-0.059816,-0.586267
0.059816,-0.586267
-0.227244,-0.525290
-0.074811,-0.508532
0.074811,-0.508532
0.181827,-0.600955
0.274097,-0.596198
0.227244,-0.525290
0.369635,-0.593898
0.445450,-0.558536
0.317995,-0.514508
0.514283,-0.513840
0.551558,-0.407594
0.577836,-0.294528
0.388479,-0.472840
0.445529,-0.352749
0.492639,-0.223136
0.601568,-0.183155
0.599833,-0.090299
0.536967,-0.091424
0.657572,0.000000
0.656243,0.132357
0.673749,0.273025
0.665953,0.415343
0.649031,0.559783
0.545967,0.632912
0.421144,0.677044
0.270617,0.664859
0.132808,0.662007
0.000000,0.651125
-0.132808,0.662007
-0.270617,0.664859
-0.421144,0.677044
-0.545967,0.632912
-0.649031,0.559783
-0.665953,0.415343
-0.673749,0.273025
-0.656243,0.132357
-0.657572,-0.000000
-0.656243,-0.132357
-0.673749,-0.273025
-0.665953,-0.415343
-0.649031,-0.559783
-0.545967,-0.632912
-0.421144,-0.677044
-0.270617,-0.664859
-0.132808,-0.662007
0.000000,-0.651125
0.132808,-0.662007
0.270617,-0.664859
0.421144,-0.677044
0.545967,-0.632912
0.649031,-0.559783
0.665953,-0.415343
0.673749,-0.273025
0.656243,-0.132357
0.690330,0.000000
0.692153,0.063523
0.698095,0.160214
0.718770,0.266422
0.729282,0.341367
0.734779,0.454673
0.736360,0.577471
0.716798,0.647002
0.638961,0.708164
0.535950,0.737282
0.457968,0.740921
0.378776,0.732297
0.263508,0.712225
0.161430,0.702363
0.095434,0.694687
0.000000,0.686155
-0.095434,0.694687
-0.161430,0.702363
-0.263508,0.712225
-0.378776,0.732297
-0.457968,0.740921
-0.535950,0.737282
-0.638961,0.708164
-0.716798,0.647002
-0.736360,0.577471
-0.734779,0.454673
-0.729282,0.341367
-0.718770,0.266422
-0.698095,0.160214
-0.692153,0.063523
-0.690330,-0.000000
-0.692153,-0.063523
-0.698095,-0.160214
-0.718770,-0.266422
-0.729282,-0.341367
-0.734779,-0.454673
-0.736360,-0.577471
-0.716798,-0.647002
-0.638961,-0.708164
-0.535950,-0.737282
-0.457968,-0.740921
-0.378776,-0.732297
-0.263508,-0.712225
-0.161430,-0.702363
-0.095434,-0.694687
0.000000,-0.686155
0.095434,-0.694687
0.161430,-0.702363
0.263508,-0.712225
0.378776,-0.732297
0.457968,-0.740921
0.535950,-0.737282
0.638961,-0.708164
0.716798,-0.647002
0.736360,-0.577471
0.734779,-0.454673
0.729282,-0.341367
0.718770,-0.266422
0.698095,-0.160214
0.692153,-0.063523
0.715170,0.000000
0.725420,0.119379
0.753947,0.251868
0.790985,0.405554
0.819455,0.581421
0.809629,0.759115
0.672586,0.822043
0.490272,0.806595
0.324816,0.770905
0.183337,0.737275
0.059105,0.717207
-0.059105,0.717207
-0.183337,0.737275
-0.324816,0.770905
-0.490272,0.806595
-0.672586,0.822043
-0.809629,0.759115
-0.819455,0.581421
-0.790985,0.405554
-0.753947,0.251868
-0.725420,0.119379
-0.715170,-0.000000
-0.725420,-0.119379
-0.753947,-0.251868
-0.790985,-0.405554
-0.819455,-0.581421
-0.809629,-0.759115
-0.672586,-0.822043
-0.490272,-0.806595
-0.324816,-0.770905
-0.183337,-0.737275
-0.059105,-0.717207
0.059105,-0.717207
0.183337,-0.737275
0.324816,-0.770905
0.490272,-0.806595
0.672586,-0.822043
0.809629,-0.759115
0.819455,-0.581421
0.790985,-0.405554
0.753947,-0.251868
0.725420,-0.119379
