0.624317, 0.000000,0.000000, 0.375683,-0.000000, -0.000000,0.624317,0.000000
0.000000, 0.375683,-0.624317, -0.000000,-0.000000, -0.000000,0.000000,0.375683
-0.624317, -0.000000,-0.000000, -0.375683,-0.000000, -0.000000,-0.624317,-0.000000
-0.000000, -0.375683,0.624317, 0.000000,-0.000000, -0.000000,-0.000000,-0.375683
0.989551, 0.000000,0.770834, 0.380124,0.624317, 0.000000,0.989551,0.000000
0.770834, 0.380124,0.369876, 0.528204,0.000000, 0.375683,0.624317, 0.000000,0.770834,0.380124
0.369876, 0.528204,0.000000, 0.510449,0.000000, 0.375683,0.369876,0.528204
0.000000, 0.510449,-0.369876, 0.528204,0.000000, 0.375683,0.000000,0.510449
-0.369876, 0.528204,-0.770834, 0.380124,-0.624317, -0.000000,0.000000, 0.375683,-0.369876,0.528204
-0.770834, 0.380124,-0.989551, -0.000000,-0.624317, -0.000000,-0.770834,0.380124
-0.989551, -0.000000,-0.770834, -0.380124,-0.624317, -0.000000,-0.989551,-0.000000
-0.770834, -0.380124,-0.369876, -0.528204,-0.000000, -0.375683,-0.624317, -0.000000,-0.770834,-0.380124
-0.369876, -0.528204,-0.000000, -0.510449,-0.000000, -0.375683,-0.369876,-0.528204
-0.000000, -0.510449,0.369876, -0.528204,-0.000000, -0.375683,-0.000000,-0.510449
0.369876, -0.528204,0.770834, -0.380124,0.624317, 0.000000,-0.000000, -0.375683,0.369876,-0.528204
0.770834, -0.380124,0.989551, 0.000000,0.624317, 0.000000,0.770834,-0.380124
1.199890, 0.000000,1.129848, 0.237136,0.989551, 0.000000,1.199890,0.000000
1.129848, 0.237136,0.957966, 0.424771,0.770834, 0.380124,0.989551, 0.000000,1.129848,0.237136
0.957966, 0.424771,0.750957, 0.550826,0.770834, 0.380124,0.957966,0.424771
0.750957, 0.550826,0.540281, 0.617249,0.369876, 0.528204,0.770834, 0.380124,0.750957,0.550826
0.540281, 0.617249,0.334525, 0.618729,0.369876, 0.528204,0.540281,0.617249
0.334525, 0.618729,0.152275, 0.576275,0.000000, 0.510449,0.369876, 0.528204,0.334525,0.618729
0.152275, 0.576275,0.000000, 0.550110,0.000000, 0.510449,0.152275,0.576275
0.000000, 0.550110,-0.152275, 0.576275,0.000000, 0.510449,0.000000,0.550110
-0.152275, 0.576275,-0.334525, 0.618729,-0.369876, 0.528204,0.000000, 0.510449,-0.152275,0.576275
-0.334525, 0.618729,-0.540281, 0.617249,-0.369876, 0.528204,-0.334525,0.618729
-0.540281, 0.617249,-0.750957, 0.550826,-0.770834, 0.380124,-0.369876, 0.528204,-0.540281,0.617249
-0.750957, 0.550826,-0.957966, 0.424771,-0.770834, 0.380124,-0.750957,0.550826
-0.957966, 0.424771,-1.129848, 0.237136,-0.989551, -0.000000,-0.770834, 0.380124,-0.957966,0.424771
-1.129848, 0.237136,-1.199890, -0.000000,-0.989551, -0.000000,-1.129848,0.237136
-1.199890, -0.000000,-1.129848, -0.237136,-0.989551, -0.000000,-1.199890,-0.000000
-1.129848, -0.237136,-0.957966, -0.424771,-0.770834, -0.380124,-0.989551, -0.000000,-1.129848,-0.237136
-0.957966, -0.424771,-0.750957, -0.550826,-0.770834, -0.380124,-0.957966,-0.424771
-0.750957, -0.550826,-0.540281, -0.617249,-0.369876, -0.528204,-0.770834, -0.380124,-0.750957,-0.550826
-0.540281, -0.617249,-0.334525, -0.618729,-0.369876, -0.528204,-0.540281,-0.617249
-0.334525, -0.618729,-0.152275, -0.576275,-0.000000, -0.510449,-0.369876, -0.528204,-0.334525,-0.618729
-0.152275, -0.576275,-0.000000, -0.550110,-0.000000, -0.510449,-0.152275,-0.576275
-0.000000, -0.550110,0.152275, -0.576275,-0.000000, -0.510449,-0.000000,-0.550110
0.152275, -0.576275,0.334525, -0.618729,0.369876, -0.528204,-0.000000, -0.510449,0.152275,-0.576275
0.334525, -0.618729,0.540281, -0.617249,0.369876, -0.528204,0.334525,-0.618729
0.540281, -0.617249,0.750957, -0.550826,0.770834, -0.380124,0.369876, -0.528204,0.540281,-0.617249
0.750957, -0.550826,0.957966, -0.424771,0.770834, -0.380124,0.750957,-0.550826
0.957966, -0.424771,1.129848, -0.237136,0.989551, 0.000000,0.770834, -0.380124,0.957966,-0.424771
1.129848, -0.237136,1.199890, 0.000000,0.989551, 0.000000,1.129848,-0.237136
1.315143, 0.000000,1.295359, 0.130295,1.199890, 0.000000,1.315143,0.000000
1.295359, 0.130295,1.239162, 0.252128,1.129848, 0.237136,1.199890, 0.000000,1.295359,0.130295
1.239162, 0.252128,1.155200, 0.359453,1.129848, 0.237136,1.239162,0.252128
1.155200, 0.359453,1.054385, 0.449819,0.957966, 0.424771,1.129848, 0.237136,1.155200,0.359453
1.054385, 0.449819,0.946538, 0.523894,0.957966, 0.424771,1.054385,0.449819
0.946538, 0.523894,0.837902, 0.583622,0.750957, 0.550826,0.957966, 0.424771,0.946538,0.523894
0.837902, 0.583622,0.730684, 0.630162,0.750957, 0.550826,0.837902,0.583622
0.730684, 0.630162,0.624458, 0.662713,0.540281, 0.617249,0.750957, 0.550826,0.730684,0.630162
0.624458, 0.662713,0.518475, 0.679005,0.540281, 0.617249,0.624458,0.662713
0.518475, 0.679005,0.413606, 0.677260,0.334525, 0.618729,0.540281, 0.617249,0.518475,0.679005
0.413606, 0.677260,0.312813, 0.658513,0.334525, 0.618729,0.413606,0.677260
0.312813, 0.658513,0.219954, 0.628031,0.152275, 0.576275,0.334525, 0.618729,0.312813,0.658513
0.219954, 0.628031,0.137706, 0.594865,0.152275, 0.576275,0.219954,0.628031
0.137706, 0.594865,0.065696, 0.569370,0.000000, 0.550110,0.152275, 0.576275,0.137706,0.594865
0.065696, 0.569370,0.000000, 0.559857,0.000000, 0.550110,0.065696,0.569370
0.000000, 0.559857,-0.065696, 0.569370,0.000000, 0.550110,0.000000,0.559857
-0.065696, 0.569370,-0.137706, 0.594865,-0.152275, 0.576275,0.000000, 0.550110,-0.065696,0.569370
-0.137706, 0.594865,-0.219954, 0.628031,-0.152275, 0.576275,-0.137706,0.594865
-0.219954, 0.628031,-0.312813, 0.658513,-0.334525, 0.618729,-0.152275, 0.576275,-0.219954,0.628031
-0.312813, 0.658513,-0.413606, 0.677260,-0.334525, 0.618729,-0.312813,0.658513
-0.413606, 0.677260,-0.518475, 0.679005,-0.540281, 0.617249,-0.334525, 0.618729,-0.413606,0.677260
-0.518475, 0.679005,-0.624458, 0.662713,-0.540281, 0.617249,-0.518475,0.679005
-0.624458, 0.662713,-0.730684, 0.630162,-0.750957, 0.550826,-0.540281, 0.617249,-0.624458,0.662713
-0.730684, 0.630162,-0.837902, 0.583622,-0.750957, 0.550826,-0.730684,0.630162
-0.837902, 0.583622,-0.946538, 0.523894,-0.957966, 0.424771,-0.750957, 0.550826,-0.837902,0.583622
-0.946538, 0.523894,-1.054385, 0.449819,-0.957966, 0.424771,-0.946538,0.523894
-1.054385, 0.449819,-1.155200, 0.359453,-1.129848, 0.237136,-0.957966, 0.424771,-1.054385,0.449819
-1.155200, 0.359453,-1.239162, 0.252128,-1.129848, 0.237136,-1.155200,0.359453
-1.239162, 0.252128,-1.295359, 0.130295,-1.199890, -0.000000,-1.129848, 0.237136,-1.239162,0.252128
-1.295359, 0.130295,-1.315143, -0.000000,-1.199890, -0.000000,-1.295359,0.130295
-1.315143, -0.000000,-1.295359, -0.130295,-1.199890, -0.000000,-1.315143,-0.000000
-1.295359, -0.130295,-1.239162, -0.252128,-1.129848, -0.237136,-1.199890, -0.000000,-1.295359,-0.130295
-1.239162, -0.252128,-1.155200, -0.359453,-1.129848, -0.237136,-1.239162,-0.252128
-1.155200, -0.359453,-1.054385, -0.449819,-0.957966, -0.424771,-1.129848, -0.237136,-1.155200,-0.359453
-1.054385, -0.449819,-0.946538, -0.523894,-0.957966, -0.424771,-1.054385,-0.449819
-0.946538, -0.523894,-0.837902, -0.583622,-0.750957, -0.550826,-0.957966, -0.424771,-0.946538,-0.523894
-0.837902, -0.583622,-0.730684, -0.630162,-0.750957, -0.550826,-0.837902,-0.583622
-0.730684, -0.630162,-0.624458, -0.662713,-0.540281, -0.617249,-0.750957, -0.550826,-0.730684,-0.630162
-0.624458, -0.662713,-0.518475, -0.679005,-0.540281, -0.617249,-0.624458,-0.662713
-0.518475, -0.679005,-0.413606, -0.677260,-0.334525, -0.618729,-0.540281, -0.617249,-0.518475,-0.679005
-0.413606, -0.677260,-0.312813, -0.658513,-0.334525, -0.618729,-0.413606,-0.677260
-0.312813, -0.658513,-0.219954, -0.628031,-0.152275, -0.576275,-0.334525, -0.618729,-0.312813,-0.658513
-0.219954, -0.628031,-0.137706, -0.594865,-0.152275, -0.576275,-0.219954,-0.628031
-0.137706, -0.594865,-0.065696, -0.569370,-0.000000, -0.550110,-0.152275, -0.576275,-0.137706,-0.594865
-0.065696, -0.569370,-0.000000, -0.559857,-0.000000, -0.550110,-0.065696,-0.569370
-0.000000, -0.559857,0.065696, -0.569370,-0.000000, -0.550110,-0.000000,-0.559857
0.065696, -0.569370,0.137706, -0.594865,0.152275, -0.576275,-0.000000, -0.550110,0.065696,-0.569370
0.137706, -0.594865,0.219954, -0.628031,0.152275, -0.576275,0.137706,-0.594865
0.219954, -0.628031,0.312813, -0.658513,0.334525, -0.618729,0.152275, -0.576275,0.219954,-0.628031
0.312813, -0.658513,0.413606, -0.677260,0.334525, -0.618729,0.312813,-0.658513
0.413606, -0.677260,0.518475, -0.679005,0.540281, -0.617249,0.334525, -0.618729,0.413606,-0.677260
0.518475, -0.679005,0.624458, -0.662713,0.540281, -0.617249,0.518475,-0.679005
0.624458, -0.662713,0.730684, -0.630162,0.750957, -0.550826,0.540281, -0.617249,0.624458,-0.662713
0.730684, -0.630162,0.837902, -0.583622,0.750957, -0.550826,0.730684,-0.630162
0.837902, -0.583622,0.946538, -0.523894,0.957966, -0.424771,0.750957, -0.550826,0.837902,-0.583622
0.946538, -0.523894,1.054385, -0.449819,0.957966, -0.424771,0.946538,-0.523894
1.054385, -0.449819,1.155200, -0.359453,1.129848, -0.237136,0.957966, -0.424771,1.054385,-0.449819
1.155200, -0.359453,1.239162, -0.252128,1.129848, -0.237136,1.155200,-0.359453
1.239162, -0.252128,1.295359, -0.130295,1.199890, 0.000000,1.129848, -0.237136,1.239162,-0.252128
1.295359, -0.130295,1.315143, 0.000000,1.199890, 0.000000,1.295359,-0.130295
1.376194, 0.000000,1.370974, 0.068029,1.315143, 0.000000,1.376194,0.000000
1.370974, 0.068029,1.355407, 0.134828,1.295359, 0.130295,1.315143, 0.000000,1.370974,0.068029
1.355407, 0.134828,1.330224, 0.199358,1.295359, 0.130295,1.355407,0.134828
1.330224, 0.199358,1.296456, 0.260641,1.239162, 0.252128,1.295359, 0.130295,1.330224,0.199358
1.296456, 0.260641,1.255386, 0.318021,1.239162, 0.252128,1.296456,0.260641
1.255386, 0.318021,1.208551, 0.371026,1.155200, 0.359453,1.239162, 0.252128,1.255386,0.318021
1.208551, 0.371026,1.157397, 0.419495,1.155200, 0.359453,1.208551,0.371026
1.157397, 0.419495,1.103460, 0.463484,1.054385, 0.449819,1.155200, 0.359453,1.157397,0.419495
1.103460, 0.463484,1.047929, 0.503205,1.054385, 0.449819,1.103460,0.463484
1.047929, 0.503205,0.991892, 0.539029,0.946538, 0.523894,1.054385, 0.449819,1.047929,0.503205
0.991892, 0.539029,0.936022, 0.571275,0.946538, 0.523894,0.991892,0.539029
0.936022, 0.571275,0.880760, 0.600287,0.837902, 0.583622,0.946538, 0.523894,0.936022,0.571275
0.880760, 0.600287,0.826258, 0.626230,0.837902, 0.583622,0.880760,0.600287
0.826258, 0.626230,0.772421, 0.649145,0.730684, 0.630162,0.837902, 0.583622,0.826258,0.626230
0.772421, 0.649145,0.719089, 0.668905,0.730684, 0.630162,0.772421,0.649145
0.719089, 0.668905,0.665968, 0.685197,0.624458, 0.662713,0.730684, 0.630162,0.719089,0.668905
0.665968, 0.685197,0.612889, 0.697673,0.624458, 0.662713,0.665968,0.685197
0.612889, 0.697673,0.559726, 0.705870,0.518475, 0.679005,0.624458, 0.662713,0.612889,0.697673
0.559726, 0.705870,0.506545, 0.709469,0.518475, 0.679005,0.559726,0.705870
0.506545, 0.709469,0.453593, 0.708226,0.413606, 0.677260,0.518475, 0.679005,0.506545,0.709469
0.453593, 0.708226,0.401243, 0.702154,0.413606, 0.677260,0.453593,0.708226
0.401243, 0.702154,0.350058, 0.691567,0.312813, 0.658513,0.413606, 0.677260,0.401243,0.702154
0.350058, 0.691567,0.300580, 0.677021,0.312813, 0.658513,0.350058,0.691567
0.300580, 0.677021,0.253409, 0.659498,0.219954, 0.628031,0.312813, 0.658513,0.300580,0.677021
0.253409, 0.659498,0.208990, 0.640094,0.219954, 0.628031,0.253409,0.659498
0.208990, 0.640094,0.167619, 0.620263,0.137706, 0.594865,0.219954, 0.628031,0.208990,0.640094
0.167619, 0.620263,0.129375, 0.601383,0.137706, 0.594865,0.167619,0.620263
0.129375, 0.601383,0.094033, 0.584934,0.065696, 0.569370,0.137706, 0.594865,0.129375,0.601383
0.094033, 0.584934,0.061185, 0.572152,0.065696, 0.569370,0.094033,0.584934
0.061185, 0.572152,0.030104, 0.564039,0.000000, 0.559857,0.065696, 0.569370,0.061185,0.572152
0.030104, 0.564039,0.000000, 0.561306,0.000000, 0.559857,0.030104,0.564039
0.000000, 0.561306,-0.030104, 0.564039,0.000000, 0.559857,0.000000,0.561306
-0.030104, 0.564039,-0.061185, 0.572152,-0.065696, 0.569370,0.000000, 0.559857,-0.030104,0.564039
-0.061185, 0.572152,-0.094033, 0.584934,-0.065696, 0.569370,-0.061185,0.572152
-0.094033, 0.584934,-0.129375, 0.601383,-0.137706, 0.594865,-0.065696, 0.569370,-0.094033,0.584934
-0.129375, 0.601383,-0.167619, 0.620263,-0.137706, 0.594865,-0.129375,0.601383
-0.167619, 0.620263,-0.208990, 0.640094,-0.219954, 0.628031,-0.137706, 0.594865,-0.167619,0.620263
-0.208990, 0.640094,-0.253409, 0.659498,-0.219954, 0.628031,-0.208990,0.640094
-0.253409, 0.659498,-0.300580, 0.677021,-0.312813, 0.658513,-0.219954, 0.628031,-0.253409,0.659498
-0.300580, 0.677021,-0.350058, 0.691567,-0.312813, 0.658513,-0.300580,0.677021
-0.350058, 0.691567,-0.401243, 0.702154,-0.413606, 0.677260,-0.312813, 0.658513,-0.350058,0.691567
-0.401243, 0.702154,-0.453593, 0.708226,-0.413606, 0.677260,-0.401243,0.702154
-0.453593, 0.708226,-0.506545, 0.709469,-0.518475, 0.679005,-0.413606, 0.677260,-0.453593,0.708226
-0.506545, 0.709469,-0.559726, 0.705870,-0.518475, 0.679005,-0.506545,0.709469
-0.559726, 0.705870,-0.612889, 0.697673,-0.624458, 0.662713,-0.518475, 0.679005,-0.559726,0.705870
-0.612889, 0.697673,-0.665968, 0.685197,-0.624458, 0.662713,-0.612889,0.697673
-0.665968, 0.685197,-0.719089, 0.668905,-0.730684, 0.630162,-0.624458, 0.662713,-0.665968,0.685197
-0.719089, 0.668905,-0.772421, 0.649145,-0.730684, 0.630162,-0.719089,0.668905
-0.772421, 0.649145,-0.826258, 0.626230,-0.837902, 0.583622,-0.730684, 0.630162,-0.772421,0.649145
-0.826258, 0.626230,-0.880760, 0.600287,-0.837902, 0.583622,-0.826258,0.626230
-0.880760, 0.600287,-0.936022, 0.571275,-0.946538, 0.523894,-0.837902, 0.583622,-0.880760,0.600287
-0.936022, 0.571275,-0.991892, 0.539029,-0.946538, 0.523894,-0.936022,0.571275
-0.991892, 0.539029,-1.047929, 0.503205,-1.054385, 0.449819,-0.946538, 0.523894,-0.991892,0.539029
-1.047929, 0.503205,-1.103460, 0.463484,-1.054385, 0.449819,-1.047929,0.503205
-1.103460, 0.463484,-1.157397, 0.419495,-1.155200, 0.359453,-1.054385, 0.449819,-1.103460,0.463484
-1.157397, 0.419495,-1.208551, 0.371026,-1.155200, 0.359453,-1.157397,0.419495
-1.208551, 0.371026,-1.255386, 0.318021,-1.239162, 0.252128,-1.155200, 0.359453,-1.208551,0.371026
-1.255386, 0.318021,-1.296456, 0.260641,-1.239162, 0.252128,-1.255386,0.318021
-1.296456, 0.260641,-1.330224, 0.199358,-1.295359, 0.130295,-1.239162, 0.252128,-1.296456,0.260641
-1.330224, 0.199358,-1.355407, 0.134828,-1.295359, 0.130295,-1.330224,0.199358
-1.355407, 0.134828,-1.370974, 0.068029,-1.315143, -0.000000,-1.295359, 0.130295,-1.355407,0.134828
-1.370974, 0.068029,-1.376194, -0.000000,-1.315143, -0.000000,-1.370974,0.068029
-1.376194, -0.000000,-1.370974, -0.068029,-1.315143, -0.000000,-1.376194,-0.000000
-1.370974, -0.068029,-1.355407, -0.134828,-1.295359, -0.130295,-1.315143, -0.000000,-1.370974,-0.068029
-1.355407, -0.134828,-1.330224, -0.199358,-1.295359, -0.130295,-1.355407,-0.134828
-1.330224, -0.199358,-1.296456, -0.260641,-1.239162, -0.252128,-1.295359, -0.130295,-1.330224,-0.199358
-1.296456, -0.260641,-1.255386, -0.318021,-1.239162, -0.252128,-1.296456,-0.260641
-1.255386, -0.318021,-1.208551, -0.371026,-1.155200, -0.359453,-1.239162, -0.252128,-1.255386,-0.318021
-1.208551, -0.371026,-1.157397, -0.419495,-1.155200, -0.359453,-1.208551,-0.371026
-1.157397, -0.419495,-1.103460, -0.463484,-1.054385, -0.449819,-1.155200, -0.359453,-1.157397,-0.419495
-1.103460, -0.463484,-1.047929, -0.503205,-1.054385, -0.449819,-1.103460,-0.463484
-1.047929, -0.503205,-0.991892, -0.539029,-0.946538, -0.523894,-1.054385, -0.449819,-1.047929,-0.503205
-0.991892, -0.539029,-0.936022, -0.571275,-0.946538, -0.523894,-0.991892,-0.539029
-0.936022, -0.571275,-0.880760, -0.600287,-0.837902, -0.583622,-0.946538, -0.523894,-0.936022,-0.571275
-0.880760, -0.600287,-0.826258, -0.626230,-0.837902, -0.583622,-0.880760,-0.600287
-0.826258, -0.626230,-0.772421, -0.649145,-0.730684, -0.630162,-0.837902, -0.583622,-0.826258,-0.626230
-0.772421, -0.649145,-0.719089, -0.668905,-0.730684, -0.630162,-0.772421,-0.649145
-0.719089, -0.668905,-0.665968, -0.685197,-0.624458, -0.662713,-0.730684, -0.630162,-0.719089,-0.668905
-0.665968, -0.685197,-0.612889, -0.697673,-0.624458, -0.662713,-0.665968,-0.685197
-0.612889, -0.697673,-0.559726, -0.705870,-0.518475, -0.679005,-0.624458, -0.662713,-0.612889,-0.697673
-0.559726, -0.705870,-0.506545, -0.709469,-0.518475, -0.679005,-0.559726,-0.705870
-0.506545, -0.709469,-0.453593, -0.708226,-0.413606, -0.677260,-0.518475, -0.679005,-0.506545,-0.709469
-0.453593, -0.708226,-0.401243, -0.702154,-0.413606, -0.677260,-0.453593,-0.708226
-0.401243, -0.702154,-0.350058, -0.691567,-0.312813, -0.658513,-0.413606, -0.677260,-0.401243,-0.702154
-0.350058, -0.691567,-0.300580, -0.677021,-0.312813, -0.658513,-0.350058,-0.691567
-0.300580, -0.677021,-0.253409, -0.659498,-0.219954, -0.628031,-0.312813, -0.658513,-0.300580,-0.677021
-0.253409, -0.659498,-0.208990, -0.640094,-0.219954, -0.628031,-0.253409,-0.659498
-0.208990, -0.640094,-0.167619, -0.620263,-0.137706, -0.594865,-0.219954, -0.628031,-0.208990,-0.640094
-0.167619, -0.620263,-0.129375, -0.601383,-0.137706, -0.594865,-0.167619,-0.620263
-0.129375, -0.601383,-0.094033, -0.584934,-0.065696, -0.569370,-0.137706, -0.594865,-0.129375,-0.601383
-0.094033, -0.584934,-0.061185, -0.572152,-0.065696, -0.569370,-0.094033,-0.584934
-0.061185, -0.572152,-0.030104, -0.564039,-0.000000, -0.559857,-0.065696, -0.569370,-0.061185,-0.572152
-0.030104, -0.564039,-0.000000, -0.561306,-0.000000, -0.559857,-0.030104,-0.564039
-0.000000, -0.561306,0.030104, -0.564039,-0.000000, -0.559857,-0.000000,-0.561306
0.030104, -0.564039,0.061185, -0.572152,0.065696, -0.569370,-0.000000, -0.559857,0.030104,-0.564039
0.061185, -0.572152,0.094033, -0.584934,0.065696, -0.569370,0.061185,-0.572152
0.094033, -0.584934,0.129375, -0.601383,0.137706, -0.594865,0.065696, -0.569370,0.094033,-0.584934
0.129375, -0.601383,0.167619, -0.620263,0.137706, -0.594865,0.129375,-0.601383
0.167619, -0.620263,0.208990, -0.640094,0.219954, -0.628031,0.137706, -0.594865,0.167619,-0.620263
0.208990, -0.640094,0.253409, -0.659498,0.219954, -0.628031,0.208990,-0.640094
0.253409, -0.659498,0.300580, -0.677021,0.312813, -0.658513,0.219954, -0.628031,0.253409,-0.659498
0.300580, -0.677021,0.350058, -0.691567,0.312813, -0.658513,0.300580,-0.677021
0.350058, -0.691567,0.401243, -0.702154,0.413606, -0.677260,0.312813, -0.658513,0.350058,-0.691567
0.401243, -0.702154,0.453593, -0.708226,0.413606, -0.677260,0.401243,-0.702154
0.453593, -0.708226,0.506545, -0.709469,0.518475, -0.679005,0.413606, -0.677260,0.453593,-0.708226
0.506545, -0.709469,0.559726, -0.705870,0.518475, -0.679005,0.506545,-0.709469
0.559726, -0.705870,0.612889, -0.697673,0.624458, -0.662713,0.518475, -0.679005,0.559726,-0.705870
0.612889, -0.697673,0.665968, -0.685197,0.624458, -0.662713,0.612889,-0.697673
0.665968, -0.685197,0.719089, -0.668905,0.730684, -0.630162,0.624458, -0.662713,0.665968,-0.685197
0.719089, -0.668905,0.772421, -0.649145,0.730684, -0.630162,0.719089,-0.668905
0.772421, -0.649145,0.826258, -0.626230,0.837902, -0.583622,0.730684, -0.630162,0.772421,-0.649145
0.826258, -0.626230,0.880760, -0.600287,0.837902, -0.583622,0.826258,-0.626230
0.880760, -0.600287,0.936022, -0.571275,0.946538, -0.523894,0.837902, -0.583622,0.880760,-0.600287
0.936022, -0.571275,0.991892, -0.539029,0.946538, -0.523894,0.936022,-0.571275
0.991892, -0.539029,1.047929, -0.503205,1.054385, -0.449819,0.946538, -0.523894,0.991892,-0.539029
1.047929, -0.503205,1.103460, -0.463484,1.054385, -0.449819,1.047929,-0.503205
1.103460, -0.463484,1.157397, -0.419495,1.155200, -0.359453,1.054385, -0.449819,1.103460,-0.463484
1.157397, -0.419495,1.208551, -0.371026,1.155200, -0.359453,1.157397,-0.419495
1.208551, -0.371026,1.255386, -0.318021,1.239162, -0.252128,1.155200, -0.359453,1.208551,-0.371026
1.255386, -0.318021,1.296456, -0.260641,1.239162, -0.252128,1.255386,-0.318021
1.296456, -0.260641,1.330224, -0.199358,1.295359, -0.130295,1.239162, -0.252128,1.296456,-0.260641
1.330224, -0.199358,1.355407, -0.134828,1.295359, -0.130295,1.330224,-0.199358
1.355407, -0.134828,1.370974, -0.068029,1.315143, 0.000000,1.295359, -0.130295,1.355407,-0.134828
1.370974, -0.068029,1.376194, 0.000000,1.315143, 0.000000,1.370974,-0.068029
1.439058, 0.000000,1.433536, 0.070425,1.376194, 0.000000,1.439058,0.000000
1.433536, 0.070425,1.370974, 0.068029,1.376194, 0.000000,1.433536,0.070425
1.433536, 0.070425,1.417209, 0.139583,1.370974, 0.068029,1.433536,0.070425
1.417209, 0.139583,1.355407, 0.134828,1.370974, 0.068029,1.417209,0.139583
1.417209, 0.139583,1.390773, 0.206302,1.355407, 0.134828,1.417209,0.139583
1.390773, 0.206302,1.330224, 0.199358,1.355407, 0.134828,1.390773,0.206302
1.390773, 0.206302,1.355323, 0.269591,1.330224, 0.199358,1.390773,0.206302
1.355323, 0.269591,1.296456, 0.260641,1.330224, 0.199358,1.355323,0.269591
1.355323, 0.269591,1.312255, 0.328703,1.296456, 0.260641,1.355323,0.269591
1.312255, 0.328703,1.255386, 0.318021,1.296456, 0.260641,1.312255,0.328703
1.312255, 0.328703,1.263153, 0.383173,1.255386, 0.318021,1.312255,0.328703
1.263153, 0.383173,1.208551, 0.371026,1.255386, 0.318021,1.263153,0.383173
1.263153, 0.383173,1.209658, 0.432823,1.208551, 0.371026,1.263153,0.383173
1.209658, 0.432823,1.157397, 0.419495,1.208551, 0.371026,1.209658,0.432823
1.209658, 0.432823,1.153343, 0.477730,1.157397, 0.419495,1.209658,0.432823
1.153343, 0.477730,1.103460, 0.463484,1.157397, 0.419495,1.153343,0.477730
1.153343, 0.477730,1.095599, 0.518180,1.103460, 0.463484,1.153343,0.477730
1.095599, 0.518180,1.047929, 0.503205,1.103460, 0.463484,1.095599,0.518180
1.095599, 0.518180,1.037556, 0.554585,1.047929, 0.503205,1.095599,0.518180
1.037556, 0.554585,0.991892, 0.539029,1.047929, 0.503205,1.037556,0.554585
1.037556, 0.554585,0.980023, 0.587403,0.991892, 0.539029,1.037556,0.554585
0.980023, 0.587403,0.936022, 0.571275,0.991892, 0.539029,0.980023,0.587403
0.980023, 0.587403,0.923476, 0.617047,0.936022, 0.571275,0.980023,0.587403
0.923476, 0.617047,0.880760, 0.600287,0.936022, 0.571275,0.923476,0.617047
0.923476, 0.617047,0.868080, 0.643812,0.880760, 0.600287,0.923476,0.617047
0.868080, 0.643812,0.826258, 0.626230,0.880760, 0.600287,0.868080,0.643812
0.868080, 0.643812,0.813746, 0.667824,0.826258, 0.626230,0.868080,0.643812
0.813746, 0.667824,0.772421, 0.649145,0.826258, 0.626230,0.813746,0.667824
0.813746, 0.667824,0.760206, 0.689010,0.772421, 0.649145,0.813746,0.667824
0.760206, 0.689010,0.719089, 0.668905,0.772421, 0.649145,0.760206,0.689010
0.760206, 0.689010,0.707107, 0.707107,0.719089, 0.668905,0.760206,0.689010
0.707107, 0.707107,0.665968, 0.685197,0.719089, 0.668905,0.707107,0.707107
0.707107, 0.707107,0.654107, 0.721696,0.665968, 0.685197,0.707107,0.707107
0.654107, 0.721696,0.612889, 0.697673,0.665968, 0.685197,0.654107,0.721696
0.654107, 0.721696,0.600962, 0.732275,0.612889, 0.697673,0.654107,0.721696
0.600962, 0.732275,0.559726, 0.705870,0.612889, 0.697673,0.600962,0.732275
0.600962, 0.732275,0.547586, 0.738335,0.559726, 0.705870,0.600962,0.732275
0.547586, 0.738335,0.506545, 0.709469,0.559726, 0.705870,0.547586,0.738335
0.547586, 0.738335,0.494094, 0.739464,0.506545, 0.709469,0.547586,0.738335
0.494094, 0.739464,0.453593, 0.708226,0.506545, 0.709469,0.494094,0.739464
0.494094, 0.739464,0.440802, 0.735434,0.453593, 0.708226,0.494094,0.739464
0.440802, 0.735434,0.401243, 0.702154,0.453593, 0.708226,0.440802,0.735434
0.440802, 0.735434,0.388208, 0.726286,0.401243, 0.702154,0.440802,0.735434
0.388208, 0.726286,0.350058, 0.691567,0.401243, 0.702154,0.388208,0.726286
0.388208, 0.726286,0.336930, 0.712379,0.350058, 0.691567,0.388208,0.726286
0.336930, 0.712379,0.300580, 0.677021,0.350058, 0.691567,0.336930,0.712379
0.336930, 0.712379,0.287637, 0.694417,0.300580, 0.677021,0.336930,0.712379
0.287637, 0.694417,0.253409, 0.659498,0.300580, 0.677021,0.287637,0.694417
0.287637, 0.694417,0.240957, 0.673430,0.253409, 0.659498,0.287637,0.694417
0.240957, 0.673430,0.208990, 0.640094,0.253409, 0.659498,0.240957,0.673430
0.240957, 0.673430,0.197396, 0.650727,0.208990, 0.640094,0.240957,0.673430
0.197396, 0.650727,0.167619, 0.620263,0.208990, 0.640094,0.197396,0.650727
0.197396, 0.650727,0.157257, 0.627807,0.167619, 0.620263,0.197396,0.650727
0.157257, 0.627807,0.129375, 0.601383,0.167619, 0.620263,0.157257,0.627807
0.157257, 0.627807,0.120590, 0.606247,0.129375, 0.601383,0.157257,0.627807
0.120590, 0.606247,0.094033, 0.584934,0.129375, 0.601383,0.120590,0.606247
0.120590, 0.606247,0.087159, 0.587580,0.094033, 0.584934,0.120590,0.606247
0.087159, 0.587580,0.061185, 0.572152,0.094033, 0.584934,0.087159,0.587580
0.087159, 0.587580,0.056451, 0.573160,0.061185, 0.572152,0.087159,0.587580
0.056451, 0.573160,0.030104, 0.564039,0.061185, 0.572152,0.056451,0.573160
0.056451, 0.573160,0.027710, 0.564055,0.030104, 0.564039,0.056451,0.573160
0.027710, 0.564055,0.000000, 0.561306,0.030104, 0.564039,0.027710,0.564055
0.027710, 0.564055,0.000000, 0.560942,0.000000, 0.561306,0.027710,0.564055
0.000000, 0.560942,-0.027710, 0.564055,0.000000, 0.561306,0.000000,0.560942
-0.027710, 0.564055,-0.030104, 0.564039,0.000000, 0.561306,-0.027710,0.564055
-0.027710, 0.564055,-0.056451, 0.573160,-0.030104, 0.564039,-0.027710,0.564055
-0.056451, 0.573160,-0.061185, 0.572152,-0.030104, 0.564039,-0.056451,0.573160
-0.056451, 0.573160,-0.087159, 0.587580,-0.061185, 0.572152,-0.056451,0.573160
-0.087159, 0.587580,-0.094033, 0.584934,-0.061185, 0.572152,-0.087159,0.587580
-0.087159, 0.587580,-0.120590, 0.606247,-0.094033, 0.584934,-0.087159,0.587580
-0.120590, 0.606247,-0.129375, 0.601383,-0.094033, 0.584934,-0.120590,0.606247
-0.120590, 0.606247,-0.157257, 0.627807,-0.129375, 0.601383,-0.120590,0.606247
-0.157257, 0.627807,-0.167619, 0.620263,-0.129375, 0.601383,-0.157257,0.627807
-0.157257, 0.627807,-0.197396, 0.650727,-0.167619, 0.620263,-0.157257,0.627807
-0.197396, 0.650727,-0.208990, 0.640094,-0.167619, 0.620263,-0.197396,0.650727
-0.197396, 0.650727,-0.240957, 0.673430,-0.208990, 0.640094,-0.197396,0.650727
-0.240957, 0.673430,-0.253409, 0.659498,-0.208990, 0.640094,-0.240957,0.673430
-0.240957, 0.673430,-0.287637, 0.694417,-0.253409, 0.659498,-0.240957,0.673430
-0.287637, 0.694417,-0.300580, 0.677021,-0.253409, 0.659498,-0.287637,0.694417
-0.287637, 0.694417,-0.336930, 0.712379,-0.300580, 0.677021,-0.287637,0.694417
-0.336930, 0.712379,-0.350058, 0.691567,-0.300580, 0.677021,-0.336930,0.712379
-0.336930, 0.712379,-0.388208, 0.726286,-0.350058, 0.691567,-0.336930,0.712379
-0.388208, 0.726286,-0.401243, 0.702154,-0.350058, 0.691567,-0.388208,0.726286
-0.388208, 0.726286,-0.440802, 0.735434,-0.401243, 0.702154,-0.388208,0.726286
-0.440802, 0.735434,-0.453593, 0.708226,-0.401243, 0.702154,-0.440802,0.735434
-0.440802, 0.735434,-0.494094, 0.739464,-0.453593, 0.708226,-0.440802,0.735434
-0.494094, 0.739464,-0.506545, 0.709469,-0.453593, 0.708226,-0.494094,0.739464
-0.494094, 0.739464,-0.547586, 0.738335,-0.506545, 0.709469,-0.494094,0.739464
-0.547586, 0.738335,-0.559726, 0.705870,-0.506545, 0.709469,-0.547586,0.738335
-0.547586, 0.738335,-0.600962, 0.732275,-0.559726, 0.705870,-0.547586,0.738335
-0.600962, 0.732275,-0.612889, 0.697673,-0.559726, 0.705870,-0.600962,0.732275
-0.600962, 0.732275,-0.654107, 0.721696,-0.612889, 0.697673,-0.600962,0.732275
-0.654107, 0.721696,-0.665968, 0.685197,-0.612889, 0.697673,-0.654107,0.721696
-0.654107, 0.721696,-0.707107, 0.707107,-0.665968, 0.685197,-0.654107,0.721696
-0.707107, 0.707107,-0.719089, 0.668905,-0.665968, 0.685197,-0.707107,0.707107
-0.707107, 0.707107,-0.760206, 0.689010,-0.719089, 0.668905,-0.707107,0.707107
-0.760206, 0.689010,-0.772421, 0.649145,-0.719089, 0.668905,-0.760206,0.689010
-0.760206, 0.689010,-0.813746, 0.667824,-0.772421, 0.649145,-0.760206,0.689010
-0.813746, 0.667824,-0.826258, 0.626230,-0.772421, 0.649145,-0.813746,0.667824
-0.813746, 0.667824,-0.868080, 0.643812,-0.826258, 0.626230,-0.813746,0.667824
-0.868080, 0.643812,-0.880760, 0.600287,-0.826258, 0.626230,-0.868080,0.643812
-0.868080, 0.643812,-0.923476, 0.617047,-0.880760, 0.600287,-0.868080,0.643812
-0.923476, 0.617047,-0.936022, 0.571275,-0.880760, 0.600287,-0.923476,0.617047
-0.923476, 0.617047,-0.980023, 0.587403,-0.936022, 0.571275,-0.923476,0.617047
-0.980023, 0.587403,-0.991892, 0.539029,-0.936022, 0.571275,-0.980023,0.587403
-0.980023, 0.587403,-1.037556, 0.554585,-0.991892, 0.539029,-0.980023,0.587403
-1.037556, 0.554585,-1.047929, 0.503205,-0.991892, 0.539029,-1.037556,0.554585
-1.037556, 0.554585,-1.095599, 0.518180,-1.047929, 0.503205,-1.037556,0.554585
-1.095599, 0.518180,-1.103460, 0.463484,-1.047929, 0.503205,-1.095599,0.518180
-1.095599, 0.518180,-1.153343, 0.477730,-1.103460, 0.463484,-1.095599,0.518180
-1.153343, 0.477730,-1.157397, 0.419495,-1.103460, 0.463484,-1.153343,0.477730
-1.153343, 0.477730,-1.209658, 0.432823,-1.157397, 0.419495,-1.153343,0.477730
-1.209658, 0.432823,-1.208551, 0.371026,-1.157397, 0.419495,-1.209658,0.432823
-1.209658, 0.432823,-1.263153, 0.383173,-1.208551, 0.371026,-1.209658,0.432823
-1.263153, 0.383173,-1.255386, 0.318021,-1.208551, 0.371026,-1.263153,0.383173
-1.263153, 0.383173,-1.312255, 0.328703,-1.255386, 0.318021,-1.263153,0.383173
-1.312255, 0.328703,-1.296456, 0.260641,-1.255386, 0.318021,-1.312255,0.328703
-1.312255, 0.328703,-1.355323, 0.269591,-1.296456, 0.260641,-1.312255,0.328703
-1.355323, 0.269591,-1.330224, 0.199358,-1.296456, 0.260641,-1.355323,0.269591
-1.355323, 0.269591,-1.390773, 0.206302,-1.330224, 0.199358,-1.355323,0.269591
-1.390773, 0.206302,-1.355407, 0.134828,-1.330224, 0.199358,-1.390773,0.206302
-1.390773, 0.206302,-1.417209, 0.139583,-1.355407, 0.134828,-1.390773,0.206302
-1.417209, 0.139583,-1.370974, 0.068029,-1.355407, 0.134828,-1.417209,0.139583
-1.417209, 0.139583,-1.433536, 0.070425,-1.370974, 0.068029,-1.417209,0.139583
-1.433536, 0.070425,-1.376194, -0.000000,-1.370974, 0.068029,-1.433536,0.070425
-1.433536, 0.070425,-1.439058, 0.000000,-1.376194, -0.000000,-1.433536,0.070425
-1.439058, 0.000000,-1.433536, -0.070425,-1.376194, -0.000000,-1.439058,0.000000
-1.433536, -0.070425,-1.370974, -0.068029,-1.376194, -0.000000,-1.433536,-0.070425
-1.433536, -0.070425,-1.417209, -0.139583,-1.370974, -0.068029,-1.433536,-0.070425
-1.417209, -0.139583,-1.355407, -0.134828,-1.370974, -0.068029,-1.417209,-0.139583
-1.417209, -0.139583,-1.390773, -0.206302,-1.355407, -0.134828,-1.417209,-0.139583
-1.390773, -0.206302,-1.330224, -0.199358,-1.355407, -0.134828,-1.390773,-0.206302
-1.390773, -0.206302,-1.355323, -0.269591,-1.330224, -0.199358,-1.390773,-0.206302
-1.355323, -0.269591,-1.296456, -0.260641,-1.330224, -0.199358,-1.355323,-0.269591
-1.355323, -0.269591,-1.312255, -0.328703,-1.296456, -0.260641,-1.355323,-0.269591
-1.312255, -0.328703,-1.255386, -0.318021,-1.296456, -0.260641,-1.312255,-0.328703
-1.312255, -0.328703,-1.263153, -0.383173,-1.255386, -0.318021,-1.312255,-0.328703
-1.263153, -0.383173,-1.208551, -0.371026,-1.255386, -0.318021,-1.263153,-0.383173
-1.263153, -0.383173,-1.209658, -0.432823,-1.208551, -0.371026,-1.263153,-0.383173
-1.209658, -0.432823,-1.157397, -0.419495,-1.208551, -0.371026,-1.209658,-0.432823
-1.209658, -0.432823,-1.153343, -0.477730,-1.157397, -0.419495,-1.209658,-0.432823
-1.153343, -0.477730,-1.103460, -0.463484,-1.157397, -0.419495,-1.153343,-0.477730
-1.153343, -0.477730,-1.095599, -0.518180,-1.103460, -0.463484,-1.153343,-0.477730
-1.095599, -0.518180,-1.047929, -0.503205,-1.103460, -0.463484,-1.095599,-0.518180
-1.095599, -0.518180,-1.037556, -0.554585,-1.047929, -0.503205,-1.095599,-0.518180
-1.037556, -0.554585,-0.991892, -0.539029,-1.047929, -0.503205,-1.037556,-0.554585
-1.037556, -0.554585,-0.980023, -0.587403,-0.991892, -0.539029,-1.037556,-0.554585
-0.980023, -0.587403,-0.936022, -0.571275,-0.991892, -0.539029,-0.980023,-0.587403
-0.980023, -0.587403,-0.923476, -0.617047,-0.936022, -0.571275,-0.980023,-0.587403
-0.923476, -0.617047,-0.880760, -0.600287,-0.936022, -0.571275,-0.923476,-0.617047
-0.923476, -0.617047,-0.868080, -0.643812,-0.880760, -0.600287,-0.923476,-0.617047
-0.868080, -0.643812,-0.826258, -0.626230,-0.880760, -0.600287,-0.868080,-0.643812
-0.868080, -0.643812,-0.813746, -0.667824,-0.826258, -0.626230,-0.868080,-0.643812
-0.813746, -0.667824,-0.772421, -0.649145,-0.826258, -0.626230,-0.813746,-0.667824
-0.813746, -0.667824,-0.760206, -0.689010,-0.772421, -0.649145,-0.813746,-0.667824
-0.760206, -0.689010,-0.719089, -0.668905,-0.772421, -0.649145,-0.760206,-0.689010
-0.760206, -0.689010,-0.707107, -0.707107,-0.719089, -0.668905,-0.760206,-0.689010
-0.707107, -0.707107,-0.665968, -0.685197,-0.719089, -0.668905,-0.707107,-0.707107
-0.707107, -0.707107,-0.654107, -0.721696,-0.665968, -0.685197,-0.707107,-0.707107
-0.654107, -0.721696,-0.612889, -0.697673,-0.665968, -0.685197,-0.654107,-0.721696
-0.654107, -0.721696,-0.600962, -0.732275,-0.612889, -0.697673,-0.654107,-0.721696
-0.600962, -0.732275,-0.559726, -0.705870,-0.612889, -0.697673,-0.600962,-0.732275
-0.600962, -0.732275,-0.547586, -0.738335,-0.559726, -0.705870,-0.600962,-0.732275
-0.547586, -0.738335,-0.506545, -0.709469,-0.559726, -0.705870,-0.547586,-0.738335
-0.547586, -0.738335,-0.494094, -0.739464,-0.506545, -0.709469,-0.547586,-0.738335
-0.494094, -0.739464,-0.453593, -0.708226,-0.506545, -0.709469,-0.494094,-0.739464
-0.494094, -0.739464,-0.440802, -0.735434,-0.453593, -0.708226,-0.494094,-0.739464
-0.440802, -0.735434,-0.401243, -0.702154,-0.453593, -0.708226,-0.440802,-0.735434
-0.440802, -0.735434,-0.388208, -0.726286,-0.401243, -0.702154,-0.440802,-0.735434
-0.388208, -0.726286,-0.350058, -0.691567,-0.401243, -0.702154,-0.388208,-0.726286
-0.388208, -0.726286,-0.336930, -0.712379,-0.350058, -0.691567,-0.388208,-0.726286
-0.336930, -0.712379,-0.300580, -0.677021,-0.350058, -0.691567,-0.336930,-0.712379
-0.336930, -0.712379,-0.287637, -0.694417,-0.300580, -0.677021,-0.336930,-0.712379
-0.287637, -0.694417,-0.253409, -0.659498,-0.300580, -0.677021,-0.287637,-0.694417
-0.287637, -0.694417,-0.240957, -0.673430,-0.253409, -0.659498,-0.287637,-0.694417
-0.240957, -0.673430,-0.208990, -0.640094,-0.253409, -0.659498,-0.240957,-0.673430
-0.240957, -0.673430,-0.197396, -0.650727,-0.208990, -0.640094,-0.240957,-0.673430
-0.197396, -0.650727,-0.167619, -0.620263,-0.208990, -0.640094,-0.197396,-0.650727
-0.197396, -0.650727,-0.157257, -0.627807,-0.167619, -0.620263,-0.197396,-0.650727
-0.157257, -0.627807,-0.129375, -0.601383,-0.167619, -0.620263,-0.157257,-0.627807
-0.157257, -0.627807,-0.120590, -0.606247,-0.129375, -0.601383,-0.157257,-0.627807
-0.120590, -0.606247,-0.094033, -0.584934,-0.129375, -0.601383,-0.120590,-0.606247
-0.120590, -0.606247,-0.087159, -0.587580,-0.094033, -0.584934,-0.120590,-0.606247
-0.087159, -0.587580,-0.061185, -0.572152,-0.094033, -0.584934,-0.087159,-0.587580
-0.087159, -0.587580,-0.056451, -0.573160,-0.061185, -0.572152,-0.087159,-0.587580
-0.056451, -0.573160,-0.030104, -0.564039,-0.061185, -0.572152,-0.056451,-0.573160
-0.056451, -0.573160,-0.027710, -0.564055,-0.030104, -0.564039,-0.056451,-0.573160
-0.027710, -0.564055,-0.000000, -0.561306,-0.030104, -0.564039,-0.027710,-0.564055
-0.027710, -0.564055,-0.000000, -0.560942,-0.000000, -0.561306,-0.027710,-0.564055
-0.000000, -0.560942,0.027710, -0.564055,-0.000000, -0.561306,-0.000000,-0.560942
0.027710, -0.564055,0.030104, -0.564039,-0.000000, -0.561306,0.027710,-0.564055
0.027710, -0.564055,0.056451, -0.573160,0.030104, -0.564039,0.027710,-0.564055
0.056451, -0.573160,0.061185, -0.572152,0.030104, -0.564039,0.056451,-0.573160
0.056451, -0.573160,0.087159, -0.587580,0.061185, -0.572152,0.056451,-0.573160
0.087159, -0.587580,0.094033, -0.584934,0.061185, -0.572152,0.087159,-0.587580
0.087159, -0.587580,0.120590, -0.606247,0.094033, -0.584934,0.087159,-0.587580
0.120590, -0.606247,0.129375, -0.601383,0.094033, -0.584934,0.120590,-0.606247
0.120590, -0.606247,0.157257, -0.627807,0.129375, -0.601383,0.120590,-0.606247
0.157257, -0.627807,0.167619, -0.620263,0.129375, -0.601383,0.157257,-0.627807
0.157257, -0.627807,0.197396, -0.650727,0.167619, -0.620263,0.157257,-0.627807
0.197396, -0.650727,0.208990, -0.640094,0.167619, -0.620263,0.197396,-0.650727
0.197396, -0.650727,0.240957, -0.673430,0.208990, -0.640094,0.197396,-0.650727
0.240957, -0.673430,0.253409, -0.659498,0.208990, -0.640094,0.240957,-0.673430
0.240957, -0.673430,0.287637, -0.694417,0.253409, -0.659498,0.240957,-0.673430
0.287637, -0.694417,0.300580, -0.677021,0.253409, -0.659498,0.287637,-0.694417
0.287637, -0.694417,0.336930, -0.712379,0.300580, -0.677021,0.287637,-0.694417
0.336930, -0.712379,0.350058, -0.691567,0.300580, -0.677021,0.336930,-0.712379
0.336930, -0.712379,0.388208, -0.726286,0.350058, -0.691567,0.336930,-0.712379
0.388208, -0.726286,0.401243, -0.702154,0.350058, -0.691567,0.388208,-0.726286
0.388208, -0.726286,0.440802, -0.735434,0.401243, -0.702154,0.388208,-0.726286
0.440802, -0.735434,0.453593, -0.708226,0.401243, -0.702154,0.440802,-0.735434
0.440802, -0.735434,0.494094, -0.739464,0.453593, -0.708226,0.440802,-0.735434
0.494094, -0.739464,0.506545, -0.709469,0.453593, -0.708226,0.494094,-0.739464
0.494094, -0.739464,0.547586, -0.738335,0.506545, -0.709469,0.494094,-0.739464
0.547586, -0.738335,0.559726, -0.705870,0.506545, -0.709469,0.547586,-0.738335
0.547586, -0.738335,0.600962, -0.732275,0.559726, -0.705870,0.547586,-0.738335
0.600962, -0.732275,0.612889, -0.697673,0.559726, -0.705870,0.600962,-0.732275
0.600962, -0.732275,0.654107, -0.721696,0.612889, -0.697673,0.600962,-0.732275
0.654107, -0.721696,0.665968, -0.685197,0.612889, -0.697673,0.654107,-0.721696
0.654107, -0.721696,0.707107, -0.707107,0.665968, -0.685197,0.654107,-0.721696
0.707107, -0.707107,0.719089, -0.668905,0.665968, -0.685197,0.707107,-0.707107
0.707107, -0.707107,0.760206, -0.689010,0.719089, -0.668905,0.707107,-0.707107
0.760206, -0.689010,0.772421, -0.649145,0.719089, -0.668905,0.760206,-0.689010
0.760206, -0.689010,0.813746, -0.667824,0.772421, -0.649145,0.760206,-0.689010
0.813746, -0.667824,0.826258, -0.626230,0.772421, -0.649145,0.813746,-0.667824
0.813746, -0.667824,0.868080, -0.643812,0.826258, -0.626230,0.813746,-0.667824
0.868080, -0.643812,0.880760, -0.600287,0.826258, -0.626230,0.868080,-0.643812
0.868080, -0.643812,0.923476, -0.617047,0.880760, -0.600287,0.868080,-0.643812
0.923476, -0.617047,0.936022, -0.571275,0.880760, -0.600287,0.923476,-0.617047
0.923476, -0.617047,0.980023, -0.587403,0.936022, -0.571275,0.923476,-0.617047
0.980023, -0.587403,0.991892, -0.539029,0.936022, -0.571275,0.980023,-0.587403
0.980023, -0.587403,1.037556, -0.554585,0.991892, -0.539029,0.980023,-0.587403
1.037556, -0.554585,1.047929, -0.503205,0.991892, -0.539029,1.037556,-0.554585
1.037556, -0.554585,1.095599, -0.518180,1.047929, -0.503205,1.037556,-0.554585
1.095599, -0.518180,1.103460, -0.463484,1.047929, -0.503205,1.095599,-0.518180
1.095599, -0.518180,1.153343, -0.477730,1.103460, -0.463484,1.095599,-0.518180
1.153343, -0.477730,1.157397, -0.419495,1.103460, -0.463484,1.153343,-0.477730
1.153343, -0.477730,1.209658, -0.432823,1.157397, -0.419495,1.153343,-0.477730
1.209658, -0.432823,1.208551, -0.371026,1.157397, -0.419495,1.209658,-0.432823
1.209658, -0.432823,1.263153, -0.383173,1.208551, -0.371026,1.209658,-0.432823
1.263153, -0.383173,1.255386, -0.318021,1.208551, -0.371026,1.263153,-0.383173
1.263153, -0.383173,1.312255, -0.328703,1.255386, -0.318021,1.263153,-0.383173
1.312255, -0.328703,1.296456, -0.260641,1.255386, -0.318021,1.312255,-0.328703
1.312255, -0.328703,1.355323, -0.269591,1.296456, -0.260641,1.312255,-0.328703
1.355323, -0.269591,1.330224, -0.199358,1.296456, -0.260641,1.355323,-0.269591
1.355323, -0.269591,1.390773, -0.206302,1.330224, -0.199358,1.355323,-0.269591
1.390773, -0.206302,1.355407, -0.134828,1.330224, -0.199358,1.390773,-0.206302
1.390773, -0.206302,1.417209, -0.139583,1.355407, -0.134828,1.390773,-0.206302
1.417209, -0.139583,1.370974, -0.068029,1.355407, -0.134828,1.417209,-0.139583
1.417209, -0.139583,1.433536, -0.070425,1.370974, -0.068029,1.417209,-0.139583
1.433536, -0.070425,1.376194, 0.000000,1.370974, -0.068029,1.433536,-0.070425
1.433536, -0.070425,1.439058, 0.000000,1.376194, 0.000000,1.433536,-0.070425

