0.507483,0.000000
0.516571,0.008453
0.536961,0.017578
0.557144,0.027371
0.574008,0.037623
0.591266,0.048481
0.610045,0.060084
0.627953,0.072240
0.644531,0.084854
0.661491,0.098123
0.678890,0.112085
0.695419,0.126536
0.711209,0.141468
0.727211,0.157063
0.743138,0.173275
0.758287,0.189941
0.772984,0.207121
0.787651,0.224926
0.801927,0.243262
0.815601,0.262057
0.828957,0.281393
0.841947,0.301253
0.854375,0.321564
0.866514,0.342421
0.878315,0.363810
0.889168,0.385468
0.899541,0.407577
0.910568,0.430667
0.920385,0.453883
0.923917,0.474574
0.918901,0.491163
0.909366,0.505367
0.900484,0.519895
0.892748,0.535092
0.884000,0.549707
0.874226,0.563670
0.864908,0.577913
0.855857,0.592347
0.845947,0.606197
0.835498,0.619648
0.825402,0.633353
0.815263,0.647039
0.804382,0.660139
0.793208,0.672987
0.782294,0.686054
0.771170,0.698948
0.759418,0.711273
0.747526,0.723455
0.735803,0.735803
0.723772,0.747853
0.711229,0.759372
0.698644,0.770835
0.686138,0.782391
0.673275,0.793548
0.660015,0.804231
0.646768,0.814921
0.633518,0.825616
0.619900,0.835838
0.605989,0.845657
0.592116,0.855523
0.578171,0.865294
0.563877,0.874546
0.549380,0.883475
0.534922,0.892463
0.520340,0.901255
0.505447,0.909509
0.490426,0.917522
0.475428,0.925579
0.460274,0.933344
0.444861,0.940580
0.429375,0.947650
0.413890,0.954728
0.398236,0.961427
0.382379,0.967630
0.366486,0.973730
0.350571,0.979781
0.334493,0.985385
0.318267,0.990544
0.302026,0.995647
0.285745,1.000630
0.269320,1.005118
0.252798,1.009226
0.236269,1.013304
0.219691,1.017184
0.202999,1.020544
0.186250,1.023596
0.169496,1.026622
0.152693,1.029372
0.135813,1.031602
0.118905,1.033593
0.101992,1.035543
0.085041,1.037143
0.068050,1.038245
0.051051,1.039173
0.034047,1.040023
0.017026,1.040464
0.000000,1.040449
-0.017024,1.040310
-0.034048,1.040044
-0.051059,1.039325
-0.068048,1.038205
-0.085029,1.036996
-0.101998,1.035602
-0.118921,1.033732
-0.135803,1.031524
-0.152674,1.029243
-0.169512,1.026718
-0.186271,1.023713
-0.202977,1.020434
-0.219669,1.017082
-0.236298,1.013428
-0.252819,1.009312
-0.269284,1.004982
-0.285726,1.000562
-0.302070,0.995792
-0.318283,0.990593
-0.334441,0.985232
-0.350561,0.979752
-0.366545,0.973887
-0.382383,0.967638
-0.398170,0.961268
-0.413895,0.954740
-0.429446,0.947808
-0.444846,0.940547
-0.460198,0.933190
-0.475456,0.925633
-0.490505,0.917670
-0.505406,0.909435
-0.520259,0.901115
-0.534977,0.892556
-0.549460,0.883603
-0.563805,0.874435
-0.578094,0.865180
-0.592204,0.855650
-0.606060,0.845756
-0.619795,0.835696
-0.633455,0.825535
-0.646891,0.815076
-0.660066,0.804292
-0.673135,0.793382
-0.686103,0.782350
-0.698802,0.771009
-0.711246,0.759389
-0.723597,0.747672
-0.735810,0.735810
-0.747717,0.723640
-0.759383,0.711240
-0.770964,0.698761
-0.782362,0.686113
-0.793427,0.673173
-0.804274,0.660050
-0.815032,0.646856
-0.825560,0.633474
-0.835738,0.619826
-0.845725,0.606038
-0.855611,0.592177
-0.865217,0.578119
-0.874470,0.563828
-0.883560,0.549433
-0.892526,0.534959
-0.901163,0.520287
-0.909460,0.505419
-0.917617,0.490477
-0.925615,0.475446
-0.933246,0.460226
-0.940558,0.444851
-0.947749,0.429419
-0.954737,0.413894
-0.961329,0.398196
-0.967634,0.382381
-0.973825,0.366522
-0.979765,0.350565
-0.985294,0.334462
-0.990572,0.318276
-0.995732,0.302052
-1.000591,0.285734
-1.005039,0.269299
-1.009274,0.252810
-1.013375,0.236286
-1.017127,0.219678
-1.020482,0.202986
-1.023660,0.186261
-1.026675,0.169505
-1.029302,0.152683
-1.031559,0.135807
-1.033667,0.118914
-1.035575,0.101995
-1.037066,0.085035
-1.038223,0.068049
-1.039251,0.051055
-1.040035,0.034047
-1.040386,0.017025
-1.040448,-0.000000
-1.040386,-0.017025
-1.040035,-0.034047
-1.039251,-0.051055
-1.038223,-0.068049
-1.037066,-0.085035
-1.035575,-0.101995
-1.033667,-0.118914
-1.031559,-0.135807
-1.029302,-0.152683
-1.026675,-0.169505
-1.023660,-0.186261
-1.020482,-0.202986
-1.017127,-0.219678
-1.013375,-0.236286
-1.009274,-0.252810
-1.005039,-0.269299
-1.000591,-0.285734
-0.995732,-0.302052
-0.990572,-0.318276
-0.985294,-0.334462
-0.979765,-0.350565
-0.973825,-0.366522
-0.967634,-0.382381
-0.961329,-0.398196
-0.954737,-0.413894
-0.947749,-0.429419
-0.940558,-0.444851
-0.933246,-0.460226
-0.925615,-0.475446
-0.917617,-0.490477
-0.909460,-0.505419
-0.901163,-0.520287
-0.892526,-0.534959
-0.883560,-0.549433
-0.874470,-0.563828
-0.865217,-0.578119
-0.855611,-0.592177
-0.845725,-0.606038
-0.835738,-0.619826
-0.825560,-0.633474
-0.815032,-0.646856
-0.804274,-0.660050
-0.793427,-0.673173
-0.782362,-0.686113
-0.770964,-0.698761
-0.759383,-0.711240
-0.747717,-0.723640
-0.735810,-0.735810
-0.723597,-0.747672
-0.711246,-0.759389
-0.698802,-0.771009
-0.686103,-0.782350
-0.673135,-0.793382
-0.660066,-0.804292
-0.646891,-0.815076
-0.633455,-0.825535
-0.619795,-0.835696
-0.606060,-0.845756
-0.592204,-0.855650
-0.578094,-0.865180
-0.563805,-0.874435
-0.549460,-0.883603
-0.534977,-0.892556
-0.520259,-0.901115
-0.505406,-0.909435
-0.490505,-0.917670
-0.475456,-0.925633
-0.460198,-0.933190
-0.444846,-0.940547
-0.429446,-0.947808
-0.413895,-0.954740
-0.398170,-0.961268
-0.382383,-0.967638
-0.366545,-0.973887
-0.350561,-0.979752
-0.334441,-0.985232
-0.318283,-0.990593
-0.302070,-0.995792
-0.285726,-1.000562
-0.269284,-1.004982
-0.252819,-1.009312
-0.236298,-1.013428
-0.219669,-1.017082
-0.202977,-1.020434
-0.186271,-1.023713
-0.169512,-1.026718
-0.152674,-1.029243
-0.135803,-1.031524
-0.118921,-1.033732
-0.101998,-1.035602
-0.085029,-1.036996
-0.068048,-1.038205
-0.051059,-1.039325
-0.034048,-1.040044
-0.017024,-1.040310
-0.000000,-1.040449
0.017026,-1.040464
0.034047,-1.040023
0.051051,-1.039173
0.068050,-1.038245
0.085041,-1.037143
0.101992,-1.035543
0.118905,-1.033593
0.135813,-1.031602
0.152693,-1.029372
0.169496,-1.026622
0.186250,-1.023596
0.202999,-1.020544
0.219691,-1.017184
0.236269,-1.013304
0.252798,-1.009226
0.269320,-1.005118
0.285745,-1.000630
0.302026,-0.995647
0.318267,-0.990544
0.334493,-0.985385
0.350571,-0.979781
0.366486,-0.973730
0.382379,-0.967630
0.398236,-0.961427
0.413890,-0.954728
0.429375,-0.947650
0.444861,-0.940580
0.460274,-0.933344
0.475428,-0.925579
0.490426,-0.917522
0.505447,-0.909509
0.520340,-0.901255
0.534922,-0.892463
0.549380,-0.883475
0.563877,-0.874546
0.578171,-0.865294
0.592116,-0.855523
0.605989,-0.845657
0.619900,-0.835838
0.633518,-0.825616
0.646768,-0.814921
0.660015,-0.804231
0.673275,-0.793548
0.686138,-0.782391
0.698644,-0.770835
0.711229,-0.759372
0.723772,-0.747853
0.735803,-0.735803
0.747526,-0.723455
0.759418,-0.711273
0.771170,-0.698948
0.782294,-0.686054
0.793208,-0.672987
0.804382,-0.660139
0.815263,-0.647039
0.825402,-0.633353
0.835498,-0.619648
0.845947,-0.606197
0.855857,-0.592347
0.864908,-0.577913
0.874226,-0.563670
0.884000,-0.549707
0.892748,-0.535092
0.900484,-0.519895
0.909366,-0.505367
0.918901,-0.491163
0.923917,-0.474574
0.920385,-0.453883
0.910568,-0.430667
0.899541,-0.407577
0.889168,-0.385468
0.878315,-0.363810
0.866514,-0.342421
0.854375,-0.321564
0.841947,-0.301253
0.828957,-0.281393
0.815601,-0.262057
0.801927,-0.243262
0.787651,-0.224926
0.772984,-0.207121
0.758287,-0.189941
0.743138,-0.173275
0.727211,-0.157063
0.711209,-0.141468
0.695419,-0.126536
0.678890,-0.112085
0.661491,-0.098123
0.644531,-0.084854
0.627953,-0.072240
0.610045,-0.060084
0.591266,-0.048481
0.574008,-0.037623
0.557144,-0.027371
0.536961,-0.017578
0.516571,-0.008453
-0.039776,0.000000
0.350709,0.000000
0.321717,0.063435
0.293500,0.127229
0.265465,0.191315
0.237185,0.255618
0.208388,0.320065
0.290064,0.000000
0.259590,0.063696
0.229738,0.127637
0.200071,0.191781
0.170268,0.256080
0.227065,0.000000
0.195453,0.063877
0.164347,0.127924
0.133420,0.192114
0.162238,0.000000
0.129742,0.064004
0.097661,0.128128
0.095974,0.000000
0.062780,0.064095
0.028563,0.000000
0.178927,0.384595
0.109495,0.384957
0.039639,0.385233
-0.030610,0.385446
-0.101216,0.385610
-0.172145,0.385738
0.140118,0.320485
0.071202,0.320798
0.001722,0.321034
-0.068251,0.321214
-0.138653,0.321351
0.102428,0.256416
0.033812,0.256664
-0.035459,0.256850
-0.105287,0.256990
0.065747,0.192355
-0.002769,0.192533
-0.071984,0.192665
0.029928,0.128276
-0.038657,0.128385
-0.005191,0.064161
-0.243363,0.385839
-0.280538,0.321541
-0.317361,0.257244
-0.353871,0.192944
-0.390113,0.128638
-0.426131,0.064324
-0.209431,0.321458
-0.246299,0.257180
-0.282795,0.192899
-0.318973,0.128610
-0.354886,0.064311
-0.175589,0.257097
-0.212080,0.192840
-0.248189,0.128574
-0.283983,0.064295
-0.141785,0.192764
-0.177822,0.128528
-0.213480,0.064274
-0.107947,0.128466
-0.143450,0.064246
-0.073982,0.064210
-0.461969,-0.000000
-0.426131,-0.064324
-0.390113,-0.128638
-0.353871,-0.192944
-0.317361,-0.257244
-0.280538,-0.321541
-0.390588,-0.000000
-0.354886,-0.064311
-0.318973,-0.128610
-0.282795,-0.192899
-0.246299,-0.257180
-0.319528,-0.000000
-0.283983,-0.064295
-0.248189,-0.128574
-0.212080,-0.192840
-0.248842,-0.000000
-0.213480,-0.064274
-0.177822,-0.128528
-0.178596,-0.000000
-0.143450,-0.064246
-0.108873,-0.000000
-0.243363,-0.385839
-0.172145,-0.385738
-0.101216,-0.385610
-0.030610,-0.385446
0.039639,-0.385233
0.109495,-0.384957
-0.209431,-0.321458
-0.138653,-0.321351
-0.068251,-0.321214
0.001722,-0.321034
0.071202,-0.320798
-0.175589,-0.257097
-0.105287,-0.256990
-0.035459,-0.256850
0.033812,-0.256664
-0.141785,-0.192764
-0.071984,-0.192665
-0.002769,-0.192533
-0.107947,-0.128466
-0.038657,-0.128385
-0.073982,-0.064210
0.178927,-0.384595
0.208388,-0.320065
0.237185,-0.255618
0.265465,-0.191315
0.293500,-0.127229
0.321717,-0.063435
0.140118,-0.320485
0.170268,-0.256080
0.200071,-0.191781
0.229738,-0.127637
0.259590,-0.063696
0.102428,-0.256416
0.133420,-0.192114
0.164347,-0.127924
0.195453,-0.063877
0.065747,-0.192355
0.097661,-0.128128
0.129742,-0.064004
0.029928,-0.128276
0.062780,-0.064095
-0.005191,-0.064161
0.408272,0.000000
0.376858,0.073614
0.346578,0.147933
0.316226,0.222783
0.285045,0.297972
0.252645,0.373341
0.218907,0.448780
0.137028,0.449221
0.054817,0.449550
-0.027746,0.449797
-0.110654,0.449984
-0.193887,0.450126
-0.277420,0.450235
-0.321045,0.375199
-0.364230,0.300169
-0.407023,0.225137
-0.449481,0.150101
-0.491663,0.075055
-0.533626,-0.000000
-0.491663,-0.075055
-0.449481,-0.150101
-0.407023,-0.225137
-0.364230,-0.300169
-0.321045,-0.375199
-0.277420,-0.450235
-0.193887,-0.450126
-0.110654,-0.449984
-0.027746,-0.449797
0.054817,-0.449550
0.137028,-0.449221
0.218907,-0.448780
0.252645,-0.373341
0.285045,-0.297972
0.316226,-0.222783
0.346578,-0.147933
0.376858,-0.073614
0.546982,0.000000
0.544842,0.041215
0.545780,0.082908
0.549228,0.125212
0.554583,0.168202
0.524078,0.000000
0.521060,0.041905
0.520585,0.084179
0.522212,0.126922
0.498303,0.000000
0.494572,0.042439
0.492955,0.085163
0.470156,0.000000
0.465841,0.042853
0.440038,0.000000
0.561234,0.211899
0.554722,0.257819
0.546205,0.304079
0.535556,0.350457
0.522811,0.396799
0.508133,0.443020
0.525457,0.170192
0.515095,0.221399
0.503125,0.273121
0.489243,0.325106
0.473366,0.377169
0.455581,0.429192
0.493101,0.128247
0.478131,0.184842
0.462125,0.242081
0.444559,0.299702
0.425198,0.357498
0.404027,0.415328
0.463292,0.085927
0.443147,0.148048
0.422655,0.210886
0.401053,0.274192
0.377934,0.337750
0.353164,0.401403
0.435240,0.043176
0.409553,0.110973
0.384262,0.179505
0.358369,0.248554
0.331289,0.317908
0.302760,0.387408
0.491755,0.489088
0.462973,0.518816
0.433446,0.548412
0.403312,0.577906
0.372676,0.607320
0.436074,0.481117
0.407076,0.510717
0.377404,0.540218
0.347171,0.569642
0.381174,0.473113
0.351877,0.502603
0.321981,0.532020
0.326796,0.465058
0.297160,0.494456
0.272752,0.456947
0.341619,0.636670
0.301196,0.652338
0.260695,0.667977
0.220115,0.683591
0.179455,0.699184
0.316467,0.599001
0.276428,0.614692
0.236257,0.630349
0.195960,0.645976
0.291578,0.561378
0.251897,0.577084
0.212031,0.592751
0.266998,0.523802
0.227639,0.539513
0.242765,0.486270
0.138716,0.714758
0.087498,0.714850
0.036366,0.714934
-0.014704,0.715012
-0.065734,0.715082
-0.116742,0.715146
0.155546,0.661580
0.097842,0.661714
0.040224,0.661835
-0.017347,0.661941
-0.074898,0.662035
-0.132450,0.662117
0.171998,0.608387
0.107954,0.608578
0.043969,0.608742
-0.020005,0.608882
-0.084001,0.609000
-0.148042,0.609100
0.188050,0.555184
0.117842,0.555445
0.047627,0.555660
-0.022648,0.555835
-0.093015,0.555979
-0.163493,0.556095
0.203687,0.501978
0.127523,0.502323
0.051230,0.502594
-0.025241,0.502806
-0.101910,0.502973
-0.178781,0.503104
-0.167738,0.715203
-0.209840,0.699784
-0.251871,0.684364
-0.293841,0.668944
-0.335762,0.653522
-0.190018,0.662188
-0.231963,0.646774
-0.273849,0.631359
-0.315687,0.615942
-0.212140,0.609184
-0.253932,0.593775
-0.295677,0.578363
-0.234089,0.556191
-0.275732,0.540785
-0.255852,0.503208
-0.377641,0.638098
-0.412158,0.609078
-0.446601,0.580059
-0.480975,0.551040
-0.515288,0.522020
-0.357484,0.600523
-0.391941,0.571507
-0.426321,0.542491
-0.460631,0.513476
-0.337385,0.562949
-0.371773,0.533937
-0.406083,0.504925
-0.317342,0.525375
-0.351653,0.496369
-0.297354,0.487804
-0.549546,0.493000
-0.575666,0.447896
-0.601692,0.402794
-0.627628,0.357691
-0.653480,0.312589
-0.679255,0.267487
-0.494880,0.484459
-0.524485,0.433365
-0.553958,0.382272
-0.583305,0.331180
-0.612536,0.280087
-0.641661,0.228994
-0.440322,0.475913
-0.473420,0.418830
-0.506333,0.361748
-0.539075,0.304668
-0.571662,0.247587
-0.604108,0.190504
-0.385885,0.467361
-0.422481,0.404291
-0.458828,0.341224
-0.494947,0.278157
-0.530860,0.215088
-0.566594,0.152017
-0.331579,0.458802
-0.371684,0.389748
-0.411456,0.320697
-0.450927,0.251646
-0.490133,0.182593
-0.529114,0.113534
-0.704957,0.222384
-0.712866,0.177907
-0.720712,0.133430
-0.728497,0.088954
-0.736221,0.044477
-0.670690,0.177899
-0.678542,0.133425
-0.686327,0.088950
-0.694048,0.044475
-0.636432,0.133418
-0.644219,0.088946
-0.651935,0.044473
-0.602175,0.088941
-0.609887,0.044471
-0.567910,0.044468
-0.743886,0.000000
-0.736221,-0.044477
-0.728497,-0.088954
-0.720712,-0.133430
-0.712866,-0.177907
-0.701705,0.000000
-0.694048,-0.044475
-0.686327,-0.088950
-0.678542,-0.133425
-0.659583,-0.000000
-0.651935,-0.044473
-0.644219,-0.088946
-0.617526,-0.000000
-0.609887,-0.044471
-0.575539,-0.000000
-0.704957,-0.222384
-0.679255,-0.267487
-0.653480,-0.312589
-0.627628,-0.357691
-0.601692,-0.402794
-0.575666,-0.447896
-0.670690,-0.177899
-0.641661,-0.228994
-0.612536,-0.280087
-0.583305,-0.331180
-0.553958,-0.382272
-0.524485,-0.433365
-0.636432,-0.133418
-0.604108,-0.190504
-0.571662,-0.247587
-0.539075,-0.304668
-0.506333,-0.361748
-0.473420,-0.418830
-0.602175,-0.088941
-0.566594,-0.152017
-0.530860,-0.215088
-0.494947,-0.278157
-0.458828,-0.341224
-0.422481,-0.404291
-0.567910,-0.044468
-0.529114,-0.113534
-0.490133,-0.182593
-0.450927,-0.251646
-0.411456,-0.320697
-0.371684,-0.389748
-0.549546,-0.493000
-0.515288,-0.522020
-0.480975,-0.551040
-0.446601,-0.580059
-0.412158,-0.609078
-0.494880,-0.484459
-0.460631,-0.513476
-0.426321,-0.542491
-0.391941,-0.571507
-0.440322,-0.475913
-0.406083,-0.504925
-0.371773,-0.533937
-0.385885,-0.467361
-0.351653,-0.496369
-0.331579,-0.458802
-0.377641,-0.638098
-0.335762,-0.653522
-0.293841,-0.668944
-0.251871,-0.684364
-0.209840,-0.699784
-0.357484,-0.600523
-0.315687,-0.615942
-0.273849,-0.631359
-0.231963,-0.646774
-0.337385,-0.562949
-0.295677,-0.578363
-0.253932,-0.593775
-0.317342,-0.525375
-0.275732,-0.540785
-0.297354,-0.487804
-0.167738,-0.715203
-0.116742,-0.715146
-0.065734,-0.715082
-0.014704,-0.715012
0.036366,-0.714934
0.087498,-0.714850
-0.190018,-0.662188
-0.132450,-0.662117
-0.074898,-0.662035
-0.017347,-0.661941
0.040224,-0.661835
0.097842,-0.661714
-0.212140,-0.609184
-0.148042,-0.609100
-0.084001,-0.609000
-0.020005,-0.608882
0.043969,-0.608742
0.107954,-0.608578
-0.234089,-0.556191
-0.163493,-0.556095
-0.093015,-0.555979
-0.022648,-0.555835
0.047627,-0.555660
0.117842,-0.555445
-0.255852,-0.503208
-0.178781,-0.503104
-0.101910,-0.502973
-0.025241,-0.502806
0.051230,-0.502594
0.127523,-0.502323
0.138716,-0.714758
0.179455,-0.699184
0.220115,-0.683591
0.260695,-0.667977
0.301196,-0.652338
0.155546,-0.661580
0.195960,-0.645976
0.236257,-0.630349
0.276428,-0.614692
0.171998,-0.608387
0.212031,-0.592751
0.251897,-0.577084
0.188050,-0.555184
0.227639,-0.539513
0.203687,-0.501978
0.341619,-0.636670
0.372676,-0.607320
0.403312,-0.577906
0.433446,-0.548412
0.462973,-0.518816
0.316467,-0.599001
0.347171,-0.569642
0.377404,-0.540218
0.407076,-0.510717
0.291578,-0.561378
0.321981,-0.532020
0.351877,-0.502603
0.266998,-0.523802
0.297160,-0.494456
0.242765,-0.486270
0.491755,-0.489088
0.508133,-0.443020
0.522811,-0.396799
0.535556,-0.350457
0.546205,-0.304079
0.554722,-0.257819
0.436074,-0.481117
0.455581,-0.429192
0.473366,-0.377169
0.489243,-0.325106
0.503125,-0.273121
0.515095,-0.221399
0.381174,-0.473113
0.404027,-0.415328
0.425198,-0.357498
0.444559,-0.299702
0.462125,-0.242081
0.478131,-0.184842
0.326796,-0.465058
0.353164,-0.401403
0.377934,-0.337750
0.401053,-0.274192
0.422655,-0.210886
0.443147,-0.148048
0.272752,-0.456947
0.302760,-0.387408
0.331289,-0.317908
0.358369,-0.248554
0.384262,-0.179505
0.409553,-0.110973
0.561234,-0.211899
0.554583,-0.168202
0.549228,-0.125212
0.545780,-0.082908
0.544842,-0.041215
0.525457,-0.170192
0.522212,-0.126922
0.520585,-0.084179
0.521060,-0.041905
0.493101,-0.128247
0.492955,-0.085163
0.494572,-0.042439
0.463292,-0.085927
0.465841,-0.042853
0.435240,-0.043176
0.566379,0.000000
0.565599,0.048454
0.570008,0.097855
0.578297,0.148464
0.589155,0.200396
0.601349,0.253619
0.596808,0.302446
0.589096,0.351412
0.578271,0.400243
0.564622,0.448804
0.548575,0.497065
0.514013,0.532884
0.478352,0.568469
0.441848,0.603885
0.404681,0.639178
0.366980,0.674380
0.317990,0.693143
0.268965,0.711875
0.219888,0.730579
0.170747,0.749260
0.121537,0.767921
0.068007,0.767991
0.014581,0.768058
-0.038768,0.768120
-0.092062,0.768178
-0.145321,0.768230
-0.196019,0.749719
-0.246604,0.731209
-0.297094,0.712698
-0.347506,0.694187
-0.397853,0.675674
-0.439330,0.640845
-0.480703,0.606018
-0.521985,0.571191
-0.563184,0.536365
-0.604311,0.501537
-0.631470,0.454603
-0.658538,0.407670
-0.685518,0.360737
-0.712416,0.313804
-0.739239,0.266870
-0.748782,0.213496
-0.758240,0.160122
-0.767615,0.106748
-0.776909,0.053374
-0.786123,0.000000
-0.776909,-0.053374
-0.767615,-0.106748
-0.758240,-0.160122
-0.748782,-0.213496
-0.739239,-0.266870
-0.712416,-0.313804
-0.685518,-0.360737
-0.658538,-0.407670
-0.631470,-0.454603
-0.604311,-0.501537
-0.563184,-0.536365
-0.521985,-0.571191
-0.480703,-0.606018
-0.439330,-0.640845
-0.397853,-0.675674
-0.347506,-0.694187
-0.297094,-0.712698
-0.246604,-0.731209
-0.196019,-0.749719
-0.145321,-0.768230
-0.092062,-0.768178
-0.038768,-0.768120
0.014581,-0.768058
0.068007,-0.767991
0.121537,-0.767921
0.170747,-0.749260
0.219888,-0.730579
0.268965,-0.711875
0.317990,-0.693143
0.366980,-0.674380
0.404681,-0.639178
0.441848,-0.603885
0.478352,-0.568469
0.514013,-0.532884
0.548575,-0.497065
0.564622,-0.448804
0.578271,-0.400243
0.589096,-0.351412
0.596808,-0.302446
0.601349,-0.253619
0.589155,-0.200396
0.578297,-0.148464
0.570008,-0.097855
0.565599,-0.048454
0.593011,0.000000
0.594356,0.022341
0.598543,0.044921
0.605245,0.067851
0.589623,0.000000
0.590532,0.023013
0.593867,0.046229
0.583836,0.000000
0.584393,0.023587
0.575997,0.000000
0.614096,0.091224
0.625344,0.119886
0.637837,0.149492
0.651152,0.180051
0.664950,0.211550
0.599399,0.069740
0.608527,0.103076
0.619822,0.137457
0.632597,0.172929
0.646281,0.209491
0.587046,0.047346
0.593269,0.085533
0.602693,0.124798
0.614361,0.165243
0.627448,0.206893
0.576261,0.024077
0.579100,0.067306
0.586169,0.111577
0.596302,0.157067
0.608415,0.203838
0.678933,0.243954
0.686633,0.270879
0.693505,0.298169
0.699395,0.325709
0.660378,0.247101
0.666293,0.273742
0.671446,0.300672
0.641221,0.249702
0.645535,0.276098
0.621527,0.251848
0.704138,0.353370
0.702782,0.384478
0.699199,0.415213
0.693574,0.445530
0.686192,0.475453
0.675704,0.327793
0.674053,0.363511
0.669836,0.398942
0.663232,0.433991
0.654544,0.468647
0.649165,0.302725
0.646905,0.342914
0.641798,0.382934
0.634003,0.422634
0.623835,0.461966
0.624415,0.278038
0.621200,0.322586
0.614931,0.367110
0.605728,0.411399
0.593905,0.455362
0.677358,0.505038
0.664904,0.527160
0.651900,0.549135
0.638447,0.570993
0.644124,0.502955
0.631726,0.525003
0.618811,0.546928
0.611681,0.500953
0.599260,0.522924
0.579872,0.498997
0.624625,0.592760
0.602885,0.614958
0.580940,0.637090
0.558818,0.659169
0.536543,0.681206
0.605465,0.568754
0.580341,0.594356
0.554859,0.619857
0.529083,0.645279
0.503060,0.670639
0.586359,0.544794
0.557987,0.573808
0.529058,0.602677
0.499681,0.631438
0.469937,0.660117
0.567374,0.520895
0.535867,0.553316
0.503552,0.585548
0.470606,0.617642
0.437153,0.649632
0.514135,0.703208
0.492724,0.718677
0.471289,0.734134
0.449829,0.749580
0.476825,0.695950
0.455581,0.711428
0.434295,0.726892
0.439887,0.688732
0.418775,0.704212
0.403285,0.681544
0.428343,0.765016
0.404449,0.776900
0.380570,0.788779
0.356702,0.800654
0.412967,0.742343
0.389218,0.754241
0.365473,0.766133
0.397606,0.719678
0.374005,0.731590
0.382272,0.697023
0.332840,0.812526
0.302336,0.822705
0.271868,0.832883
0.241431,0.843058
0.211015,0.853232
0.341728,0.778020
0.306489,0.790331
0.271287,0.802638
0.236112,0.814939
0.200952,0.827234
0.350395,0.743495
0.310488,0.757946
0.270610,0.772387
0.230745,0.786818
0.190883,0.801240
0.358820,0.708948
0.314324,0.725550
0.269835,0.742133
0.225336,0.758698
0.180812,0.775248
0.180616,0.863402
0.153961,0.867483
0.127334,0.871564
0.100731,0.875645
0.165801,0.839525
0.139220,0.843611
0.112662,0.847697
0.151013,0.815652
0.124506,0.819744
0.136257,0.791784
0.074148,0.879725
0.041719,0.879745
0.009333,0.879764
-0.023017,0.879784
-0.055334,0.879804
0.086124,0.851782
0.048382,0.851810
0.010697,0.851838
-0.026939,0.851866
-0.064536,0.851894
0.098018,0.823834
0.054986,0.823873
0.012026,0.823912
-0.030874,0.823950
-0.073727,0.823986
0.109824,0.795880
0.061528,0.795933
0.013320,0.795985
-0.034818,0.796034
-0.082904,0.796080
-0.087623,0.879823
-0.114408,0.875778
-0.141168,0.871733
-0.167904,0.867688
-0.102099,0.851920
-0.128834,0.847878
-0.155546,0.843835
-0.116543,0.824020
-0.143228,0.819980
-0.130951,0.796124
-0.194619,0.863643
-0.225547,0.853526
-0.256437,0.843410
-0.287293,0.833294
-0.318117,0.823178
-0.182237,0.839792
-0.218125,0.827575
-0.253961,0.815359
-0.289750,0.803143
-0.325496,0.790927
-0.169892,0.815939
-0.210730,0.801623
-0.251498,0.787308
-0.292204,0.772993
-0.332856,0.758678
-0.157586,0.792085
-0.203361,0.775671
-0.249046,0.759258
-0.294653,0.742845
-0.340194,0.726431
-0.348913,0.813063
-0.373364,0.801260
-0.397793,0.789458
-0.422201,0.777656
-0.361205,0.778712
-0.385616,0.766911
-0.410006,0.755110
-0.373461,0.744364
-0.397832,0.732564
-0.385678,0.710017
-0.446590,0.765854
-0.469047,0.750527
-0.491481,0.735201
-0.513895,0.719874
-0.434376,0.743309
-0.456817,0.727983
-0.479236,0.712658
-0.422182,0.720764
-0.444607,0.705439
-0.410008,0.698219
-0.536289,0.704548
-0.560538,0.682775
-0.584758,0.661001
-0.608948,0.639229
-0.633112,0.617456
-0.501633,0.697332
-0.530187,0.672294
-0.558698,0.647257
-0.587169,0.622220
-0.615602,0.597183
-0.467008,0.690115
-0.499867,0.661813
-0.532668,0.633512
-0.565414,0.605211
-0.598110,0.576910
-0.432414,0.682896
-0.469581,0.651330
-0.506669,0.619765
-0.543686,0.588201
-0.580638,0.556637
-0.657250,0.595684
-0.674209,0.574408
-0.691149,0.553133
-0.708070,0.531859
-0.644000,0.572147
-0.660945,0.550872
-0.677869,0.529598
-0.630761,0.548610
-0.647689,0.527336
-0.617531,0.525073
-0.724972,0.510584
-0.741296,0.482342
-0.757593,0.454101
-0.773864,0.425860
-0.790108,0.397620
-0.694774,0.508324
-0.713805,0.475409
-0.732796,0.442494
-0.751750,0.409579
-0.770667,0.376665
-0.664598,0.506062
-0.686336,0.468474
-0.708021,0.430886
-0.729654,0.393298
-0.751238,0.355711
-0.634443,0.503800
-0.658891,0.461539
-0.683267,0.419278
-0.707576,0.377017
-0.731821,0.334757
-0.806327,0.369379
-0.816274,0.344047
-0.826203,0.318715
-0.836114,0.293383
-0.789550,0.343751
-0.799481,0.318419
-0.809394,0.293088
-0.772776,0.318123
-0.782691,0.292793
-0.756006,0.292497
-0.846008,0.268051
-0.852778,0.236151
-0.859523,0.204250
-0.866242,0.172350
-0.872937,0.140450
-0.819289,0.267757
-0.826750,0.230487
-0.834175,0.193218
-0.841565,0.155949
-0.848918,0.118680
-0.792587,0.267462
-0.800741,0.224824
-0.808845,0.182186
-0.816901,0.139548
-0.824908,0.096911
-0.765904,0.267166
-0.774751,0.219160
-0.783533,0.171154
-0.792251,0.123148
-0.800905,0.075142
-0.879606,0.108549
-0.881655,0.081412
-0.883686,0.054275
-0.885700,0.027137
-0.856237,0.081411
-0.858268,0.054274
-0.860282,0.027137
-0.832867,0.054273
-0.834881,0.027137
-0.809496,0.027136
-0.887696,0.000000
-0.885700,-0.027137
-0.883686,-0.054275
-0.881655,-0.081412
-0.862278,0.000000
-0.860282,-0.027137
-0.858268,-0.054274
-0.836875,0.000000
-0.834881,-0.027137
-0.811490,0.000000
-0.879606,-0.108549
-0.872937,-0.140450
-0.866242,-0.172350
-0.859523,-0.204250
-0.852778,-0.236151
-0.856237,-0.081411
-0.848918,-0.118680
-0.841565,-0.155949
-0.834175,-0.193218
-0.826750,-0.230487
-0.832867,-0.054273
-0.824908,-0.096911
-0.816901,-0.139548
-0.808845,-0.182186
-0.800741,-0.224824
-0.809496,-0.027136
-0.800905,-0.075142
-0.792251,-0.123148
-0.783533,-0.171154
-0.774751,-0.219160
-0.846008,-0.268051
-0.836114,-0.293383
-0.826203,-0.318715
-0.816274,-0.344047
-0.819289,-0.267757
-0.809394,-0.293088
-0.799481,-0.318419
-0.792587,-0.267462
-0.782691,-0.292793
-0.765904,-0.267166
-0.806327,-0.369379
-0.790108,-0.397620
-0.773864,-0.425860
-0.757593,-0.454101
-0.741296,-0.482342
-0.789550,-0.343751
-0.770667,-0.376665
-0.751750,-0.409579
-0.732796,-0.442494
-0.713805,-0.475409
-0.772776,-0.318123
-0.751238,-0.355711
-0.729654,-0.393298
-0.708021,-0.430886
-0.686336,-0.468474
-0.756006,-0.292497
-0.731821,-0.334757
-0.707576,-0.377017
-0.683267,-0.419278
-0.658891,-0.461539
-0.724972,-0.510584
-0.708070,-0.531859
-0.691149,-0.553133
-0.674209,-0.574408
-0.694774,-0.508324
-0.677869,-0.529598
-0.660945,-0.550872
-0.664598,-0.506062
-0.647689,-0.527336
-0.634443,-0.503800
-0.657250,-0.595684
-0.633112,-0.617456
-0.608948,-0.639229
-0.584758,-0.661001
-0.560538,-0.682775
-0.644000,-0.572147
-0.615602,-0.597183
-0.587169,-0.622220
-0.558698,-0.647257
-0.530187,-0.672294
-0.630761,-0.548610
-0.598110,-0.576910
-0.565414,-0.605211
-0.532668,-0.633512
-0.499867,-0.661813
-0.617531,-0.525073
-0.580638,-0.556637
-0.543686,-0.588201
-0.506669,-0.619765
-0.469581,-0.651330
-0.536289,-0.704548
-0.513895,-0.719874
-0.491481,-0.735201
-0.469047,-0.750527
-0.501633,-0.697332
-0.479236,-0.712658
-0.456817,-0.727983
-0.467008,-0.690115
-0.444607,-0.705439
-0.432414,-0.682896
-0.446590,-0.765854
-0.422201,-0.777656
-0.397793,-0.789458
-0.373364,-0.801260
-0.434376,-0.743309
-0.410006,-0.755110
-0.385616,-0.766911
-0.422182,-0.720764
-0.397832,-0.732564
-0.410008,-0.698219
-0.348913,-0.813063
-0.318117,-0.823178
-0.287293,-0.833294
-0.256437,-0.843410
-0.225547,-0.853526
-0.361205,-0.778712
-0.325496,-0.790927
-0.289750,-0.803143
-0.253961,-0.815359
-0.218125,-0.827575
-0.373461,-0.744364
-0.332856,-0.758678
-0.292204,-0.772993
-0.251498,-0.787308
-0.210730,-0.801623
-0.385678,-0.710017
-0.340194,-0.726431
-0.294653,-0.742845
-0.249046,-0.759258
-0.203361,-0.775671
-0.194619,-0.863643
-0.167904,-0.867688
-0.141168,-0.871733
-0.114408,-0.875778
-0.182237,-0.839792
-0.155546,-0.843835
-0.128834,-0.847878
-0.169892,-0.815939
-0.143228,-0.819980
-0.157586,-0.792085
-0.087623,-0.879823
-0.055334,-0.879804
-0.023017,-0.879784
0.009333,-0.879764
0.041719,-0.879745
-0.102099,-0.851920
-0.064536,-0.851894
-0.026939,-0.851866
0.010697,-0.851838
0.048382,-0.851810
-0.116543,-0.824020
-0.073727,-0.823986
-0.030874,-0.823950
0.012026,-0.823912
0.054986,-0.823873
-0.130951,-0.796124
-0.082904,-0.796080
-0.034818,-0.796034
0.013320,-0.795985
0.061528,-0.795933
0.074148,-0.879725
0.100731,-0.875645
0.127334,-0.871564
0.153961,-0.867483
0.086124,-0.851782
0.112662,-0.847697
0.139220,-0.843611
0.098018,-0.823834
0.124506,-0.819744
0.109824,-0.795880
0.180616,-0.863402
0.211015,-0.853232
0.241431,-0.843058
0.271868,-0.832883
0.302336,-0.822705
0.165801,-0.839525
0.200952,-0.827234
0.236112,-0.814939
0.271287,-0.802638
0.306489,-0.790331
0.151013,-0.815652
0.190883,-0.801240
0.230745,-0.786818
0.270610,-0.772387
0.310488,-0.757946
0.136257,-0.791784
0.180812,-0.775248
0.225336,-0.758698
0.269835,-0.742133
0.314324,-0.725550
0.332840,-0.812526
0.356702,-0.800654
0.380570,-0.788779
0.404449,-0.776900
0.341728,-0.778020
0.365473,-0.766133
0.389218,-0.754241
0.350395,-0.743495
0.374005,-0.731590
0.358820,-0.708948
0.428343,-0.765016
0.449829,-0.749580
0.471289,-0.734134
0.492724,-0.718677
0.412967,-0.742343
0.434295,-0.726892
0.455581,-0.711428
0.397606,-0.719678
0.418775,-0.704212
0.382272,-0.697023
0.514135,-0.703208
0.536543,-0.681206
0.558818,-0.659169
0.580940,-0.637090
0.602885,-0.614958
0.476825,-0.695950
0.503060,-0.670639
0.529083,-0.645279
0.554859,-0.619857
0.580341,-0.594356
0.439887,-0.688732
0.469937,-0.660117
0.499681,-0.631438
0.529058,-0.602677
0.557987,-0.573808
0.403285,-0.681544
0.437153,-0.649632
0.470606,-0.617642
0.503552,-0.585548
0.535867,-0.553316
0.624625,-0.592760
0.638447,-0.570993
0.651900,-0.549135
0.664904,-0.527160
0.605465,-0.568754
0.618811,-0.546928
0.631726,-0.525003
0.586359,-0.544794
0.599260,-0.522924
0.567374,-0.520895
0.677358,-0.505038
0.686192,-0.475453
0.693574,-0.445530
0.699199,-0.415213
0.702782,-0.384478
0.644124,-0.502955
0.654544,-0.468647
0.663232,-0.433991
0.669836,-0.398942
0.674053,-0.363511
0.611681,-0.500953
0.623835,-0.461966
0.634003,-0.422634
0.641798,-0.382934
0.646905,-0.342914
0.579872,-0.498997
0.593905,-0.455362
0.605728,-0.411399
0.614931,-0.367110
0.621200,-0.322586
0.704138,-0.353370
0.699395,-0.325709
0.693505,-0.298169
0.686633,-0.270879
0.675704,-0.327793
0.671446,-0.300672
0.666293,-0.273742
0.649165,-0.302725
0.645535,-0.276098
0.624415,-0.278038
0.678933,-0.243954
0.664950,-0.211550
0.651152,-0.180051
0.637837,-0.149492
0.625344,-0.119886
0.660378,-0.247101
0.646281,-0.209491
0.632597,-0.172929
0.619822,-0.137457
0.608527,-0.103076
0.641221,-0.249702
0.627448,-0.206893
0.614361,-0.165243
0.602693,-0.124798
0.593269,-0.085533
0.621527,-0.251848
0.608415,-0.203838
0.596302,-0.157067
0.586169,-0.111577
0.579100,-0.067306
0.614096,-0.091224
0.605245,-0.067851
0.598543,-0.044921
0.594356,-0.022341
0.599399,-0.069740
0.593867,-0.046229
0.590532,-0.023013
0.587046,-0.047346
0.584393,-0.023587
0.576261,-0.024077
0.593553,0.000000
0.596482,0.026975
0.604508,0.054453
0.616646,0.082667
0.631912,0.111798
0.647378,0.142083
0.663581,0.173588
0.680162,0.206293
0.696823,0.240155
0.708767,0.274282
0.719296,0.309094
0.728040,0.344314
0.734580,0.379617
0.732614,0.412454
0.727835,0.444636
0.720658,0.476199
0.711588,0.507256
0.695704,0.534954
0.678979,0.562400
0.661620,0.589665
0.643770,0.616797
0.621009,0.640301
0.598089,0.663747
0.575032,0.687149
0.551854,0.710512
0.524831,0.729829
0.497806,0.749131
0.470771,0.768419
0.443721,0.787695
0.413681,0.802531
0.383679,0.817362
0.353706,0.832190
0.323752,0.847014
0.291613,0.857082
0.259523,0.867150
0.227472,0.877217
0.195452,0.887283
0.162048,0.892378
0.128692,0.897473
0.095376,0.902569
0.062095,0.907664
0.028229,0.907679
-0.005591,0.907696
-0.039372,0.907712
-0.073118,0.907729
-0.106657,0.902669
-0.140153,0.897610
-0.173612,0.892552
-0.207038,0.887493
-0.239480,0.877473
-0.271883,0.867454
-0.304252,0.857435
-0.336588,0.847416
-0.367198,0.832661
-0.397772,0.817906
-0.428312,0.803152
-0.458823,0.788399
-0.486908,0.769239
-0.514960,0.750080
-0.542981,0.730921
-0.570973,0.711762
-0.595903,0.688626
-0.620801,0.665491
-0.645669,0.642356
-0.670510,0.619221
-0.691723,0.592626
-0.712907,0.566032
-0.734062,0.539437
-0.755190,0.512843
-0.772212,0.483384
-0.789205,0.453925
-0.806171,0.424466
-0.823110,0.395007
-0.835559,0.363342
-0.847981,0.331676
-0.860375,0.300011
-0.872744,0.268346
-0.880342,0.235181
-0.887913,0.202017
-0.895458,0.168853
-0.902977,0.135689
-0.905555,0.101766
-0.908106,0.067844
-0.910631,0.033922
-0.913131,0.000000
-0.910631,-0.033922
-0.908106,-0.067844
-0.905555,-0.101766
-0.902977,-0.135689
-0.895458,-0.168853
-0.887913,-0.202017
-0.880342,-0.235181
-0.872744,-0.268346
-0.860375,-0.300011
-0.847981,-0.331676
-0.835559,-0.363342
-0.823110,-0.395007
-0.806171,-0.424466
-0.789205,-0.453925
-0.772212,-0.483384
-0.755190,-0.512843
-0.734062,-0.539437
-0.712907,-0.566032
-0.691723,-0.592626
-0.670510,-0.619221
-0.645669,-0.642356
-0.620801,-0.665491
-0.595903,-0.688626
-0.570973,-0.711762
-0.542981,-0.730921
-0.514960,-0.750080
-0.486908,-0.769239
-0.458823,-0.788399
-0.428312,-0.803152
-0.397772,-0.817906
-0.367198,-0.832661
-0.336588,-0.847416
-0.304252,-0.857435
-0.271883,-0.867454
-0.239480,-0.877473
-0.207038,-0.887493
-0.173612,-0.892552
-0.140153,-0.897610
-0.106657,-0.902669
-0.073118,-0.907729
-0.039372,-0.907712
-0.005591,-0.907696
0.028229,-0.907679
0.062095,-0.907664
0.095376,-0.902569
0.128692,-0.897473
0.162048,-0.892378
0.195452,-0.887283
0.227472,-0.877217
0.259523,-0.867150
0.291613,-0.857082
0.323752,-0.847014
0.353706,-0.832190
0.383679,-0.817362
0.413681,-0.802531
0.443721,-0.787695
0.470771,-0.768419
0.497806,-0.749131
0.524831,-0.729829
0.551854,-0.710512
0.575032,-0.687149
0.598089,-0.663747
0.621009,-0.640301
0.643770,-0.616797
0.661620,-0.589665
0.678979,-0.562400
0.695704,-0.534954
0.711588,-0.507256
0.720658,-0.476199
0.727835,-0.444636
0.732614,-0.412454
0.734580,-0.379617
0.728040,-0.344314
0.719296,-0.309094
0.708767,-0.274282
0.696823,-0.240155
0.680162,-0.206293
0.663581,-0.173588
0.647378,-0.142083
0.631912,-0.111798
0.616646,-0.082667
0.604508,-0.054453
0.596482,-0.026975
0.584503,0.000000
0.585892,0.012253
0.589508,0.024606
0.589252,0.000000
0.590369,0.012705
0.592173,0.000000
0.595066,0.037113
0.604396,0.053116
0.615437,0.069570
0.627757,0.086519
0.593372,0.025494
0.601101,0.044981
0.611667,0.064979
0.624363,0.085580
0.593090,0.013107
0.598590,0.036253
0.608086,0.059927
0.620685,0.084285
0.641054,0.103992
0.651858,0.118484
0.662888,0.133359
0.638667,0.106847
0.648442,0.121530
0.635623,0.109441
0.674097,0.148619
0.687608,0.168270
0.701103,0.188523
0.714551,0.209370
0.658494,0.136567
0.673248,0.159795
0.688121,0.183831
0.703020,0.208660
0.644449,0.124303
0.659856,0.151066
0.675627,0.178847
0.691563,0.207625
0.727920,0.230803
0.737457,0.248282
0.746771,0.266089
0.717865,0.234266
0.726533,0.251647
0.707495,0.237373
0.755839,0.284208
0.765344,0.306975
0.774145,0.330055
0.782103,0.353350
0.734974,0.269320
0.745555,0.295992
0.755178,0.323084
0.763638,0.350446
0.715318,0.254652
0.726715,0.285103
0.736909,0.316098
0.745623,0.347426
0.789016,0.376722
0.792022,0.394862
0.793973,0.412779
0.770653,0.377875
0.772767,0.395576
0.752497,0.378822
0.794798,0.430397
0.792315,0.451163
0.788326,0.471419
0.783140,0.491263
0.773949,0.413083
0.771699,0.437981
0.767492,0.462286
0.761683,0.486086
0.753875,0.396170
0.751807,0.425090
0.747346,0.453370
0.740881,0.481076
0.777033,0.510793
0.770251,0.525574
0.763162,0.540246
0.754631,0.509495
0.748040,0.524274
0.732845,0.508327
0.755825,0.554834
0.744702,0.571995
0.733390,0.589086
0.721926,0.606121
0.741143,0.538953
0.728277,0.559607
0.715062,0.580141
0.701572,0.600585
0.726378,0.523087
0.711933,0.547257
0.696920,0.571245
0.681472,0.595100
0.710334,0.623112
0.699906,0.635938
0.689441,0.648748
0.687860,0.620958
0.677592,0.633803
0.665679,0.618855
0.678942,0.661544
0.664325,0.676336
0.649698,0.691117
0.635061,0.705888
0.667273,0.646629
0.649857,0.664313
0.632404,0.681976
0.614915,0.699620
0.655544,0.631712
0.635415,0.652301
0.615199,0.672852
0.594905,0.693373
0.620413,0.720649
0.607842,0.731659
0.595275,0.742666
0.597390,0.717247
0.584922,0.728268
0.574540,0.713869
0.582711,0.753670
0.565753,0.766023
0.548814,0.778374
0.531892,0.790723
0.572450,0.739284
0.552090,0.753953
0.531751,0.768617
0.511427,0.783276
0.562162,0.724898
0.538448,0.741888
0.514747,0.758869
0.491053,0.775842
0.514983,0.803069
0.500817,0.812123
0.486664,0.821176
0.491111,0.797931
0.477016,0.806991
0.467358,0.792807
0.472521,0.830228
0.457690,0.838244
0.442874,0.846259
0.462929,0.816049
0.448151,0.824071
0.453329,0.801872
0.428070,0.854275
0.408948,0.863181
0.389848,0.872088
0.370768,0.880995
0.433384,0.832092
0.410596,0.842971
0.387836,0.853850
0.365102,0.864727
0.438604,0.809899
0.412174,0.822754
0.385780,0.835608
0.359414,0.848459
0.351705,0.889902
0.335837,0.895737
0.319982,0.901573
0.342387,0.875605
0.326555,0.881443
0.333069,0.861308
0.304140,0.907409
0.283868,0.913449
0.263617,0.919488
0.243385,0.925529
0.310735,0.887283
0.286492,0.894663
0.262279,0.902044
0.238092,0.909425
0.317273,0.867151
0.289074,0.875874
0.260915,0.884598
0.232787,0.893321
0.223171,0.931569
0.206607,0.935117
0.190056,0.938665
0.213927,0.916806
0.197391,0.920356
0.204687,0.902044
0.173517,0.942213
0.152546,0.945265
0.131595,0.948319
0.110663,0.951372
0.180865,0.923906
0.155741,0.927638
0.130644,0.931371
0.105572,0.935104
0.188178,0.905596
0.158908,0.910009
0.129676,0.914422
0.100476,0.918836
0.089746,0.954426
0.072827,0.955619
0.055919,0.956812
0.080522,0.938838
0.063625,0.940032
0.071305,0.923250
0.039021,0.958006
0.017803,0.958011
-0.003397,0.958017
-0.024581,0.958023
0.046738,0.941227
0.021297,0.941235
-0.004118,0.941243
-0.029510,0.941252
0.054429,0.924446
0.024772,0.924457
-0.004850,0.924470
-0.034441,0.924482
-0.045749,0.958030
-0.062685,0.956846
-0.079610,0.955663
-0.054881,0.941262
-0.071798,0.940079
-0.064004,0.924495
-0.096526,0.954479
-0.117543,0.951439
-0.138545,0.948398
-0.159531,0.945358
-0.088706,0.938897
-0.113902,0.935183
-0.139075,0.931469
-0.164226,0.927756
-0.080903,0.923314
-0.110273,0.918926
-0.139611,0.914540
-0.168920,0.910153
-0.180503,0.942319
-0.197119,0.938782
-0.213726,0.935246
-0.189358,0.924043
-0.205958,0.920507
-0.198203,0.905768
-0.230324,0.931710
-0.250701,0.925687
-0.271064,0.919664
-0.291413,0.913641
-0.222549,0.916972
-0.246952,0.909616
-0.271334,0.902260
-0.295696,0.894905
-0.214787,0.902233
-0.243212,0.893545
-0.271607,0.884857
-0.299976,0.876170
-0.311749,0.907619
-0.327718,0.901799
-0.343679,0.895980
-0.320039,0.887551
-0.335994,0.881731
-0.328319,0.867483
-0.359631,0.890160
-0.378944,0.881279
-0.398244,0.872399
-0.417531,0.863518
-0.351941,0.875912
-0.375023,0.865073
-0.398086,0.854234
-0.421130,0.843396
-0.344260,0.861664
-0.371107,0.848867
-0.397928,0.836070
-0.424724,0.823274
-0.436806,0.854638
-0.451815,0.846648
-0.466816,0.838659
-0.444156,0.832557
-0.459152,0.824568
-0.451495,0.810478
-0.481809,0.830669
-0.496234,0.821650
-0.510651,0.812631
-0.474140,0.816579
-0.488559,0.807560
-0.466477,0.802489
-0.525060,0.803612
-0.542406,0.791319
-0.559739,0.779025
-0.577061,0.766732
-0.502971,0.798542
-0.523896,0.783959
-0.544803,0.769377
-0.565693,0.754795
-0.480892,0.793471
-0.505397,0.776599
-0.529876,0.759729
-0.554333,0.742858
-0.594372,0.754439
-0.607404,0.743499
-0.620429,0.732558
-0.586567,0.740214
-0.599594,0.729273
-0.578767,0.725988
-0.633447,0.721618
-0.648861,0.706966
-0.664263,0.692314
-0.679655,0.677662
-0.612614,0.718333
-0.631199,0.700853
-0.649767,0.683373
-0.668319,0.665894
-0.591789,0.715048
-0.613546,0.694740
-0.635280,0.674432
-0.656991,0.654125
-0.695036,0.663011
-0.706421,0.650362
-0.717799,0.637713
-0.686856,0.648414
-0.698236,0.635765
-0.678681,0.633817
-0.729170,0.625064
-0.742333,0.608355
-0.755485,0.591647
-0.768627,0.574939
-0.709609,0.623117
-0.725455,0.603113
-0.741285,0.583109
-0.757100,0.563105
-0.690056,0.621169
-0.708585,0.597869
-0.727092,0.574570
-0.745578,0.551271
-0.781759,0.558230
-0.791275,0.544119
-0.800784,0.530008
-0.772900,0.543101
-0.782410,0.528990
-0.764043,0.527972
-0.810286,0.515897
-0.820926,0.497476
-0.831556,0.479056
-0.842176,0.460635
-0.791914,0.514879
-0.804681,0.492779
-0.817433,0.470679
-0.830169,0.448579
-0.773549,0.513862
-0.788443,0.488082
-0.803315,0.462302
-0.818168,0.436522
-0.852786,0.442215
-0.860246,0.426916
-0.867701,0.411617
-0.842892,0.426479
-0.850347,0.411180
-0.833000,0.410743
-0.875149,0.396319
-0.883046,0.376566
-0.890934,0.356813
-0.898812,0.337060
-0.857796,0.395882
-0.867211,0.372158
-0.876610,0.348434
-0.885996,0.324710
-0.840450,0.395445
-0.851381,0.367750
-0.862293,0.340055
-0.873184,0.312361
-0.906680,0.317307
-0.911940,0.301119
-0.917194,0.284930
-0.895367,0.300986
-0.900622,0.284798
-0.884055,0.284666
-0.922442,0.268742
-0.927434,0.248064
-0.932417,0.227386
-0.937390,0.206708
-0.905870,0.268610
-0.911731,0.243770
-0.917577,0.218929
-0.923410,0.194089
-0.889304,0.268478
-0.896033,0.239476
-0.902743,0.210473
-0.909432,0.181471
-0.942354,0.186029
-0.945311,0.169267
-0.948262,0.152504
-0.929228,0.169249
-0.932179,0.152486
-0.916102,0.152469
-0.951207,0.135741
-0.953192,0.114564
-0.955167,0.093387
-0.957133,0.072210
-0.935125,0.135724
-0.937307,0.110298
-0.939475,0.084873
-0.941630,0.059447
-0.919048,0.135706
-0.921428,0.106032
-0.923788,0.076358
-0.926129,0.046685
-0.959089,0.051033
-0.959685,0.034022
-0.960276,0.017011
-0.943770,0.034022
-0.944361,0.017011
-0.928451,0.017011
-0.960861,0.000000
-0.960276,-0.017011
-0.959685,-0.034022
-0.944945,0.000000
-0.944361,-0.017011
-0.929035,0.000000
-0.959089,-0.051033
-0.957133,-0.072210
-0.955167,-0.093387
-0.953192,-0.114564
-0.943770,-0.034022
-0.941630,-0.059447
-0.939475,-0.084873
-0.937307,-0.110298
-0.928451,-0.017011
-0.926129,-0.046685
-0.923788,-0.076358
-0.921428,-0.106032
-0.951207,-0.135741
-0.948262,-0.152504
-0.945311,-0.169267
-0.935125,-0.135724
-0.932179,-0.152486
-0.919048,-0.135706
-0.942354,-0.186029
-0.937390,-0.206708
-0.932417,-0.227386
-0.927434,-0.248064
-0.929228,-0.169249
-0.923410,-0.194089
-0.917577,-0.218929
-0.911731,-0.243770
-0.916102,-0.152469
-0.909432,-0.181471
-0.902743,-0.210473
-0.896033,-0.239476
-0.922442,-0.268742
-0.917194,-0.284930
-0.911940,-0.301119
-0.905870,-0.268610
-0.900622,-0.284798
-0.889304,-0.268478
-0.906680,-0.317307
-0.898812,-0.337060
-0.890934,-0.356813
-0.883046,-0.376566
-0.895367,-0.300986
-0.885996,-0.324710
-0.876610,-0.348434
-0.867211,-0.372158
-0.884055,-0.284666
-0.873184,-0.312361
-0.862293,-0.340055
-0.851381,-0.367750
-0.875149,-0.396319
-0.867701,-0.411617
-0.860246,-0.426916
-0.857796,-0.395882
-0.850347,-0.411180
-0.840450,-0.395445
-0.852786,-0.442215
-0.842176,-0.460635
-0.831556,-0.479056
-0.820926,-0.497476
-0.842892,-0.426479
-0.830169,-0.448579
-0.817433,-0.470679
-0.804681,-0.492779
-0.833000,-0.410743
-0.818168,-0.436522
-0.803315,-0.462302
-0.788443,-0.488082
-0.810286,-0.515897
-0.800784,-0.530008
-0.791275,-0.544119
-0.791914,-0.514879
-0.782410,-0.528990
-0.773549,-0.513862
-0.781759,-0.558230
-0.768627,-0.574939
-0.755485,-0.591647
-0.742333,-0.608355
-0.772900,-0.543101
-0.757100,-0.563105
-0.741285,-0.583109
-0.725455,-0.603113
-0.764043,-0.527972
-0.745578,-0.551271
-0.727092,-0.574570
-0.708585,-0.597869
-0.729170,-0.625064
-0.717799,-0.637713
-0.706421,-0.650362
-0.709609,-0.623117
-0.698236,-0.635765
-0.690056,-0.621169
-0.695036,-0.663011
-0.679655,-0.677662
-0.664263,-0.692314
-0.648861,-0.706966
-0.686856,-0.648414
-0.668319,-0.665894
-0.649767,-0.683373
-0.631199,-0.700853
-0.678681,-0.633817
-0.656991,-0.654125
-0.635280,-0.674432
-0.613546,-0.694740
-0.633447,-0.721618
-0.620429,-0.732558
-0.607404,-0.743499
-0.612614,-0.718333
-0.599594,-0.729273
-0.591789,-0.715048
-0.594372,-0.754439
-0.577061,-0.766732
-0.559739,-0.779025
-0.542406,-0.791319
-0.586567,-0.740214
-0.565693,-0.754795
-0.544803,-0.769377
-0.523896,-0.783959
-0.578767,-0.725988
-0.554333,-0.742858
-0.529876,-0.759729
-0.505397,-0.776599
-0.525060,-0.803612
-0.510651,-0.812631
-0.496234,-0.821650
-0.502971,-0.798542
-0.488559,-0.807560
-0.480892,-0.793471
-0.481809,-0.830669
-0.466816,-0.838659
-0.451815,-0.846648
-0.474140,-0.816579
-0.459152,-0.824568
-0.466477,-0.802489
-0.436806,-0.854638
-0.417531,-0.863518
-0.398244,-0.872399
-0.378944,-0.881279
-0.444156,-0.832557
-0.421130,-0.843396
-0.398086,-0.854234
-0.375023,-0.865073
-0.451495,-0.810478
-0.424724,-0.823274
-0.397928,-0.836070
-0.371107,-0.848867
-0.359631,-0.890160
-0.343679,-0.895980
-0.327718,-0.901799
-0.351941,-0.875912
-0.335994,-0.881731
-0.344260,-0.861664
-0.311749,-0.907619
-0.291413,-0.913641
-0.271064,-0.919664
-0.250701,-0.925687
-0.320039,-0.887551
-0.295696,-0.894905
-0.271334,-0.902260
-0.246952,-0.909616
-0.328319,-0.867483
-0.299976,-0.876170
-0.271607,-0.884857
-0.243212,-0.893545
-0.230324,-0.931710
-0.213726,-0.935246
-0.197119,-0.938782
-0.222549,-0.916972
-0.205958,-0.920507
-0.214787,-0.902233
-0.180503,-0.942319
-0.159531,-0.945358
-0.138545,-0.948398
-0.117543,-0.951439
-0.189358,-0.924043
-0.164226,-0.927756
-0.139075,-0.931469
-0.113902,-0.935183
-0.198203,-0.905768
-0.168920,-0.910153
-0.139611,-0.914540
-0.110273,-0.918926
-0.096526,-0.954479
-0.079610,-0.955663
-0.062685,-0.956846
-0.088706,-0.938897
-0.071798,-0.940079
-0.080903,-0.923314
-0.045749,-0.958030
-0.024581,-0.958023
-0.003397,-0.958017
0.017803,-0.958011
-0.054881,-0.941262
-0.029510,-0.941252
-0.004118,-0.941243
0.021297,-0.941235
-0.064004,-0.924495
-0.034441,-0.924482
-0.004850,-0.924470
0.024772,-0.924457
0.039021,-0.958006
0.055919,-0.956812
0.072827,-0.955619
0.046738,-0.941227
0.063625,-0.940032
0.054429,-0.924446
0.089746,-0.954426
0.110663,-0.951372
0.131595,-0.948319
0.152546,-0.945265
0.080522,-0.938838
0.105572,-0.935104
0.130644,-0.931371
0.155741,-0.927638
0.071305,-0.923250
0.100476,-0.918836
0.129676,-0.914422
0.158908,-0.910009
0.173517,-0.942213
0.190056,-0.938665
0.206607,-0.935117
0.180865,-0.923906
0.197391,-0.920356
0.188178,-0.905596
0.223171,-0.931569
0.243385,-0.925529
0.263617,-0.919488
0.283868,-0.913449
0.213927,-0.916806
0.238092,-0.909425
0.262279,-0.902044
0.286492,-0.894663
0.204687,-0.902044
0.232787,-0.893321
0.260915,-0.884598
0.289074,-0.875874
0.304140,-0.907409
0.319982,-0.901573
0.335837,-0.895737
0.310735,-0.887283
0.326555,-0.881443
0.317273,-0.867151
0.351705,-0.889902
0.370768,-0.880995
0.389848,-0.872088
0.408948,-0.863181
0.342387,-0.875605
0.365102,-0.864727
0.387836,-0.853850
0.410596,-0.842971
0.333069,-0.861308
0.359414,-0.848459
0.385780,-0.835608
0.412174,-0.822754
0.428070,-0.854275
0.442874,-0.846259
0.457690,-0.838244
0.433384,-0.832092
0.448151,-0.824071
0.438604,-0.809899
0.472521,-0.830228
0.486664,-0.821176
0.500817,-0.812123
0.462929,-0.816049
0.477016,-0.806991
0.453329,-0.801872
0.514983,-0.803069
0.531892,-0.790723
0.548814,-0.778374
0.565753,-0.766023
0.491111,-0.797931
0.511427,-0.783276
0.531751,-0.768617
0.552090,-0.753953
0.467358,-0.792807
0.491053,-0.775842
0.514747,-0.758869
0.538448,-0.741888
0.582711,-0.753670
0.595275,-0.742666
0.607842,-0.731659
0.572450,-0.739284
0.584922,-0.728268
0.562162,-0.724898
0.620413,-0.720649
0.635061,-0.705888
0.649698,-0.691117
0.664325,-0.676336
0.597390,-0.717247
0.614915,-0.699620
0.632404,-0.681976
0.649857,-0.664313
0.574540,-0.713869
0.594905,-0.693373
0.615199,-0.672852
0.635415,-0.652301
0.678942,-0.661544
0.689441,-0.648748
0.699906,-0.635938
0.667273,-0.646629
0.677592,-0.633803
0.655544,-0.631712
0.710334,-0.623112
0.721926,-0.606121
0.733390,-0.589086
0.744702,-0.571995
0.687860,-0.620958
0.701572,-0.600585
0.715062,-0.580141
0.728277,-0.559607
0.665679,-0.618855
0.681472,-0.595100
0.696920,-0.571245
0.711933,-0.547257
0.755825,-0.554834
0.763162,-0.540246
0.770251,-0.525574
0.741143,-0.538953
0.748040,-0.524274
0.726378,-0.523087
0.777033,-0.510793
0.783140,-0.491263
0.788326,-0.471419
0.792315,-0.451163
0.754631,-0.509495
0.761683,-0.486086
0.767492,-0.462286
0.771699,-0.437981
0.732845,-0.508327
0.740881,-0.481076
0.747346,-0.453370
0.751807,-0.425090
0.794798,-0.430397
0.793973,-0.412779
0.792022,-0.394862
0.773949,-0.413083
0.772767,-0.395576
0.753875,-0.396170
0.789016,-0.376722
0.782103,-0.353350
0.774145,-0.330055
0.765344,-0.306975
0.770653,-0.377875
0.763638,-0.350446
0.755178,-0.323084
0.745555,-0.295992
0.752497,-0.378822
0.745623,-0.347426
0.736909,-0.316098
0.726715,-0.285103
0.755839,-0.284208
0.746771,-0.266089
0.737457,-0.248282
0.734974,-0.269320
0.726533,-0.251647
0.715318,-0.254652
0.727920,-0.230803
0.714551,-0.209370
0.701103,-0.188523
0.687608,-0.168270
0.717865,-0.234266
0.703020,-0.208660
0.688121,-0.183831
0.673248,-0.159795
0.707495,-0.237373
0.691563,-0.207625
0.675627,-0.178847
0.659856,-0.151066
0.674097,-0.148619
0.662888,-0.133359
0.651858,-0.118484
0.658494,-0.136567
0.648442,-0.121530
0.644449,-0.124303
0.641054,-0.103992
0.627757,-0.086519
0.615437,-0.069570
0.604396,-0.053116
0.638667,-0.106847
0.624363,-0.085580
0.611667,-0.064979
0.601101,-0.044981
0.635623,-0.109441
0.620685,-0.084285
0.608086,-0.059927
0.598590,-0.036253
0.595066,-0.037113
0.589508,-0.024606
0.585892,-0.012253
0.593372,-0.025494
0.590369,-0.012705
0.593090,-0.013107
0.577529,0.000000
0.580549,0.015678
0.588051,0.031613
0.598990,0.047943
0.612382,0.064930
0.627127,0.082557
0.642801,0.100853
0.658728,0.119996
0.674909,0.139874
0.691273,0.160488
0.706863,0.181917
0.722326,0.204076
0.737650,0.226954
0.751498,0.250463
0.764952,0.274614
0.777974,0.299375
0.788766,0.324367
0.798691,0.349723
0.807503,0.375282
0.812727,0.400155
0.815776,0.424523
0.816375,0.448137
0.812509,0.470086
0.806937,0.491397
0.800164,0.512262
0.790672,0.531912
0.780697,0.551377
0.770369,0.570713
0.758082,0.588971
0.745658,0.607171
0.733120,0.625324
0.718959,0.642388
0.704765,0.659431
0.690541,0.676455
0.674894,0.692337
0.659253,0.708211
0.643614,0.724077
0.626704,0.738740
0.609815,0.753399
0.592943,0.768055
0.574928,0.781445
0.556941,0.794834
0.538977,0.808222
0.519991,0.820284
0.501033,0.832345
0.482101,0.844407
0.462262,0.855087
0.442453,0.865767
0.422669,0.876448
0.402092,0.885698
0.381544,0.894949
0.361021,0.904200
0.339819,0.911976
0.318644,0.919753
0.297492,0.927531
0.275776,0.933798
0.254086,0.940065
0.232418,0.946333
0.210300,0.951061
0.188206,0.955789
0.166134,0.960517
0.143726,0.963683
0.121341,0.966849
0.098976,0.970015
0.076391,0.971604
0.053826,0.973193
0.031282,0.974783
0.008632,0.974788
-0.013998,0.974793
-0.036610,0.974798
-0.059212,0.973219
-0.081796,0.971640
-0.104362,0.970061
-0.126806,0.966905
-0.149231,0.963750
-0.171640,0.960596
-0.193814,0.955879
-0.215970,0.951164
-0.238111,0.946448
-0.259906,0.940194
-0.281685,0.933941
-0.303448,0.927688
-0.324758,0.919928
-0.346051,0.912167
-0.367331,0.904407
-0.388050,0.895178
-0.408754,0.885948
-0.429444,0.876719
-0.449472,0.866066
-0.469485,0.855412
-0.489485,0.844759
-0.508723,0.832733
-0.527948,0.820707
-0.547159,0.808682
-0.565513,0.795343
-0.583854,0.782004
-0.602183,0.768665
-0.619564,0.754077
-0.636932,0.739490
-0.654288,0.724902
-0.670611,0.709137
-0.686921,0.693372
-0.703219,0.677608
-0.718404,0.660742
-0.733577,0.643876
-0.748738,0.627011
-0.762711,0.609127
-0.776672,0.591243
-0.790621,0.573360
-0.803314,0.554544
-0.815995,0.535729
-0.828664,0.516914
-0.840015,0.497260
-0.851354,0.477605
-0.862682,0.457951
-0.872635,0.437552
-0.882576,0.417154
-0.892507,0.396756
-0.901014,0.375713
-0.909509,0.354670
-0.917994,0.333628
-0.925014,0.312043
-0.932022,0.290458
-0.939020,0.268874
-0.944517,0.246853
-0.950004,0.224831
-0.955480,0.202810
-0.959429,0.180459
-0.963367,0.158109
-0.967295,0.135758
-0.969676,0.113187
-0.972047,0.090616
-0.974407,0.068045
-0.975210,0.045363
-0.976001,0.022682
-0.976782,0.000000
-0.976001,-0.022682
-0.975210,-0.045363
-0.974407,-0.068045
-0.972047,-0.090616
-0.969676,-0.113187
-0.967295,-0.135758
-0.963367,-0.158109
-0.959429,-0.180459
-0.955480,-0.202810
-0.950004,-0.224831
-0.944517,-0.246853
-0.939020,-0.268874
-0.932022,-0.290458
-0.925014,-0.312043
-0.917994,-0.333628
-0.909509,-0.354670
-0.901014,-0.375713
-0.892507,-0.396756
-0.882576,-0.417154
-0.872635,-0.437552
-0.862682,-0.457951
-0.851354,-0.477605
-0.840015,-0.497260
-0.828664,-0.516914
-0.815995,-0.535729
-0.803314,-0.554544
-0.790621,-0.573360
-0.776672,-0.591243
-0.762711,-0.609127
-0.748738,-0.627011
-0.733577,-0.643876
-0.718404,-0.660742
-0.703219,-0.677608
-0.686921,-0.693372
-0.670611,-0.709137
-0.654288,-0.724902
-0.636932,-0.739490
-0.619564,-0.754077
-0.602183,-0.768665
-0.583854,-0.782004
-0.565513,-0.795343
-0.547159,-0.808682
-0.527948,-0.820707
-0.508723,-0.832733
-0.489485,-0.844759
-0.469485,-0.855412
-0.449472,-0.866066
-0.429444,-0.876719
-0.408754,-0.885948
-0.388050,-0.895178
-0.367331,-0.904407
-0.346051,-0.912167
-0.324758,-0.919928
-0.303448,-0.927688
-0.281685,-0.933941
-0.259906,-0.940194
-0.238111,-0.946448
-0.215970,-0.951164
-0.193814,-0.955879
-0.171640,-0.960596
-0.149231,-0.963750
-0.126806,-0.966905
-0.104362,-0.970061
-0.081796,-0.971640
-0.059212,-0.973219
-0.036610,-0.974798
-0.013998,-0.974793
0.008632,-0.974788
0.031282,-0.974783
0.053826,-0.973193
0.076391,-0.971604
0.098976,-0.970015
0.121341,-0.966849
0.143726,-0.963683
0.166134,-0.960517
0.188206,-0.955789
0.210300,-0.951061
0.232418,-0.946333
0.254086,-0.940065
0.275776,-0.933798
0.297492,-0.927531
0.318644,-0.919753
0.339819,-0.911976
0.361021,-0.904200
0.381544,-0.894949
0.402092,-0.885698
0.422669,-0.876448
0.442453,-0.865767
0.462262,-0.855087
0.482101,-0.844407
0.501033,-0.832345
0.519991,-0.820284
0.538977,-0.808222
0.556941,-0.794834
0.574928,-0.781445
0.592943,-0.768055
0.609815,-0.753399
0.626704,-0.738740
0.643614,-0.724077
0.659253,-0.708211
0.674894,-0.692337
0.690541,-0.676455
0.704765,-0.659431
0.718959,-0.642388
0.733120,-0.625324
0.745658,-0.607171
0.758082,-0.588971
0.770369,-0.570713
0.780697,-0.551377
0.790672,-0.531912
0.800164,-0.512262
0.806937,-0.491397
0.812509,-0.470086
0.816375,-0.448137
0.815776,-0.424523
0.812727,-0.400155
0.807503,-0.375282
0.798691,-0.349723
0.788766,-0.324367
0.777974,-0.299375
0.764952,-0.274614
0.751498,-0.250463
0.737650,-0.226954
0.722326,-0.204076
0.706863,-0.181917
0.691273,-0.160488
0.674909,-0.139874
0.658728,-0.119996
0.642801,-0.100853
0.627127,-0.082557
0.612382,-0.064930
0.598990,-0.047943
0.588051,-0.031613
0.580549,-0.015678
0.563822,0.000000
0.564967,0.007276
0.571448,0.000000
0.567912,0.014604
0.574482,0.024522
0.582924,0.034667
0.572346,0.007560
0.577334,0.020283
0.585583,0.033254
0.592584,0.045063
0.600562,0.053100
0.596058,0.046561
0.608874,0.061314
0.620400,0.072596
0.632205,0.084219
0.603246,0.054783
0.616071,0.068894
0.629602,0.083492
0.644236,0.096180
0.653290,0.105440
0.643641,0.098590
0.662395,0.114899
0.674452,0.127867
0.686503,0.141195
0.652153,0.107952
0.666352,0.124022
0.680642,0.140626
0.698560,0.154878
0.707377,0.165418
0.694998,0.157767
0.716164,0.176159
0.727551,0.190812
0.738840,0.205817
0.703387,0.168346
0.717017,0.186424
0.730526,0.205029
0.750047,0.221172
0.758059,0.232921
0.743921,0.224158
0.765998,0.244860
0.776059,0.261045
0.785946,0.277551
0.751538,0.235881
0.763600,0.255783
0.775389,0.276155
0.795662,0.294371
0.802393,0.307132
0.786891,0.296984
0.808985,0.320046
0.816990,0.337387
0.824632,0.354933
0.793179,0.309624
0.802664,0.330856
0.811556,0.352370
0.831848,0.372645
0.836367,0.385852
0.819711,0.374074
0.840473,0.399044
0.844372,0.416253
0.846975,0.433094
0.823602,0.386977
0.828191,0.408069
0.831041,0.428708
0.847984,0.449363
0.847115,0.460943
0.831881,0.448683
0.845471,0.472205
0.841604,0.486527
0.837009,0.500547
0.830849,0.460099
0.826921,0.478242
0.821788,0.495909
0.831922,0.514368
0.827374,0.524411
0.815833,0.513257
0.822680,0.534392
0.815614,0.547313
0.808432,0.560184
0.811490,0.523335
0.803123,0.539600
0.794486,0.555758
0.801143,0.573008
0.795207,0.582375
0.785640,0.571833
0.789241,0.591727
0.780672,0.603833
0.772086,0.615927
0.779853,0.581227
0.769371,0.596398
0.758826,0.611537
0.763475,0.628004
0.756645,0.636821
0.748224,0.626649
0.749814,0.645633
0.740165,0.656999
0.730524,0.668361
0.741497,0.635483
0.729558,0.649692
0.717613,0.663889
0.720882,0.679714
0.713338,0.687987
0.705659,0.678075
0.705800,0.696260
0.695255,0.706873
0.684721,0.717483
0.698190,0.686360
0.685070,0.699603
0.671963,0.712842
0.674197,0.728088
0.666035,0.735797
0.658865,0.726076
0.657883,0.743508
0.646551,0.753334
0.635232,0.763156
0.650761,0.733794
0.636623,0.746035
0.622504,0.758274
0.623928,0.772977
0.615216,0.780095
0.608403,0.770512
0.606515,0.787216
0.594482,0.796215
0.582463,0.805210
0.599737,0.777636
0.584700,0.788828
0.569686,0.800020
0.570460,0.814208
0.561256,0.820707
0.554692,0.811212
0.552062,0.827208
0.539404,0.835342
0.526759,0.843473
0.545525,0.817715
0.529692,0.827811
0.513883,0.837908
0.514132,0.851609
0.504489,0.857462
0.498094,0.848006
0.494853,0.863314
0.485000,0.868829
0.488480,0.853860
0.475154,0.874344
0.461822,0.881351
0.448507,0.888363
0.478649,0.859379
0.462058,0.868221
0.445488,0.877065
0.435204,0.895374
0.424987,0.900204
0.428938,0.885911
0.414778,0.905035
0.400980,0.911104
0.387197,0.917176
0.418740,0.890744
0.401548,0.898402
0.384377,0.906062
0.373425,0.923245
0.362896,0.927369
0.367224,0.913722
0.352373,0.931494
0.338179,0.936597
0.323998,0.941700
0.356710,0.917849
0.339008,0.924287
0.321326,0.930727
0.309827,0.946800
0.299036,0.950201
0.303660,0.937166
0.288251,0.953603
0.273731,0.957714
0.259222,0.961825
0.292882,0.940568
0.274761,0.945756
0.256658,0.950945
0.244723,0.965934
0.233721,0.968595
0.238570,0.956133
0.222725,0.971258
0.207949,0.974360
0.193183,0.977459
0.227580,0.958796
0.209130,0.962710
0.190698,0.966624
0.178428,0.980558
0.167266,0.982468
0.172280,0.970537
0.156111,0.984380
0.141151,0.986456
0.126200,0.988530
0.161129,0.972449
0.142443,0.975069
0.123773,0.977689
0.111259,0.990605
0.099991,0.991756
0.105117,0.980310
0.088728,0.992907
0.073656,0.993948
0.058593,0.994987
0.093858,0.981461
0.075027,0.982776
0.056211,0.984091
0.043539,0.996029
0.032215,0.996415
0.037409,0.985406
0.020897,0.996801
0.005785,0.996802
-0.009319,0.996803
0.026094,0.985792
0.007212,0.985795
-0.011657,0.985798
-0.024414,0.996807
-0.035740,0.996426
-0.030513,0.985802
-0.047061,0.996044
-0.062141,0.995005
-0.077212,0.993968
-0.041831,0.985421
-0.060674,0.984112
-0.079503,0.982804
-0.092276,0.992933
-0.103553,0.991787
-0.098321,0.981497
-0.114824,0.990639
-0.129800,0.988567
-0.144769,0.986497
-0.109590,0.980350
-0.128301,0.977736
-0.146999,0.975124
-0.159729,0.984428
-0.170904,0.982521
-0.165686,0.972511
-0.182074,0.980613
-0.196875,0.977517
-0.211669,0.974424
-0.176854,0.970605
-0.195343,0.966699
-0.213819,0.962794
-0.226455,0.971330
-0.237477,0.968671
-0.232285,0.958889
-0.248494,0.966012
-0.263050,0.961908
-0.277599,0.957805
-0.243300,0.956230
-0.261477,0.951051
-0.279642,0.945873
-0.292140,0.953701
-0.302958,0.950303
-0.297796,0.940694
-0.313773,0.946905
-0.328014,0.941812
-0.342249,0.936719
-0.308608,0.937297
-0.326385,0.930870
-0.344150,0.924443
-0.356476,0.931624
-0.367041,0.927503
-0.361905,0.918015
-0.377603,0.923382
-0.391463,0.917323
-0.405316,0.911264
-0.372465,0.913895
-0.389755,0.906250
-0.407035,0.898605
-0.419162,0.905202
-0.429425,0.900377
-0.424305,0.890960
-0.439686,0.895552
-0.453099,0.888556
-0.466504,0.881558
-0.434564,0.886136
-0.451285,0.877311
-0.467995,0.868485
-0.479903,0.874559
-0.489818,0.869052
-0.484696,0.859659
-0.499731,0.863545
-0.509459,0.857706
-0.494607,0.854152
-0.519184,0.851867
-0.531946,0.843747
-0.544704,0.835628
-0.504332,0.848313
-0.520333,0.838240
-0.536324,0.828168
-0.557457,0.827510
-0.566769,0.821027
-0.552306,0.818096
-0.576077,0.814544
-0.588254,0.805566
-0.600426,0.796591
-0.561616,0.811613
-0.576882,0.800455
-0.592138,0.789297
-0.612593,0.787616
-0.621446,0.780518
-0.607387,0.778140
-0.630295,0.773420
-0.641828,0.763628
-0.653358,0.753838
-0.616238,0.771043
-0.630695,0.758853
-0.645143,0.746664
-0.664881,0.744048
-0.673235,0.736368
-0.659583,0.734475
-0.681585,0.728688
-0.692421,0.718128
-0.703252,0.707569
-0.667935,0.726796
-0.681514,0.713633
-0.695085,0.700471
-0.714077,0.697010
-0.721893,0.688783
-0.708647,0.687309
-0.729707,0.680557
-0.739793,0.669278
-0.749875,0.658000
-0.716462,0.679082
-0.729097,0.665010
-0.741724,0.650938
-0.759950,0.646721
-0.767193,0.637985
-0.754343,0.636866
-0.774435,0.629250
-0.783724,0.617306
-0.793009,0.605362
-0.761585,0.628131
-0.773216,0.613217
-0.784839,0.598303
-0.802287,0.593417
-0.808924,0.584212
-0.796453,0.583388
-0.815560,0.575008
-0.824009,0.562454
-0.832451,0.549900
-0.803089,0.574184
-0.813660,0.558499
-0.824222,0.542815
-0.840889,0.537346
-0.846890,0.527714
-0.834776,0.527130
-0.852890,0.518083
-0.860458,0.504979
-0.868019,0.491874
-0.840776,0.517499
-0.850235,0.501119
-0.859685,0.484740
-0.875576,0.478770
-0.880915,0.468755
-0.869128,0.468360
-0.886251,0.458740
-0.892901,0.445148
-0.899546,0.431554
-0.874465,0.458345
-0.882766,0.441350
-0.891060,0.424354
-0.906187,0.417962
-0.910837,0.407609
-0.899347,0.407359
-0.915485,0.397257
-0.921187,0.383240
-0.926884,0.369223
-0.903995,0.397006
-0.911099,0.379476
-0.918196,0.361946
-0.932577,0.355206
-0.936519,0.344563
-0.925286,0.344417
-0.940457,0.333920
-0.945184,0.319545
-0.949906,0.305170
-0.929225,0.333774
-0.935098,0.315794
-0.940963,0.297814
-0.954625,0.290795
-0.957839,0.279910
-0.946822,0.279834
-0.961050,0.269025
-0.964779,0.254360
-0.968505,0.239694
-0.950034,0.268950
-0.954647,0.250606
-0.959254,0.232263
-0.972227,0.225029
-0.974699,0.213952
-0.963853,0.213920
-0.977167,0.202875
-0.979881,0.187988
-0.982593,0.173102
-0.966322,0.202843
-0.969654,0.184224
-0.972980,0.165605
-0.985300,0.158216
-0.987018,0.146997
-0.976297,0.146987
-0.988733,0.135778
-0.990420,0.120741
-0.992105,0.105703
-0.978013,0.135768
-0.980047,0.116964
-0.982075,0.098160
-0.993784,0.090666
-0.994740,0.079357
-0.984095,0.079355
-0.995694,0.068048
-0.996346,0.052930
-0.996996,0.037813
-0.985050,0.068046
-0.985777,0.049147
-0.986498,0.030247
-0.997639,0.022696
-0.997829,0.011348
-0.987210,0.011348
-0.998018,0.000000
-0.997829,-0.011348
-0.987399,0.000000
-0.997639,-0.022696
-0.996996,-0.037813
-0.996346,-0.052930
-0.987210,-0.011348
-0.986498,-0.030247
-0.985777,-0.049147
-0.995694,-0.068048
-0.994740,-0.079357
-0.985050,-0.068046
-0.993784,-0.090666
-0.992105,-0.105703
-0.990420,-0.120741
-0.984095,-0.079355
-0.982075,-0.098160
-0.980047,-0.116964
-0.988733,-0.135778
-0.987018,-0.146997
-0.978013,-0.135768
-0.985300,-0.158216
-0.982593,-0.173102
-0.979881,-0.187988
-0.976297,-0.146987
-0.972980,-0.165605
-0.969654,-0.184224
-0.977167,-0.202875
-0.974699,-0.213952
-0.966322,-0.202843
-0.972227,-0.225029
-0.968505,-0.239694
-0.964779,-0.254360
-0.963853,-0.213920
-0.959254,-0.232263
-0.954647,-0.250606
-0.961050,-0.269025
-0.957839,-0.279910
-0.950034,-0.268950
-0.954625,-0.290795
-0.949906,-0.305170
-0.945184,-0.319545
-0.946822,-0.279834
-0.940963,-0.297814
-0.935098,-0.315794
-0.940457,-0.333920
-0.936519,-0.344563
-0.929225,-0.333774
-0.932577,-0.355206
-0.926884,-0.369223
-0.921187,-0.383240
-0.925286,-0.344417
-0.918196,-0.361946
-0.911099,-0.379476
-0.915485,-0.397257
-0.910837,-0.407609
-0.903995,-0.397006
-0.906187,-0.417962
-0.899546,-0.431554
-0.892901,-0.445148
-0.899347,-0.407359
-0.891060,-0.424354
-0.882766,-0.441350
-0.886251,-0.458740
-0.880915,-0.468755
-0.874465,-0.458345
-0.875576,-0.478770
-0.868019,-0.491874
-0.860458,-0.504979
-0.869128,-0.468360
-0.859685,-0.484740
-0.850235,-0.501119
-0.852890,-0.518083
-0.846890,-0.527714
-0.840776,-0.517499
-0.840889,-0.537346
-0.832451,-0.549900
-0.824009,-0.562454
-0.834776,-0.527130
-0.824222,-0.542815
-0.813660,-0.558499
-0.815560,-0.575008
-0.808924,-0.584212
-0.803089,-0.574184
-0.802287,-0.593417
-0.793009,-0.605362
-0.783724,-0.617306
-0.796453,-0.583388
-0.784839,-0.598303
-0.773216,-0.613217
-0.774435,-0.629250
-0.767193,-0.637985
-0.761585,-0.628131
-0.759950,-0.646721
-0.749875,-0.658000
-0.739793,-0.669278
-0.754343,-0.636866
-0.741724,-0.650938
-0.729097,-0.665010
-0.729707,-0.680557
-0.721893,-0.688783
-0.716462,-0.679082
-0.714077,-0.697010
-0.703252,-0.707569
-0.692421,-0.718128
-0.708647,-0.687309
-0.695085,-0.700471
-0.681514,-0.713633
-0.681585,-0.728688
-0.673235,-0.736368
-0.667935,-0.726796
-0.664881,-0.744048
-0.653358,-0.753838
-0.641828,-0.763628
-0.659583,-0.734475
-0.645143,-0.746664
-0.630695,-0.758853
-0.630295,-0.773420
-0.621446,-0.780518
-0.616238,-0.771043
-0.612593,-0.787616
-0.600426,-0.796591
-0.588254,-0.805566
-0.607387,-0.778140
-0.592138,-0.789297
-0.576882,-0.800455
-0.576077,-0.814544
-0.566769,-0.821027
-0.561616,-0.811613
-0.557457,-0.827510
-0.544704,-0.835628
-0.531946,-0.843747
-0.552306,-0.818096
-0.536324,-0.828168
-0.520333,-0.838240
-0.519184,-0.851867
-0.509459,-0.857706
-0.504332,-0.848313
-0.499731,-0.863545
-0.489818,-0.869052
-0.494607,-0.854152
-0.479903,-0.874559
-0.466504,-0.881558
-0.453099,-0.888556
-0.484696,-0.859659
-0.467995,-0.868485
-0.451285,-0.877311
-0.439686,-0.895552
-0.429425,-0.900377
-0.434564,-0.886136
-0.419162,-0.905202
-0.405316,-0.911264
-0.391463,-0.917323
-0.424305,-0.890960
-0.407035,-0.898605
-0.389755,-0.906250
-0.377603,-0.923382
-0.367041,-0.927503
-0.372465,-0.913895
-0.356476,-0.931624
-0.342249,-0.936719
-0.328014,-0.941812
-0.361905,-0.918015
-0.344150,-0.924443
-0.326385,-0.930870
-0.313773,-0.946905
-0.302958,-0.950303
-0.308608,-0.937297
-0.292140,-0.953701
-0.277599,-0.957805
-0.263050,-0.961908
-0.297796,-0.940694
-0.279642,-0.945873
-0.261477,-0.951051
-0.248494,-0.966012
-0.237477,-0.968671
-0.243300,-0.956230
-0.226455,-0.971330
-0.211669,-0.974424
-0.196875,-0.977517
-0.232285,-0.958889
-0.213819,-0.962794
-0.195343,-0.966699
-0.182074,-0.980613
-0.170904,-0.982521
-0.176854,-0.970605
-0.159729,-0.984428
-0.144769,-0.986497
-0.129800,-0.988567
-0.165686,-0.972511
-0.146999,-0.975124
-0.128301,-0.977736
-0.114824,-0.990639
-0.103553,-0.991787
-0.109590,-0.980350
-0.092276,-0.992933
-0.077212,-0.993968
-0.062141,-0.995005
-0.098321,-0.981497
-0.079503,-0.982804
-0.060674,-0.984112
-0.047061,-0.996044
-0.035740,-0.996426
-0.041831,-0.985421
-0.024414,-0.996807
-0.009319,-0.996803
0.005785,-0.996802
-0.030513,-0.985802
-0.011657,-0.985798
0.007212,-0.985795
0.020897,-0.996801
0.032215,-0.996415
0.026094,-0.985792
0.043539,-0.996029
0.058593,-0.994987
0.073656,-0.993948
0.037409,-0.985406
0.056211,-0.984091
0.075027,-0.982776
0.088728,-0.992907
0.099991,-0.991756
0.093858,-0.981461
0.111259,-0.990605
0.126200,-0.988530
0.141151,-0.986456
0.105117,-0.980310
0.123773,-0.977689
0.142443,-0.975069
0.156111,-0.984380
0.167266,-0.982468
0.161129,-0.972449
0.178428,-0.980558
0.193183,-0.977459
0.207949,-0.974360
0.172280,-0.970537
0.190698,-0.966624
0.209130,-0.962710
0.222725,-0.971258
0.233721,-0.968595
0.227580,-0.958796
0.244723,-0.965934
0.259222,-0.961825
0.273731,-0.957714
0.238570,-0.956133
0.256658,-0.950945
0.274761,-0.945756
0.288251,-0.953603
0.299036,-0.950201
0.292882,-0.940568
0.309827,-0.946800
0.323998,-0.941700
0.338179,-0.936597
0.303660,-0.937166
0.321326,-0.930727
0.339008,-0.924287
0.352373,-0.931494
0.362896,-0.927369
0.356710,-0.917849
0.373425,-0.923245
0.387197,-0.917176
0.400980,-0.911104
0.367224,-0.913722
0.384377,-0.906062
0.401548,-0.898402
0.414778,-0.905035
0.424987,-0.900204
0.418740,-0.890744
0.435204,-0.895374
0.448507,-0.888363
0.461822,-0.881351
0.428938,-0.885911
0.445488,-0.877065
0.462058,-0.868221
0.475154,-0.874344
0.485000,-0.868829
0.478649,-0.859379
0.494853,-0.863314
0.504489,-0.857462
0.488480,-0.853860
0.514132,-0.851609
0.526759,-0.843473
0.539404,-0.835342
0.498094,-0.848006
0.513883,-0.837908
0.529692,-0.827811
0.552062,-0.827208
0.561256,-0.820707
0.545525,-0.817715
0.570460,-0.814208
0.582463,-0.805210
0.594482,-0.796215
0.554692,-0.811212
0.569686,-0.800020
0.584700,-0.788828
0.606515,-0.787216
0.615216,-0.780095
0.599737,-0.777636
0.623928,-0.772977
0.635232,-0.763156
0.646551,-0.753334
0.608403,-0.770512
0.622504,-0.758274
0.636623,-0.746035
0.657883,-0.743508
0.666035,-0.735797
0.650761,-0.733794
0.674197,-0.728088
0.684721,-0.717483
0.695255,-0.706873
0.658865,-0.726076
0.671963,-0.712842
0.685070,-0.699603
0.705800,-0.696260
0.713338,-0.687987
0.698190,-0.686360
0.720882,-0.679714
0.730524,-0.668361
0.740165,-0.656999
0.705659,-0.678075
0.717613,-0.663889
0.729558,-0.649692
0.749814,-0.645633
0.756645,-0.636821
0.741497,-0.635483
0.763475,-0.628004
0.772086,-0.615927
0.780672,-0.603833
0.748224,-0.626649
0.758826,-0.611537
0.769371,-0.596398
0.789241,-0.591727
0.795207,-0.582375
0.779853,-0.581227
0.801143,-0.573008
0.808432,-0.560184
0.815614,-0.547313
0.785640,-0.571833
0.794486,-0.555758
0.803123,-0.539600
0.822680,-0.534392
0.827374,-0.524411
0.811490,-0.523335
0.831922,-0.514368
0.837009,-0.500547
0.841604,-0.486527
0.815833,-0.513257
0.821788,-0.495909
0.826921,-0.478242
0.845471,-0.472205
0.847115,-0.460943
0.830849,-0.460099
0.847984,-0.449363
0.846975,-0.433094
0.844372,-0.416253
0.831881,-0.448683
0.831041,-0.428708
0.828191,-0.408069
0.840473,-0.399044
0.836367,-0.385852
0.823602,-0.386977
0.831848,-0.372645
0.824632,-0.354933
0.816990,-0.337387
0.819711,-0.374074
0.811556,-0.352370
0.802664,-0.330856
0.808985,-0.320046
0.802393,-0.307132
0.793179,-0.309624
0.795662,-0.294371
0.785946,-0.277551
0.776059,-0.261045
0.786891,-0.296984
0.775389,-0.276155
0.763600,-0.255783
0.765998,-0.244860
0.758059,-0.232921
0.751538,-0.235881
0.750047,-0.221172
0.738840,-0.205817
0.727551,-0.190812
0.743921,-0.224158
0.730526,-0.205029
0.717017,-0.186424
0.716164,-0.176159
0.707377,-0.165418
0.703387,-0.168346
0.698560,-0.154878
0.686503,-0.141195
0.674452,-0.127867
0.694998,-0.157767
0.680642,-0.140626
0.666352,-0.124022
0.662395,-0.114899
0.653290,-0.105440
0.652153,-0.107952
0.644236,-0.096180
0.632205,-0.084219
0.620400,-0.072596
0.643641,-0.098590
0.629602,-0.083492
0.616071,-0.068894
0.608874,-0.061314
0.600562,-0.053100
0.603246,-0.054783
0.592584,-0.045063
0.582924,-0.034667
0.574482,-0.024522
0.596058,-0.046561
0.585583,-0.033254
0.577334,-0.020283
0.567912,-0.014604
0.564967,-0.007276
0.572346,-0.007560
0.554247,0.000000
0.557518,0.010458
0.565275,0.021084
0.576243,0.032088
0.588619,0.043431
0.601960,0.055280
0.615937,0.067546
0.630197,0.080360
0.644611,0.093609
0.659040,0.107428
0.673531,0.121700
0.687774,0.136530
0.701966,0.151810
0.715826,0.167645
0.729600,0.183929
0.742876,0.200733
0.756028,0.217981
0.768612,0.235721
0.781032,0.253891
0.792755,0.272498
0.804274,0.291514
0.814982,0.310900
0.825412,0.330653
0.834852,0.350663
0.843828,0.370932
0.851490,0.391249
0.858273,0.411570
0.862652,0.431287
0.864919,0.450274
0.863462,0.467748
0.860072,0.484392
0.854587,0.500134
0.848469,0.515613
0.841218,0.530578
0.833677,0.545411
0.825327,0.559849
0.816890,0.574246
0.807724,0.588239
0.798513,0.602203
0.788702,0.615807
0.778884,0.629397
0.768465,0.642585
0.758060,0.655771
0.747136,0.668580
0.736218,0.681378
0.724778,0.693762
0.713368,0.706154
0.701486,0.718141
0.689614,0.730116
0.677279,0.741662
0.664979,0.753220
0.652243,0.764342
0.639518,0.775451
0.626382,0.786118
0.613277,0.796797
0.599772,0.807007
0.586280,0.817208
0.572422,0.826952
0.558590,0.836704
0.544394,0.845960
0.530213,0.855212
0.515707,0.863991
0.501221,0.872770
0.486410,0.881035
0.471616,0.889300
0.456533,0.897071
0.441467,0.904841
0.426116,0.912077
0.410783,0.919319
0.395198,0.926049
0.379625,0.932771
0.363809,0.938949
0.348012,0.945138
0.331997,0.950792
0.315994,0.956437
0.299789,0.961532
0.283601,0.966638
0.267233,0.971190
0.250875,0.975734
0.234357,0.979724
0.217855,0.983722
0.201210,0.987152
0.184576,0.990576
0.167821,0.993442
0.151080,0.996314
0.134236,0.998606
0.117403,1.000897
0.100490,1.002626
0.083588,1.004356
0.066624,1.005502
0.049670,1.006649
0.032675,1.007232
0.015691,1.007812
-0.001316,1.007807
-0.018312,1.007808
-0.035310,1.007241
-0.052298,1.006667
-0.069268,1.005514
-0.086229,1.004368
-0.103152,1.002651
-0.120065,1.000927
-0.136922,0.998632
-0.153769,0.996344
-0.170540,0.993485
-0.187300,0.990619
-0.203965,0.987193
-0.220623,0.983773
-0.237163,0.979784
-0.253693,0.975791
-0.270091,0.971250
-0.286482,0.966711
-0.302715,0.961611
-0.318941,0.956511
-0.334997,0.950874
-0.351045,0.945236
-0.366898,0.939050
-0.382745,0.932867
-0.398385,0.926160
-0.414016,0.919447
-0.429416,0.912204
-0.444812,0.904967
-0.459964,0.897218
-0.475106,0.889462
-0.489984,0.881197
-0.504859,0.872938
-0.519454,0.864181
-0.534038,0.855419
-0.548326,0.846169
-0.562611,0.836925
-0.576580,0.827201
-0.590539,0.817471
-0.604173,0.807280
-0.617803,0.797093
-0.631083,0.786445
-0.644354,0.775795
-0.657271,0.764708
-0.670182,0.753622
-0.682713,0.742101
-0.695237,0.730579
-0.707377,0.718646
-0.719510,0.706713
-0.731234,0.694370
-0.742954,0.682030
-0.754261,0.669305
-0.765560,0.656577
-0.776425,0.643472
-0.787287,0.630369
-0.797710,0.616909
-0.808122,0.603446
-0.818079,0.589638
-0.828034,0.575832
-0.837524,0.561698
-0.847002,0.547561
-0.856007,0.533113
-0.865009,0.518668
-0.873521,0.503924
-0.882023,0.489178
-0.890034,0.474156
-0.898041,0.459136
-0.905537,0.443850
-0.913026,0.428564
-0.920006,0.413036
-0.926981,0.397508
-0.933426,0.381751
-0.939867,0.365994
-0.945785,0.350031
-0.951694,0.334067
-0.957061,0.317910
-0.962426,0.301755
-0.967253,0.285429
-0.972069,0.269101
-0.976334,0.252619
-0.980599,0.236138
-0.984312,0.219523
-0.988013,0.202907
-0.991158,0.186175
-0.994303,0.169444
-0.996883,0.152617
-0.999453,0.135788
-1.001464,0.118882
-1.003474,0.101977
-1.004910,0.085013
-1.006338,0.068049
-1.007206,0.051047
-1.008070,0.034044
-1.008356,0.017022
-1.008637,0.000000
-1.008356,-0.017022
-1.008070,-0.034044
-1.007206,-0.051047
-1.006338,-0.068049
-1.004910,-0.085013
-1.003474,-0.101977
-1.001464,-0.118882
-0.999453,-0.135788
-0.996883,-0.152617
-0.994303,-0.169444
-0.991158,-0.186175
-0.988013,-0.202907
-0.984312,-0.219523
-0.980599,-0.236138
-0.976334,-0.252619
-0.972069,-0.269101
-0.967253,-0.285429
-0.962426,-0.301755
-0.957061,-0.317910
-0.951694,-0.334067
-0.945785,-0.350031
-0.939867,-0.365994
-0.933426,-0.381751
-0.926981,-0.397508
-0.920006,-0.413036
-0.913026,-0.428564
-0.905537,-0.443850
-0.898041,-0.459136
-0.890034,-0.474156
-0.882023,-0.489178
-0.873521,-0.503924
-0.865009,-0.518668
-0.856007,-0.533113
-0.847002,-0.547561
-0.837524,-0.561698
-0.828034,-0.575832
-0.818079,-0.589638
-0.808122,-0.603446
-0.797710,-0.616909
-0.787287,-0.630369
-0.776425,-0.643472
-0.765560,-0.656577
-0.754261,-0.669305
-0.742954,-0.682030
-0.731234,-0.694370
-0.719510,-0.706713
-0.707377,-0.718646
-0.695237,-0.730579
-0.682713,-0.742101
-0.670182,-0.753622
-0.657271,-0.764708
-0.644354,-0.775795
-0.631083,-0.786445
-0.617803,-0.797093
-0.604173,-0.807280
-0.590539,-0.817471
-0.576580,-0.827201
-0.562611,-0.836925
-0.548326,-0.846169
-0.534038,-0.855419
-0.519454,-0.864181
-0.504859,-0.872938
-0.489984,-0.881197
-0.475106,-0.889462
-0.459964,-0.897218
-0.444812,-0.904967
-0.429416,-0.912204
-0.414016,-0.919447
-0.398385,-0.926160
-0.382745,-0.932867
-0.366898,-0.939050
-0.351045,-0.945236
-0.334997,-0.950874
-0.318941,-0.956511
-0.302715,-0.961611
-0.286482,-0.966711
-0.270091,-0.971250
-0.253693,-0.975791
-0.237163,-0.979784
-0.220623,-0.983773
-0.203965,-0.987193
-0.187300,-0.990619
-0.170540,-0.993485
-0.153769,-0.996344
-0.136922,-0.998632
-0.120065,-1.000927
-0.103152,-1.002651
-0.086229,-1.004368
-0.069268,-1.005514
-0.052298,-1.006667
-0.035310,-1.007241
-0.018312,-1.007808
-0.001316,-1.007807
0.015691,-1.007812
0.032675,-1.007232
0.049670,-1.006649
0.066624,-1.005502
0.083588,-1.004356
0.100490,-1.002626
0.117403,-1.000897
0.134236,-0.998606
0.151080,-0.996314
0.167821,-0.993442
0.184576,-0.990576
0.201210,-0.987152
0.217855,-0.983722
0.234357,-0.979724
0.250875,-0.975734
0.267233,-0.971190
0.283601,-0.966638
0.299789,-0.961532
0.315994,-0.956437
0.331997,-0.950792
0.348012,-0.945138
0.363809,-0.938949
0.379625,-0.932771
0.395198,-0.926049
0.410783,-0.919319
0.426116,-0.912077
0.441467,-0.904841
0.456533,-0.897071
0.471616,-0.889300
0.486410,-0.881035
0.501221,-0.872770
0.515707,-0.863991
0.530213,-0.855212
0.544394,-0.845960
0.558590,-0.836704
0.572422,-0.826952
0.586280,-0.817208
0.599772,-0.807007
0.613277,-0.796797
0.626382,-0.786118
0.639518,-0.775451
0.652243,-0.764342
0.664979,-0.753220
0.677279,-0.741662
0.689614,-0.730116
0.701486,-0.718141
0.713368,-0.706154
0.724778,-0.693762
0.736218,-0.681378
0.747136,-0.668580
0.758060,-0.655771
0.768465,-0.642585
0.778884,-0.629397
0.788702,-0.615807
0.798513,-0.602203
0.807724,-0.588239
0.816890,-0.574246
0.825327,-0.559849
0.833677,-0.545411
0.841218,-0.530578
0.848469,-0.515613
0.854587,-0.500134
0.860072,-0.484392
0.863462,-0.467748
0.864919,-0.450274
0.862652,-0.431287
0.858273,-0.411570
0.851490,-0.391249
0.843828,-0.370932
0.834852,-0.350663
0.825412,-0.330653
0.814982,-0.310900
0.804274,-0.291514
0.792755,-0.272498
0.781032,-0.253891
0.768612,-0.235721
0.756028,-0.217981
0.742876,-0.200733
0.729600,-0.183929
0.715826,-0.167645
0.701966,-0.151810
0.687774,-0.136530
0.673531,-0.121700
0.659040,-0.107428
0.644611,-0.093609
0.630197,-0.080360
0.615937,-0.067546
0.601960,-0.055280
0.588619,-0.043431
0.576243,-0.032088
0.565275,-0.021084
0.557518,-0.010458
0.545528,0.000000
0.546844,0.005010
0.551404,0.012582
0.559211,0.020345
0.565248,0.025642
0.575071,0.033756
0.585256,0.042133
0.592371,0.047877
0.603344,0.056704
0.614594,0.065839
0.622138,0.072095
0.633463,0.081693
0.644742,0.091589
0.652291,0.098364
0.663615,0.108756
0.674933,0.119458
0.682380,0.126760
0.693430,0.137931
0.704411,0.149406
0.711650,0.157228
0.722392,0.169183
0.733052,0.181441
0.740002,0.189768
0.750243,0.202467
0.760404,0.215468
0.767025,0.224288
0.776750,0.237718
0.786365,0.251441
0.792578,0.260724
0.801645,0.274829
0.810600,0.289223
0.816351,0.298937
0.824674,0.313663
0.832859,0.328661
0.838061,0.338753
0.845478,0.353998
0.852654,0.369460
0.857102,0.379809
0.863253,0.395352
0.868975,0.410993
0.872188,0.421302
0.875948,0.436473
0.877901,0.450972
0.878020,0.460154
0.876513,0.473205
0.873411,0.485513
0.870744,0.493461
0.866055,0.505084
0.861160,0.516620
0.857588,0.524173
0.851803,0.535298
0.845887,0.546348
0.841740,0.553618
0.835255,0.564393
0.828784,0.575170
0.824285,0.582254
0.817241,0.592706
0.810191,0.603143
0.805359,0.610024
0.797898,0.620216
0.790453,0.630405
0.785344,0.637101
0.777430,0.646968
0.769544,0.656842
0.764180,0.663351
0.755936,0.672966
0.747695,0.682567
0.742082,0.688873
0.733437,0.698147
0.724833,0.707441
0.719005,0.713561
0.710068,0.722569
0.701128,0.731555
0.695068,0.737453
0.685776,0.746109
0.676526,0.754790
0.670279,0.760498
0.660714,0.768862
0.651144,0.777201
0.644682,0.782671
0.634807,0.790677
0.624969,0.798710
0.618338,0.803981
0.608203,0.811664
0.598065,0.819324
0.591239,0.824346
0.580835,0.831671
0.570461,0.839017
0.563482,0.843829
0.552831,0.850797
0.542183,0.857748
0.535029,0.862303
0.524149,0.868915
0.513290,0.875540
0.505996,0.879871
0.498616,0.884062
0.487468,0.890216
0.476337,0.896379
0.468826,0.900336
0.457492,0.906146
0.446163,0.911944
0.438515,0.915632
0.426971,0.921020
0.415446,0.926425
0.407685,0.929874
0.395978,0.934903
0.384273,0.939915
0.376392,0.943083
0.364507,0.947684
0.352641,0.952307
0.344664,0.955230
0.332639,0.959454
0.320616,0.963658
0.312539,0.966295
0.300369,0.970092
0.288215,0.973909
0.280058,0.976292
0.267770,0.979691
0.255486,0.983071
0.247249,0.985166
0.234850,0.988142
0.222463,0.991134
0.214163,0.992965
0.201670,0.995522
0.189182,0.998067
0.180823,0.999613
0.168250,1.001754
0.155687,1.003904
0.147281,1.005175
0.134641,1.006881
0.122007,1.008582
0.113563,1.009571
0.100872,1.010866
0.088190,1.012162
0.079717,1.012868
0.066988,1.013716
0.054266,1.014568
0.045774,1.014996
0.033023,1.015437
0.020279,1.015871
0.011777,1.016010
-0.000982,1.015999
-0.013735,1.015999
-0.022238,1.015863
-0.034991,1.015446
-0.047736,1.015016
-0.056230,1.014587
-0.068962,1.013720
-0.081687,1.012868
-0.090164,1.012168
-0.102861,1.010892
-0.115550,1.009601
-0.123997,1.008607
-0.136644,1.006891
-0.149286,1.005189
-0.157697,1.003927
-0.170280,1.001796
-0.182856,0.999652
-0.191219,0.998098
-0.203723,0.995541
-0.216224,0.992995
-0.224534,0.991176
-0.236945,0.988198
-0.249349,0.985213
-0.257592,0.983108
-0.269898,0.979722
-0.282201,0.976341
-0.290371,0.973972
-0.302554,0.970162
-0.314731,0.966351
-0.322817,0.963705
-0.334870,0.959504
-0.346919,0.955302
-0.354913,0.952392
-0.366812,0.947769
-0.378707,0.943151
-0.386601,0.939976
-0.398347,0.934977
-0.410085,0.929971
-0.417868,0.926533
-0.429429,0.921120
-0.440990,0.915717
-0.448657,0.912026
-0.460042,0.906251
-0.471416,0.900463
-0.478952,0.896513
-0.490125,0.890336
-0.501300,0.884172
-0.508707,0.879983
-0.516044,0.875671
-0.526974,0.869075
-0.537891,0.862466
-0.545075,0.857903
-0.555775,0.850939
-0.566478,0.843987
-0.573511,0.839194
-0.583971,0.831875
-0.594420,0.824547
-0.601287,0.819519
-0.611499,0.811856
-0.621710,0.804199
-0.628408,0.798948
-0.638351,0.790939
-0.648286,0.782927
-0.654806,0.777456
-0.664482,0.769127
-0.674155,0.760799
-0.680488,0.755112
-0.689869,0.746452
-0.699247,0.737792
-0.705391,0.731902
-0.714487,0.722943
-0.723577,0.713981
-0.729517,0.707885
-0.738295,0.698613
-0.747074,0.689346
-0.752813,0.683061
-0.761288,0.673511
-0.769753,0.663956
-0.775273,0.657478
-0.783410,0.647638
-0.791551,0.637805
-0.796861,0.631153
-0.804674,0.621054
-0.812475,0.610950
-0.817553,0.604118
-0.825013,0.593756
-0.832479,0.583400
-0.837335,0.576410
-0.844450,0.565808
-0.851553,0.555200
-0.856166,0.548047
-0.862917,0.537208
-0.869672,0.526375
-0.874053,0.519077
-0.880436,0.508019
-0.886810,0.496957
-0.890940,0.489514
-0.896951,0.478249
-0.902964,0.466987
-0.906848,0.459413
-0.912472,0.447949
-0.918090,0.436484
-0.921717,0.428784
-0.926962,0.417142
-0.932204,0.405500
-0.935575,0.397684
-0.940413,0.385868
-0.945251,0.374052
-0.948361,0.366129
-0.952815,0.354162
-0.957260,0.342193
-0.960102,0.334169
-0.964135,0.322054
-0.968172,0.309941
-0.970751,0.301829
-0.974392,0.289590
-0.978020,0.277349
-0.980321,0.269154
-0.983532,0.256795
-0.986750,0.244440
-0.988786,0.236174
-0.991596,0.223718
-0.994390,0.211260
-0.996140,0.202930
-0.998517,0.190384
-1.000902,0.177840
-1.002385,0.169458
-1.004349,0.156841
-1.006298,0.144223
-1.007490,0.135794
-1.009023,0.123118
-1.010563,0.110443
-1.011486,0.101980
-1.012594,0.089260
-1.013690,0.076539
-1.014320,0.068050
-1.015003,0.055299
-1.015689,0.042550
-1.016047,0.034045
-1.016294,0.021278
-1.016533,0.008512
-1.016599,0.000000
-1.016533,-0.008512
-1.016294,-0.021278
-1.016047,-0.034045
-1.015689,-0.042550
-1.015003,-0.055299
-1.014320,-0.068050
-1.013690,-0.076539
-1.012594,-0.089260
-1.011486,-0.101980
-1.010563,-0.110443
-1.009023,-0.123118
-1.007490,-0.135794
-1.006298,-0.144223
-1.004349,-0.156841
-1.002385,-0.169458
-1.000902,-0.177840
-0.998517,-0.190384
-0.996140,-0.202930
-0.994390,-0.211260
-0.991596,-0.223718
-0.988786,-0.236174
-0.986750,-0.244440
-0.983532,-0.256795
-0.980321,-0.269154
-0.978020,-0.277349
-0.974392,-0.289590
-0.970751,-0.301829
-0.968172,-0.309941
-0.964135,-0.322054
-0.960102,-0.334169
-0.957260,-0.342193
-0.952815,-0.354162
-0.948361,-0.366129
-0.945251,-0.374052
-0.940413,-0.385868
-0.935575,-0.397684
-0.932204,-0.405500
-0.926962,-0.417142
-0.921717,-0.428784
-0.918090,-0.436484
-0.912472,-0.447949
-0.906848,-0.459413
-0.902964,-0.466987
-0.896951,-0.478249
-0.890940,-0.489514
-0.886810,-0.496957
-0.880436,-0.508019
-0.874053,-0.519077
-0.869672,-0.526375
-0.862917,-0.537208
-0.856166,-0.548047
-0.851553,-0.555200
-0.844450,-0.565808
-0.837335,-0.576410
-0.832479,-0.583400
-0.825013,-0.593756
-0.817553,-0.604118
-0.812475,-0.610950
-0.804674,-0.621054
-0.796861,-0.631153
-0.791551,-0.637805
-0.783410,-0.647638
-0.775273,-0.657478
-0.769753,-0.663956
-0.761288,-0.673511
-0.752813,-0.683061
-0.747074,-0.689346
-0.738295,-0.698613
-0.729517,-0.707885
-0.723577,-0.713981
-0.714487,-0.722943
-0.705391,-0.731902
-0.699247,-0.737792
-0.689869,-0.746452
-0.680488,-0.755112
-0.674155,-0.760799
-0.664482,-0.769127
-0.654806,-0.777456
-0.648286,-0.782927
-0.638351,-0.790939
-0.628408,-0.798948
-0.621710,-0.804199
-0.611499,-0.811856
-0.601287,-0.819519
-0.594420,-0.824547
-0.583971,-0.831875
-0.573511,-0.839194
-0.566478,-0.843987
-0.555775,-0.850939
-0.545075,-0.857903
-0.537891,-0.862466
-0.526974,-0.869075
-0.516044,-0.875671
-0.508707,-0.879983
-0.501300,-0.884172
-0.490125,-0.890336
-0.478952,-0.896513
-0.471416,-0.900463
-0.460042,-0.906251
-0.448657,-0.912026
-0.440990,-0.915717
-0.429429,-0.921120
-0.417868,-0.926533
-0.410085,-0.929971
-0.398347,-0.934977
-0.386601,-0.939976
-0.378707,-0.943151
-0.366812,-0.947769
-0.354913,-0.952392
-0.346919,-0.955302
-0.334870,-0.959504
-0.322817,-0.963705
-0.314731,-0.966351
-0.302554,-0.970162
-0.290371,-0.973972
-0.282201,-0.976341
-0.269898,-0.979722
-0.257592,-0.983108
-0.249349,-0.985213
-0.236945,-0.988198
-0.224534,-0.991176
-0.216224,-0.992995
-0.203723,-0.995541
-0.191219,-0.998098
-0.182856,-0.999652
-0.170280,-1.001796
-0.157697,-1.003927
-0.149286,-1.005189
-0.136644,-1.006891
-0.123997,-1.008607
-0.115550,-1.009601
-0.102861,-1.010892
-0.090164,-1.012168
-0.081687,-1.012868
-0.068962,-1.013720
-0.056230,-1.014587
-0.047736,-1.015016
-0.034991,-1.015446
-0.022238,-1.015863
-0.013735,-1.015999
-0.000982,-1.015999
0.011777,-1.016010
0.020279,-1.015871
0.033023,-1.015437
0.045774,-1.014996
0.054266,-1.014568
0.066988,-1.013716
0.079717,-1.012868
0.088190,-1.012162
0.100872,-1.010866
0.113563,-1.009571
0.122007,-1.008582
0.134641,-1.006881
0.147281,-1.005175
0.155687,-1.003904
0.168250,-1.001754
0.180823,-0.999613
0.189182,-0.998067
0.201670,-0.995522
0.214163,-0.992965
0.222463,-0.991134
0.234850,-0.988142
0.247249,-0.985166
0.255486,-0.983071
0.267770,-0.979691
0.280058,-0.976292
0.288215,-0.973909
0.300369,-0.970092
0.312539,-0.966295
0.320616,-0.963658
0.332639,-0.959454
0.344664,-0.955230
0.352641,-0.952307
0.364507,-0.947684
0.376392,-0.943083
0.384273,-0.939915
0.395978,-0.934903
0.407685,-0.929874
0.415446,-0.926425
0.426971,-0.921020
0.438515,-0.915632
0.446163,-0.911944
0.457492,-0.906146
0.468826,-0.900336
0.476337,-0.896379
0.487468,-0.890216
0.498616,-0.884062
0.505996,-0.879871
0.513290,-0.875540
0.524149,-0.868915
0.535029,-0.862303
0.542183,-0.857748
0.552831,-0.850797
0.563482,-0.843829
0.570461,-0.839017
0.580835,-0.831671
0.591239,-0.824346
0.598065,-0.819324
0.608203,-0.811664
0.618338,-0.803981
0.624969,-0.798710
0.634807,-0.790677
0.644682,-0.782671
0.651144,-0.777201
0.660714,-0.768862
0.670279,-0.760498
0.676526,-0.754790
0.685776,-0.746109
0.695068,-0.737453
0.701128,-0.731555
0.710068,-0.722569
0.719005,-0.713561
0.724833,-0.707441
0.733437,-0.698147
0.742082,-0.688873
0.747695,-0.682567
0.755936,-0.672966
0.764180,-0.663351
0.769544,-0.656842
0.777430,-0.646968
0.785344,-0.637101
0.790453,-0.630405
0.797898,-0.620216
0.805359,-0.610024
0.810191,-0.603143
0.817241,-0.592706
0.824285,-0.582254
0.828784,-0.575170
0.835255,-0.564393
0.841740,-0.553618
0.845887,-0.546348
0.851803,-0.535298
0.857588,-0.524173
0.861160,-0.516620
0.866055,-0.505084
0.870744,-0.493461
0.873411,-0.485513
0.876513,-0.473205
0.878020,-0.460154
0.877901,-0.450972
0.875948,-0.436473
0.872188,-0.421302
0.868975,-0.410993
0.863253,-0.395352
0.857102,-0.379809
0.852654,-0.369460
0.845478,-0.353998
0.838061,-0.338753
0.832859,-0.328661
0.824674,-0.313663
0.816351,-0.298937
0.810600,-0.289223
0.801645,-0.274829
0.792578,-0.260724
0.786365,-0.251441
0.776750,-0.237718
0.767025,-0.224288
0.760404,-0.215468
0.750243,-0.202467
0.740002,-0.189768
0.733052,-0.181441
0.722392,-0.169183
0.711650,-0.157228
0.704411,-0.149406
0.693430,-0.137931
0.682380,-0.126760
0.674933,-0.119458
0.663615,-0.108756
0.652291,-0.098364
0.644742,-0.091589
0.633463,-0.081693
0.622138,-0.072095
0.614594,-0.065839
0.603344,-0.056704
0.592371,-0.047877
0.585256,-0.042133
0.575071,-0.033756
0.565248,-0.025642
0.559211,-0.020345
0.551404,-0.012582
0.546844,-0.005010
0.534547,0.000000
0.539642,0.009554
0.552220,0.019480
0.566971,0.029858
0.581683,0.040693
0.597055,0.052048
0.613162,0.063985
0.629145,0.076444
0.644778,0.089414
0.660525,0.102952
0.676305,0.117068
0.691707,0.131692
0.706776,0.146839
0.721748,0.162547
0.736472,0.178795
0.750759,0.195531
0.764704,0.212779
0.778374,0.230551
0.791639,0.248811
0.804449,0.267535
0.816844,0.286733
0.828771,0.306375
0.840193,0.326444
0.851112,0.346926
0.861378,0.367749
0.870847,0.388830
0.879601,0.410178
0.887237,0.431567
0.891942,0.452030
0.891974,0.470532
0.887654,0.487011
0.881133,0.502450
0.874109,0.517700
0.866585,0.532730
0.858309,0.547356
0.849624,0.561767
0.840800,0.576124
0.831613,0.590264
0.821964,0.604104
0.812111,0.617817
0.802111,0.631440
0.791761,0.644805
0.781075,0.657914
0.770251,0.670920
0.759247,0.683785
0.747911,0.696362
0.736322,0.708716
0.724617,0.720968
0.712706,0.733026
0.700491,0.744780
0.688086,0.756340
0.675568,0.767785
0.662826,0.778983
0.649819,0.789876
0.636668,0.800600
0.623396,0.811180
0.609896,0.821470
0.596175,0.831466
0.582340,0.841309
0.568375,0.850970
0.554190,0.860309
0.539827,0.869374
0.525369,0.878292
0.510773,0.886985
0.495976,0.895335
0.481043,0.903440
0.466024,0.911388
0.450862,0.919064
0.435532,0.926400
0.420097,0.933515
0.404578,0.940448
0.388923,0.947073
0.373134,0.953371
0.357263,0.959464
0.341310,0.965343
0.325238,0.970890
0.309063,0.976131
0.292824,0.981172
0.276509,0.985965
0.260096,0.990413
0.243608,0.994580
0.227069,0.998543
0.210465,1.002222
0.193787,1.005559
0.177059,1.008637
0.160292,1.011496
0.143475,1.014045
0.126609,1.016262
0.109714,1.018239
0.092791,1.019976
0.075838,1.021382
0.058861,1.022477
0.041870,1.023342
0.024868,1.023943
0.007857,1.024204
-0.009157,1.024177
-0.026170,1.023923
-0.043175,1.023379
-0.060167,1.022499
-0.077144,1.021354
-0.094104,1.019977
-0.111036,1.018289
-0.127933,1.016277
-0.144800,1.014021
-0.161632,1.011520
-0.178413,1.008695
-0.195140,1.005566
-0.211823,1.002208
-0.228452,0.998589
-0.245006,0.994642
-0.261491,0.990415
-0.277918,0.985968
-0.294268,0.981241
-0.310521,0.976193
-0.326693,0.970891
-0.342792,0.965369
-0.358787,0.959554
-0.374668,0.953431
-0.390458,0.947079
-0.406156,0.940501
-0.421725,0.933623
-0.437164,0.926458
-0.452504,0.919083
-0.467730,0.911475
-0.482801,0.903564
-0.497733,0.895393
-0.512556,0.887027
-0.527239,0.878416
-0.541747,0.869512
-0.556109,0.860377
-0.570348,0.851050
-0.584420,0.841471
-0.598301,0.831620
-0.612034,0.821561
-0.625623,0.811309
-0.639019,0.800806
-0.652216,0.790054
-0.665259,0.779115
-0.678135,0.767981
-0.690796,0.756601
-0.703254,0.745000
-0.715549,0.733227
-0.727652,0.721256
-0.739522,0.709053
-0.751189,0.696656
-0.762681,0.684097
-0.773954,0.671341
-0.784983,0.658373
-0.795809,0.645235
-0.806445,0.631942
-0.816837,0.618458
-0.826979,0.604785
-0.836918,0.590964
-0.846646,0.576993
-0.856110,0.562841
-0.865324,0.548526
-0.874333,0.534081
-0.883106,0.519491
-0.891601,0.504738
-0.899851,0.489846
-0.907887,0.474837
-0.915663,0.459693
-0.923154,0.444404
-0.930406,0.429001
-0.937431,0.413494
-0.944174,0.397862
-0.950631,0.382109
-0.956854,0.366262
-0.962834,0.350322
-0.968513,0.334272
-0.973910,0.318126
-0.979078,0.301904
-0.983981,0.285600
-0.988572,0.269206
-0.992891,0.252738
-0.996979,0.236211
-1.000780,0.219615
-1.004264,0.202951
-1.007490,0.186234
-1.010475,0.169473
-1.013156,0.152660
-1.015521,0.135800
-1.017641,0.118907
-1.019508,0.101985
-1.021053,0.085030
-1.022295,0.068050
-1.023299,0.051054
-1.024035,0.034045
-1.024439,0.017025
-1.024555,-0.000000
-1.024439,-0.017025
-1.024035,-0.034045
-1.023299,-0.051054
-1.022295,-0.068050
-1.021053,-0.085030
-1.019508,-0.101985
-1.017641,-0.118907
-1.015521,-0.135800
-1.013156,-0.152660
-1.010475,-0.169473
-1.007490,-0.186234
-1.004264,-0.202951
-1.000780,-0.219615
-0.996979,-0.236211
-0.992891,-0.252738
-0.988572,-0.269206
-0.983981,-0.285600
-0.979078,-0.301904
-0.973910,-0.318126
-0.968513,-0.334272
-0.962834,-0.350322
-0.956854,-0.366262
-0.950631,-0.382109
-0.944174,-0.397862
-0.937431,-0.413494
-0.930406,-0.429001
-0.923154,-0.444404
-0.915663,-0.459693
-0.907887,-0.474837
-0.899851,-0.489846
-0.891601,-0.504738
-0.883106,-0.519491
-0.874333,-0.534081
-0.865324,-0.548526
-0.856110,-0.562841
-0.846646,-0.576993
-0.836918,-0.590964
-0.826979,-0.604785
-0.816837,-0.618458
-0.806445,-0.631942
-0.795809,-0.645235
-0.784983,-0.658373
-0.773954,-0.671341
-0.762681,-0.684097
-0.751189,-0.696656
-0.739522,-0.709053
-0.727652,-0.721256
-0.715549,-0.733227
-0.703254,-0.745000
-0.690796,-0.756601
-0.678135,-0.767981
-0.665259,-0.779115
-0.652216,-0.790054
-0.639019,-0.800806
-0.625623,-0.811309
-0.612034,-0.821561
-0.598301,-0.831620
-0.584420,-0.841471
-0.570348,-0.851050
-0.556109,-0.860377
-0.541747,-0.869512
-0.527239,-0.878416
-0.512556,-0.887027
-0.497733,-0.895393
-0.482801,-0.903564
-0.467730,-0.911475
-0.452504,-0.919083
-0.437164,-0.926458
-0.421725,-0.933623
-0.406156,-0.940501
-0.390458,-0.947079
-0.374668,-0.953431
-0.358787,-0.959554
-0.342792,-0.965369
-0.326693,-0.970891
-0.310521,-0.976193
-0.294268,-0.981241
-0.277918,-0.985968
-0.261491,-0.990415
-0.245006,-0.994642
-0.228452,-0.998589
-0.211823,-1.002208
-0.195140,-1.005566
-0.178413,-1.008695
-0.161632,-1.011520
-0.144800,-1.014021
-0.127933,-1.016277
-0.111036,-1.018289
-0.094104,-1.019977
-0.077144,-1.021354
-0.060167,-1.022499
-0.043175,-1.023379
-0.026170,-1.023923
-0.009157,-1.024177
0.007857,-1.024204
0.024868,-1.023943
0.041870,-1.023342
0.058861,-1.022477
0.075838,-1.021382
0.092791,-1.019976
0.109714,-1.018239
0.126609,-1.016262
0.143475,-1.014045
0.160292,-1.011496
0.177059,-1.008637
0.193787,-1.005559
0.210465,-1.002222
0.227069,-0.998543
0.243608,-0.994580
0.260096,-0.990413
0.276509,-0.985965
0.292824,-0.981172
0.309063,-0.976131
0.325238,-0.970890
0.341310,-0.965343
0.357263,-0.959464
0.373134,-0.953371
0.388923,-0.947073
0.404578,-0.940448
0.420097,-0.933515
0.435532,-0.926400
0.450862,-0.919064
0.466024,-0.911388
0.481043,-0.903440
0.495976,-0.895335
0.510773,-0.886985
0.525369,-0.878292
0.539827,-0.869374
0.554190,-0.860309
0.568375,-0.850970
0.582340,-0.841309
0.596175,-0.831466
0.609896,-0.821470
0.623396,-0.811180
0.636668,-0.800600
0.649819,-0.789876
0.662826,-0.778983
0.675568,-0.767785
0.688086,-0.756340
0.700491,-0.744780
0.712706,-0.733026
0.724617,-0.720968
0.736322,-0.708716
0.747911,-0.696362
0.759247,-0.683785
0.770251,-0.670920
0.781075,-0.657914
0.791761,-0.644805
0.802111,-0.631440
0.812111,-0.617817
0.821964,-0.604104
0.831613,-0.590264
0.840800,-0.576124
0.849624,-0.561767
0.858309,-0.547356
0.866585,-0.532730
0.874109,-0.517700
0.881133,-0.502450
0.887654,-0.487011
0.891974,-0.470532
0.891942,-0.452030
0.887237,-0.431567
0.879601,-0.410178
0.870847,-0.388830
0.861378,-0.367749
0.851112,-0.346926
0.840193,-0.326444
0.828771,-0.306375
0.816844,-0.286733
0.804449,-0.267535
0.791639,-0.248811
0.778374,-0.230551
0.764704,-0.212779
0.750759,-0.195531
0.736472,-0.178795
0.721748,-0.162547
0.706776,-0.146839
0.691707,-0.131692
0.676305,-0.117068
0.660525,-0.102952
0.644778,-0.089414
0.629145,-0.076444
0.613162,-0.063985
0.597055,-0.052048
0.581683,-0.040693
0.566971,-0.029858
0.552220,-0.019480
0.539642,-0.009554
