0.940000,0.000000
0.941981,0.061741
0.941267,0.123920
0.937663,0.186513
0.930942,0.249445
0.920856,0.312588
0.907148,0.375753
0.889568,0.438687
0.867886,0.501074
0.841902,0.562541
0.811466,0.622660
0.776483,0.680957
0.736927,0.736927
0.692846,0.790040
0.644371,0.839760
0.591712,0.885560
0.535165,0.926933
0.475102,0.963411
0.411968,0.994578
0.346271,1.020081
0.278572,1.039644
0.209469,1.053074
0.139587,1.060268
0.069556,1.061216
0.000000,1.056000
-0.068479,1.044794
-0.135320,1.027856
-0.200010,1.005518
-0.262102,0.978178
-0.321220,0.946285
-0.377070,0.910327
-0.429437,0.870812
-0.478194,0.828256
-0.523294,0.783164
-0.564766,0.736018
-0.602712,0.687261
-0.637287,0.637287
-0.668697,0.586432
-0.697180,0.534965
-0.722990,0.483086
-0.746386,0.430926
-0.767615,0.378546
-0.786897,0.325943
-0.804414,0.273062
-0.820298,0.219798
-0.834624,0.166017
-0.847399,0.111562
-0.858566,0.056273
-0.868000,-0.000000
-0.875510,-0.057384
-0.880846,-0.115966
-0.883711,-0.175781
-0.883765,-0.236804
-0.880645,-0.298939
-0.873976,-0.362013
-0.863387,-0.425775
-0.848527,-0.489897
-0.829081,-0.553974
-0.804785,-0.617534
-0.775442,-0.680044
-0.740927,-0.740927
-0.701203,-0.799569
-0.656325,-0.855340
-0.606444,-0.907608
-0.551806,-0.955756
-0.492751,-0.999201
-0.429708,-1.037406
-0.363182,-1.069900
-0.293749,-1.096285
-0.222036,-1.116253
-0.148713,-1.129587
-0.074469,-1.136174
-0.000000,-1.136000
0.074008,-1.129151
0.146899,-1.115810
0.218058,-1.096250
0.286925,-1.070819
0.353010,-1.039934
0.415898,-1.004067
0.475256,-0.963723
0.530835,-0.919433
0.582472,-0.871731
0.630086,-0.821144
0.673670,-0.768174
0.713287,-0.713287
0.749054,-0.656903
0.781134,-0.599385
0.809721,-0.541038
0.835027,-0.482103
0.857264,-0.422756
0.876637,-0.363115
0.893325,-0.303243
0.907475,-0.243157
0.919191,-0.182838
0.928525,-0.122243
0.935479,-0.061315
0.018000,-0.020000
0.398611,-0.009240
0.353029,0.079743
0.307433,0.169345
0.261537,0.259432
0.303925,-0.012058
0.257943,0.077291
0.211922,0.166943
0.208736,-0.014880
0.162616,0.074653
0.113332,-0.017573
0.215053,0.349869
0.118607,0.346616
0.022701,0.342632
-0.072378,0.338051
0.165572,0.256763
0.069886,0.253543
-0.025234,0.249909
0.116428,0.164172
0.021241,0.161168
0.067333,0.071963
-0.166343,0.333008
-0.212624,0.241936
-0.259612,0.152106
-0.307593,0.063384
-0.119500,0.245995
-0.167067,0.155000
-0.215367,0.064932
-0.073354,0.158066
-0.121946,0.066968
-0.027616,0.069356
-0.356854,-0.024364
-0.315315,-0.112964
-0.273429,-0.203207
-0.230910,-0.294958
-0.264687,-0.024344
-0.221696,-0.113534
-0.178332,-0.204050
-0.171297,-0.023521
-0.127115,-0.113118
-0.076972,-0.022028
-0.187470,-0.388082
-0.089335,-0.388521
0.008981,-0.387429
0.107190,-0.384941
-0.134307,-0.295757
-0.037263,-0.295207
0.059934,-0.293443
-0.082533,-0.203725
0.013680,-0.202368
-0.031860,-0.111851
0.205004,-0.381192
0.253638,-0.286809
0.301925,-0.193446
0.350154,-0.100968
0.156997,-0.290598
0.206197,-0.197093
0.255077,-0.104291
0.110019,-0.200112
0.159524,-0.107303
0.063783,-0.109868
0.492506,-0.006561
0.436367,0.104134
0.380137,0.216239
0.323254,0.329491
0.265157,0.443627
0.143395,0.439577
0.022545,0.433942
-0.096830,0.426985
-0.214169,0.418971
-0.270184,0.305054
-0.327372,0.193522
-0.386294,0.084110
-0.447512,-0.023445
-0.397689,-0.133542
-0.347255,-0.246649
-0.295649,-0.362500
-0.242310,-0.480834
-0.117906,-0.482553
0.006709,-0.481438
0.130974,-0.477751
0.254327,-0.471757
0.314017,-0.352669
0.373236,-0.235616
0.432546,-0.120334
0.665429,-0.002384
0.657148,0.062075
0.649364,0.127030
0.608326,-0.003614
0.599714,0.061393
0.550662,-0.005018
0.642004,0.192529
0.608306,0.264380
0.574290,0.337194
0.539808,0.410901
0.591538,0.126836
0.550541,0.211589
0.509228,0.297518
0.467352,0.384507
0.541764,0.060472
0.493271,0.158147
0.444531,0.257157
0.395160,0.357321
0.504712,0.485432
0.457787,0.530894
0.410148,0.576328
0.424665,0.472440
0.377203,0.517246
0.344777,0.458460
0.361787,0.621646
0.300937,0.644882
0.239731,0.667444
0.329104,0.561944
0.268779,0.584735
0.296918,0.502616
0.178242,0.689281
0.098036,0.684732
0.018485,0.679149
-0.060263,0.672601
0.208159,0.606911
0.113928,0.602447
0.020489,0.596706
-0.071911,0.589804
0.237072,0.525027
0.129005,0.520755
0.021823,0.515013
-0.084093,0.507981
-0.138059,0.665157
-0.195456,0.635557
-0.251938,0.606092
-0.163025,0.581856
-0.219819,0.553191
-0.188358,0.499839
-0.307497,0.576849
-0.350746,0.529418
-0.393553,0.482873
-0.275774,0.524741
-0.319734,0.477872
-0.244688,0.472104
-0.435991,0.437265
-0.468840,0.366813
-0.502450,0.297723
-0.536970,0.229926
-0.363311,0.431829
-0.403604,0.347042
-0.444838,0.263995
-0.487262,0.182571
-0.289312,0.425730
-0.337343,0.326430
-0.386459,0.229218
-0.437044,0.133916
-0.572548,0.163353
-0.584729,0.102705
-0.598018,0.042043
-0.531122,0.102655
-0.544181,0.040990
-0.489480,0.040344
-0.612423,-0.018721
-0.608313,-0.080840
-0.604870,-0.143878
-0.558272,-0.020770
-0.553458,-0.083670
-0.503278,-0.022333
-0.602021,-0.207884
-0.574068,-0.280514
-0.545583,-0.354764
-0.516419,-0.430563
-0.549252,-0.147428
-0.514402,-0.232646
-0.478936,-0.319965
-0.442605,-0.409268
-0.497807,-0.085948
-0.455652,-0.183629
-0.412847,-0.283884
-0.369008,-0.386531
-0.486429,-0.507843
-0.442274,-0.557166
-0.397018,-0.606703
-0.405164,-0.500441
-0.359922,-0.548944
-0.323754,-0.491392
-0.350654,-0.656366
-0.289745,-0.684384
-0.228029,-0.711663
-0.313655,-0.597581
-0.253256,-0.624716
-0.277564,-0.539081
-0.165578,-0.738154
-0.081823,-0.738191
0.001737,-0.736680
0.084955,-0.733692
-0.192110,-0.651171
-0.094403,-0.651798
0.003163,-0.650425
0.100340,-0.647169
-0.217629,-0.565399
-0.106388,-0.566612
0.004840,-0.565387
0.115673,-0.561905
0.167684,-0.729295
0.229811,-0.700163
0.291038,-0.670710
0.196882,-0.642144
0.257988,-0.613553
0.225726,-0.556344
0.351358,-0.641024
0.398718,-0.591151
0.445356,-0.541806
0.318271,-0.584720
0.365955,-0.535615
0.285951,-0.528287
0.491344,-0.493037
0.526389,-0.417220
0.561521,-0.342621
0.596889,-0.269173
0.412977,-0.486977
0.455940,-0.396634
0.498894,-0.307828
0.542086,-0.220444
0.333913,-0.479883
0.385107,-0.375091
0.436112,-0.272117
0.487312,-0.170782
0.632640,-0.196805
0.642861,-0.131827
0.653788,-0.067050
0.585763,-0.134366
0.596730,-0.068930
0.539089,-0.070906
0.721900,-0.001359
0.711491,0.083887
0.702027,0.170151
0.693337,0.257549
0.657754,0.336236
0.621640,0.416182
0.584807,0.497300
0.522966,0.558813
0.459716,0.620367
0.395036,0.681753
0.313046,0.713257
0.230358,0.743424
0.147148,0.772138
0.059325,0.766033
-0.027570,0.758583
-0.113350,0.749878
-0.190649,0.709165
-0.266182,0.668602
-0.339927,0.628396
-0.396467,0.564525
-0.452160,0.502366
-0.507177,0.442037
-0.541626,0.367092
-0.577127,0.293877
-0.613870,0.222302
-0.629017,0.142821
-0.646274,0.063405
-0.665663,-0.016154
-0.661346,-0.098065
-0.658280,-0.181746
-0.656289,-0.267313
-0.627516,-0.347362
-0.597962,-0.429441
-0.567438,-0.513463
-0.509938,-0.580397
-0.450342,-0.647802
-0.388629,-0.715469
-0.306480,-0.753918
-0.222832,-0.790917
-0.137857,-0.826349
-0.045450,-0.825460
0.046573,-0.822625
0.138022,-0.817932
0.222187,-0.778268
0.304614,-0.737943
0.385282,-0.697166
0.447758,-0.629685
0.508885,-0.563278
0.568838,-0.498063
0.605513,-0.416539
0.642447,-0.336576
0.679829,-0.258086
0.692451,-0.172134
0.706468,-0.086628
0.796088,-0.000371
0.794961,0.042218
0.759161,-0.000807
0.794176,0.085023
0.787148,0.141466
0.780533,0.198494
0.757868,0.042124
0.749272,0.112916
0.741329,0.184510
0.774270,0.256130
0.762849,0.297965
0.733940,0.256973
0.751437,0.340196
0.728507,0.393423
0.705286,0.447294
0.722161,0.298961
0.692997,0.364979
0.663421,0.431935
0.681716,0.501781
0.658153,0.539390
0.633324,0.499778
0.634261,0.577230
0.594089,0.620485
0.553202,0.663821
0.609343,0.537232
0.558343,0.589722
0.506289,0.642279
0.511581,0.707171
0.476173,0.734953
0.453172,0.694785
0.440375,0.762584
0.400629,0.783630
0.417553,0.722066
0.360586,0.804369
0.303987,0.823772
0.247092,0.842454
0.378064,0.742807
0.308630,0.768274
0.238721,0.792722
0.189964,0.860391
0.145240,0.864892
0.168436,0.816082
0.100595,0.868948
0.041114,0.863918
-0.017900,0.858207
0.124149,0.820497
0.050408,0.814832
-0.022645,0.808171
-0.076387,0.851842
-0.118976,0.839615
-0.094901,0.800563
-0.161134,0.827168
-0.213320,0.800134
-0.264628,0.773097
-0.137015,0.788593
-0.201747,0.754585
-0.265174,0.720637
-0.315037,0.746122
-0.349949,0.721050
-0.327286,0.686868
-0.384392,0.696193
-0.414877,0.666388
-0.361975,0.662432
-0.445010,0.636974
-0.480186,0.593502
-0.515008,0.550924
-0.392796,0.632990
-0.438473,0.579311
-0.483577,0.526915
-0.549537,0.509261
-0.570394,0.474233
-0.528204,0.475870
-0.591333,0.439752
-0.613299,0.390808
-0.635787,0.342717
-0.549595,0.440964
-0.577683,0.379137
-0.606547,0.318576
-0.658859,0.295452
-0.671913,0.258107
-0.636295,0.259229
-0.685455,0.221067
-0.696589,0.169692
-0.708747,0.118423
-0.649940,0.221626
-0.663073,0.156362
-0.677749,0.091192
-0.721954,0.067196
-0.728247,0.027754
-0.693975,0.025998
-0.735103,-0.011867
-0.737125,-0.052152
-0.700612,-0.014139
-0.739601,-0.092822
-0.737349,-0.147281
-0.735628,-0.202667
-0.702312,-0.054884
-0.699234,-0.123028
-0.697008,-0.192500
-0.734378,-0.259002
-0.726858,-0.300765
-0.695538,-0.263369
-0.719343,-0.343128
-0.701437,-0.397608
-0.683128,-0.453077
-0.687466,-0.305355
-0.664278,-0.372723
-0.640503,-0.441565
-0.664358,-0.509505
-0.644025,-0.549300
-0.616033,-0.511832
-0.623245,-0.589491
-0.586362,-0.636747
-0.548468,-0.684289
-0.595050,-0.551468
-0.547898,-0.608728
-0.499221,-0.666363
-0.509542,-0.732054
-0.475516,-0.763480
-0.449008,-0.724256
-0.440910,-0.794827
-0.401585,-0.819752
-0.414525,-0.755065
-0.361760,-0.844383
-0.304492,-0.868914
-0.246572,-0.892656
-0.375432,-0.779492
-0.305533,-0.811062
-0.234603,-0.841522
-0.188064,-0.915584
-0.141451,-0.923500
-0.162739,-0.870804
-0.094744,-0.930865
-0.031666,-0.929559
0.031188,-0.927303
-0.116600,-0.878430
-0.038702,-0.877266
0.038886,-0.874685
0.093756,-0.924124
0.139853,-0.913602
0.116054,-0.870739
0.185605,-0.902674
0.242898,-0.876488
0.299346,-0.849940
0.161557,-0.860274
0.232344,-0.827214
0.301856,-0.793651
0.354925,-0.823091
0.393684,-0.797394
0.370085,-0.759703
0.431941,-0.771711
0.465997,-0.740331
0.408399,-0.734487
0.499609,-0.709160
0.538892,-0.662546
0.577583,-0.616549
0.442609,-0.703545
0.493339,-0.646412
0.543138,-0.590125
0.615744,-0.571195
0.638614,-0.532825
0.592104,-0.534752
0.661388,-0.494903
0.684780,-0.440982
0.708342,-0.387838
0.615351,-0.496636
0.645258,-0.428960
0.675389,-0.362431
0.732132,-0.335445
0.744907,-0.294211
0.705852,-0.296999
0.757970,-0.253299
0.767283,-0.197075
0.777296,-0.141111
0.719105,-0.255709
0.730033,-0.184727
0.741998,-0.114095
0.788027,-0.085344
0.791854,-0.042882
0.755012,-0.043691
0.832655,-0.000064
0.831376,0.063366
0.830874,0.127311
0.822369,0.190754
0.814303,0.254998
0.797747,0.317667
0.781206,0.381248
0.755791,0.441852
0.729963,0.503273
0.695154,0.560017
0.659595,0.617296
0.615387,0.668014
0.570255,0.718860
0.517345,0.761251
0.463528,0.803321
0.403379,0.835252
0.342554,0.866468
0.277296,0.886258
0.211753,0.905087
0.144009,0.911803
0.076445,0.917499
0.009012,0.911056
-0.057789,0.903750
-0.122252,0.884931
-0.185742,0.865597
-0.245023,0.835925
-0.303174,0.806209
-0.355728,0.767706
-0.407202,0.729665
-0.452262,0.684539
-0.496523,0.640314
-0.534034,0.590661
-0.571199,0.542183
-0.601683,0.489667
-0.632351,0.438393
-0.656615,0.384126
-0.681579,0.330933
-0.700430,0.275431
-0.720381,0.220627
-0.734339,0.163917
-0.749603,0.107388
-0.758711,0.049222
-0.769107,-0.009327
-0.772829,-0.069188
-0.777574,-0.129937
-0.774899,-0.191447
-0.772786,-0.254185
-0.762371,-0.316725
-0.751963,-0.380622
-0.732453,-0.442912
-0.712393,-0.506443
-0.682730,-0.566538
-0.652060,-0.627533
-0.611782,-0.682971
-0.570229,-0.738809
-0.519681,-0.786870
-0.467810,-0.834768
-0.408252,-0.872815
-0.347571,-0.910172
-0.281071,-0.935978
-0.213856,-0.960716
-0.143154,-0.972814
-0.072250,-0.983663
-0.000404,-0.981492
0.071108,-0.978125
0.141046,-0.962088
0.210199,-0.945131
0.275532,-0.916502
0.339796,-0.887389
0.398442,-0.848097
0.455936,-0.808827
0.506588,-0.761154
0.556239,-0.713984
0.598339,-0.660248
0.639786,-0.607367
0.673452,-0.549598
0.706912,-0.492855
0.732669,-0.432630
0.758690,-0.373388
0.777211,-0.311754
0.796389,-0.250857
0.808225,-0.188384
0.820955,-0.126260
0.826334,-0.063212
0.859834,0.000078
0.860351,0.031611
0.859332,0.078949
0.858831,0.126668
0.856119,0.158411
0.849833,0.205876
0.843839,0.253910
0.837503,0.285613
0.825303,0.332641
0.813106,0.380307
0.802696,0.411479
0.783942,0.457126
0.764900,0.503345
0.750049,0.533243
0.724304,0.576189
0.698040,0.619517
0.678579,0.647186
0.645794,0.685829
0.612365,0.724581
0.588423,0.748949
0.549059,0.781578
0.509061,0.814019
0.481119,0.834022
0.451608,0.851601
0.405831,0.875170
0.359603,0.898232
0.327347,0.910196
0.277872,0.924660
0.228206,0.938452
0.194359,0.944258
0.143133,0.948955
0.092031,0.952946
0.057879,0.952431
0.006975,0.947329
-0.043501,0.941626
-0.076688,0.935027
-0.125310,0.920725
-0.173269,0.906053
-0.204382,0.893967
-0.249090,0.871604
-0.293020,0.849184
-0.321223,0.832475
-0.360870,0.803555
-0.399771,0.774912
-0.424578,0.754575
-0.447784,0.732651
-0.480769,0.698313
-0.513226,0.664605
-0.532851,0.640460
-0.560263,0.603045
-0.587446,0.566442
-0.603718,0.540895
-0.626003,0.501598
-0.648415,0.463154
-0.661743,0.436761
-0.679550,0.396356
-0.697832,0.356689
-0.708654,0.329722
-0.722620,0.288540
-0.737331,0.247847
-0.745987,0.220320
-0.756531,0.178328
-0.767966,0.136481
-0.774588,0.108236
-0.781772,0.065192
-0.789837,0.021924
-0.794280,-0.007241
-0.797286,-0.036778
-0.800240,-0.081465
-0.803865,-0.126778
-0.804096,-0.157297
-0.802374,-0.203362
-0.801022,-0.250274
-0.797854,-0.281624
-0.790428,-0.328621
-0.783000,-0.376544
-0.775730,-0.408263
-0.761559,-0.455249
-0.747012,-0.503081
-0.735021,-0.534382
-0.713284,-0.579925
-0.690863,-0.626087
-0.673756,-0.655905
-0.644065,-0.698185
-0.613505,-0.740754
-0.591222,-0.767843
-0.553780,-0.804845
-0.515437,-0.841766
-0.488334,-0.864846
-0.459307,-0.885578
-0.413838,-0.913914
-0.367631,-0.941751
-0.334965,-0.956876
-0.284420,-0.975994
-0.233404,-0.994366
-0.198278,-1.003091
-0.144693,-1.011940
-0.090984,-1.019932
-0.054789,-1.021862
-0.000433,-1.020061
0.053687,-1.017443
0.089520,-1.012620
0.142395,-1.000490
0.194730,-0.987729
0.228880,-0.976608
0.278285,-0.955106
0.326955,-0.933262
0.358344,-0.916630
0.402740,-0.887187
0.446348,-0.857737
0.474240,-0.836588
0.500418,-0.813507
0.537684,-0.777053
0.574289,-0.740974
0.596445,-0.714893
0.627352,-0.674225
0.657827,-0.634163
0.675988,-0.606049
0.700689,-0.562634
0.725262,-0.519931
0.739686,-0.490546
0.758626,-0.445502
0.777757,-0.401136
0.788794,-0.370990
0.802515,-0.325039
0.816693,-0.279600
0.824666,-0.248961
0.833607,-0.202469
0.843171,-0.156230
0.848266,-0.125188
0.852624,-0.078293
0.857636,-0.031352
0.886737,0.000119
0.888154,0.062792
0.886501,0.125822
0.881572,0.189108
0.873148,0.252542
0.860993,0.315926
0.844859,0.379023
0.824527,0.441516
0.799789,0.503027
0.770499,0.563126
0.736553,0.621319
0.697928,0.677092
0.654678,0.729884
0.606933,0.779147
0.554934,0.824322
0.498966,0.864885
0.439472,0.900356
0.376909,0.930270
0.311835,0.954303
0.244849,0.972166
0.176587,0.983696
0.107717,0.988804
0.038895,0.987517
-0.029221,0.979960
-0.096021,0.966347
-0.160932,0.946994
-0.223450,0.922272
-0.283148,0.892641
-0.339671,0.858579
-0.392773,0.820614
-0.442254,0.779273
-0.488080,0.735075
-0.530233,0.688559
-0.568802,0.640154
-0.603925,0.590284
-0.635787,0.539279
-0.664618,0.487427
-0.690643,0.434926
-0.714108,0.381905
-0.735220,0.328431
-0.754170,0.274492
-0.771092,0.220048
-0.786060,0.164992
-0.799099,0.109224
-0.810139,0.052609
-0.819091,-0.004956
-0.825711,-0.063561
-0.829776,-0.123293
-0.830967,-0.184108
-0.828947,-0.245948
-0.823356,-0.308644
-0.813816,-0.371973
-0.799984,-0.435613
-0.781521,-0.499165
-0.758162,-0.562158
-0.729687,-0.624042
-0.695964,-0.684233
-0.656956,-0.742080
-0.612707,-0.796941
-0.563393,-0.848145
-0.509241,-0.895060
-0.450669,-0.937071
-0.388103,-0.973586
-0.322109,-1.004155
-0.253301,-1.028361
-0.182353,-1.045920
-0.109985,-1.056622
-0.036919,-1.060390
0.036101,-1.057247
0.108374,-1.047323
0.179216,-1.030862
0.248011,-1.008179
0.314208,-0.979693
0.377327,-0.945860
0.436994,-0.907205
0.492883,-0.864261
0.544834,-0.817590
0.592702,-0.767772
0.636470,-0.715302
0.676176,-0.660683
0.711916,-0.604338
0.743843,-0.546659
0.772124,-0.487956
0.796959,-0.428480
0.818531,-0.368422
0.837019,-0.307900
0.852567,-0.247001
0.865278,-0.185745
0.875218,-0.124149
0.882378,-0.062194
