0.749850,0.000000
0.541885,0.938572
-0.541885,0.938572
-0.749850,0.000000
-0.541885,-0.938572
0.541885,-0.938572
-0.000000,0.000000
0.625230,0.000000
0.288164,0.663670
-0.288164,0.663670
-0.625230,-0.000000
-0.288164,-0.663670
0.288164,-0.663670
