0.624944, -0.000000,0.275380, 0.347899,-0.000000, -0.000000,0.624944,-0.000000
0.275380, 0.347899,-0.275380, 0.347899,-0.000000, -0.000000,0.275380,0.347899
-0.275380, 0.347899,-0.624944, 0.000000,-0.000000, -0.000000,-0.275380,0.347899
-0.624944, 0.000000,-0.275380, -0.347899,-0.000000, -0.000000,-0.624944,0.000000
-0.275380, -0.347899,0.275380, -0.347899,-0.000000, -0.000000,-0.275380,-0.347899
0.275380, -0.347899,0.624944, -0.000000,-0.000000, -0.000000,0.275380,-0.347899
0.992366, -0.000000,0.881755, 0.274763,0.624944, -0.000000,0.992366,-0.000000
0.881755, 0.274763,0.642718, 0.458074,0.275380, 0.347899,0.624944, -0.000000,0.881755,0.274763
0.642718, 0.458074,0.369651, 0.527668,0.275380, 0.347899,0.642718,0.458074
0.369651, 0.527668,0.115831, 0.515074,0.275380, 0.347899,0.369651,0.527668
0.115831, 0.515074,-0.115831, 0.515074,-0.275380, 0.347899,0.275380, 0.347899,0.115831,0.515074
-0.115831, 0.515074,-0.369651, 0.527668,-0.275380, 0.347899,-0.115831,0.515074
-0.369651, 0.527668,-0.642718, 0.458074,-0.275380, 0.347899,-0.369651,0.527668
-0.642718, 0.458074,-0.881755, 0.274763,-0.624944, 0.000000,-0.275380, 0.347899,-0.642718,0.458074
-0.881755, 0.274763,-0.992366, -0.000000,-0.624944, 0.000000,-0.881755,0.274763
-0.992366, -0.000000,-0.881755, -0.274763,-0.624944, 0.000000,-0.992366,-0.000000
-0.881755, -0.274763,-0.642718, -0.458074,-0.275380, -0.347899,-0.624944, 0.000000,-0.881755,-0.274763
-0.642718, -0.458074,-0.369651, -0.527668,-0.275380, -0.347899,-0.642718,-0.458074
-0.369651, -0.527668,-0.115831, -0.515074,-0.275380, -0.347899,-0.369651,-0.527668
-0.115831, -0.515074,0.115831, -0.515074,0.275380, -0.347899,-0.275380, -0.347899,-0.115831,-0.515074
0.115831, -0.515074,0.369651, -0.527668,0.275380, -0.347899,0.115831,-0.515074
0.369651, -0.527668,0.642718, -0.458074,0.275380, -0.347899,0.369651,-0.527668
0.642718, -0.458074,0.881755, -0.274763,0.624944, -0.000000,0.275380, -0.347899,0.642718,-0.458074
0.881755, -0.274763,0.992366, -0.000000,0.624944, -0.000000,0.881755,-0.274763
1.216262, -0.000000,1.168598, 0.162327,0.992366, -0.000000,1.216262,-0.000000
1.168598, 0.162327,1.076075, 0.306517,0.881755, 0.274763,0.992366, -0.000000,1.168598,0.162327
1.076075, 0.306517,0.957402, 0.426225,0.881755, 0.274763,1.076075,0.306517
0.957402, 0.426225,0.823275, 0.518087,0.642718, 0.458074,0.881755, 0.274763,0.957402,0.426225
0.823275, 0.518087,0.681308, 0.580996,0.642718, 0.458074,0.823275,0.518087
0.681308, 0.580996,0.538090, 0.615637,0.369651, 0.527668,0.642718, 0.458074,0.681308,0.580996
0.538090, 0.615637,0.399491, 0.623677,0.369651, 0.527668,0.538090,0.615637
0.399491, 0.623677,0.269791, 0.609391,0.369651, 0.527668,0.399491,0.623677
0.269791, 0.609391,0.152630, 0.579143,0.115831, 0.515074,0.369651, 0.527668,0.269791,0.609391
0.152630, 0.579143,0.048648, 0.544130,0.115831, 0.515074,0.152630,0.579143
0.048648, 0.544130,-0.048648, 0.544130,-0.115831, 0.515074,0.115831, 0.515074,0.048648,0.544130
-0.048648, 0.544130,-0.152630, 0.579143,-0.115831, 0.515074,-0.048648,0.544130
-0.152630, 0.579143,-0.269791, 0.609391,-0.369651, 0.527668,-0.115831, 0.515074,-0.152630,0.579143
-0.269791, 0.609391,-0.399491, 0.623677,-0.369651, 0.527668,-0.269791,0.609391
-0.399491, 0.623677,-0.538090, 0.615637,-0.369651, 0.527668,-0.399491,0.623677
-0.538090, 0.615637,-0.681308, 0.580996,-0.642718, 0.458074,-0.369651, 0.527668,-0.538090,0.615637
-0.681308, 0.580996,-0.823275, 0.518087,-0.642718, 0.458074,-0.681308,0.580996
-0.823275, 0.518087,-0.957402, 0.426225,-0.881755, 0.274763,-0.642718, 0.458074,-0.823275,0.518087
-0.957402, 0.426225,-1.076075, 0.306517,-0.881755, 0.274763,-0.957402,0.426225
-1.076075, 0.306517,-1.168598, 0.162327,-0.992366, -0.000000,-0.881755, 0.274763,-1.076075,0.306517
-1.168598, 0.162327,-1.216262, -0.000000,-0.992366, -0.000000,-1.168598,0.162327
-1.216262, -0.000000,-1.168598, -0.162327,-0.992366, -0.000000,-1.216262,-0.000000
-1.168598, -0.162327,-1.076075, -0.306517,-0.881755, -0.274763,-0.992366, -0.000000,-1.168598,-0.162327
-1.076075, -0.306517,-0.957402, -0.426225,-0.881755, -0.274763,-1.076075,-0.306517
-0.957402, -0.426225,-0.823275, -0.518087,-0.642718, -0.458074,-0.881755, -0.274763,-0.957402,-0.426225
-0.823275, -0.518087,-0.681308, -0.580996,-0.642718, -0.458074,-0.823275,-0.518087
-0.681308, -0.580996,-0.538090, -0.615637,-0.369651, -0.527668,-0.642718, -0.458074,-0.681308,-0.580996
-0.538090, -0.615637,-0.399491, -0.623677,-0.369651, -0.527668,-0.538090,-0.615637
-0.399491, -0.623677,-0.269791, -0.609391,-0.369651, -0.527668,-0.399491,-0.623677
-0.269791, -0.609391,-0.152630, -0.579143,-0.115831, -0.515074,-0.369651, -0.527668,-0.269791,-0.609391
-0.152630, -0.579143,-0.048648, -0.544130,-0.115831, -0.515074,-0.152630,-0.579143
-0.048648, -0.544130,0.048648, -0.544130,0.115831, -0.515074,-0.115831, -0.515074,-0.048648,-0.544130
0.048648, -0.544130,0.152630, -0.579143,0.115831, -0.515074,0.048648,-0.544130
0.152630, -0.579143,0.269791, -0.609391,0.369651, -0.527668,0.115831, -0.515074,0.152630,-0.579143
0.269791, -0.609391,0.399491, -0.623677,0.369651, -0.527668,0.269791,-0.609391
0.399491, -0.623677,0.538090, -0.615637,0.369651, -0.527668,0.399491,-0.623677
0.538090, -0.615637,0.681308, -0.580996,0.642718, -0.458074,0.369651, -0.527668,0.538090,-0.615637
0.681308, -0.580996,0.823275, -0.518087,0.642718, -0.458074,0.681308,-0.580996
0.823275, -0.518087,0.957402, -0.426225,0.881755, -0.274763,0.642718, -0.458074,0.823275,-0.518087
0.957402, -0.426225,1.076075, -0.306517,0.881755, -0.274763,0.957402,-0.426225
1.076075, -0.306517,1.168598, -0.162327,0.992366, -0.000000,0.881755, -0.274763,1.076075,-0.306517
1.168598, -0.162327,1.216262, -0.000000,0.992366, -0.000000,1.168598,-0.162327
1.483549, 0.000000,1.394329, 0.183567,1.216262, -0.000000,1.483549,0.000000
1.394329, 0.183567,1.168598, 0.162327,1.216262, -0.000000,1.394329,0.183567
1.394329, 0.183567,1.279978, 0.342969,1.168598, 0.162327,1.394329,0.183567
1.279978, 0.342969,1.076075, 0.306517,1.168598, 0.162327,1.279978,0.342969
1.279978, 0.342969,1.149178, 0.476005,1.076075, 0.306517,1.279978,0.342969
1.149178, 0.476005,0.957402, 0.426225,1.076075, 0.306517,1.149178,0.476005
1.149178, 0.476005,1.006824, 0.581290,0.957402, 0.426225,1.149178,0.476005
1.006824, 0.581290,0.823275, 0.518087,0.957402, 0.426225,1.006824,0.581290
1.006824, 0.581290,0.857846, 0.658249,0.823275, 0.518087,1.006824,0.581290
0.857846, 0.658249,0.681308, 0.580996,0.823275, 0.518087,0.857846,0.658249
0.857846, 0.658249,0.707107, 0.707107,0.681308, 0.580996,0.857846,0.658249
0.707107, 0.707107,0.538090, 0.615637,0.681308, 0.580996,0.707107,0.707107
0.707107, 0.707107,0.559274, 0.728860,0.538090, 0.615637,0.707107,0.707107
0.559274, 0.728860,0.399491, 0.623677,0.538090, 0.615637,0.559274,0.728860
0.559274, 0.728860,0.418710, 0.725227,0.399491, 0.623677,0.559274,0.728860
0.418710, 0.725227,0.289362, 0.698581,0.399491, 0.623677,0.418710,0.725227
0.289362, 0.698581,0.269791, 0.609391,0.399491, 0.623677,0.289362,0.698581
0.289362, 0.698581,0.174669, 0.651874,0.269791, 0.609391,0.289362,0.698581
0.174669, 0.651874,0.152630, 0.579143,0.269791, 0.609391,0.174669,0.651874
0.174669, 0.651874,0.077485, 0.588560,0.152630, 0.579143,0.174669,0.651874
0.077485, 0.588560,0.048648, 0.544130,0.152630, 0.579143,0.077485,0.588560
0.077485, 0.588560,0.000000, 0.516451,0.048648, 0.544130,0.077485,0.588560
0.000000, 0.516451,-0.048648, 0.544130,0.048648, 0.544130,0.000000,0.516451
0.000000, 0.516451,-0.077485, 0.588560,-0.048648, 0.544130,0.000000,0.516451
-0.077485, 0.588560,-0.152630, 0.579143,-0.048648, 0.544130,-0.077485,0.588560
-0.077485, 0.588560,-0.174669, 0.651874,-0.152630, 0.579143,-0.077485,0.588560
-0.174669, 0.651874,-0.269791, 0.609391,-0.152630, 0.579143,-0.174669,0.651874
-0.174669, 0.651874,-0.289362, 0.698581,-0.269791, 0.609391,-0.174669,0.651874
-0.289362, 0.698581,-0.399491, 0.623677,-0.269791, 0.609391,-0.289362,0.698581
-0.289362, 0.698581,-0.418710, 0.725227,-0.399491, 0.623677,-0.289362,0.698581
-0.418710, 0.725227,-0.559274, 0.728860,-0.399491, 0.623677,-0.418710,0.725227
-0.559274, 0.728860,-0.538090, 0.615637,-0.399491, 0.623677,-0.559274,0.728860
-0.559274, 0.728860,-0.707107, 0.707107,-0.538090, 0.615637,-0.559274,0.728860
-0.707107, 0.707107,-0.681308, 0.580996,-0.538090, 0.615637,-0.707107,0.707107
-0.707107, 0.707107,-0.857846, 0.658249,-0.681308, 0.580996,-0.707107,0.707107
-0.857846, 0.658249,-0.823275, 0.518087,-0.681308, 0.580996,-0.857846,0.658249
-0.857846, 0.658249,-1.006824, 0.581290,-0.823275, 0.518087,-0.857846,0.658249
-1.006824, 0.581290,-0.957402, 0.426225,-0.823275, 0.518087,-1.006824,0.581290
-1.006824, 0.581290,-1.149178, 0.476005,-0.957402, 0.426225,-1.006824,0.581290
-1.149178, 0.476005,-1.076075, 0.306517,-0.957402, 0.426225,-1.149178,0.476005
-1.149178, 0.476005,-1.279978, 0.342969,-1.076075, 0.306517,-1.149178,0.476005
-1.279978, 0.342969,-1.168598, 0.162327,-1.076075, 0.306517,-1.279978,0.342969
-1.279978, 0.342969,-1.394329, 0.183567,-1.168598, 0.162327,-1.279978,0.342969
-1.394329, 0.183567,-1.216262, -0.000000,-1.168598, 0.162327,-1.394329,0.183567
-1.394329, 0.183567,-1.483549, 0.000000,-1.216262, -0.000000,-1.394329,0.183567
-1.483549, 0.000000,-1.394329, -0.183567,-1.216262, -0.000000,-1.483549,0.000000
-1.394329, -0.183567,-1.168598, -0.162327,-1.216262, -0.000000,-1.394329,-0.183567
-1.394329, -0.183567,-1.279978, -0.342969,-1.168598, -0.162327,-1.394329,-0.183567
-1.279978, -0.342969,-1.076075, -0.306517,-1.168598, -0.162327,-1.279978,-0.342969
-1.279978, -0.342969,-1.149178, -0.476005,-1.076075, -0.306517,-1.279978,-0.342969
-1.149178, -0.476005,-0.957402, -0.426225,-1.076075, -0.306517,-1.149178,-0.476005
-1.149178, -0.476005,-1.006824, -0.581290,-0.957402, -0.426225,-1.149178,-0.476005
-1.006824, -0.581290,-0.823275, -0.518087,-0.957402, -0.426225,-1.006824,-0.581290
-1.006824, -0.581290,-0.857846, -0.658249,-0.823275, -0.518087,-1.006824,-0.581290
-0.857846, -0.658249,-0.681308, -0.580996,-0.823275, -0.518087,-0.857846,-0.658249
-0.857846, -0.658249,-0.707107, -0.707107,-0.681308, -0.580996,-0.857846,-0.658249
-0.707107, -0.707107,-0.538090, -0.615637,-0.681308, -0.580996,-0.707107,-0.707107
-0.707107, -0.707107,-0.559274, -0.728860,-0.538090, -0.615637,-0.707107,-0.707107
-0.559274, -0.728860,-0.399491, -0.623677,-0.538090, -0.615637,-0.559274,-0.728860
-0.559274, -0.728860,-0.418710, -0.725227,-0.399491, -0.623677,-0.559274,-0.728860
-0.418710, -0.725227,-0.289362, -0.698581,-0.399491, -0.623677,-0.418710,-0.725227
-0.289362, -0.698581,-0.269791, -0.609391,-0.399491, -0.623677,-0.289362,-0.698581
-0.289362, -0.698581,-0.174669, -0.651874,-0.269791, -0.609391,-0.289362,-0.698581
-0.174669, -0.651874,-0.152630, -0.579143,-0.269791, -0.609391,-0.174669,-0.651874
-0.174669, -0.651874,-0.077485, -0.588560,-0.152630, -0.579143,-0.174669,-0.651874
-0.077485, -0.588560,-0.048648, -0.544130,-0.152630, -0.579143,-0.077485,-0.588560
-0.077485, -0.588560,0.000000, -0.516451,-0.048648, -0.544130,-0.077485,-0.588560
0.000000, -0.516451,0.048648, -0.544130,-0.048648, -0.544130,0.000000,-0.516451
0.000000, -0.516451,0.077485, -0.588560,0.048648, -0.544130,0.000000,-0.516451
0.077485, -0.588560,0.152630, -0.579143,0.048648, -0.544130,0.077485,-0.588560
0.077485, -0.588560,0.174669, -0.651874,0.152630, -0.579143,0.077485,-0.588560
0.174669, -0.651874,0.269791, -0.609391,0.152630, -0.579143,0.174669,-0.651874
0.174669, -0.651874,0.289362, -0.698581,0.269791, -0.609391,0.174669,-0.651874
0.289362, -0.698581,0.399491, -0.623677,0.269791, -0.609391,0.289362,-0.698581
0.289362, -0.698581,0.418710, -0.725227,0.399491, -0.623677,0.289362,-0.698581
0.418710, -0.725227,0.559274, -0.728860,0.399491, -0.623677,0.418710,-0.725227
0.559274, -0.728860,0.538090, -0.615637,0.399491, -0.623677,0.559274,-0.728860
0.559274, -0.728860,0.707107, -0.707107,0.538090, -0.615637,0.559274,-0.728860
0.707107, -0.707107,0.681308, -0.580996,0.538090, -0.615637,0.707107,-0.707107
0.707107, -0.707107,0.857846, -0.658249,0.681308, -0.580996,0.707107,-0.707107
0.857846, -0.658249,0.823275, -0.518087,0.681308, -0.580996,0.857846,-0.658249
0.857846, -0.658249,1.006824, -0.581290,0.823275, -0.518087,0.857846,-0.658249
1.006824, -0.581290,0.957402, -0.426225,0.823275, -0.518087,1.006824,-0.581290
1.006824, -0.581290,1.149178, -0.476005,0.957402, -0.426225,1.006824,-0.581290
1.149178, -0.476005,1.076075, -0.306517,0.957402, -0.426225,1.149178,-0.476005
1.149178, -0.476005,1.279978, -0.342969,1.076075, -0.306517,1.149178,-0.476005
1.279978, -0.342969,1.168598, -0.162327,1.076075, -0.306517,1.279978,-0.342969
1.279978, -0.342969,1.394329, -0.183567,1.168598, -0.162327,1.279978,-0.342969
1.394329, -0.183567,1.216262, -0.000000,1.168598, -0.162327,1.394329,-0.183567
1.394329, -0.183567,1.483549, 0.000000,1.216262, -0.000000,1.394329,-0.183567

