1.469655,0.000000
0.669774,0.669774
0.000000,0.947223
-0.669787,0.669787
-0.947222,0.000000
-0.669787,-0.669787
-0.000000,-0.947223
0.669774,-0.669774
0.073643,-0.000000
0.362436,-0.000000
0.063871,0.236805
-0.195605,-0.000000
0.063871,-0.236805
0.670774,-0.000000
0.034553,0.473609
-0.445308,0.000000
0.034553,-0.473609
