0.386037, 0.000000,-0.032472, 0.524557,-0.051836, 0.000000,0.386037,0.000000
-0.032472, 0.524557,-0.543892, 0.000000,-0.051836, 0.000000,-0.032472,0.524557
-0.543892, 0.000000,-0.032472, -0.524557,-0.051836, 0.000000,-0.543892,0.000000
-0.032472, -0.524557,0.386037, 0.000000,-0.051836, 0.000000,-0.032472,-0.524557
0.538407, 0.000000,0.568581, 0.373910,0.386037, 0.000000,0.538407,0.000000
0.568581, 0.373910,0.362026, 0.679963,-0.032472, 0.524557,0.386037, 0.000000,0.568581,0.373910
0.362026, 0.679963,-0.015516, 0.788485,-0.032472, 0.524557,0.362026,0.679963
-0.015516, 0.788485,-0.404846, 0.683395,-0.032472, 0.524557,-0.015516,0.788485
-0.404846, 0.683395,-0.691783, 0.394644,-0.543892, 0.000000,-0.032472, 0.524557,-0.404846,0.683395
-0.691783, 0.394644,-0.797004, 0.000000,-0.543892, 0.000000,-0.691783,0.394644
-0.797004, 0.000000,-0.691783, -0.394644,-0.543892, 0.000000,-0.797004,0.000000
-0.691783, -0.394644,-0.404846, -0.683395,-0.032472, -0.524557,-0.543892, 0.000000,-0.691783,-0.394644
-0.404846, -0.683395,-0.015516, -0.788485,-0.032472, -0.524557,-0.404846,-0.683395
-0.015516, -0.788485,0.362026, -0.679963,-0.032472, -0.524557,-0.015516,-0.788485
0.362026, -0.679963,0.568581, -0.373910,0.386037, 0.000000,-0.032472, -0.524557,0.362026,-0.679963
0.568581, -0.373910,0.538407, 0.000000,0.386037, 0.000000,0.568581,-0.373910
0.556186, -0.000000,0.629091, 0.161761,0.538407, 0.000000,0.556186,-0.000000
0.629091, 0.161761,0.688461, 0.359727,0.568581, 0.373910,0.538407, 0.000000,0.629091,0.161761
0.688461, 0.359727,0.670490, 0.561764,0.568581, 0.373910,0.688461,0.359727
0.670490, 0.561764,0.551602, 0.716700,0.362026, 0.679963,0.568581, 0.373910,0.670490,0.561764
0.551602, 0.716700,0.385361, 0.828191,0.362026, 0.679963,0.551602,0.716700
0.385361, 0.828191,0.195128, 0.897173,-0.015516, 0.788485,0.362026, 0.679963,0.385361,0.828191
0.195128, 0.897173,-0.007424, 0.920639,-0.015516, 0.788485,0.195128,0.897173
-0.007424, 0.920639,-0.211001, 0.897737,-0.015516, 0.788485,-0.007424,0.920639
-0.211001, 0.897737,-0.404745, 0.829729,-0.404846, 0.683395,-0.015516, 0.788485,-0.211001,0.897737
-0.404745, 0.829729,-0.578752, 0.720059,-0.404846, 0.683395,-0.404745,0.829729
-0.578752, 0.720059,-0.724204, 0.574248,-0.691783, 0.394644,-0.404846, 0.683395,-0.578752,0.720059
-0.724204, 0.574248,-0.833677, 0.399627,-0.691783, 0.394644,-0.724204,0.574248
-0.833677, 0.399627,-0.901655, 0.204954,-0.797004, 0.000000,-0.691783, 0.394644,-0.833677,0.399627
-0.901655, 0.204954,-0.924700, 0.000000,-0.797004, 0.000000,-0.901655,0.204954
-0.924700, 0.000000,-0.901655, -0.204954,-0.797004, 0.000000,-0.924700,0.000000
-0.901655, -0.204954,-0.833677, -0.399627,-0.691783, -0.394644,-0.797004, 0.000000,-0.901655,-0.204954
-0.833677, -0.399627,-0.724204, -0.574248,-0.691783, -0.394644,-0.833677,-0.399627
-0.724204, -0.574248,-0.578752, -0.720059,-0.404846, -0.683395,-0.691783, -0.394644,-0.724204,-0.574248
-0.578752, -0.720059,-0.404745, -0.829729,-0.404846, -0.683395,-0.578752,-0.720059
-0.404745, -0.829729,-0.211001, -0.897737,-0.015516, -0.788485,-0.404846, -0.683395,-0.404745,-0.829729
-0.211001, -0.897737,-0.007424, -0.920639,-0.015516, -0.788485,-0.211001,-0.897737
-0.007424, -0.920639,0.195128, -0.897173,-0.015516, -0.788485,-0.007424,-0.920639
0.195128, -0.897173,0.385361, -0.828191,0.362026, -0.679963,-0.015516, -0.788485,0.195128,-0.897173
0.385361, -0.828191,0.551602, -0.716700,0.362026, -0.679963,0.385361,-0.828191
0.551602, -0.716700,0.670490, -0.561764,0.568581, -0.373910,0.362026, -0.679963,0.551602,-0.716700
0.670490, -0.561764,0.688461, -0.359727,0.568581, -0.373910,0.670490,-0.561764
0.688461, -0.359727,0.629091, -0.161761,0.538407, 0.000000,0.568581, -0.373910,0.688461,-0.359727
0.629091, -0.161761,0.556186, -0.000000,0.538407, 0.000000,0.629091,-0.161761
0.530345, 0.000000,0.676483, 0.134561,0.556186, -0.000000,0.530345,0.000000
0.676483, 0.134561,0.629091, 0.161761,0.556186, -0.000000,0.676483,0.134561
0.676483, 0.134561,0.789584, 0.327056,0.629091, 0.161761,0.676483,0.134561
0.789584, 0.327056,0.688461, 0.359727,0.629091, 0.161761,0.789584,0.327056
0.789584, 0.327056,0.847702, 0.566416,0.688461, 0.359727,0.789584,0.327056
0.847702, 0.566416,0.670490, 0.561764,0.688461, 0.359727,0.847702,0.566416
0.847702, 0.566416,0.744440, 0.744440,0.670490, 0.561764,0.847702,0.566416
0.744440, 0.744440,0.551602, 0.716700,0.670490, 0.561764,0.744440,0.744440
0.744440, 0.744440,0.584879, 0.875333,0.551602, 0.716700,0.744440,0.744440
0.584879, 0.875333,0.385361, 0.828191,0.551602, 0.716700,0.584879,0.875333
0.584879, 0.875333,0.402874, 0.972623,0.385361, 0.828191,0.584879,0.875333
0.402874, 0.972623,0.195128, 0.897173,0.385361, 0.828191,0.402874,0.972623
0.402874, 0.972623,0.205385, 1.032542,0.195128, 0.897173,0.402874,0.972623
0.205385, 1.032542,-0.007424, 0.920639,0.195128, 0.897173,0.205385,1.032542
0.205385, 1.032542,0.000000, 1.052777,-0.007424, 0.920639,0.205385,1.032542
0.000000, 1.052777,-0.205387, 1.032552,-0.007424, 0.920639,0.000000,1.052777
-0.205387, 1.032552,-0.211001, 0.897737,-0.007424, 0.920639,-0.205387,1.032552
-0.205387, 1.032552,-0.402882, 0.972642,-0.211001, 0.897737,-0.205387,1.032552
-0.402882, 0.972642,-0.404745, 0.829729,-0.211001, 0.897737,-0.402882,0.972642
-0.402882, 0.972642,-0.584893, 0.875354,-0.404745, 0.829729,-0.402882,0.972642
-0.584893, 0.875354,-0.578752, 0.720059,-0.404745, 0.829729,-0.584893,0.875354
-0.584893, 0.875354,-0.744426, 0.744426,-0.578752, 0.720059,-0.584893,0.875354
-0.744426, 0.744426,-0.724204, 0.574248,-0.578752, 0.720059,-0.744426,0.744426
-0.744426, 0.744426,-0.875352, 0.584892,-0.724204, 0.574248,-0.744426,0.744426
-0.875352, 0.584892,-0.833677, 0.399627,-0.724204, 0.574248,-0.875352,0.584892
-0.875352, 0.584892,-0.972639, 0.402880,-0.833677, 0.399627,-0.875352,0.584892
-0.972639, 0.402880,-0.901655, 0.204954,-0.833677, 0.399627,-0.972639,0.402880
-0.972639, 0.402880,-1.032549, 0.205387,-0.901655, 0.204954,-0.972639,0.402880
-1.032549, 0.205387,-0.924700, 0.000000,-0.901655, 0.204954,-1.032549,0.205387
-1.032549, 0.205387,-1.052778, 0.000000,-0.924700, 0.000000,-1.032549,0.205387
-1.052778, 0.000000,-1.032549, -0.205387,-0.924700, 0.000000,-1.052778,0.000000
-1.032549, -0.205387,-0.901655, -0.204954,-0.924700, 0.000000,-1.032549,-0.205387
-1.032549, -0.205387,-0.972639, -0.402880,-0.901655, -0.204954,-1.032549,-0.205387
-0.972639, -0.402880,-0.833677, -0.399627,-0.901655, -0.204954,-0.972639,-0.402880
-0.972639, -0.402880,-0.875352, -0.584892,-0.833677, -0.399627,-0.972639,-0.402880
-0.875352, -0.584892,-0.724204, -0.574248,-0.833677, -0.399627,-0.875352,-0.584892
-0.875352, -0.584892,-0.744426, -0.744426,-0.724204, -0.574248,-0.875352,-0.584892
-0.744426, -0.744426,-0.578752, -0.720059,-0.724204, -0.574248,-0.744426,-0.744426
-0.744426, -0.744426,-0.584893, -0.875354,-0.578752, -0.720059,-0.744426,-0.744426
-0.584893, -0.875354,-0.404745, -0.829729,-0.578752, -0.720059,-0.584893,-0.875354
-0.584893, -0.875354,-0.402882, -0.972642,-0.404745, -0.829729,-0.584893,-0.875354
-0.402882, -0.972642,-0.211001, -0.897737,-0.404745, -0.829729,-0.402882,-0.972642
-0.402882, -0.972642,-0.205387, -1.032552,-0.211001, -0.897737,-0.402882,-0.972642
-0.205387, -1.032552,-0.007424, -0.920639,-0.211001, -0.897737,-0.205387,-1.032552
-0.205387, -1.032552,-0.000000, -1.052777,-0.007424, -0.920639,-0.205387,-1.032552
-0.000000, -1.052777,0.205385, -1.032542,-0.007424, -0.920639,-0.000000,-1.052777
0.205385, -1.032542,0.195128, -0.897173,-0.007424, -0.920639,0.205385,-1.032542
0.205385, -1.032542,0.402874, -0.972623,0.195128, -0.897173,0.205385,-1.032542
0.402874, -0.972623,0.385361, -0.828191,0.195128, -0.897173,0.402874,-0.972623
0.402874, -0.972623,0.584879, -0.875333,0.385361, -0.828191,0.402874,-0.972623
0.584879, -0.875333,0.551602, -0.716700,0.385361, -0.828191,0.584879,-0.875333
0.584879, -0.875333,0.744440, -0.744440,0.551602, -0.716700,0.584879,-0.875333
0.744440, -0.744440,0.670490, -0.561764,0.551602, -0.716700,0.744440,-0.744440
0.744440, -0.744440,0.847702, -0.566416,0.670490, -0.561764,0.744440,-0.744440
0.847702, -0.566416,0.688461, -0.359727,0.670490, -0.561764,0.847702,-0.566416
0.847702, -0.566416,0.789584, -0.327056,0.688461, -0.359727,0.847702,-0.566416
0.789584, -0.327056,0.629091, -0.161761,0.688461, -0.359727,0.789584,-0.327056
0.789584, -0.327056,0.676483, -0.134561,0.629091, -0.161761,0.789584,-0.327056
0.676483, -0.134561,0.556186, -0.000000,0.629091, -0.161761,0.676483,-0.134561
0.676483, -0.134561,0.530345, 0.000000,0.556186, -0.000000,0.676483,-0.134561

