0.676283, -0.000000,0.393333, 0.570214,0.000000, -0.000000,0.676283,-0.000000
0.393333, 0.570214,-0.393333, 0.570214,0.000000, -0.000000,0.393333,0.570214
-0.393333, 0.570214,-0.676283, 0.000000,0.000000, -0.000000,-0.393333,0.570214
-0.676283, 0.000000,-0.393333, -0.570214,0.000000, -0.000000,-0.676283,0.000000
-0.393333, -0.570214,0.393333, -0.570214,0.000000, -0.000000,-0.393333,-0.570214
0.393333, -0.570214,0.676283, -0.000000,0.000000, -0.000000,0.393333,-0.570214
0.749850, 0.000000,0.541885, 0.938572,0.393333, 0.570214,0.676283, -0.000000,0.749850,0.000000
0.541885, 0.938572,-0.541885, 0.938572,-0.393333, 0.570214,0.393333, 0.570214,0.541885,0.938572
-0.541885, 0.938572,-0.749850, 0.000000,-0.676283, 0.000000,-0.393333, 0.570214,-0.541885,0.938572
-0.749850, 0.000000,-0.541885, -0.938572,-0.393333, -0.570214,-0.676283, 0.000000,-0.749850,0.000000
-0.541885, -0.938572,0.541885, -0.938572,0.393333, -0.570214,-0.393333, -0.570214,-0.541885,-0.938572
0.541885, -0.938572,0.749850, 0.000000,0.676283, -0.000000,0.393333, -0.570214,0.541885,-0.938572

