0.749850,0.000000
0.764147,0.100602
0.804998,0.215698
0.866380,0.358866
0.938572,0.541885
1.008570,0.773903
1.052117,1.052117
0.773903,1.008570
0.541885,0.938572
0.358866,0.866380
0.215698,0.804998
0.100602,0.764147
0.000000,0.749850
-0.100602,0.764147
-0.215698,0.804998
-0.358866,0.866380
-0.541885,0.938572
-0.773903,1.008570
-1.052117,1.052117
-1.008570,0.773903
-0.938572,0.541885
-0.866380,0.358866
-0.804998,0.215698
-0.764147,0.100602
-0.749850,0.000000
-0.764147,-0.100602
-0.804998,-0.215698
-0.866380,-0.358866
-0.938572,-0.541885
-1.008570,-0.773903
-1.052117,-1.052117
-0.773903,-1.008570
-0.541885,-0.938572
-0.358866,-0.866380
-0.215698,-0.804998
-0.100602,-0.764147
0.000000,-0.749850
0.100602,-0.764147
0.215698,-0.804998
0.358866,-0.866380
0.541885,-0.938572
0.773903,-1.008570
1.052117,-1.052117
1.008570,-0.773903
0.938572,-0.541885
0.866380,-0.358866
0.804998,-0.215698
0.764147,-0.100602
-0.000000,0.000000
0.125010,0.000000
0.063111,0.108461
-0.063111,0.108461
-0.125010,0.000000
-0.063111,-0.108461
0.063111,-0.108461
0.248092,0.000000
0.217438,0.127780
0.127866,0.217081
0.000000,0.247577
-0.127866,0.217081
-0.217438,0.127780
-0.248092,0.000000
-0.217438,-0.127780
-0.127866,-0.217081
-0.000000,-0.247577
0.127866,-0.217081
0.217438,-0.127780
0.366698,0.000000
0.349605,0.134516
0.293703,0.249408
0.195750,0.326452
0.068403,0.361759
-0.068403,0.361759
-0.195750,0.326452
-0.293703,0.249408
-0.349605,0.134516
-0.366698,-0.000000
-0.349605,-0.134516
-0.293703,-0.249408
-0.195750,-0.326452
-0.068403,-0.361759
0.068403,-0.361759
0.195750,-0.326452
0.293703,-0.249408
0.349605,-0.134516
0.477451,0.000000
0.469296,0.138324
0.438678,0.267811
0.372600,0.372343
0.267625,0.437942
0.138196,0.468340
0.000000,0.476448
-0.138196,0.468340
-0.267625,0.437942
-0.372600,0.372343
-0.438678,0.267811
-0.469296,0.138324
-0.477451,0.000000
-0.469296,-0.138324
-0.438678,-0.267811
-0.372600,-0.372343
-0.267625,-0.437942
-0.138196,-0.468340
-0.000000,-0.476448
0.138196,-0.468340
0.267625,-0.437942
0.372600,-0.372343
0.438678,-0.267811
0.469296,-0.138324
0.575991,0.000000
0.575092,0.138483
0.566646,0.277086
0.534467,0.405964
0.459754,0.502715
0.343348,0.553782
0.207741,0.571526
0.069055,0.574786
-0.069055,0.574786
-0.207741,0.571526
-0.343348,0.553782
-0.459754,0.502715
-0.534467,0.405964
-0.566646,0.277086
-0.575092,0.138483
-0.575991,0.000000
-0.575092,-0.138483
-0.566646,-0.277086
-0.534467,-0.405964
-0.459754,-0.502715
-0.343348,-0.553782
-0.207741,-0.571526
-0.069055,-0.574786
0.069055,-0.574786
0.207741,-0.571526
0.343348,-0.553782
0.459754,-0.502715
0.534467,-0.405964
0.566646,-0.277086
0.575092,-0.138483
0.657336,0.000000
0.662633,0.133041
0.674122,0.273619
0.677855,0.421690
0.649464,0.560135
0.558871,0.648179
0.420699,0.676528
0.273191,0.673050
0.132962,0.661710
-0.000000,0.656405
-0.132962,0.661710
-0.273191,0.673050
-0.420699,0.676528
-0.558871,0.648179
-0.649464,0.560135
-0.677855,0.421690
-0.674122,0.273619
-0.662633,0.133041
-0.657336,-0.000000
-0.662633,-0.133041
-0.674122,-0.273619
-0.677855,-0.421690
-0.649464,-0.560135
-0.558871,-0.648179
-0.420699,-0.676528
-0.273191,-0.673050
-0.132962,-0.661710
0.000000,-0.656405
0.132962,-0.661710
0.273191,-0.673050
0.420699,-0.676528
0.558871,-0.648179
0.649464,-0.560135
0.677855,-0.421690
0.674122,-0.273619
0.662633,-0.133041
0.716619,0.000000
0.726999,0.120494
0.755170,0.253426
0.791654,0.407696
0.818855,0.582974
0.803254,0.753283
0.670542,0.817900
0.492600,0.806882
0.327366,0.772564
0.184692,0.738755
0.059445,0.718710
-0.059445,0.718710
-0.184692,0.738755
-0.327366,0.772564
-0.492600,0.806882
-0.670542,0.817900
-0.803254,0.753283
-0.818855,0.582974
-0.791654,0.407696
-0.755170,0.253426
-0.726999,0.120494
-0.716619,-0.000000
-0.726999,-0.120494
-0.755170,-0.253426
-0.791654,-0.407696
-0.818855,-0.582974
-0.803254,-0.753283
-0.670542,-0.817900
-0.492600,-0.806882
-0.327366,-0.772564
-0.184692,-0.738755
-0.059445,-0.718710
0.059445,-0.718710
0.184692,-0.738755
0.327366,-0.772564
0.492600,-0.806882
0.670542,-0.817900
0.803254,-0.753283
0.818855,-0.582974
0.791654,-0.407696
0.755170,-0.253426
0.726999,-0.120494
