0.950331, -0.000000,0.255477, 0.500000,0.349558, -0.000000,0.950331,-0.000000
0.255477, 0.500000,-0.049669, -0.000000,0.349558, -0.000000,0.255477,0.500000
-0.049669, -0.000000,0.255477, -0.500000,0.349558, -0.000000,-0.049669,-0.000000
0.255477, -0.500000,0.950331, -0.000000,0.349558, -0.000000,0.255477,-0.500000
1.340287, -0.000000,1.095988, 0.532853,0.950331, -0.000000,1.340287,-0.000000
1.095988, 0.532853,0.610079, 0.794240,0.255477, 0.500000,0.950331, -0.000000,1.095988,0.532853
0.610079, 0.794240,0.144907, 0.750000,0.255477, 0.500000,0.610079,0.794240
0.144907, 0.750000,-0.139921, 0.504798,0.255477, 0.500000,0.144907,0.750000
-0.139921, 0.504798,-0.203050, 0.217147,-0.049669, -0.000000,0.255477, 0.500000,-0.139921,0.504798
-0.203050, 0.217147,-0.159713, -0.000000,-0.049669, -0.000000,-0.203050,0.217147
-0.159713, -0.000000,-0.203050, -0.217147,-0.049669, -0.000000,-0.159713,-0.000000
-0.203050, -0.217147,-0.139921, -0.504798,0.255477, -0.500000,-0.049669, -0.000000,-0.203050,-0.217147
-0.139921, -0.504798,0.144907, -0.750000,0.255477, -0.500000,-0.139921,-0.504798
0.144907, -0.750000,0.610079, -0.794240,0.255477, -0.500000,0.144907,-0.750000
0.610079, -0.794240,1.095988, -0.532853,0.950331, -0.000000,0.255477, -0.500000,0.610079,-0.794240
1.095988, -0.532853,1.340287, -0.000000,0.950331, -0.000000,1.095988,-0.532853
1.570541, -0.000000,1.488089, 0.313544,1.340287, -0.000000,1.570541,-0.000000
1.488089, 0.313544,1.305107, 0.580291,1.095988, 0.532853,1.340287, -0.000000,1.488089,0.313544
1.305107, 0.580291,1.069525, 0.780909,1.095988, 0.532853,1.305107,0.580291
1.069525, 0.780909,0.807884, 0.908074,0.610079, 0.794240,1.095988, 0.532853,1.069525,0.780909
0.807884, 0.908074,0.542596, 0.961624,0.610079, 0.794240,0.807884,0.908074
0.542596, 0.961624,0.293325, 0.947164,0.144907, 0.750000,0.610079, 0.794240,0.542596,0.961624
0.293325, 0.947164,0.076380, 0.875000,0.144907, 0.750000,0.293325,0.947164
0.076380, 0.875000,-0.096087, 0.758960,0.144907, 0.750000,0.076380,0.875000
-0.096087, 0.758960,-0.216700, 0.615072,-0.139921, 0.504798,0.144907, 0.750000,-0.096087,0.758960
-0.216700, 0.615072,-0.283223, 0.460131,-0.139921, 0.504798,-0.216700,0.615072
-0.283223, 0.460131,-0.298680, 0.310198,-0.203050, 0.217147,-0.139921, 0.504798,-0.283223,0.460131
-0.298680, 0.310198,-0.271589, 0.179006,-0.203050, 0.217147,-0.298680,0.310198
-0.271589, 0.179006,-0.218035, 0.075868,-0.159713, -0.000000,-0.203050, 0.217147,-0.271589,0.179006
-0.218035, 0.075868,-0.179459, -0.000000,-0.159713, -0.000000,-0.218035,0.075868
-0.179459, -0.000000,-0.218035, -0.075868,-0.159713, -0.000000,-0.179459,-0.000000
-0.218035, -0.075868,-0.271589, -0.179006,-0.203050, -0.217147,-0.159713, -0.000000,-0.218035,-0.075868
-0.271589, -0.179006,-0.298680, -0.310198,-0.203050, -0.217147,-0.271589,-0.179006
-0.298680, -0.310198,-0.283223, -0.460131,-0.139921, -0.504798,-0.203050, -0.217147,-0.298680,-0.310198
-0.283223, -0.460131,-0.216700, -0.615072,-0.139921, -0.504798,-0.283223,-0.460131
-0.216700, -0.615072,-0.096087, -0.758960,0.144907, -0.750000,-0.139921, -0.504798,-0.216700,-0.615072
-0.096087, -0.758960,0.076380, -0.875000,0.144907, -0.750000,-0.096087,-0.758960
0.076380, -0.875000,0.293325, -0.947164,0.144907, -0.750000,0.076380,-0.875000
0.293325, -0.947164,0.542596, -0.961624,0.610079, -0.794240,0.144907, -0.750000,0.293325,-0.947164
0.542596, -0.961624,0.807884, -0.908074,0.610079, -0.794240,0.542596,-0.961624
0.807884, -0.908074,1.069525, -0.780909,1.095988, -0.532853,0.610079, -0.794240,0.807884,-0.908074
1.069525, -0.780909,1.305107, -0.580291,1.095988, -0.532853,1.069525,-0.780909
1.305107, -0.580291,1.488089, -0.313544,1.340287, -0.000000,1.095988, -0.532853,1.305107,-0.580291
1.488089, -0.313544,1.570541, -0.000000,1.340287, -0.000000,1.488089,-0.313544
1.701446, -0.000000,1.670304, 0.168029,1.570541, -0.000000,1.701446,-0.000000
1.670304, 0.168029,1.602978, 0.327075,1.488089, 0.313544,1.570541, -0.000000,1.670304,0.168029
1.602978, 0.327075,1.515316, 0.473335,1.488089, 0.313544,1.602978,0.327075
1.515316, 0.473335,1.412526, 0.604763,1.305107, 0.580291,1.488089, 0.313544,1.515316,0.473335
1.412526, 0.604763,1.297859, 0.719985,1.305107, 0.580291,1.412526,0.604763
1.297859, 0.719985,1.174071, 0.818071,1.069525, 0.780909,1.305107, 0.580291,1.297859,0.719985
1.174071, 0.818071,1.043738, 0.898455,1.069525, 0.780909,1.174071,0.818071
1.043738, 0.898455,0.909333, 0.960911,0.807884, 0.908074,1.069525, 0.780909,1.043738,0.898455
0.909333, 0.960911,0.773243, 1.005521,0.807884, 0.908074,0.909333,0.960911
0.773243, 1.005521,0.637750, 1.032662,0.542596, 0.961624,0.807884, 0.908074,0.773243,1.005521
0.637750, 1.032662,0.505014, 1.042988,0.542596, 0.961624,0.637750,1.032662
0.505014, 1.042988,0.377045, 1.037401,0.293325, 0.947164,0.542596, 0.961624,0.505014,1.042988
0.377045, 1.037401,0.255682, 1.017037,0.293325, 0.947164,0.377045,1.037401
0.255682, 1.017037,0.142570, 0.983233,0.076380, 0.875000,0.293325, 0.947164,0.255682,1.017037
0.142570, 0.983233,0.039137, 0.937500,0.076380, 0.875000,0.142570,0.983233
0.039137, 0.937500,-0.053421, 0.881496,0.076380, 0.875000,0.039137,0.937500
-0.053421, 0.881496,-0.134152, 0.816990,-0.096087, 0.758960,0.076380, 0.875000,-0.053421,0.881496
-0.134152, 0.816990,-0.202362, 0.745830,-0.096087, 0.758960,-0.134152,0.816990
-0.202362, 0.745830,-0.257618, 0.669910,-0.216700, 0.615072,-0.096087, 0.758960,-0.202362,0.745830
-0.257618, 0.669910,-0.299750, 0.591135,-0.216700, 0.615072,-0.257618,0.669910
-0.299750, 0.591135,-0.328854, 0.511386,-0.283223, 0.460131,-0.216700, 0.615072,-0.299750,0.591135
-0.328854, 0.511386,-0.345286, 0.432486,-0.283223, 0.460131,-0.328854,0.511386
-0.345286, 0.432486,-0.349659, 0.356164,-0.298680, 0.310198,-0.283223, 0.460131,-0.345286,0.432486
-0.349659, 0.356164,-0.342836, 0.284027,-0.298680, 0.310198,-0.349659,0.356164
-0.342836, 0.284027,-0.325939, 0.217515,-0.271589, 0.179006,-0.298680, 0.310198,-0.342836,0.284027
-0.325939, 0.217515,-0.300372, 0.157868,-0.271589, 0.179006,-0.325939,0.217515
-0.300372, 0.157868,-0.267915, 0.106072,-0.218035, 0.075868,-0.271589, 0.179006,-0.300372,0.157868
-0.267915, 0.106072,-0.231048, 0.062760,-0.218035, 0.075868,-0.267915,0.106072
-0.231048, 0.062760,-0.194425, 0.027962,-0.179459, -0.000000,-0.218035, 0.075868,-0.231048,0.062760
-0.194425, 0.027962,-0.173554, -0.000000,-0.179459, -0.000000,-0.194425,0.027962
-0.173554, -0.000000,-0.194425, -0.027962,-0.179459, -0.000000,-0.173554,-0.000000
-0.194425, -0.027962,-0.231048, -0.062760,-0.218035, -0.075868,-0.179459, -0.000000,-0.194425,-0.027962
-0.231048, -0.062760,-0.267915, -0.106072,-0.218035, -0.075868,-0.231048,-0.062760
-0.267915, -0.106072,-0.300372, -0.157868,-0.271589, -0.179006,-0.218035, -0.075868,-0.267915,-0.106072
-0.300372, -0.157868,-0.325939, -0.217515,-0.271589, -0.179006,-0.300372,-0.157868
-0.325939, -0.217515,-0.342836, -0.284027,-0.298680, -0.310198,-0.271589, -0.179006,-0.325939,-0.217515
-0.342836, -0.284027,-0.349659, -0.356164,-0.298680, -0.310198,-0.342836,-0.284027
-0.349659, -0.356164,-0.345286, -0.432486,-0.283223, -0.460131,-0.298680, -0.310198,-0.349659,-0.356164
-0.345286, -0.432486,-0.328854, -0.511386,-0.283223, -0.460131,-0.345286,-0.432486
-0.328854, -0.511386,-0.299750, -0.591135,-0.216700, -0.615072,-0.283223, -0.460131,-0.328854,-0.511386
-0.299750, -0.591135,-0.257618, -0.669910,-0.216700, -0.615072,-0.299750,-0.591135
-0.257618, -0.669910,-0.202362, -0.745830,-0.096087, -0.758960,-0.216700, -0.615072,-0.257618,-0.669910
-0.202362, -0.745830,-0.134152, -0.816990,-0.096087, -0.758960,-0.202362,-0.745830
-0.134152, -0.816990,-0.053421, -0.881496,0.076380, -0.875000,-0.096087, -0.758960,-0.134152,-0.816990
-0.053421, -0.881496,0.039137, -0.937500,0.076380, -0.875000,-0.053421,-0.881496
0.039137, -0.937500,0.142570, -0.983233,0.076380, -0.875000,0.039137,-0.937500
0.142570, -0.983233,0.255682, -1.017037,0.293325, -0.947164,0.076380, -0.875000,0.142570,-0.983233
0.255682, -1.017037,0.377045, -1.037401,0.293325, -0.947164,0.255682,-1.017037
0.377045, -1.037401,0.505014, -1.042988,0.542596, -0.961624,0.293325, -0.947164,0.377045,-1.037401
0.505014, -1.042988,0.637750, -1.032662,0.542596, -0.961624,0.505014,-1.042988
0.637750, -1.032662,0.773243, -1.005521,0.807884, -0.908074,0.542596, -0.961624,0.637750,-1.032662
0.773243, -1.005521,0.909333, -0.960911,0.807884, -0.908074,0.773243,-1.005521
0.909333, -0.960911,1.043738, -0.898455,1.069525, -0.780909,0.807884, -0.908074,0.909333,-0.960911
1.043738, -0.898455,1.174071, -0.818071,1.069525, -0.780909,1.043738,-0.898455
1.174071, -0.818071,1.297859, -0.719985,1.305107, -0.580291,1.069525, -0.780909,1.174071,-0.818071
1.297859, -0.719985,1.412526, -0.604763,1.305107, -0.580291,1.297859,-0.719985
1.412526, -0.604763,1.515316, -0.473335,1.488089, -0.313544,1.305107, -0.580291,1.412526,-0.604763
1.515316, -0.473335,1.602978, -0.327075,1.488089, -0.313544,1.515316,-0.473335
1.602978, -0.327075,1.670304, -0.168029,1.570541, -0.000000,1.488089, -0.313544,1.602978,-0.327075
1.670304, -0.168029,1.701446, -0.000000,1.570541, -0.000000,1.670304,-0.168029
1.774493, -0.000000,1.761324, 0.087147,1.701446, -0.000000,1.774493,-0.000000
1.761324, 0.087147,1.734443, 0.172366,1.670304, 0.168029,1.701446, -0.000000,1.761324,0.087147
1.734443, 0.172366,1.700633, 0.254926,1.670304, 0.168029,1.734443,0.172366
1.700633, 0.254926,1.661673, 0.334442,1.602978, 0.327075,1.670304, 0.168029,1.700633,0.254926
1.661673, 0.334442,1.618364, 0.410643,1.602978, 0.327075,1.661673,0.334442
1.618364, 0.410643,1.571210, 0.483310,1.515316, 0.473335,1.602978, 0.327075,1.618364,0.410643
1.571210, 0.483310,1.520594, 0.552262,1.515316, 0.473335,1.571210,0.483310
1.520594, 0.552262,1.466852, 0.617341,1.412526, 0.604763,1.515316, 0.473335,1.520594,0.552262
1.466852, 0.617341,1.410295, 0.678412,1.412526, 0.604763,1.466852,0.617341
1.410295, 0.678412,1.351228, 0.735361,1.297859, 0.719985,1.412526, 0.604763,1.410295,0.678412
1.351228, 0.735361,1.289952, 0.788097,1.297859, 0.719985,1.351228,0.735361
1.289952, 0.788097,1.226758, 0.836548,1.174071, 0.818071,1.297859, 0.719985,1.289952,0.788097
1.226758, 0.836548,1.161937, 0.880657,1.174071, 0.818071,1.226758,0.836548
1.161937, 0.880657,1.095773, 0.920386,1.043738, 0.898455,1.174071, 0.818071,1.161937,0.880657
1.095773, 0.920386,1.028552, 0.955715,1.043738, 0.898455,1.095773,0.920386
1.028552, 0.955715,0.960553, 0.986643,0.909333, 0.960911,1.043738, 0.898455,1.028552,0.955715
0.960553, 0.986643,0.892055, 1.013185,0.909333, 0.960911,0.960553,0.986643
0.892055, 1.013185,0.823330, 1.035373,0.773243, 1.005521,0.909333, 0.960911,0.892055,1.013185
0.823330, 1.035373,0.754643, 1.053254,0.773243, 1.005521,0.823330,1.035373
0.754643, 1.053254,0.686255, 1.066889,0.637750, 1.032662,0.773243, 1.005521,0.754643,1.053254
0.686255, 1.066889,0.618418, 1.076357,0.637750, 1.032662,0.686255,1.066889
0.618418, 1.076357,0.551381, 1.081752,0.505014, 1.042988,0.637750, 1.032662,0.618418,1.076357
0.551381, 1.081752,0.485379, 1.083181,0.505014, 1.042988,0.551381,1.081752
0.485379, 1.083181,0.420642, 1.080765,0.377045, 1.037401,0.505014, 1.042988,0.485379,1.083181
0.420642, 1.080765,0.357387, 1.074635,0.377045, 1.037401,0.420642,1.080765
0.357387, 1.074635,0.295821, 1.064936,0.255682, 1.017037,0.377045, 1.037401,0.357387,1.074635
0.295821, 1.064936,0.236143, 1.051824,0.255682, 1.017037,0.295821,1.064936
0.236143, 1.051824,0.178536, 1.035469,0.142570, 0.983233,0.255682, 1.017037,0.236143,1.051824
0.178536, 1.035469,0.123173, 1.016048,0.142570, 0.983233,0.178536,1.035469
0.123173, 1.016048,0.070214, 0.993744,0.039137, 0.937500,0.142570, 0.983233,0.123173,1.016048
0.070214, 0.993744,0.019807, 0.968750,0.039137, 0.937500,0.070214,0.993744
0.019807, 0.968750,-0.027919, 0.941269,0.039137, 0.937500,0.019807,0.968750
-0.027919, 0.941269,-0.072841, 0.911511,-0.053421, 0.881496,0.039137, 0.937500,-0.027919,0.941269
-0.072841, 0.911511,-0.114856, 0.879688,-0.053421, 0.881496,-0.072841,0.911511
-0.114856, 0.879688,-0.153873, 0.846015,-0.134152, 0.816990,-0.053421, 0.881496,-0.114856,0.879688
-0.153873, 0.846015,-0.189818, 0.810714,-0.134152, 0.816990,-0.153873,0.846015
-0.189818, 0.810714,-0.222629, 0.774010,-0.202362, 0.745830,-0.134152, 0.816990,-0.189818,0.810714
-0.222629, 0.774010,-0.252262, 0.736130,-0.202362, 0.745830,-0.222629,0.774010
-0.252262, 0.736130,-0.278685, 0.697300,-0.257618, 0.669910,-0.202362, 0.745830,-0.252262,0.736130
-0.278685, 0.697300,-0.301883, 0.657744,-0.257618, 0.669910,-0.278685,0.697300
-0.301883, 0.657744,-0.321854, 0.617689,-0.299750, 0.591135,-0.257618, 0.669910,-0.301883,0.657744
-0.321854, 0.617689,-0.338613, 0.577359,-0.299750, 0.591135,-0.321854,0.617689
-0.338613, 0.577359,-0.352189, 0.536976,-0.328854, 0.511386,-0.299750, 0.591135,-0.338613,0.577359
-0.352189, 0.536976,-0.362626, 0.496755,-0.328854, 0.511386,-0.352189,0.536976
-0.362626, 0.496755,-0.369979, 0.456908,-0.345286, 0.432486,-0.328854, 0.511386,-0.362626,0.496755
-0.369979, 0.456908,-0.374320, 0.417643,-0.345286, 0.432486,-0.369979,0.456908
-0.374320, 0.417643,-0.375735, 0.379158,-0.349659, 0.356164,-0.345286, 0.432486,-0.374320,0.417643
-0.375735, 0.379158,-0.374321, 0.341648,-0.349659, 0.356164,-0.375735,0.379158
-0.374321, 0.341648,-0.370191, 0.305299,-0.342836, 0.284027,-0.349659, 0.356164,-0.374321,0.341648
-0.370191, 0.305299,-0.363471, 0.270284,-0.342836, 0.284027,-0.370191,0.305299
-0.363471, 0.270284,-0.354297, 0.236770,-0.325939, 0.217515,-0.342836, 0.284027,-0.363471,0.270284
-0.354297, 0.236770,-0.342818, 0.204912,-0.325939, 0.217515,-0.354297,0.236770
-0.342818, 0.204912,-0.329201, 0.174852,-0.300372, 0.157868,-0.325939, 0.217515,-0.342818,0.204912
-0.329201, 0.174852,-0.313629, 0.146723,-0.300372, 0.157868,-0.329201,0.174852
-0.313629, 0.146723,-0.296300, 0.120641,-0.267915, 0.106072,-0.300372, 0.157868,-0.313629,0.146723
-0.296300, 0.120641,-0.277435, 0.096706,-0.267915, 0.106072,-0.296300,0.120641
-0.277435, 0.096706,-0.257285, 0.074996,-0.231048, 0.062760,-0.267915, 0.106072,-0.277435,0.096706
-0.257285, 0.074996,-0.236167, 0.055574,-0.231048, 0.062760,-0.257285,0.074996
-0.236167, 0.055574,-0.214524, 0.038465,-0.194425, 0.027962,-0.231048, 0.062760,-0.236167,0.055574
-0.214524, 0.038465,-0.193117, 0.023648,-0.194425, 0.027962,-0.214524,0.038465
-0.193117, 0.023648,-0.173689, 0.010985,-0.173554, -0.000000,-0.194425, 0.027962,-0.193117,0.023648
-0.173689, 0.010985,-0.163007, -0.000000,-0.173554, -0.000000,-0.173689,0.010985
-0.163007, -0.000000,-0.173689, -0.010985,-0.173554, -0.000000,-0.163007,-0.000000
-0.173689, -0.010985,-0.193117, -0.023648,-0.194425, -0.027962,-0.173554, -0.000000,-0.173689,-0.010985
-0.193117, -0.023648,-0.214524, -0.038465,-0.194425, -0.027962,-0.193117,-0.023648
-0.214524, -0.038465,-0.236167, -0.055574,-0.231048, -0.062760,-0.194425, -0.027962,-0.214524,-0.038465
-0.236167, -0.055574,-0.257285, -0.074996,-0.231048, -0.062760,-0.236167,-0.055574
-0.257285, -0.074996,-0.277435, -0.096706,-0.267915, -0.106072,-0.231048, -0.062760,-0.257285,-0.074996
-0.277435, -0.096706,-0.296300, -0.120641,-0.267915, -0.106072,-0.277435,-0.096706
-0.296300, -0.120641,-0.313629, -0.146723,-0.300372, -0.157868,-0.267915, -0.106072,-0.296300,-0.120641
-0.313629, -0.146723,-0.329201, -0.174852,-0.300372, -0.157868,-0.313629,-0.146723
-0.329201, -0.174852,-0.342818, -0.204912,-0.325939, -0.217515,-0.300372, -0.157868,-0.329201,-0.174852
-0.342818, -0.204912,-0.354297, -0.236770,-0.325939, -0.217515,-0.342818,-0.204912
-0.354297, -0.236770,-0.363471, -0.270284,-0.342836, -0.284027,-0.325939, -0.217515,-0.354297,-0.236770
-0.363471, -0.270284,-0.370191, -0.305299,-0.342836, -0.284027,-0.363471,-0.270284
-0.370191, -0.305299,-0.374321, -0.341648,-0.349659, -0.356164,-0.342836, -0.284027,-0.370191,-0.305299
-0.374321, -0.341648,-0.375735, -0.379158,-0.349659, -0.356164,-0.374321,-0.341648
-0.375735, -0.379158,-0.374320, -0.417643,-0.345286, -0.432486,-0.349659, -0.356164,-0.375735,-0.379158
-0.374320, -0.417643,-0.369979, -0.456908,-0.345286, -0.432486,-0.374320,-0.417643
-0.369979, -0.456908,-0.362626, -0.496755,-0.328854, -0.511386,-0.345286, -0.432486,-0.369979,-0.456908
-0.362626, -0.496755,-0.352189, -0.536976,-0.328854, -0.511386,-0.362626,-0.496755
-0.352189, -0.536976,-0.338613, -0.577359,-0.299750, -0.591135,-0.328854, -0.511386,-0.352189,-0.536976
-0.338613, -0.577359,-0.321854, -0.617689,-0.299750, -0.591135,-0.338613,-0.577359
-0.321854, -0.617689,-0.301883, -0.657744,-0.257618, -0.669910,-0.299750, -0.591135,-0.321854,-0.617689
-0.301883, -0.657744,-0.278685, -0.697300,-0.257618, -0.669910,-0.301883,-0.657744
-0.278685, -0.697300,-0.252262, -0.736130,-0.202362, -0.745830,-0.257618, -0.669910,-0.278685,-0.697300
-0.252262, -0.736130,-0.222629, -0.774010,-0.202362, -0.745830,-0.252262,-0.736130
-0.222629, -0.774010,-0.189818, -0.810714,-0.134152, -0.816990,-0.202362, -0.745830,-0.222629,-0.774010
-0.189818, -0.810714,-0.153873, -0.846015,-0.134152, -0.816990,-0.189818,-0.810714
-0.153873, -0.846015,-0.114856, -0.879688,-0.053421, -0.881496,-0.134152, -0.816990,-0.153873,-0.846015
-0.114856, -0.879688,-0.072841, -0.911511,-0.053421, -0.881496,-0.114856,-0.879688
-0.072841, -0.911511,-0.027919, -0.941269,0.039137, -0.937500,-0.053421, -0.881496,-0.072841,-0.911511
-0.027919, -0.941269,0.019807, -0.968750,0.039137, -0.937500,-0.027919,-0.941269
0.019807, -0.968750,0.070214, -0.993744,0.039137, -0.937500,0.019807,-0.968750
0.070214, -0.993744,0.123173, -1.016048,0.142570, -0.983233,0.039137, -0.937500,0.070214,-0.993744
0.123173, -1.016048,0.178536, -1.035469,0.142570, -0.983233,0.123173,-1.016048
0.178536, -1.035469,0.236143, -1.051824,0.255682, -1.017037,0.142570, -0.983233,0.178536,-1.035469
0.236143, -1.051824,0.295821, -1.064936,0.255682, -1.017037,0.236143,-1.051824
0.295821, -1.064936,0.357387, -1.074635,0.377045, -1.037401,0.255682, -1.017037,0.295821,-1.064936
0.357387, -1.074635,0.420642, -1.080765,0.377045, -1.037401,0.357387,-1.074635
0.420642, -1.080765,0.485379, -1.083181,0.505014, -1.042988,0.377045, -1.037401,0.420642,-1.080765
0.485379, -1.083181,0.551381, -1.081752,0.505014, -1.042988,0.485379,-1.083181
0.551381, -1.081752,0.618418, -1.076357,0.637750, -1.032662,0.505014, -1.042988,0.551381,-1.081752
0.618418, -1.076357,0.686255, -1.066889,0.637750, -1.032662,0.618418,-1.076357
0.686255, -1.066889,0.754643, -1.053254,0.773243, -1.005521,0.637750, -1.032662,0.686255,-1.066889
0.754643, -1.053254,0.823330, -1.035373,0.773243, -1.005521,0.754643,-1.053254
0.823330, -1.035373,0.892055, -1.013185,0.909333, -0.960911,0.773243, -1.005521,0.823330,-1.035373
0.892055, -1.013185,0.960553, -0.986643,0.909333, -0.960911,0.892055,-1.013185
0.960553, -0.986643,1.028552, -0.955715,1.043738, -0.898455,0.909333, -0.960911,0.960553,-0.986643
1.028552, -0.955715,1.095773, -0.920386,1.043738, -0.898455,1.028552,-0.955715
1.095773, -0.920386,1.161937, -0.880657,1.174071, -0.818071,1.043738, -0.898455,1.095773,-0.920386
1.161937, -0.880657,1.226758, -0.836548,1.174071, -0.818071,1.161937,-0.880657
1.226758, -0.836548,1.289952, -0.788097,1.297859, -0.719985,1.174071, -0.818071,1.226758,-0.836548
1.289952, -0.788097,1.351228, -0.735361,1.297859, -0.719985,1.289952,-0.788097
1.351228, -0.735361,1.410295, -0.678412,1.412526, -0.604763,1.297859, -0.719985,1.351228,-0.735361
1.410295, -0.678412,1.466852, -0.617341,1.412526, -0.604763,1.410295,-0.678412
1.466852, -0.617341,1.520594, -0.552262,1.515316, -0.473335,1.412526, -0.604763,1.466852,-0.617341
1.520594, -0.552262,1.571210, -0.483310,1.515316, -0.473335,1.520594,-0.552262
1.571210, -0.483310,1.618364, -0.410643,1.602978, -0.327075,1.515316, -0.473335,1.571210,-0.483310
1.618364, -0.410643,1.661673, -0.334442,1.602978, -0.327075,1.618364,-0.410643
1.661673, -0.334442,1.700633, -0.254926,1.670304, -0.168029,1.602978, -0.327075,1.661673,-0.334442
1.700633, -0.254926,1.734443, -0.172366,1.670304, -0.168029,1.700633,-0.254926
1.734443, -0.172366,1.761324, -0.087147,1.701446, -0.000000,1.670304, -0.168029,1.734443,-0.172366
1.761324, -0.087147,1.774493, -0.000000,1.701446, -0.000000,1.761324,-0.087147
1.815317, -0.000000,1.809277, 0.044524,1.774493, -0.000000,1.815317,-0.000000
1.809277, 0.044524,1.796857, 0.088536,1.761324, 0.087147,1.774493, -0.000000,1.809277,0.044524
1.796857, 0.088536,1.783007, 0.132001,1.761324, 0.087147,1.796857,0.088536
1.783007, 0.132001,1.767033, 0.174760,1.734443, 0.172366,1.761324, 0.087147,1.783007,0.132001
1.767033, 0.174760,1.749800, 0.216816,1.734443, 0.172366,1.767033,0.174760
1.749800, 0.216816,1.731487, 0.258133,1.700633, 0.254926,1.734443, 0.172366,1.749800,0.216816
1.731487, 0.258133,1.711791, 0.298627,1.700633, 0.254926,1.731487,0.258133
1.711791, 0.298627,1.691297, 0.338346,1.661673, 0.334442,1.700633, 0.254926,1.711791,0.298627
1.691297, 0.338346,1.669647, 0.377194,1.661673, 0.334442,1.691297,0.338346
1.669647, 0.377194,1.647080, 0.415181,1.618364, 0.410643,1.661673, 0.334442,1.669647,0.377194
1.647080, 0.415181,1.623684, 0.452297,1.618364, 0.410643,1.647080,0.415181
1.623684, 0.452297,1.599294, 0.488469,1.571210, 0.483310,1.618364, 0.410643,1.623684,0.452297
1.599294, 0.488469,1.574196, 0.523746,1.571210, 0.483310,1.599294,0.488469
1.574196, 0.523746,1.548242, 0.558054,1.520594, 0.552262,1.571210, 0.483310,1.574196,0.523746
1.548242, 0.558054,1.521532, 0.591395,1.520594, 0.552262,1.548242,0.558054
1.521532, 0.591395,1.494159, 0.623776,1.466852, 0.617341,1.520594, 0.552262,1.521532,0.591395
1.494159, 0.623776,1.466025, 0.655128,1.466852, 0.617341,1.494159,0.623776
1.466025, 0.655128,1.437309, 0.685500,1.410295, 0.678412,1.466852, 0.617341,1.466025,0.655128
1.437309, 0.685500,1.407948, 0.714834,1.410295, 0.678412,1.437309,0.685500
1.407948, 0.714834,1.378001, 0.743130,1.351228, 0.735361,1.410295, 0.678412,1.407948,0.714834
1.378001, 0.743130,1.347547, 0.770401,1.351228, 0.735361,1.378001,0.743130
1.347547, 0.770401,1.316537, 0.796593,1.289952, 0.788097,1.351228, 0.735361,1.347547,0.770401
1.316537, 0.796593,1.285090, 0.821744,1.289952, 0.788097,1.316537,0.796593
1.285090, 0.821744,1.253187, 0.845816,1.226758, 0.836548,1.289952, 0.788097,1.285090,0.821744
1.253187, 0.845816,1.220872, 0.868808,1.226758, 0.836548,1.253187,0.845816
1.220872, 0.868808,1.188209, 0.890737,1.161937, 0.880657,1.226758, 0.836548,1.220872,0.868808
1.188209, 0.890737,1.155180, 0.911559,1.161937, 0.880657,1.188209,0.890737
1.155180, 0.911559,1.121873, 0.931314,1.095773, 0.920386,1.161937, 0.880657,1.155180,0.911559
1.121873, 0.931314,1.088286, 0.949968,1.095773, 0.920386,1.121873,0.931314
1.088286, 0.949968,1.054461, 0.967530,1.028552, 0.955715,1.095773, 0.920386,1.088286,0.949968
1.054461, 0.967530,1.020450, 0.984016,1.028552, 0.955715,1.054461,0.967530
1.020450, 0.984016,0.986252, 0.999392,0.960553, 0.986643,1.028552, 0.955715,1.020450,0.984016
0.986252, 0.999392,0.951939, 1.013701,0.960553, 0.986643,0.986252,0.999392
0.951939, 1.013701,0.917514, 1.026914,0.892055, 1.013185,0.960553, 0.986643,0.951939,1.013701
0.917514, 1.026914,0.883022, 1.039047,0.892055, 1.013185,0.917514,1.026914
0.883022, 1.039047,0.848504, 1.050117,0.823330, 1.035373,0.892055, 1.013185,0.883022,1.039047
0.848504, 1.050117,0.813967, 1.060098,0.823330, 1.035373,0.848504,1.050117
0.813967, 1.060098,0.779476, 1.069038,0.754643, 1.053254,0.823330, 1.035373,0.813967,1.060098
0.779476, 1.069038,0.745034, 1.076908,0.754643, 1.053254,0.779476,1.069038
0.745034, 1.076908,0.710685, 1.083736,0.686255, 1.066889,0.754643, 1.053254,0.745034,1.076908
0.710685, 1.083736,0.676466, 1.089539,0.686255, 1.066889,0.710685,1.083736
0.676466, 1.089539,0.642386, 1.094293,0.618418, 1.076357,0.686255, 1.066889,0.676466,1.089539
0.642386, 1.094293,0.608503, 1.098059,0.618418, 1.076357,0.642386,1.094293
0.608503, 1.098059,0.574822, 1.100804,0.551381, 1.081752,0.618418, 1.076357,0.608503,1.098059
0.574822, 1.100804,0.541382, 1.102562,0.551381, 1.081752,0.574822,1.100804
0.541382, 1.102562,0.508219, 1.103362,0.485379, 1.083181,0.551381, 1.081752,0.541382,1.102562
0.508219, 1.103362,0.475340, 1.103170,0.485379, 1.083181,0.508219,1.103362
0.475340, 1.103170,0.442797, 1.102065,0.420642, 1.080765,0.485379, 1.083181,0.475340,1.103170
0.442797, 1.102065,0.410598, 1.100010,0.420642, 1.080765,0.442797,1.102065
0.410598, 1.100010,0.378774, 1.097042,0.357387, 1.074635,0.420642, 1.080765,0.410598,1.100010
0.378774, 1.097042,0.347359, 1.093202,0.357387, 1.074635,0.378774,1.097042
0.347359, 1.093202,0.316361, 1.088449,0.295821, 1.064936,0.357387, 1.074635,0.347359,1.093202
0.316361, 1.088449,0.285822, 1.082872,0.295821, 1.064936,0.316361,1.088449
0.285822, 1.082872,0.255752, 1.076440,0.236143, 1.051824,0.295821, 1.064936,0.285822,1.082872
0.255752, 1.076440,0.226178, 1.069181,0.236143, 1.051824,0.255752,1.076440
0.226178, 1.069181,0.197128, 1.061158,0.178536, 1.035469,0.236143, 1.051824,0.226178,1.069181
0.197128, 1.061158,0.168610, 1.052316,0.178536, 1.035469,0.197128,1.061158
0.168610, 1.052316,0.140657, 1.042754,0.123173, 1.016048,0.178536, 1.035469,0.168610,1.052316
0.140657, 1.042754,0.113283, 1.032451,0.123173, 1.016048,0.140657,1.042754
0.113283, 1.032451,0.086506, 1.021420,0.070214, 0.993744,0.123173, 1.016048,0.113283,1.032451
0.086506, 1.021420,0.060349, 1.009746,0.070214, 0.993744,0.086506,1.021420
0.060349, 1.009746,0.034823, 0.997364,0.019807, 0.968750,0.070214, 0.993744,0.060349,1.009746
0.034823, 0.997364,0.009950, 0.984375,0.019807, 0.968750,0.034823,0.997364
0.009950, 0.984375,-0.014260, 0.970774,0.019807, 0.968750,0.009950,0.984375
-0.014260, 0.970774,-0.037786, 0.956557,-0.027919, 0.941269,0.019807, 0.968750,-0.014260,0.970774
-0.037786, 0.956557,-0.060619, 0.941825,-0.027919, 0.941269,-0.037786,0.956557
-0.060619, 0.941825,-0.082741, 0.926516,-0.072841, 0.911511,-0.027919, 0.941269,-0.060619,0.941825
-0.082741, 0.926516,-0.104144, 0.910717,-0.072841, 0.911511,-0.082741,0.926516
-0.104144, 0.910717,-0.124817, 0.894445,-0.114856, 0.879688,-0.072841, 0.911511,-0.104144,0.910717
-0.124817, 0.894445,-0.144742, 0.877682,-0.114856, 0.879688,-0.124817,0.894445
-0.144742, 0.877682,-0.163923, 0.860533,-0.153873, 0.846015,-0.114856, 0.879688,-0.144742,0.877682
-0.163923, 0.860533,-0.182336, 0.842949,-0.153873, 0.846015,-0.163923,0.860533
-0.182336, 0.842949,-0.199982, 0.824999,-0.189818, 0.810714,-0.153873, 0.846015,-0.182336,0.842949
-0.199982, 0.824999,-0.216857, 0.806718,-0.189818, 0.810714,-0.199982,0.824999
-0.216857, 0.806718,-0.232940, 0.788082,-0.222629, 0.774010,-0.189818, 0.810714,-0.216857,0.806718
-0.232940, 0.788082,-0.248247, 0.769190,-0.222629, 0.774010,-0.232940,0.788082
-0.248247, 0.769190,-0.262754, 0.750009,-0.252262, 0.736130,-0.222629, 0.774010,-0.248247,0.769190
-0.262754, 0.750009,-0.276468, 0.730593,-0.252262, 0.736130,-0.262754,0.750009
-0.276468, 0.730593,-0.289391, 0.710986,-0.278685, 0.697300,-0.252262, 0.736130,-0.276468,0.730593
-0.289391, 0.710986,-0.301502, 0.691165,-0.278685, 0.697300,-0.289391,0.710986
-0.301502, 0.691165,-0.312826, 0.671220,-0.301883, 0.657744,-0.278685, 0.697300,-0.301502,0.691165
-0.312826, 0.671220,-0.323343, 0.651131,-0.301883, 0.657744,-0.312826,0.671220
-0.323343, 0.651131,-0.333060, 0.630940,-0.321854, 0.617689,-0.301883, 0.657744,-0.323343,0.651131
-0.333060, 0.630940,-0.341989, 0.610695,-0.321854, 0.617689,-0.333060,0.630940
-0.341989, 0.610695,-0.350109, 0.590377,-0.338613, 0.577359,-0.321854, 0.617689,-0.341989,0.610695
-0.350109, 0.590377,-0.357453, 0.570065,-0.338613, 0.577359,-0.350109,0.590377
-0.357453, 0.570065,-0.364002, 0.549749,-0.352189, 0.536976,-0.338613, 0.577359,-0.357453,0.570065
-0.364002, 0.549749,-0.369770, 0.529465,-0.352189, 0.536976,-0.364002,0.549749
-0.369770, 0.529465,-0.374772, 0.509257,-0.362626, 0.496755,-0.352189, 0.536976,-0.369770,0.529465
-0.374772, 0.509257,-0.378991, 0.489114,-0.362626, 0.496755,-0.374772,0.509257
-0.378991, 0.489114,-0.382466, 0.469103,-0.369979, 0.456908,-0.362626, 0.496755,-0.378991,0.489114
-0.382466, 0.469103,-0.385180, 0.449218,-0.369979, 0.456908,-0.382466,0.469103
-0.385180, 0.449218,-0.387151, 0.429495,-0.374320, 0.417643,-0.369979, 0.456908,-0.385180,0.449218
-0.387151, 0.429495,-0.388402, 0.409970,-0.374320, 0.417643,-0.387151,0.429495
-0.388402, 0.409970,-0.388912, 0.390638,-0.375735, 0.379158,-0.374320, 0.417643,-0.388402,0.409970
-0.388912, 0.390638,-0.388735, 0.371560,-0.375735, 0.379158,-0.388912,0.390638
-0.388735, 0.371560,-0.387846, 0.352726,-0.374321, 0.341648,-0.375735, 0.379158,-0.388735,0.371560
-0.387846, 0.352726,-0.386277, 0.334175,-0.374321, 0.341648,-0.387846,0.352726
-0.386277, 0.334175,-0.384051, 0.315937,-0.370191, 0.305299,-0.374321, 0.341648,-0.386277,0.334175
-0.384051, 0.315937,-0.381146, 0.298003,-0.370191, 0.305299,-0.384051,0.315937
-0.381146, 0.298003,-0.377631, 0.280437,-0.363471, 0.270284,-0.370191, 0.305299,-0.381146,0.298003
-0.377631, 0.280437,-0.373471, 0.263220,-0.363471, 0.270284,-0.377631,0.280437
-0.373471, 0.263220,-0.368711, 0.246394,-0.354297, 0.236770,-0.363471, 0.270284,-0.373471,0.263220
-0.368711, 0.246394,-0.363380, 0.229983,-0.354297, 0.236770,-0.368711,0.246394
-0.363380, 0.229983,-0.357440, 0.213974,-0.342818, 0.204912,-0.354297, 0.236770,-0.363380,0.229983
-0.357440, 0.213974,-0.350998, 0.198432,-0.342818, 0.204912,-0.357440,0.213974
-0.350998, 0.198432,-0.343987, 0.183331,-0.329201, 0.174852,-0.342818, 0.204912,-0.350998,0.198432
-0.343987, 0.183331,-0.336474, 0.168709,-0.329201, 0.174852,-0.343987,0.183331
-0.336474, 0.168709,-0.328502, 0.154594,-0.313629, 0.146723,-0.329201, 0.174852,-0.336474,0.168709
-0.328502, 0.154594,-0.319998, 0.140955,-0.313629, 0.146723,-0.328502,0.154594
-0.319998, 0.140955,-0.311126, 0.127871,-0.296300, 0.120641,-0.313629, 0.146723,-0.319998,0.140955
-0.311126, 0.127871,-0.301778, 0.115299,-0.296300, 0.120641,-0.311126,0.127871
-0.301778, 0.115299,-0.292036, 0.103275,-0.277435, 0.096706,-0.296300, 0.120641,-0.301778,0.115299
-0.292036, 0.103275,-0.281990, 0.091830,-0.277435, 0.096706,-0.292036,0.103275
-0.281990, 0.091830,-0.271482, 0.080920,-0.257285, 0.074996,-0.277435, 0.096706,-0.281990,0.091830
-0.271482, 0.080920,-0.260791, 0.070623,-0.257285, 0.074996,-0.271482,0.080920
-0.260791, 0.070623,-0.249742, 0.060895,-0.236167, 0.055574,-0.257285, 0.074996,-0.260791,0.070623
-0.249742, 0.060895,-0.238418, 0.051754,-0.236167, 0.055574,-0.249742,0.060895
-0.238418, 0.051754,-0.227050, 0.043243,-0.214524, 0.038465,-0.236167, 0.055574,-0.238418,0.051754
-0.227050, 0.043243,-0.215273, 0.035294,-0.214524, 0.038465,-0.227050,0.043243
-0.215273, 0.035294,-0.203671, 0.027985,-0.193117, 0.023648,-0.214524, 0.038465,-0.215273,0.035294
-0.203671, 0.027985,-0.191934, 0.021264,-0.193117, 0.023648,-0.203671,0.027985
-0.191934, 0.021264,-0.180238, 0.015123,-0.173689, 0.010985,-0.193117, 0.023648,-0.191934,0.021264
-0.180238, 0.015123,-0.169445, 0.009598,-0.173689, 0.010985,-0.180238,0.015123
-0.169445, 0.009598,-0.158861, 0.004559,-0.163007, -0.000000,-0.173689, 0.010985,-0.169445,0.009598
-0.158861, 0.004559,-0.153433, -0.000000,-0.163007, -0.000000,-0.158861,0.004559
-0.153433, -0.000000,-0.158861, -0.004559,-0.163007, -0.000000,-0.153433,-0.000000
-0.158861, -0.004559,-0.169445, -0.009598,-0.173689, -0.010985,-0.163007, -0.000000,-0.158861,-0.004559
-0.169445, -0.009598,-0.180238, -0.015123,-0.173689, -0.010985,-0.169445,-0.009598
-0.180238, -0.015123,-0.191934, -0.021264,-0.193117, -0.023648,-0.173689, -0.010985,-0.180238,-0.015123
-0.191934, -0.021264,-0.203671, -0.027985,-0.193117, -0.023648,-0.191934,-0.021264
-0.203671, -0.027985,-0.215273, -0.035294,-0.214524, -0.038465,-0.193117, -0.023648,-0.203671,-0.027985
-0.215273, -0.035294,-0.227050, -0.043243,-0.214524, -0.038465,-0.215273,-0.035294
-0.227050, -0.043243,-0.238418, -0.051754,-0.236167, -0.055574,-0.214524, -0.038465,-0.227050,-0.043243
-0.238418, -0.051754,-0.249742, -0.060895,-0.236167, -0.055574,-0.238418,-0.051754
-0.249742, -0.060895,-0.260791, -0.070623,-0.257285, -0.074996,-0.236167, -0.055574,-0.249742,-0.060895
-0.260791, -0.070623,-0.271482, -0.080920,-0.257285, -0.074996,-0.260791,-0.070623
-0.271482, -0.080920,-0.281990, -0.091830,-0.277435, -0.096706,-0.257285, -0.074996,-0.271482,-0.080920
-0.281990, -0.091830,-0.292036, -0.103275,-0.277435, -0.096706,-0.281990,-0.091830
-0.292036, -0.103275,-0.301778, -0.115299,-0.296300, -0.120641,-0.277435, -0.096706,-0.292036,-0.103275
-0.301778, -0.115299,-0.311126, -0.127871,-0.296300, -0.120641,-0.301778,-0.115299
-0.311126, -0.127871,-0.319998, -0.140955,-0.313629, -0.146723,-0.296300, -0.120641,-0.311126,-0.127871
-0.319998, -0.140955,-0.328502, -0.154594,-0.313629, -0.146723,-0.319998,-0.140955
-0.328502, -0.154594,-0.336474, -0.168709,-0.329201, -0.174852,-0.313629, -0.146723,-0.328502,-0.154594
-0.336474, -0.168709,-0.343987, -0.183331,-0.329201, -0.174852,-0.336474,-0.168709
-0.343987, -0.183331,-0.350998, -0.198432,-0.342818, -0.204912,-0.329201, -0.174852,-0.343987,-0.183331
-0.350998, -0.198432,-0.357440, -0.213974,-0.342818, -0.204912,-0.350998,-0.198432
-0.357440, -0.213974,-0.363380, -0.229983,-0.354297, -0.236770,-0.342818, -0.204912,-0.357440,-0.213974
-0.363380, -0.229983,-0.368711, -0.246394,-0.354297, -0.236770,-0.363380,-0.229983
-0.368711, -0.246394,-0.373471, -0.263220,-0.363471, -0.270284,-0.354297, -0.236770,-0.368711,-0.246394
-0.373471, -0.263220,-0.377631, -0.280437,-0.363471, -0.270284,-0.373471,-0.263220
-0.377631, -0.280437,-0.381146, -0.298003,-0.370191, -0.305299,-0.363471, -0.270284,-0.377631,-0.280437
-0.381146, -0.298003,-0.384051, -0.315937,-0.370191, -0.305299,-0.381146,-0.298003
-0.384051, -0.315937,-0.386277, -0.334175,-0.374321, -0.341648,-0.370191, -0.305299,-0.384051,-0.315937
-0.386277, -0.334175,-0.387846, -0.352726,-0.374321, -0.341648,-0.386277,-0.334175
-0.387846, -0.352726,-0.388735, -0.371560,-0.375735, -0.379158,-0.374321, -0.341648,-0.387846,-0.352726
-0.388735, -0.371560,-0.388912, -0.390638,-0.375735, -0.379158,-0.388735,-0.371560
-0.388912, -0.390638,-0.388402, -0.409970,-0.374320, -0.417643,-0.375735, -0.379158,-0.388912,-0.390638
-0.388402, -0.409970,-0.387151, -0.429495,-0.374320, -0.417643,-0.388402,-0.409970
-0.387151, -0.429495,-0.385180, -0.449218,-0.369979, -0.456908,-0.374320, -0.417643,-0.387151,-0.429495
-0.385180, -0.449218,-0.382466, -0.469103,-0.369979, -0.456908,-0.385180,-0.449218
-0.382466, -0.469103,-0.378991, -0.489114,-0.362626, -0.496755,-0.369979, -0.456908,-0.382466,-0.469103
-0.378991, -0.489114,-0.374772, -0.509257,-0.362626, -0.496755,-0.378991,-0.489114
-0.374772, -0.509257,-0.369770, -0.529465,-0.352189, -0.536976,-0.362626, -0.496755,-0.374772,-0.509257
-0.369770, -0.529465,-0.364002, -0.549749,-0.352189, -0.536976,-0.369770,-0.529465
-0.364002, -0.549749,-0.357453, -0.570065,-0.338613, -0.577359,-0.352189, -0.536976,-0.364002,-0.549749
-0.357453, -0.570065,-0.350109, -0.590377,-0.338613, -0.577359,-0.357453,-0.570065
-0.350109, -0.590377,-0.341989, -0.610695,-0.321854, -0.617689,-0.338613, -0.577359,-0.350109,-0.590377
-0.341989, -0.610695,-0.333060, -0.630940,-0.321854, -0.617689,-0.341989,-0.610695
-0.333060, -0.630940,-0.323343, -0.651131,-0.301883, -0.657744,-0.321854, -0.617689,-0.333060,-0.630940
-0.323343, -0.651131,-0.312826, -0.671220,-0.301883, -0.657744,-0.323343,-0.651131
-0.312826, -0.671220,-0.301502, -0.691165,-0.278685, -0.697300,-0.301883, -0.657744,-0.312826,-0.671220
-0.301502, -0.691165,-0.289391, -0.710986,-0.278685, -0.697300,-0.301502,-0.691165
-0.289391, -0.710986,-0.276468, -0.730593,-0.252262, -0.736130,-0.278685, -0.697300,-0.289391,-0.710986
-0.276468, -0.730593,-0.262754, -0.750009,-0.252262, -0.736130,-0.276468,-0.730593
-0.262754, -0.750009,-0.248247, -0.769190,-0.222629, -0.774010,-0.252262, -0.736130,-0.262754,-0.750009
-0.248247, -0.769190,-0.232940, -0.788082,-0.222629, -0.774010,-0.248247,-0.769190
-0.232940, -0.788082,-0.216857, -0.806718,-0.189818, -0.810714,-0.222629, -0.774010,-0.232940,-0.788082
-0.216857, -0.806718,-0.199982, -0.824999,-0.189818, -0.810714,-0.216857,-0.806718
-0.199982, -0.824999,-0.182336, -0.842949,-0.153873, -0.846015,-0.189818, -0.810714,-0.199982,-0.824999
-0.182336, -0.842949,-0.163923, -0.860533,-0.153873, -0.846015,-0.182336,-0.842949
-0.163923, -0.860533,-0.144742, -0.877682,-0.114856, -0.879688,-0.153873, -0.846015,-0.163923,-0.860533
-0.144742, -0.877682,-0.124817, -0.894445,-0.114856, -0.879688,-0.144742,-0.877682
-0.124817, -0.894445,-0.104144, -0.910717,-0.072841, -0.911511,-0.114856, -0.879688,-0.124817,-0.894445
-0.104144, -0.910717,-0.082741, -0.926516,-0.072841, -0.911511,-0.104144,-0.910717
-0.082741, -0.926516,-0.060619, -0.941825,-0.027919, -0.941269,-0.072841, -0.911511,-0.082741,-0.926516
-0.060619, -0.941825,-0.037786, -0.956557,-0.027919, -0.941269,-0.060619,-0.941825
-0.037786, -0.956557,-0.014260, -0.970774,0.019807, -0.968750,-0.027919, -0.941269,-0.037786,-0.956557
-0.014260, -0.970774,0.009950, -0.984375,0.019807, -0.968750,-0.014260,-0.970774
0.009950, -0.984375,0.034823, -0.997364,0.019807, -0.968750,0.009950,-0.984375
0.034823, -0.997364,0.060349, -1.009746,0.070214, -0.993744,0.019807, -0.968750,0.034823,-0.997364
0.060349, -1.009746,0.086506, -1.021420,0.070214, -0.993744,0.060349,-1.009746
0.086506, -1.021420,0.113283, -1.032451,0.123173, -1.016048,0.070214, -0.993744,0.086506,-1.021420
0.113283, -1.032451,0.140657, -1.042754,0.123173, -1.016048,0.113283,-1.032451
0.140657, -1.042754,0.168610, -1.052316,0.178536, -1.035469,0.123173, -1.016048,0.140657,-1.042754
0.168610, -1.052316,0.197128, -1.061158,0.178536, -1.035469,0.168610,-1.052316
0.197128, -1.061158,0.226178, -1.069181,0.236143, -1.051824,0.178536, -1.035469,0.197128,-1.061158
0.226178, -1.069181,0.255752, -1.076440,0.236143, -1.051824,0.226178,-1.069181
0.255752, -1.076440,0.285822, -1.082872,0.295821, -1.064936,0.236143, -1.051824,0.255752,-1.076440
0.285822, -1.082872,0.316361, -1.088449,0.295821, -1.064936,0.285822,-1.082872
0.316361, -1.088449,0.347359, -1.093202,0.357387, -1.074635,0.295821, -1.064936,0.316361,-1.088449
0.347359, -1.093202,0.378774, -1.097042,0.357387, -1.074635,0.347359,-1.093202
0.378774, -1.097042,0.410598, -1.100010,0.420642, -1.080765,0.357387, -1.074635,0.378774,-1.097042
0.410598, -1.100010,0.442797, -1.102065,0.420642, -1.080765,0.410598,-1.100010
0.442797, -1.102065,0.475340, -1.103170,0.485379, -1.083181,0.420642, -1.080765,0.442797,-1.102065
0.475340, -1.103170,0.508219, -1.103362,0.485379, -1.083181,0.475340,-1.103170
0.508219, -1.103362,0.541382, -1.102562,0.551381, -1.081752,0.485379, -1.083181,0.508219,-1.103362
0.541382, -1.102562,0.574822, -1.100804,0.551381, -1.081752,0.541382,-1.102562
0.574822, -1.100804,0.608503, -1.098059,0.618418, -1.076357,0.551381, -1.081752,0.574822,-1.100804
0.608503, -1.098059,0.642386, -1.094293,0.618418, -1.076357,0.608503,-1.098059
0.642386, -1.094293,0.676466, -1.089539,0.686255, -1.066889,0.618418, -1.076357,0.642386,-1.094293
0.676466, -1.089539,0.710685, -1.083736,0.686255, -1.066889,0.676466,-1.089539
0.710685, -1.083736,0.745034, -1.076908,0.754643, -1.053254,0.686255, -1.066889,0.710685,-1.083736
0.745034, -1.076908,0.779476, -1.069038,0.754643, -1.053254,0.745034,-1.076908
0.779476, -1.069038,0.813967, -1.060098,0.823330, -1.035373,0.754643, -1.053254,0.779476,-1.069038
0.813967, -1.060098,0.848504, -1.050117,0.823330, -1.035373,0.813967,-1.060098
0.848504, -1.050117,0.883022, -1.039047,0.892055, -1.013185,0.823330, -1.035373,0.848504,-1.050117
0.883022, -1.039047,0.917514, -1.026914,0.892055, -1.013185,0.883022,-1.039047
0.917514, -1.026914,0.951939, -1.013701,0.960553, -0.986643,0.892055, -1.013185,0.917514,-1.026914
0.951939, -1.013701,0.986252, -0.999392,0.960553, -0.986643,0.951939,-1.013701
0.986252, -0.999392,1.020450, -0.984016,1.028552, -0.955715,0.960553, -0.986643,0.986252,-0.999392
1.020450, -0.984016,1.054461, -0.967530,1.028552, -0.955715,1.020450,-0.984016
1.054461, -0.967530,1.088286, -0.949968,1.095773, -0.920386,1.028552, -0.955715,1.054461,-0.967530
1.088286, -0.949968,1.121873, -0.931314,1.095773, -0.920386,1.088286,-0.949968
1.121873, -0.931314,1.155180, -0.911559,1.161937, -0.880657,1.095773, -0.920386,1.121873,-0.931314
1.155180, -0.911559,1.188209, -0.890737,1.161937, -0.880657,1.155180,-0.911559
1.188209, -0.890737,1.220872, -0.868808,1.226758, -0.836548,1.161937, -0.880657,1.188209,-0.890737
1.220872, -0.868808,1.253187, -0.845816,1.226758, -0.836548,1.220872,-0.868808
1.253187, -0.845816,1.285090, -0.821744,1.289952, -0.788097,1.226758, -0.836548,1.253187,-0.845816
1.285090, -0.821744,1.316537, -0.796593,1.289952, -0.788097,1.285090,-0.821744
1.316537, -0.796593,1.347547, -0.770401,1.351228, -0.735361,1.289952, -0.788097,1.316537,-0.796593
1.347547, -0.770401,1.378001, -0.743130,1.351228, -0.735361,1.347547,-0.770401
1.378001, -0.743130,1.407948, -0.714834,1.410295, -0.678412,1.351228, -0.735361,1.378001,-0.743130
1.407948, -0.714834,1.437309, -0.685500,1.410295, -0.678412,1.407948,-0.714834
1.437309, -0.685500,1.466025, -0.655128,1.466852, -0.617341,1.410295, -0.678412,1.437309,-0.685500
1.466025, -0.655128,1.494159, -0.623776,1.466852, -0.617341,1.466025,-0.655128
1.494159, -0.623776,1.521532, -0.591395,1.520594, -0.552262,1.466852, -0.617341,1.494159,-0.623776
1.521532, -0.591395,1.548242, -0.558054,1.520594, -0.552262,1.521532,-0.591395
1.548242, -0.558054,1.574196, -0.523746,1.571210, -0.483310,1.520594, -0.552262,1.548242,-0.558054
1.574196, -0.523746,1.599294, -0.488469,1.571210, -0.483310,1.574196,-0.523746
1.599294, -0.488469,1.623684, -0.452297,1.618364, -0.410643,1.571210, -0.483310,1.599294,-0.488469
1.623684, -0.452297,1.647080, -0.415181,1.618364, -0.410643,1.623684,-0.452297
1.647080, -0.415181,1.669647, -0.377194,1.661673, -0.334442,1.618364, -0.410643,1.647080,-0.415181
1.669647, -0.377194,1.691297, -0.338346,1.661673, -0.334442,1.669647,-0.377194
1.691297, -0.338346,1.711791, -0.298627,1.700633, -0.254926,1.661673, -0.334442,1.691297,-0.338346
1.711791, -0.298627,1.731487, -0.258133,1.700633, -0.254926,1.711791,-0.298627
1.731487, -0.258133,1.749800, -0.216816,1.734443, -0.172366,1.700633, -0.254926,1.731487,-0.258133
1.749800, -0.216816,1.767033, -0.174760,1.734443, -0.172366,1.749800,-0.216816
1.767033, -0.174760,1.783007, -0.132001,1.761324, -0.087147,1.734443, -0.172366,1.767033,-0.174760
1.783007, -0.132001,1.796857, -0.088536,1.761324, -0.087147,1.783007,-0.132001
1.796857, -0.088536,1.809277, -0.044524,1.774493, -0.000000,1.761324, -0.087147,1.796857,-0.088536
1.809277, -0.044524,1.815317, -0.000000,1.774493, -0.000000,1.809277,-0.044524
1.859005, 0.000000,1.849484, 0.045402,1.815317, -0.000000,1.859005,0.000000
1.849484, 0.045402,1.809277, 0.044524,1.815317, -0.000000,1.849484,0.045402
1.849484, 0.045402,1.832706, 0.090035,1.809277, 0.044524,1.849484,0.045402
1.832706, 0.090035,1.796857, 0.088536,1.809277, 0.044524,1.832706,0.090035
1.832706, 0.090035,1.817464, 0.134064,1.796857, 0.088536,1.832706,0.090035
1.817464, 0.134064,1.783007, 0.132001,1.796857, 0.088536,1.817464,0.134064
1.817464, 0.134064,1.799816, 0.177266,1.783007, 0.132001,1.817464,0.134064
1.799816, 0.177266,1.767033, 0.174760,1.783007, 0.132001,1.799816,0.177266
1.799816, 0.177266,1.781497, 0.219727,1.767033, 0.174760,1.799816,0.177266
1.781497, 0.219727,1.749800, 0.216816,1.767033, 0.174760,1.781497,0.219727
1.781497, 0.219727,1.762565, 0.261452,1.749800, 0.216816,1.781497,0.219727
1.762565, 0.261452,1.731487, 0.258133,1.749800, 0.216816,1.762565,0.261452
1.762565, 0.261452,1.741938, 0.302255,1.731487, 0.258133,1.762565,0.261452
1.741938, 0.302255,1.711791, 0.298627,1.731487, 0.258133,1.741938,0.302255
1.741938, 0.302255,1.721082, 0.342344,1.711791, 0.298627,1.741938,0.302255
1.721082, 0.342344,1.691297, 0.338346,1.711791, 0.298627,1.721082,0.342344
1.721082, 0.342344,1.698902, 0.381501,1.691297, 0.338346,1.721082,0.342344
1.698902, 0.381501,1.669647, 0.377194,1.691297, 0.338346,1.698902,0.381501
1.698902, 0.381501,1.675870, 0.419784,1.669647, 0.377194,1.698902,0.381501
1.675870, 0.419784,1.647080, 0.415181,1.669647, 0.377194,1.675870,0.419784
1.675870, 0.419784,1.652283, 0.457248,1.647080, 0.415181,1.675870,0.419784
1.652283, 0.457248,1.623684, 0.452297,1.647080, 0.415181,1.652283,0.457248
1.652283, 0.457248,1.627443, 0.493680,1.623684, 0.452297,1.652283,0.457248
1.627443, 0.493680,1.599294, 0.488469,1.623684, 0.452297,1.627443,0.493680
1.627443, 0.493680,1.602187, 0.529291,1.599294, 0.488469,1.627443,0.493680
1.602187, 0.529291,1.574196, 0.523746,1.599294, 0.488469,1.602187,0.529291
1.602187, 0.529291,1.576007, 0.563904,1.574196, 0.523746,1.602187,0.529291
1.576007, 0.563904,1.548242, 0.558054,1.574196, 0.523746,1.576007,0.563904
1.576007, 0.563904,1.549023, 0.597524,1.548242, 0.558054,1.576007,0.563904
1.549023, 0.597524,1.521532, 0.591395,1.548242, 0.558054,1.549023,0.597524
1.549023, 0.597524,1.521598, 0.630267,1.521532, 0.591395,1.549023,0.597524
1.521598, 0.630267,1.494159, 0.623776,1.521532, 0.591395,1.521598,0.630267
1.521598, 0.630267,1.493210, 0.661895,1.494159, 0.623776,1.521598,0.630267
1.493210, 0.661895,1.466025, 0.655128,1.494159, 0.623776,1.493210,0.661895
1.493210, 0.661895,1.464403, 0.692611,1.466025, 0.655128,1.493210,0.661895
1.464403, 0.692611,1.437309, 0.685500,1.466025, 0.655128,1.464403,0.692611
1.464403, 0.692611,1.434951, 0.722294,1.437309, 0.685500,1.464403,0.692611
1.434951, 0.722294,1.407948, 0.714834,1.437309, 0.685500,1.434951,0.722294
1.434951, 0.722294,1.404812, 0.750888,1.407948, 0.714834,1.434951,0.722294
1.404812, 0.750888,1.378001, 0.743130,1.407948, 0.714834,1.404812,0.750888
1.404812, 0.750888,1.374354, 0.778562,1.378001, 0.743130,1.404812,0.750888
1.374354, 0.778562,1.347547, 0.770401,1.378001, 0.743130,1.374354,0.778562
1.374354, 0.778562,1.343186, 0.805075,1.347547, 0.770401,1.374354,0.778562
1.343186, 0.805075,1.316537, 0.796593,1.347547, 0.770401,1.343186,0.805075
1.343186, 0.805075,1.311661, 0.830600,1.316537, 0.796593,1.343186,0.805075
1.311661, 0.830600,1.285090, 0.821744,1.316537, 0.796593,1.311661,0.830600
1.311661, 0.830600,1.279722, 0.855083,1.285090, 0.821744,1.311661,0.830600
1.279722, 0.855083,1.253187, 0.845816,1.285090, 0.821744,1.279722,0.855083
1.279722, 0.855083,1.247246, 0.878410,1.253187, 0.845816,1.279722,0.855083
1.247246, 0.878410,1.220872, 0.868808,1.253187, 0.845816,1.247246,0.878410
1.247246, 0.878410,1.214576, 0.900791,1.220872, 0.868808,1.247246,0.878410
1.214576, 0.900791,1.188209, 0.890737,1.220872, 0.868808,1.214576,0.900791
1.214576, 0.900791,1.181430, 0.921997,1.188209, 0.890737,1.214576,0.900791
1.181430, 0.921997,1.155180, 0.911559,1.188209, 0.890737,1.181430,0.921997
1.181430, 0.921997,1.148024, 0.942159,1.155180, 0.911559,1.181430,0.921997
1.148024, 0.942159,1.121873, 0.931314,1.155180, 0.911559,1.148024,0.942159
1.148024, 0.942159,1.114405, 0.961292,1.121873, 0.931314,1.148024,0.942159
1.114405, 0.961292,1.088286, 0.949968,1.121873, 0.931314,1.114405,0.961292
1.114405, 0.961292,1.080420, 0.979235,1.088286, 0.949968,1.114405,0.961292
1.080420, 0.979235,1.054461, 0.967530,1.088286, 0.949968,1.080420,0.979235
1.080420, 0.979235,1.046362, 0.996219,1.054461, 0.967530,1.080420,0.979235
1.046362, 0.996219,1.020450, 0.984016,1.054461, 0.967530,1.046362,0.996219
1.046362, 0.996219,1.012047, 1.012047,1.020450, 0.984016,1.046362,0.996219
1.012047, 1.012047,0.986252, 0.999392,1.020450, 0.984016,1.012047,1.012047
1.012047, 1.012047,0.977591, 1.026796,0.986252, 0.999392,1.012047,1.012047
0.977591, 1.026796,0.951939, 1.013701,0.986252, 0.999392,0.977591,1.026796
0.977591, 1.026796,0.943099, 1.040550,0.951939, 1.013701,0.977591,1.026796
0.943099, 1.040550,0.917514, 1.026914,0.951939, 1.013701,0.943099,1.040550
0.943099, 1.040550,0.908420, 1.053111,0.917514, 1.026914,0.943099,1.040550
0.908420, 1.053111,0.883022, 1.039047,0.917514, 1.026914,0.908420,1.053111
0.908420, 1.053111,0.873788, 1.064714,0.883022, 1.039047,0.908420,1.053111
0.873788, 1.064714,0.848504, 1.050117,0.883022, 1.039047,0.873788,1.064714
0.873788, 1.064714,0.839102, 1.075210,0.848504, 1.050117,0.873788,1.064714
0.839102, 1.075210,0.813967, 1.060098,0.848504, 1.050117,0.839102,1.075210
0.839102, 1.075210,0.804405, 1.084615,0.813967, 1.060098,0.839102,1.075210
0.804405, 1.084615,0.779476, 1.069038,0.813967, 1.060098,0.804405,1.084615
0.804405, 1.084615,0.769831, 1.093075,0.779476, 1.069038,0.804405,1.084615
0.769831, 1.093075,0.745034, 1.076908,0.779476, 1.069038,0.769831,1.093075
0.769831, 1.093075,0.735246, 1.100374,0.745034, 1.076908,0.769831,1.093075
0.735246, 1.100374,0.710685, 1.083736,0.745034, 1.076908,0.735246,1.100374
0.735246, 1.100374,0.700828, 1.106728,0.710685, 1.083736,0.735246,1.100374
0.700828, 1.106728,0.676466, 1.089539,0.710685, 1.083736,0.700828,1.106728
0.700828, 1.106728,0.666538, 1.112051,0.676466, 1.089539,0.700828,1.106728
0.666538, 1.112051,0.642386, 1.094293,0.676466, 1.089539,0.666538,1.112051
0.666538, 1.112051,0.632373, 1.116295,0.642386, 1.094293,0.666538,1.112051
0.632373, 1.116295,0.608503, 1.098059,0.642386, 1.094293,0.632373,1.116295
0.632373, 1.116295,0.598470, 1.119659,0.608503, 1.098059,0.632373,1.116295
0.598470, 1.119659,0.574822, 1.100804,0.608503, 1.098059,0.598470,1.119659
0.598470, 1.119659,0.564728, 1.121922,0.574822, 1.100804,0.598470,1.119659
0.564728, 1.121922,0.541382, 1.102562,0.574822, 1.100804,0.564728,1.121922
0.564728, 1.121922,0.531267, 1.123270,0.541382, 1.102562,0.564728,1.121922
0.531267, 1.123270,0.508219, 1.103362,0.541382, 1.102562,0.531267,1.123270
0.531267, 1.123270,0.498095, 1.123684,0.508219, 1.103362,0.531267,1.123270
0.498095, 1.123684,0.475340, 1.103170,0.508219, 1.103362,0.498095,1.123684
0.498095, 1.123684,0.465185, 1.123056,0.475340, 1.103170,0.498095,1.123684
0.465185, 1.123056,0.442797, 1.102065,0.475340, 1.103170,0.465185,1.123056
0.465185, 1.123056,0.432658, 1.121623,0.442797, 1.102065,0.465185,1.123056
0.432658, 1.121623,0.410598, 1.100010,0.442797, 1.102065,0.432658,1.121623
0.432658, 1.121623,0.400449, 1.119180,0.410598, 1.100010,0.432658,1.121623
0.400449, 1.119180,0.378774, 1.097042,0.410598, 1.100010,0.400449,1.119180
0.400449, 1.119180,0.368632, 1.115864,0.378774, 1.097042,0.400449,1.119180
0.368632, 1.115864,0.347359, 1.093202,0.378774, 1.097042,0.368632,1.115864
0.368632, 1.115864,0.337239, 1.111728,0.347359, 1.093202,0.368632,1.115864
0.337239, 1.111728,0.316361, 1.088449,0.347359, 1.093202,0.337239,1.111728
0.337239, 1.111728,0.306242, 1.106615,0.316361, 1.088449,0.337239,1.111728
0.306242, 1.106615,0.285822, 1.082872,0.316361, 1.088449,0.306242,1.106615
0.306242, 1.106615,0.275730, 1.100777,0.285822, 1.082872,0.306242,1.106615
0.275730, 1.100777,0.255752, 1.076440,0.285822, 1.082872,0.275730,1.100777
0.275730, 1.100777,0.245677, 1.094048,0.255752, 1.076440,0.275730,1.100777
0.245677, 1.094048,0.226178, 1.069181,0.255752, 1.076440,0.245677,1.094048
0.245677, 1.094048,0.216119, 1.086501,0.226178, 1.069181,0.245677,1.094048
0.216119, 1.086501,0.197128, 1.061158,0.226178, 1.069181,0.216119,1.086501
0.216119, 1.086501,0.187096, 1.078260,0.197128, 1.061158,0.216119,1.086501
0.187096, 1.078260,0.168610, 1.052316,0.197128, 1.061158,0.187096,1.078260
0.187096, 1.078260,0.158591, 1.069132,0.168610, 1.052316,0.187096,1.078260
0.158591, 1.069132,0.140657, 1.042754,0.168610, 1.052316,0.158591,1.069132
0.158591, 1.069132,0.130660, 1.059366,0.140657, 1.042754,0.158591,1.069132
0.130660, 1.059366,0.113283, 1.032451,0.140657, 1.042754,0.130660,1.059366
0.130660, 1.059366,0.103302, 1.048845,0.113283, 1.032451,0.130660,1.059366
0.103302, 1.048845,0.086506, 1.021420,0.113283, 1.032451,0.103302,1.048845
0.103302, 1.048845,0.076536, 1.037580,0.086506, 1.021420,0.103302,1.048845
0.076536, 1.037580,0.060349, 1.009746,0.086506, 1.021420,0.076536,1.037580
0.076536, 1.037580,0.050392, 1.025750,0.060349, 1.009746,0.076536,1.037580
0.050392, 1.025750,0.034823, 0.997364,0.060349, 1.009746,0.050392,1.025750
0.050392, 1.025750,0.024871, 1.013149,0.034823, 0.997364,0.050392,1.025750
0.024871, 1.013149,0.009950, 0.984375,0.034823, 0.997364,0.024871,1.013149
0.024871, 1.013149,0.000000, 1.000000,0.009950, 0.984375,0.024871,1.013149
0.000000, 1.000000,-0.024211, 0.986248,0.009950, 0.984375,0.000000,1.000000
-0.024211, 0.986248,-0.014260, 0.970774,0.009950, 0.984375,-0.024211,0.986248
-0.024211, 0.986248,-0.047743, 0.971841,-0.014260, 0.970774,-0.024211,0.986248
-0.047743, 0.971841,-0.037786, 0.956557,-0.014260, 0.970774,-0.047743,0.971841
-0.047743, 0.971841,-0.070593, 0.957001,-0.037786, 0.956557,-0.047743,0.971841
-0.070593, 0.957001,-0.060619, 0.941825,-0.037786, 0.956557,-0.070593,0.957001
-0.070593, 0.957001,-0.092732, 0.941525,-0.060619, 0.941825,-0.070593,0.957001
-0.092732, 0.941525,-0.082741, 0.926516,-0.060619, 0.941825,-0.092732,0.941525
-0.092732, 0.941525,-0.114161, 0.925593,-0.082741, 0.926516,-0.092732,0.941525
-0.114161, 0.925593,-0.104144, 0.910717,-0.082741, 0.926516,-0.114161,0.925593
-0.114161, 0.925593,-0.134870, 0.909221,-0.104144, 0.910717,-0.114161,0.925593
-0.134870, 0.909221,-0.124817, 0.894445,-0.104144, 0.910717,-0.134870,0.909221
-0.134870, 0.909221,-0.154828, 0.892296,-0.124817, 0.894445,-0.134870,0.909221
-0.154828, 0.892296,-0.144742, 0.877682,-0.124817, 0.894445,-0.154828,0.892296
-0.154828, 0.892296,-0.174062, 0.875069,-0.144742, 0.877682,-0.154828,0.892296
-0.174062, 0.875069,-0.163923, 0.860533,-0.144742, 0.877682,-0.174062,0.875069
-0.174062, 0.875069,-0.192526, 0.857357,-0.163923, 0.860533,-0.174062,0.875069
-0.192526, 0.857357,-0.182336, 0.842949,-0.163923, 0.860533,-0.192526,0.857357
-0.192526, 0.857357,-0.210230, 0.839285,-0.182336, 0.842949,-0.192526,0.857357
-0.210230, 0.839285,-0.199982, 0.824999,-0.182336, 0.842949,-0.210230,0.839285
-0.210230, 0.839285,-0.227184, 0.820937,-0.199982, 0.824999,-0.210230,0.839285
-0.227184, 0.820937,-0.216857, 0.806718,-0.199982, 0.824999,-0.227184,0.820937
-0.227184, 0.820937,-0.243330, 0.802153,-0.216857, 0.806718,-0.227184,0.820937
-0.243330, 0.802153,-0.232940, 0.788082,-0.216857, 0.806718,-0.243330,0.802153
-0.243330, 0.802153,-0.258732, 0.783192,-0.232940, 0.788082,-0.243330,0.802153
-0.258732, 0.783192,-0.248247, 0.769190,-0.232940, 0.788082,-0.258732,0.783192
-0.258732, 0.783192,-0.273331, 0.763908,-0.248247, 0.769190,-0.258732,0.783192
-0.273331, 0.763908,-0.262754, 0.750009,-0.248247, 0.769190,-0.273331,0.763908
-0.273331, 0.763908,-0.287132, 0.744363,-0.262754, 0.750009,-0.273331,0.763908
-0.287132, 0.744363,-0.276468, 0.730593,-0.262754, 0.750009,-0.287132,0.744363
-0.287132, 0.744363,-0.300182, 0.724703,-0.276468, 0.730593,-0.287132,0.744363
-0.300182, 0.724703,-0.289391, 0.710986,-0.276468, 0.730593,-0.300182,0.724703
-0.300182, 0.724703,-0.312388, 0.704736,-0.289391, 0.710986,-0.300182,0.724703
-0.312388, 0.704736,-0.301502, 0.691165,-0.289391, 0.710986,-0.312388,0.704736
-0.312388, 0.704736,-0.323843, 0.684708,-0.301502, 0.691165,-0.312388,0.704736
-0.323843, 0.684708,-0.312826, 0.671220,-0.301502, 0.691165,-0.323843,0.684708
-0.323843, 0.684708,-0.334494, 0.664526,-0.312826, 0.671220,-0.323843,0.684708
-0.334494, 0.664526,-0.323343, 0.651131,-0.312826, 0.671220,-0.334494,0.664526
-0.334494, 0.664526,-0.344323, 0.644184,-0.323343, 0.651131,-0.334494,0.664526
-0.344323, 0.644184,-0.333060, 0.630940,-0.323343, 0.651131,-0.344323,0.644184
-0.344323, 0.644184,-0.353423, 0.623879,-0.333060, 0.630940,-0.344323,0.644184
-0.353423, 0.623879,-0.341989, 0.610695,-0.333060, 0.630940,-0.353423,0.623879
-0.353423, 0.623879,-0.361667, 0.603406,-0.341989, 0.610695,-0.353423,0.623879
-0.361667, 0.603406,-0.350109, 0.590377,-0.341989, 0.610695,-0.361667,0.603406
-0.361667, 0.603406,-0.369167, 0.582979,-0.350109, 0.590377,-0.361667,0.603406
-0.369167, 0.582979,-0.357453, 0.570065,-0.350109, 0.590377,-0.369167,0.582979
-0.369167, 0.582979,-0.375894, 0.562566,-0.357453, 0.570065,-0.369167,0.582979
-0.375894, 0.562566,-0.364002, 0.549749,-0.357453, 0.570065,-0.375894,0.562566
-0.375894, 0.562566,-0.381786, 0.542094,-0.364002, 0.549749,-0.375894,0.562566
-0.381786, 0.542094,-0.369770, 0.529465,-0.364002, 0.549749,-0.381786,0.542094
-0.381786, 0.542094,-0.386994, 0.521800,-0.369770, 0.529465,-0.381786,0.542094
-0.386994, 0.521800,-0.374772, 0.509257,-0.369770, 0.529465,-0.386994,0.521800
-0.386994, 0.521800,-0.391361, 0.501482,-0.374772, 0.509257,-0.386994,0.521800
-0.391361, 0.501482,-0.378991, 0.489114,-0.374772, 0.509257,-0.391361,0.501482
-0.391361, 0.501482,-0.394998, 0.481307,-0.378991, 0.489114,-0.391361,0.501482
-0.394998, 0.481307,-0.382466, 0.469103,-0.378991, 0.489114,-0.394998,0.481307
-0.394998, 0.481307,-0.397926, 0.461307,-0.382466, 0.469103,-0.394998,0.481307
-0.397926, 0.461307,-0.385180, 0.449218,-0.382466, 0.469103,-0.397926,0.461307
-0.397926, 0.461307,-0.400019, 0.441353,-0.385180, 0.449218,-0.397926,0.461307
-0.400019, 0.441353,-0.387151, 0.429495,-0.385180, 0.449218,-0.400019,0.441353
-0.400019, 0.441353,-0.401490, 0.421699,-0.387151, 0.429495,-0.400019,0.441353
-0.401490, 0.421699,-0.388402, 0.409970,-0.387151, 0.429495,-0.401490,0.421699
-0.401490, 0.421699,-0.402166, 0.402166,-0.388402, 0.409970,-0.401490,0.421699
-0.402166, 0.402166,-0.388912, 0.390638,-0.388402, 0.409970,-0.402166,0.402166
-0.402166, 0.402166,-0.402132, 0.382862,-0.388912, 0.390638,-0.402166,0.402166
-0.402132, 0.382862,-0.388735, 0.371560,-0.388912, 0.390638,-0.402132,0.382862
-0.402132, 0.382862,-0.401483, 0.363883,-0.388735, 0.371560,-0.402132,0.382862
-0.401483, 0.363883,-0.387846, 0.352726,-0.388735, 0.371560,-0.401483,0.363883
-0.401483, 0.363883,-0.400013, 0.345053,-0.387846, 0.352726,-0.401483,0.363883
-0.400013, 0.345053,-0.386277, 0.334175,-0.387846, 0.352726,-0.400013,0.345053
-0.400013, 0.345053,-0.397997, 0.326628,-0.386277, 0.334175,-0.400013,0.345053
-0.397997, 0.326628,-0.384051, 0.315937,-0.386277, 0.334175,-0.397997,0.326628
-0.397997, 0.326628,-0.395263, 0.308466,-0.384051, 0.315937,-0.397997,0.326628
-0.395263, 0.308466,-0.381146, 0.298003,-0.384051, 0.315937,-0.395263,0.308466
-0.395263, 0.308466,-0.391839, 0.290608,-0.381146, 0.298003,-0.395263,0.308466
-0.391839, 0.290608,-0.377631, 0.280437,-0.381146, 0.298003,-0.391839,0.290608
-0.391839, 0.290608,-0.387923, 0.273206,-0.377631, 0.280437,-0.391839,0.290608
-0.387923, 0.273206,-0.373471, 0.263220,-0.377631, 0.280437,-0.387923,0.273206
-0.387923, 0.273206,-0.383217, 0.256058,-0.373471, 0.263220,-0.387923,0.273206
-0.383217, 0.256058,-0.368711, 0.246394,-0.373471, 0.263220,-0.383217,0.256058
-0.383217, 0.256058,-0.378046, 0.239395,-0.368711, 0.246394,-0.383217,0.256058
-0.378046, 0.239395,-0.363380, 0.229983,-0.368711, 0.246394,-0.378046,0.239395
-0.378046, 0.239395,-0.372272, 0.223131,-0.363380, 0.229983,-0.378046,0.239395
-0.372272, 0.223131,-0.357440, 0.213974,-0.363380, 0.229983,-0.372272,0.223131
-0.372272, 0.223131,-0.365820, 0.207235,-0.357440, 0.213974,-0.372272,0.223131
-0.365820, 0.207235,-0.350998, 0.198432,-0.357440, 0.213974,-0.365820,0.207235
-0.365820, 0.207235,-0.359031, 0.191906,-0.350998, 0.198432,-0.365820,0.207235
-0.359031, 0.191906,-0.343987, 0.183331,-0.350998, 0.198432,-0.359031,0.191906
-0.359031, 0.191906,-0.351498, 0.176929,-0.343987, 0.183331,-0.359031,0.191906
-0.351498, 0.176929,-0.336474, 0.168709,-0.343987, 0.183331,-0.351498,0.176929
-0.351498, 0.176929,-0.343575, 0.162499,-0.336474, 0.168709,-0.351498,0.176929
-0.343575, 0.162499,-0.328502, 0.154594,-0.336474, 0.168709,-0.343575,0.162499
-0.343575, 0.162499,-0.335209, 0.148588,-0.328502, 0.154594,-0.343575,0.162499
-0.335209, 0.148588,-0.319998, 0.140955,-0.328502, 0.154594,-0.335209,0.148588
-0.335209, 0.148588,-0.326161, 0.135100,-0.319998, 0.140955,-0.335209,0.148588
-0.326161, 0.135100,-0.311126, 0.127871,-0.319998, 0.140955,-0.326161,0.135100
-0.326161, 0.135100,-0.316962, 0.122266,-0.311126, 0.127871,-0.326161,0.135100
-0.316962, 0.122266,-0.301778, 0.115299,-0.311126, 0.127871,-0.316962,0.122266
-0.316962, 0.122266,-0.307081, 0.109875,-0.301778, 0.115299,-0.316962,0.122266
-0.307081, 0.109875,-0.292036, 0.103275,-0.301778, 0.115299,-0.307081,0.109875
-0.307081, 0.109875,-0.296869, 0.098072,-0.292036, 0.103275,-0.307081,0.109875
-0.296869, 0.098072,-0.281990, 0.091830,-0.292036, 0.103275,-0.296869,0.098072
-0.296869, 0.098072,-0.286437, 0.086890,-0.281990, 0.091830,-0.296869,0.098072
-0.286437, 0.086890,-0.271482, 0.080920,-0.281990, 0.091830,-0.286437,0.086890
-0.286437, 0.086890,-0.275269, 0.076177,-0.271482, 0.080920,-0.286437,0.086890
-0.275269, 0.076177,-0.260791, 0.070623,-0.271482, 0.080920,-0.275269,0.076177
-0.275269, 0.076177,-0.264192, 0.066177,-0.260791, 0.070623,-0.275269,0.076177
-0.264192, 0.066177,-0.249742, 0.060895,-0.260791, 0.070623,-0.264192,0.066177
-0.264192, 0.066177,-0.252503, 0.056701,-0.249742, 0.060895,-0.264192,0.066177
-0.252503, 0.056701,-0.238418, 0.051754,-0.249742, 0.060895,-0.252503,0.056701
-0.252503, 0.056701,-0.240489, 0.047836,-0.238418, 0.051754,-0.252503,0.056701
-0.240489, 0.047836,-0.227050, 0.043243,-0.238418, 0.051754,-0.240489,0.047836
-0.240489, 0.047836,-0.228617, 0.039669,-0.227050, 0.043243,-0.240489,0.047836
-0.228617, 0.039669,-0.215273, 0.035294,-0.227050, 0.043243,-0.228617,0.039669
-0.228617, 0.039669,-0.215788, 0.032009,-0.215273, 0.035294,-0.228617,0.039669
-0.215788, 0.032009,-0.203671, 0.027985,-0.215273, 0.035294,-0.215788,0.032009
-0.215788, 0.032009,-0.203462, 0.025095,-0.203671, 0.027985,-0.215788,0.032009
-0.203462, 0.025095,-0.191934, 0.021264,-0.203671, 0.027985,-0.203462,0.025095
-0.203462, 0.025095,-0.190553, 0.018768,-0.191934, 0.021264,-0.203462,0.025095
-0.190553, 0.018768,-0.180238, 0.015123,-0.191934, 0.021264,-0.190553,0.018768
-0.190553, 0.018768,-0.177117, 0.013065,-0.180238, 0.015123,-0.190553,0.018768
-0.177117, 0.013065,-0.169445, 0.009598,-0.180238, 0.015123,-0.177117,0.013065
-0.177117, 0.013065,-0.164885, 0.008100,-0.169445, 0.009598,-0.177117,0.013065
-0.164885, 0.008100,-0.158861, 0.004559,-0.169445, 0.009598,-0.164885,0.008100
-0.164885, 0.008100,-0.149914, 0.003680,-0.158861, 0.004559,-0.164885,0.008100
-0.149914, 0.003680,-0.153433, -0.000000,-0.158861, 0.004559,-0.149914,0.003680
-0.149914, 0.003680,-0.140995, 0.000000,-0.153433, -0.000000,-0.149914,0.003680
-0.140995, 0.000000,-0.149914, -0.003680,-0.153433, -0.000000,-0.140995,0.000000
-0.149914, -0.003680,-0.158861, -0.004559,-0.153433, -0.000000,-0.149914,-0.003680
-0.149914, -0.003680,-0.164885, -0.008100,-0.158861, -0.004559,-0.149914,-0.003680
-0.164885, -0.008100,-0.169445, -0.009598,-0.158861, -0.004559,-0.164885,-0.008100
-0.164885, -0.008100,-0.177117, -0.013065,-0.169445, -0.009598,-0.164885,-0.008100
-0.177117, -0.013065,-0.180238, -0.015123,-0.169445, -0.009598,-0.177117,-0.013065
-0.177117, -0.013065,-0.190553, -0.018768,-0.180238, -0.015123,-0.177117,-0.013065
-0.190553, -0.018768,-0.191934, -0.021264,-0.180238, -0.015123,-0.190553,-0.018768
-0.190553, -0.018768,-0.203462, -0.025095,-0.191934, -0.021264,-0.190553,-0.018768
-0.203462, -0.025095,-0.203671, -0.027985,-0.191934, -0.021264,-0.203462,-0.025095
-0.203462, -0.025095,-0.215788, -0.032009,-0.203671, -0.027985,-0.203462,-0.025095
-0.215788, -0.032009,-0.215273, -0.035294,-0.203671, -0.027985,-0.215788,-0.032009
-0.215788, -0.032009,-0.228617, -0.039669,-0.215273, -0.035294,-0.215788,-0.032009
-0.228617, -0.039669,-0.227050, -0.043243,-0.215273, -0.035294,-0.228617,-0.039669
-0.228617, -0.039669,-0.240489, -0.047836,-0.227050, -0.043243,-0.228617,-0.039669
-0.240489, -0.047836,-0.238418, -0.051754,-0.227050, -0.043243,-0.240489,-0.047836
-0.240489, -0.047836,-0.252503, -0.056701,-0.238418, -0.051754,-0.240489,-0.047836
-0.252503, -0.056701,-0.249742, -0.060895,-0.238418, -0.051754,-0.252503,-0.056701
-0.252503, -0.056701,-0.264192, -0.066177,-0.249742, -0.060895,-0.252503,-0.056701
-0.264192, -0.066177,-0.260791, -0.070623,-0.249742, -0.060895,-0.264192,-0.066177
-0.264192, -0.066177,-0.275269, -0.076177,-0.260791, -0.070623,-0.264192,-0.066177
-0.275269, -0.076177,-0.271482, -0.080920,-0.260791, -0.070623,-0.275269,-0.076177
-0.275269, -0.076177,-0.286437, -0.086890,-0.271482, -0.080920,-0.275269,-0.076177
-0.286437, -0.086890,-0.281990, -0.091830,-0.271482, -0.080920,-0.286437,-0.086890
-0.286437, -0.086890,-0.296869, -0.098072,-0.281990, -0.091830,-0.286437,-0.086890
-0.296869, -0.098072,-0.292036, -0.103275,-0.281990, -0.091830,-0.296869,-0.098072
-0.296869, -0.098072,-0.307081, -0.109875,-0.292036, -0.103275,-0.296869,-0.098072
-0.307081, -0.109875,-0.301778, -0.115299,-0.292036, -0.103275,-0.307081,-0.109875
-0.307081, -0.109875,-0.316962, -0.122266,-0.301778, -0.115299,-0.307081,-0.109875
-0.316962, -0.122266,-0.311126, -0.127871,-0.301778, -0.115299,-0.316962,-0.122266
-0.316962, -0.122266,-0.326161, -0.135100,-0.311126, -0.127871,-0.316962,-0.122266
-0.326161, -0.135100,-0.319998, -0.140955,-0.311126, -0.127871,-0.326161,-0.135100
-0.326161, -0.135100,-0.335209, -0.148588,-0.319998, -0.140955,-0.326161,-0.135100
-0.335209, -0.148588,-0.328502, -0.154594,-0.319998, -0.140955,-0.335209,-0.148588
-0.335209, -0.148588,-0.343575, -0.162499,-0.328502, -0.154594,-0.335209,-0.148588
-0.343575, -0.162499,-0.336474, -0.168709,-0.328502, -0.154594,-0.343575,-0.162499
-0.343575, -0.162499,-0.351498, -0.176929,-0.336474, -0.168709,-0.343575,-0.162499
-0.351498, -0.176929,-0.343987, -0.183331,-0.336474, -0.168709,-0.351498,-0.176929
-0.351498, -0.176929,-0.359031, -0.191906,-0.343987, -0.183331,-0.351498,-0.176929
-0.359031, -0.191906,-0.350998, -0.198432,-0.343987, -0.183331,-0.359031,-0.191906
-0.359031, -0.191906,-0.365820, -0.207235,-0.350998, -0.198432,-0.359031,-0.191906
-0.365820, -0.207235,-0.357440, -0.213974,-0.350998, -0.198432,-0.365820,-0.207235
-0.365820, -0.207235,-0.372272, -0.223131,-0.357440, -0.213974,-0.365820,-0.207235
-0.372272, -0.223131,-0.363380, -0.229983,-0.357440, -0.213974,-0.372272,-0.223131
-0.372272, -0.223131,-0.378046, -0.239395,-0.363380, -0.229983,-0.372272,-0.223131
-0.378046, -0.239395,-0.368711, -0.246394,-0.363380, -0.229983,-0.378046,-0.239395
-0.378046, -0.239395,-0.383217, -0.256058,-0.368711, -0.246394,-0.378046,-0.239395
-0.383217, -0.256058,-0.373471, -0.263220,-0.368711, -0.246394,-0.383217,-0.256058
-0.383217, -0.256058,-0.387923, -0.273206,-0.373471, -0.263220,-0.383217,-0.256058
-0.387923, -0.273206,-0.377631, -0.280437,-0.373471, -0.263220,-0.387923,-0.273206
-0.387923, -0.273206,-0.391839, -0.290608,-0.377631, -0.280437,-0.387923,-0.273206
-0.391839, -0.290608,-0.381146, -0.298003,-0.377631, -0.280437,-0.391839,-0.290608
-0.391839, -0.290608,-0.395263, -0.308466,-0.381146, -0.298003,-0.391839,-0.290608
-0.395263, -0.308466,-0.384051, -0.315937,-0.381146, -0.298003,-0.395263,-0.308466
-0.395263, -0.308466,-0.397997, -0.326628,-0.384051, -0.315937,-0.395263,-0.308466
-0.397997, -0.326628,-0.386277, -0.334175,-0.384051, -0.315937,-0.397997,-0.326628
-0.397997, -0.326628,-0.400013, -0.345053,-0.386277, -0.334175,-0.397997,-0.326628
-0.400013, -0.345053,-0.387846, -0.352726,-0.386277, -0.334175,-0.400013,-0.345053
-0.400013, -0.345053,-0.401483, -0.363883,-0.387846, -0.352726,-0.400013,-0.345053
-0.401483, -0.363883,-0.388735, -0.371560,-0.387846, -0.352726,-0.401483,-0.363883
-0.401483, -0.363883,-0.402132, -0.382862,-0.388735, -0.371560,-0.401483,-0.363883
-0.402132, -0.382862,-0.388912, -0.390638,-0.388735, -0.371560,-0.402132,-0.382862
-0.402132, -0.382862,-0.402166, -0.402166,-0.388912, -0.390638,-0.402132,-0.382862
-0.402166, -0.402166,-0.388402, -0.409970,-0.388912, -0.390638,-0.402166,-0.402166
-0.402166, -0.402166,-0.401490, -0.421699,-0.388402, -0.409970,-0.402166,-0.402166
-0.401490, -0.421699,-0.387151, -0.429495,-0.388402, -0.409970,-0.401490,-0.421699
-0.401490, -0.421699,-0.400019, -0.441353,-0.387151, -0.429495,-0.401490,-0.421699
-0.400019, -0.441353,-0.385180, -0.449218,-0.387151, -0.429495,-0.400019,-0.441353
-0.400019, -0.441353,-0.397926, -0.461307,-0.385180, -0.449218,-0.400019,-0.441353
-0.397926, -0.461307,-0.382466, -0.469103,-0.385180, -0.449218,-0.397926,-0.461307
-0.397926, -0.461307,-0.394998, -0.481307,-0.382466, -0.469103,-0.397926,-0.461307
-0.394998, -0.481307,-0.378991, -0.489114,-0.382466, -0.469103,-0.394998,-0.481307
-0.394998, -0.481307,-0.391361, -0.501482,-0.378991, -0.489114,-0.394998,-0.481307
-0.391361, -0.501482,-0.374772, -0.509257,-0.378991, -0.489114,-0.391361,-0.501482
-0.391361, -0.501482,-0.386994, -0.521800,-0.374772, -0.509257,-0.391361,-0.501482
-0.386994, -0.521800,-0.369770, -0.529465,-0.374772, -0.509257,-0.386994,-0.521800
-0.386994, -0.521800,-0.381786, -0.542094,-0.369770, -0.529465,-0.386994,-0.521800
-0.381786, -0.542094,-0.364002, -0.549749,-0.369770, -0.529465,-0.381786,-0.542094
-0.381786, -0.542094,-0.375894, -0.562566,-0.364002, -0.549749,-0.381786,-0.542094
-0.375894, -0.562566,-0.357453, -0.570065,-0.364002, -0.549749,-0.375894,-0.562566
-0.375894, -0.562566,-0.369167, -0.582979,-0.357453, -0.570065,-0.375894,-0.562566
-0.369167, -0.582979,-0.350109, -0.590377,-0.357453, -0.570065,-0.369167,-0.582979
-0.369167, -0.582979,-0.361667, -0.603406,-0.350109, -0.590377,-0.369167,-0.582979
-0.361667, -0.603406,-0.341989, -0.610695,-0.350109, -0.590377,-0.361667,-0.603406
-0.361667, -0.603406,-0.353423, -0.623879,-0.341989, -0.610695,-0.361667,-0.603406
-0.353423, -0.623879,-0.333060, -0.630940,-0.341989, -0.610695,-0.353423,-0.623879
-0.353423, -0.623879,-0.344323, -0.644184,-0.333060, -0.630940,-0.353423,-0.623879
-0.344323, -0.644184,-0.323343, -0.651131,-0.333060, -0.630940,-0.344323,-0.644184
-0.344323, -0.644184,-0.334494, -0.664526,-0.323343, -0.651131,-0.344323,-0.644184
-0.334494, -0.664526,-0.312826, -0.671220,-0.323343, -0.651131,-0.334494,-0.664526
-0.334494, -0.664526,-0.323843, -0.684708,-0.312826, -0.671220,-0.334494,-0.664526
-0.323843, -0.684708,-0.301502, -0.691165,-0.312826, -0.671220,-0.323843,-0.684708
-0.323843, -0.684708,-0.312388, -0.704736,-0.301502, -0.691165,-0.323843,-0.684708
-0.312388, -0.704736,-0.289391, -0.710986,-0.301502, -0.691165,-0.312388,-0.704736
-0.312388, -0.704736,-0.300182, -0.724703,-0.289391, -0.710986,-0.312388,-0.704736
-0.300182, -0.724703,-0.276468, -0.730593,-0.289391, -0.710986,-0.300182,-0.724703
-0.300182, -0.724703,-0.287132, -0.744363,-0.276468, -0.730593,-0.300182,-0.724703
-0.287132, -0.744363,-0.262754, -0.750009,-0.276468, -0.730593,-0.287132,-0.744363
-0.287132, -0.744363,-0.273331, -0.763908,-0.262754, -0.750009,-0.287132,-0.744363
-0.273331, -0.763908,-0.248247, -0.769190,-0.262754, -0.750009,-0.273331,-0.763908
-0.273331, -0.763908,-0.258732, -0.783192,-0.248247, -0.769190,-0.273331,-0.763908
-0.258732, -0.783192,-0.232940, -0.788082,-0.248247, -0.769190,-0.258732,-0.783192
-0.258732, -0.783192,-0.243330, -0.802153,-0.232940, -0.788082,-0.258732,-0.783192
-0.243330, -0.802153,-0.216857, -0.806718,-0.232940, -0.788082,-0.243330,-0.802153
-0.243330, -0.802153,-0.227184, -0.820937,-0.216857, -0.806718,-0.243330,-0.802153
-0.227184, -0.820937,-0.199982, -0.824999,-0.216857, -0.806718,-0.227184,-0.820937
-0.227184, -0.820937,-0.210230, -0.839285,-0.199982, -0.824999,-0.227184,-0.820937
-0.210230, -0.839285,-0.182336, -0.842949,-0.199982, -0.824999,-0.210230,-0.839285
-0.210230, -0.839285,-0.192526, -0.857357,-0.182336, -0.842949,-0.210230,-0.839285
-0.192526, -0.857357,-0.163923, -0.860533,-0.182336, -0.842949,-0.192526,-0.857357
-0.192526, -0.857357,-0.174062, -0.875069,-0.163923, -0.860533,-0.192526,-0.857357
-0.174062, -0.875069,-0.144742, -0.877682,-0.163923, -0.860533,-0.174062,-0.875069
-0.174062, -0.875069,-0.154828, -0.892296,-0.144742, -0.877682,-0.174062,-0.875069
-0.154828, -0.892296,-0.124817, -0.894445,-0.144742, -0.877682,-0.154828,-0.892296
-0.154828, -0.892296,-0.134870, -0.909221,-0.124817, -0.894445,-0.154828,-0.892296
-0.134870, -0.909221,-0.104144, -0.910717,-0.124817, -0.894445,-0.134870,-0.909221
-0.134870, -0.909221,-0.114161, -0.925593,-0.104144, -0.910717,-0.134870,-0.909221
-0.114161, -0.925593,-0.082741, -0.926516,-0.104144, -0.910717,-0.114161,-0.925593
-0.114161, -0.925593,-0.092732, -0.941525,-0.082741, -0.926516,-0.114161,-0.925593
-0.092732, -0.941525,-0.060619, -0.941825,-0.082741, -0.926516,-0.092732,-0.941525
-0.092732, -0.941525,-0.070593, -0.957001,-0.060619, -0.941825,-0.092732,-0.941525
-0.070593, -0.957001,-0.037786, -0.956557,-0.060619, -0.941825,-0.070593,-0.957001
-0.070593, -0.957001,-0.047743, -0.971841,-0.037786, -0.956557,-0.070593,-0.957001
-0.047743, -0.971841,-0.014260, -0.970774,-0.037786, -0.956557,-0.047743,-0.971841
-0.047743, -0.971841,-0.024211, -0.986248,-0.014260, -0.970774,-0.047743,-0.971841
-0.024211, -0.986248,0.009950, -0.984375,-0.014260, -0.970774,-0.024211,-0.986248
-0.024211, -0.986248,-0.000000, -1.000000,0.009950, -0.984375,-0.024211,-0.986248
-0.000000, -1.000000,0.024871, -1.013149,0.009950, -0.984375,-0.000000,-1.000000
0.024871, -1.013149,0.034823, -0.997364,0.009950, -0.984375,0.024871,-1.013149
0.024871, -1.013149,0.050392, -1.025750,0.034823, -0.997364,0.024871,-1.013149
0.050392, -1.025750,0.060349, -1.009746,0.034823, -0.997364,0.050392,-1.025750
0.050392, -1.025750,0.076536, -1.037580,0.060349, -1.009746,0.050392,-1.025750
0.076536, -1.037580,0.086506, -1.021420,0.060349, -1.009746,0.076536,-1.037580
0.076536, -1.037580,0.103302, -1.048845,0.086506, -1.021420,0.076536,-1.037580
0.103302, -1.048845,0.113283, -1.032451,0.086506, -1.021420,0.103302,-1.048845
0.103302, -1.048845,0.130660, -1.059366,0.113283, -1.032451,0.103302,-1.048845
0.130660, -1.059366,0.140657, -1.042754,0.113283, -1.032451,0.130660,-1.059366
0.130660, -1.059366,0.158591, -1.069132,0.140657, -1.042754,0.130660,-1.059366
0.158591, -1.069132,0.168610, -1.052316,0.140657, -1.042754,0.158591,-1.069132
0.158591, -1.069132,0.187096, -1.078260,0.168610, -1.052316,0.158591,-1.069132
0.187096, -1.078260,0.197128, -1.061158,0.168610, -1.052316,0.187096,-1.078260
0.187096, -1.078260,0.216119, -1.086501,0.197128, -1.061158,0.187096,-1.078260
0.216119, -1.086501,0.226178, -1.069181,0.197128, -1.061158,0.216119,-1.086501
0.216119, -1.086501,0.245677, -1.094048,0.226178, -1.069181,0.216119,-1.086501
0.245677, -1.094048,0.255752, -1.076440,0.226178, -1.069181,0.245677,-1.094048
0.245677, -1.094048,0.275730, -1.100777,0.255752, -1.076440,0.245677,-1.094048
0.275730, -1.100777,0.285822, -1.082872,0.255752, -1.076440,0.275730,-1.100777
0.275730, -1.100777,0.306242, -1.106615,0.285822, -1.082872,0.275730,-1.100777
0.306242, -1.106615,0.316361, -1.088449,0.285822, -1.082872,0.306242,-1.106615
0.306242, -1.106615,0.337239, -1.111728,0.316361, -1.088449,0.306242,-1.106615
0.337239, -1.111728,0.347359, -1.093202,0.316361, -1.088449,0.337239,-1.111728
0.337239, -1.111728,0.368632, -1.115864,0.347359, -1.093202,0.337239,-1.111728
0.368632, -1.115864,0.378774, -1.097042,0.347359, -1.093202,0.368632,-1.115864
0.368632, -1.115864,0.400449, -1.119180,0.378774, -1.097042,0.368632,-1.115864
0.400449, -1.119180,0.410598, -1.100010,0.378774, -1.097042,0.400449,-1.119180
0.400449, -1.119180,0.432658, -1.121623,0.410598, -1.100010,0.400449,-1.119180
0.432658, -1.121623,0.442797, -1.102065,0.410598, -1.100010,0.432658,-1.121623
0.432658, -1.121623,0.465185, -1.123056,0.442797, -1.102065,0.432658,-1.121623
0.465185, -1.123056,0.475340, -1.103170,0.442797, -1.102065,0.465185,-1.123056
0.465185, -1.123056,0.498095, -1.123684,0.475340, -1.103170,0.465185,-1.123056
0.498095, -1.123684,0.508219, -1.103362,0.475340, -1.103170,0.498095,-1.123684
0.498095, -1.123684,0.531267, -1.123270,0.508219, -1.103362,0.498095,-1.123684
0.531267, -1.123270,0.541382, -1.102562,0.508219, -1.103362,0.531267,-1.123270
0.531267, -1.123270,0.564728, -1.121922,0.541382, -1.102562,0.531267,-1.123270
0.564728, -1.121922,0.574822, -1.100804,0.541382, -1.102562,0.564728,-1.121922
0.564728, -1.121922,0.598470, -1.119659,0.574822, -1.100804,0.564728,-1.121922
0.598470, -1.119659,0.608503, -1.098059,0.574822, -1.100804,0.598470,-1.119659
0.598470, -1.119659,0.632373, -1.116295,0.608503, -1.098059,0.598470,-1.119659
0.632373, -1.116295,0.642386, -1.094293,0.608503, -1.098059,0.632373,-1.116295
0.632373, -1.116295,0.666538, -1.112051,0.642386, -1.094293,0.632373,-1.116295
0.666538, -1.112051,0.676466, -1.089539,0.642386, -1.094293,0.666538,-1.112051
0.666538, -1.112051,0.700828, -1.106728,0.676466, -1.089539,0.666538,-1.112051
0.700828, -1.106728,0.710685, -1.083736,0.676466, -1.089539,0.700828,-1.106728
0.700828, -1.106728,0.735246, -1.100374,0.710685, -1.083736,0.700828,-1.106728
0.735246, -1.100374,0.745034, -1.076908,0.710685, -1.083736,0.735246,-1.100374
0.735246, -1.100374,0.769831, -1.093075,0.745034, -1.076908,0.735246,-1.100374
0.769831, -1.093075,0.779476, -1.069038,0.745034, -1.076908,0.769831,-1.093075
0.769831, -1.093075,0.804405, -1.084615,0.779476, -1.069038,0.769831,-1.093075
0.804405, -1.084615,0.813967, -1.060098,0.779476, -1.069038,0.804405,-1.084615
0.804405, -1.084615,0.839102, -1.075210,0.813967, -1.060098,0.804405,-1.084615
0.839102, -1.075210,0.848504, -1.050117,0.813967, -1.060098,0.839102,-1.075210
0.839102, -1.075210,0.873788, -1.064714,0.848504, -1.050117,0.839102,-1.075210
0.873788, -1.064714,0.883022, -1.039047,0.848504, -1.050117,0.873788,-1.064714
0.873788, -1.064714,0.908420, -1.053111,0.883022, -1.039047,0.873788,-1.064714
0.908420, -1.053111,0.917514, -1.026914,0.883022, -1.039047,0.908420,-1.053111
0.908420, -1.053111,0.943099, -1.040550,0.917514, -1.026914,0.908420,-1.053111
0.943099, -1.040550,0.951939, -1.013701,0.917514, -1.026914,0.943099,-1.040550
0.943099, -1.040550,0.977591, -1.026796,0.951939, -1.013701,0.943099,-1.040550
0.977591, -1.026796,0.986252, -0.999392,0.951939, -1.013701,0.977591,-1.026796
0.977591, -1.026796,1.012047, -1.012047,0.986252, -0.999392,0.977591,-1.026796
1.012047, -1.012047,1.020450, -0.984016,0.986252, -0.999392,1.012047,-1.012047
1.012047, -1.012047,1.046362, -0.996219,1.020450, -0.984016,1.012047,-1.012047
1.046362, -0.996219,1.054461, -0.967530,1.020450, -0.984016,1.046362,-0.996219
1.046362, -0.996219,1.080420, -0.979235,1.054461, -0.967530,1.046362,-0.996219
1.080420, -0.979235,1.088286, -0.949968,1.054461, -0.967530,1.080420,-0.979235
1.080420, -0.979235,1.114405, -0.961292,1.088286, -0.949968,1.080420,-0.979235
1.114405, -0.961292,1.121873, -0.931314,1.088286, -0.949968,1.114405,-0.961292
1.114405, -0.961292,1.148024, -0.942159,1.121873, -0.931314,1.114405,-0.961292
1.148024, -0.942159,1.155180, -0.911559,1.121873, -0.931314,1.148024,-0.942159
1.148024, -0.942159,1.181430, -0.921997,1.155180, -0.911559,1.148024,-0.942159
1.181430, -0.921997,1.188209, -0.890737,1.155180, -0.911559,1.181430,-0.921997
1.181430, -0.921997,1.214576, -0.900791,1.188209, -0.890737,1.181430,-0.921997
1.214576, -0.900791,1.220872, -0.868808,1.188209, -0.890737,1.214576,-0.900791
1.214576, -0.900791,1.247246, -0.878410,1.220872, -0.868808,1.214576,-0.900791
1.247246, -0.878410,1.253187, -0.845816,1.220872, -0.868808,1.247246,-0.878410
1.247246, -0.878410,1.279722, -0.855083,1.253187, -0.845816,1.247246,-0.878410
1.279722, -0.855083,1.285090, -0.821744,1.253187, -0.845816,1.279722,-0.855083
1.279722, -0.855083,1.311661, -0.830600,1.285090, -0.821744,1.279722,-0.855083
1.311661, -0.830600,1.316537, -0.796593,1.285090, -0.821744,1.311661,-0.830600
1.311661, -0.830600,1.343186, -0.805075,1.316537, -0.796593,1.311661,-0.830600
1.343186, -0.805075,1.347547, -0.770401,1.316537, -0.796593,1.343186,-0.805075
1.343186, -0.805075,1.374354, -0.778562,1.347547, -0.770401,1.343186,-0.805075
1.374354, -0.778562,1.378001, -0.743130,1.347547, -0.770401,1.374354,-0.778562
1.374354, -0.778562,1.404812, -0.750888,1.378001, -0.743130,1.374354,-0.778562
1.404812, -0.750888,1.407948, -0.714834,1.378001, -0.743130,1.404812,-0.750888
1.404812, -0.750888,1.434951, -0.722294,1.407948, -0.714834,1.404812,-0.750888
1.434951, -0.722294,1.437309, -0.685500,1.407948, -0.714834,1.434951,-0.722294
1.434951, -0.722294,1.464403, -0.692611,1.437309, -0.685500,1.434951,-0.722294
1.464403, -0.692611,1.466025, -0.655128,1.437309, -0.685500,1.464403,-0.692611
1.464403, -0.692611,1.493210, -0.661895,1.466025, -0.655128,1.464403,-0.692611
1.493210, -0.661895,1.494159, -0.623776,1.466025, -0.655128,1.493210,-0.661895
1.493210, -0.661895,1.521598, -0.630267,1.494159, -0.623776,1.493210,-0.661895
1.521598, -0.630267,1.521532, -0.591395,1.494159, -0.623776,1.521598,-0.630267
1.521598, -0.630267,1.549023, -0.597524,1.521532, -0.591395,1.521598,-0.630267
1.549023, -0.597524,1.548242, -0.558054,1.521532, -0.591395,1.549023,-0.597524
1.549023, -0.597524,1.576007, -0.563904,1.548242, -0.558054,1.549023,-0.597524
1.576007, -0.563904,1.574196, -0.523746,1.548242, -0.558054,1.576007,-0.563904
1.576007, -0.563904,1.602187, -0.529291,1.574196, -0.523746,1.576007,-0.563904
1.602187, -0.529291,1.599294, -0.488469,1.574196, -0.523746,1.602187,-0.529291
1.602187, -0.529291,1.627443, -0.493680,1.599294, -0.488469,1.602187,-0.529291
1.627443, -0.493680,1.623684, -0.452297,1.599294, -0.488469,1.627443,-0.493680
1.627443, -0.493680,1.652283, -0.457248,1.623684, -0.452297,1.627443,-0.493680
1.652283, -0.457248,1.647080, -0.415181,1.623684, -0.452297,1.652283,-0.457248
1.652283, -0.457248,1.675870, -0.419784,1.647080, -0.415181,1.652283,-0.457248
1.675870, -0.419784,1.669647, -0.377194,1.647080, -0.415181,1.675870,-0.419784
1.675870, -0.419784,1.698902, -0.381501,1.669647, -0.377194,1.675870,-0.419784
1.698902, -0.381501,1.691297, -0.338346,1.669647, -0.377194,1.698902,-0.381501
1.698902, -0.381501,1.721082, -0.342344,1.691297, -0.338346,1.698902,-0.381501
1.721082, -0.342344,1.711791, -0.298627,1.691297, -0.338346,1.721082,-0.342344
1.721082, -0.342344,1.741938, -0.302255,1.711791, -0.298627,1.721082,-0.342344
1.741938, -0.302255,1.731487, -0.258133,1.711791, -0.298627,1.741938,-0.302255
1.741938, -0.302255,1.762565, -0.261452,1.731487, -0.258133,1.741938,-0.302255
1.762565, -0.261452,1.749800, -0.216816,1.731487, -0.258133,1.762565,-0.261452
1.762565, -0.261452,1.781497, -0.219727,1.749800, -0.216816,1.762565,-0.261452
1.781497, -0.219727,1.767033, -0.174760,1.749800, -0.216816,1.781497,-0.219727
1.781497, -0.219727,1.799816, -0.177266,1.767033, -0.174760,1.781497,-0.219727
1.799816, -0.177266,1.783007, -0.132001,1.767033, -0.174760,1.799816,-0.177266
1.799816, -0.177266,1.817464, -0.134064,1.783007, -0.132001,1.799816,-0.177266
1.817464, -0.134064,1.796857, -0.088536,1.783007, -0.132001,1.817464,-0.134064
1.817464, -0.134064,1.832706, -0.090035,1.796857, -0.088536,1.817464,-0.134064
1.832706, -0.090035,1.809277, -0.044524,1.796857, -0.088536,1.832706,-0.090035
1.832706, -0.090035,1.849484, -0.045402,1.809277, -0.044524,1.832706,-0.090035
1.849484, -0.045402,1.815317, -0.000000,1.809277, -0.044524,1.849484,-0.045402
1.849484, -0.045402,1.859005, 0.000000,1.815317, -0.000000,1.849484,-0.045402

