0.749850,0.000000
0.753456,0.049384
0.764147,0.100602
0.781539,0.155458
0.804998,0.215698
0.833648,0.282985
0.866380,0.358866
0.901865,0.444751
0.938572,0.541885
0.974775,0.651324
1.008570,0.773903
1.037760,0.910091
1.052117,1.052117
0.910091,1.037760
0.773903,1.008570
0.651324,0.974775
0.541885,0.938572
0.444751,0.901865
0.358866,0.866380
0.282985,0.833648
0.215698,0.804998
0.155458,0.781539
0.100602,0.764147
0.049384,0.753456
0.000000,0.749850
-0.049384,0.753456
-0.100602,0.764147
-0.155458,0.781539
-0.215698,0.804998
-0.282985,0.833648
-0.358866,0.866380
-0.444751,0.901865
-0.541885,0.938572
-0.651324,0.974775
-0.773903,1.008570
-0.910091,1.037760
-1.052117,1.052117
-1.037760,0.910091
-1.008570,0.773903
-0.974775,0.651324
-0.938572,0.541885
-0.901865,0.444751
-0.866380,0.358866
-0.833648,0.282985
-0.804998,0.215698
-0.781539,0.155458
-0.764147,0.100602
-0.753456,0.049384
-0.749850,-0.000000
-0.753456,-0.049384
-0.764147,-0.100602
-0.781539,-0.155458
-0.804998,-0.215698
-0.833648,-0.282985
-0.866380,-0.358866
-0.901865,-0.444751
-0.938572,-0.541885
-0.974775,-0.651324
-1.008570,-0.773903
-1.037760,-0.910091
-1.052117,-1.052117
-0.910091,-1.037760
-0.773903,-1.008570
-0.651324,-0.974775
-0.541885,-0.938572
-0.444751,-0.901865
-0.358866,-0.866380
-0.282985,-0.833648
-0.215698,-0.804998
-0.155458,-0.781539
-0.100602,-0.764147
-0.049384,-0.753456
-0.000000,-0.749850
0.049384,-0.753456
0.100602,-0.764147
0.155458,-0.781539
0.215698,-0.804998
0.282985,-0.833648
0.358866,-0.866380
0.444751,-0.901865
0.541885,-0.938572
0.651324,-0.974775
0.773903,-1.008570
0.910091,-1.037760
1.052117,-1.052117
1.037760,-0.910091
1.008570,-0.773903
0.974775,-0.651324
0.938572,-0.541885
0.901865,-0.444751
0.866380,-0.358866
0.833648,-0.282985
0.804998,-0.215698
0.781539,-0.155458
0.764147,-0.100602
0.753456,-0.049384
-0.000000,0.000000
0.388989,-0.000000
0.344546,0.090509
0.300807,0.179255
0.256073,0.265413
0.295699,-0.000000
0.248638,0.088825
0.201812,0.175748
0.198850,-0.000000
0.150104,0.087426
0.099901,-0.000000
0.209093,0.347876
0.104448,0.341665
-0.000000,0.339515
-0.104448,0.341665
0.154011,0.260247
0.051388,0.257446
-0.051388,0.257446
0.101249,0.173331
-0.000000,0.172474
0.050179,0.086647
-0.209093,0.347876
-0.256073,0.265413
-0.300807,0.179255
-0.344546,0.090509
-0.154011,0.260247
-0.201812,0.175748
-0.248638,0.088825
-0.101249,0.173331
-0.150104,0.087426
-0.050179,0.086647
-0.388989,0.000000
-0.344546,-0.090509
-0.300807,-0.179255
-0.256073,-0.265413
-0.295699,0.000000
-0.248638,-0.088825
-0.201812,-0.175748
-0.198850,0.000000
-0.150104,-0.087426
-0.099901,0.000000
-0.209093,-0.347876
-0.104448,-0.341665
0.000000,-0.339515
0.104448,-0.341665
-0.154011,-0.260247
-0.051388,-0.257446
0.051388,-0.257446
-0.101249,-0.173331
0.000000,-0.172474
-0.050179,-0.086647
0.209093,-0.347876
0.256073,-0.265413
0.300807,-0.179255
0.344546,-0.090509
0.154011,-0.260247
0.201812,-0.175748
0.248638,-0.088825
0.101249,-0.173331
0.150104,-0.087426
0.050179,-0.086647
0.476886,-0.000000
0.426327,0.114826
0.377127,0.227869
0.324990,0.336470
0.266861,0.437073
0.132573,0.423410
-0.000000,0.418668
-0.132573,0.423410
-0.266861,0.437073
-0.324990,0.336470
-0.377127,0.227869
-0.426327,0.114826
-0.476886,0.000000
-0.426327,-0.114826
-0.377127,-0.227869
-0.324990,-0.336470
-0.266861,-0.437073
-0.132573,-0.423410
0.000000,-0.418668
0.132573,-0.423410
0.266861,-0.437073
0.324990,-0.336470
0.377127,-0.227869
0.426327,-0.114826
0.618788,-0.000000
0.613840,0.066921
0.613564,0.135107
0.575542,-0.000000
0.569435,0.067969
0.528024,-0.000000
0.617623,0.205210
0.603618,0.284799
0.588506,0.365816
0.570036,0.446340
0.567319,0.136827
0.541985,0.227411
0.515867,0.318552
0.485978,0.407701
0.520865,0.068372
0.483226,0.170690
0.445621,0.272435
0.404466,0.370879
0.545490,0.523360
0.495283,0.559110
0.440079,0.588793
0.449412,0.491418
0.397506,0.524150
0.356707,0.462331
0.381561,0.613139
0.308758,0.613089
0.238044,0.614111
0.342657,0.552735
0.273096,0.557975
0.304300,0.494156
0.169560,0.617108
0.084024,0.605602
-0.000000,0.601777
-0.084024,0.605602
0.204610,0.564014
0.101295,0.550616
-0.000000,0.546147
-0.101295,0.550616
0.237196,0.503650
0.117529,0.489515
-0.000000,0.484728
-0.117529,0.489515
-0.169560,0.617108
-0.238044,0.614111
-0.308758,0.613089
-0.204610,0.564014
-0.273096,0.557975
-0.237196,0.503650
-0.381561,0.613139
-0.440079,0.588793
-0.495283,0.559110
-0.342657,0.552735
-0.397506,0.524150
-0.304300,0.494156
-0.545490,0.523360
-0.570036,0.446340
-0.588506,0.365816
-0.603618,0.284799
-0.449412,0.491418
-0.485978,0.407701
-0.515867,0.318552
-0.541985,0.227411
-0.356707,0.462331
-0.404466,0.370879
-0.445621,0.272435
-0.483226,0.170690
-0.617623,0.205210
-0.613564,0.135107
-0.613840,0.066921
-0.567319,0.136827
-0.569435,0.067969
-0.520865,0.068372
-0.618788,0.000000
-0.613840,-0.066921
-0.613564,-0.135107
-0.575542,0.000000
-0.569435,-0.067969
-0.528024,0.000000
-0.617623,-0.205210
-0.603618,-0.284799
-0.588506,-0.365816
-0.570036,-0.446340
-0.567319,-0.136827
-0.541985,-0.227411
-0.515867,-0.318552
-0.485978,-0.407701
-0.520865,-0.068372
-0.483226,-0.170690
-0.445621,-0.272435
-0.404466,-0.370879
-0.545490,-0.523360
-0.495283,-0.559110
-0.440079,-0.588793
-0.449412,-0.491418
-0.397506,-0.524150
-0.356707,-0.462331
-0.381561,-0.613139
-0.308758,-0.613089
-0.238044,-0.614111
-0.342657,-0.552735
-0.273096,-0.557975
-0.304300,-0.494156
-0.169560,-0.617108
-0.084024,-0.605602
0.000000,-0.601777
0.084024,-0.605602
-0.204610,-0.564014
-0.101295,-0.550616
0.000000,-0.546147
0.101295,-0.550616
-0.237196,-0.503650
-0.117529,-0.489515
0.000000,-0.484728
0.117529,-0.489515
0.169560,-0.617108
0.238044,-0.614111
0.308758,-0.613089
0.204610,-0.564014
0.273096,-0.557975
0.237196,-0.503650
0.381561,-0.613139
0.440079,-0.588793
0.495283,-0.559110
0.342657,-0.552735
0.397506,-0.524150
0.304300,-0.494156
0.545490,-0.523360
0.570036,-0.446340
0.588506,-0.365816
0.603618,-0.284799
0.449412,-0.491418
0.485978,-0.407701
0.515867,-0.318552
0.541985,-0.227411
0.356707,-0.462331
0.404466,-0.370879
0.445621,-0.272435
0.483226,-0.170690
0.617623,-0.205210
0.613564,-0.135107
0.613840,-0.066921
0.567319,-0.136827
0.569435,-0.067969
0.520865,-0.068372
0.657133,-0.000000
0.653391,0.087147
0.658991,0.177695
0.673302,0.273546
0.667680,0.365917
0.659608,0.461375
0.644910,0.556067
0.581554,0.610250
0.504876,0.649317
0.420335,0.675568
0.318602,0.667214
0.222951,0.662114
0.133196,0.662254
0.044020,0.651757
-0.044020,0.651757
-0.133196,0.662254
-0.222951,0.662114
-0.318602,0.667214
-0.420335,0.675568
-0.504876,0.649317
-0.581554,0.610250
-0.644910,0.556067
-0.659608,0.461375
-0.667680,0.365917
-0.673302,0.273546
-0.658991,0.177695
-0.653391,0.087147
-0.657133,0.000000
-0.653391,-0.087147
-0.658991,-0.177695
-0.673302,-0.273546
-0.667680,-0.365917
-0.659608,-0.461375
-0.644910,-0.556067
-0.581554,-0.610250
-0.504876,-0.649317
-0.420335,-0.675568
-0.318602,-0.667214
-0.222951,-0.662114
-0.133196,-0.662254
-0.044020,-0.651757
0.044020,-0.651757
0.133196,-0.662254
0.222951,-0.662114
0.318602,-0.667214
0.420335,-0.675568
0.504876,-0.649317
0.581554,-0.610250
0.644910,-0.556067
0.659608,-0.461375
0.667680,-0.365917
0.673302,-0.273546
0.658991,-0.177695
0.653391,-0.087147
0.699555,-0.000000
0.699614,0.041259
0.679652,-0.000000
0.702621,0.083074
0.707459,0.139865
0.716936,0.199370
0.679398,0.042707
0.680709,0.114447
0.688851,0.189422
0.730921,0.262253
0.738783,0.311158
0.703608,0.268861
0.748053,0.362527
0.753861,0.431378
0.758989,0.503521
0.708998,0.317845
0.709875,0.398874
0.709253,0.483374
0.762096,0.578172
0.752613,0.627989
0.704255,0.568931
0.737953,0.674736
0.694240,0.714908
0.639189,0.742807
0.688838,0.612698
0.635169,0.659892
0.569031,0.693054
0.576971,0.760461
0.523290,0.762413
0.495308,0.714685
0.470046,0.762194
0.414846,0.754379
0.445741,0.718508
0.362026,0.746995
0.293657,0.732924
0.229700,0.722039
0.393235,0.714597
0.307422,0.702140
0.227272,0.693297
0.169523,0.714526
0.125631,0.707409
0.152165,0.688858
0.083040,0.703051
0.027562,0.697713
-0.027562,0.697713
0.107732,0.684039
0.035691,0.676209
-0.035691,0.676209
-0.083040,0.703051
-0.125631,0.707409
-0.107732,0.684039
-0.169523,0.714526
-0.229700,0.722039
-0.293657,0.732924
-0.152165,0.688858
-0.227272,0.693297
-0.307422,0.702140
-0.362026,0.746995
-0.414846,0.754379
-0.393235,0.714597
-0.470046,0.762194
-0.523290,0.762413
-0.445741,0.718508
-0.576971,0.760461
-0.639189,0.742807
-0.694240,0.714908
-0.495308,0.714685
-0.569031,0.693054
-0.635169,0.659892
-0.737953,0.674736
-0.752613,0.627989
-0.688838,0.612698
-0.762096,0.578172
-0.758989,0.503521
-0.753861,0.431378
-0.704255,0.568931
-0.709253,0.483374
-0.709875,0.398874
-0.748053,0.362527
-0.738783,0.311158
-0.708998,0.317845
-0.730921,0.262253
-0.716936,0.199370
-0.707459,0.139865
-0.703608,0.268861
-0.688851,0.189422
-0.680709,0.114447
-0.702621,0.083074
-0.699614,0.041259
-0.679398,0.042707
-0.699555,0.000000
-0.699614,-0.041259
-0.679652,0.000000
-0.702621,-0.083074
-0.707459,-0.139865
-0.716936,-0.199370
-0.679398,-0.042707
-0.680709,-0.114447
-0.688851,-0.189422
-0.730921,-0.262253
-0.738783,-0.311158
-0.703608,-0.268861
-0.748053,-0.362527
-0.753861,-0.431378
-0.758989,-0.503521
-0.708998,-0.317845
-0.709875,-0.398874
-0.709253,-0.483374
-0.762096,-0.578172
-0.752613,-0.627989
-0.704255,-0.568931
-0.737953,-0.674736
-0.694240,-0.714908
-0.639189,-0.742807
-0.688838,-0.612698
-0.635169,-0.659892
-0.569031,-0.693054
-0.576971,-0.760461
-0.523290,-0.762413
-0.495308,-0.714685
-0.470046,-0.762194
-0.414846,-0.754379
-0.445741,-0.718508
-0.362026,-0.746995
-0.293657,-0.732924
-0.229700,-0.722039
-0.393235,-0.714597
-0.307422,-0.702140
-0.227272,-0.693297
-0.169523,-0.714526
-0.125631,-0.707409
-0.152165,-0.688858
-0.083040,-0.703051
-0.027562,-0.697713
0.027562,-0.697713
-0.107732,-0.684039
-0.035691,-0.676209
0.035691,-0.676209
0.083040,-0.703051
0.125631,-0.707409
0.107732,-0.684039
0.169523,-0.714526
0.229700,-0.722039
0.293657,-0.732924
0.152165,-0.688858
0.227272,-0.693297
0.307422,-0.702140
0.362026,-0.746995
0.414846,-0.754379
0.393235,-0.714597
0.470046,-0.762194
0.523290,-0.762413
0.445741,-0.718508
0.576971,-0.760461
0.639189,-0.742807
0.694240,-0.714908
0.495308,-0.714685
0.569031,-0.693054
0.635169,-0.659892
0.737953,-0.674736
0.752613,-0.627989
0.688838,-0.612698
0.762096,-0.578172
0.758989,-0.503521
0.753861,-0.431378
0.704255,-0.568931
0.709253,-0.483374
0.709875,-0.398874
0.748053,-0.362527
0.738783,-0.311158
0.708998,-0.317845
0.730921,-0.262253
0.716936,-0.199370
0.707459,-0.139865
0.703608,-0.268861
0.688851,-0.189422
0.680709,-0.114447
0.702621,-0.083074
0.699614,-0.041259
0.679398,-0.042707
0.716648,-0.000000
0.718425,0.059538
0.726955,0.120609
0.738082,0.184886
0.754913,0.253513
0.771087,0.327340
0.790768,0.407388
0.804047,0.491709
0.816341,0.581098
0.811534,0.665955
0.794863,0.744814
0.739912,0.789558
0.668373,0.815242
0.579459,0.813230
0.492502,0.806376
0.406769,0.788592
0.327469,0.772586
0.253418,0.753433
0.184865,0.739085
0.120677,0.725958
0.059516,0.719192
-0.000000,0.715766
-0.059516,0.719192
-0.120677,0.725958
-0.184865,0.739085
-0.253418,0.753433
-0.327469,0.772586
-0.406769,0.788592
-0.492502,0.806376
-0.579459,0.813230
-0.668373,0.815242
-0.739912,0.789558
-0.794863,0.744814
-0.811534,0.665955
-0.816341,0.581098
-0.804047,0.491709
-0.790768,0.407388
-0.771087,0.327340
-0.754913,0.253513
-0.738082,0.184886
-0.726955,0.120609
-0.718425,0.059538
-0.716648,0.000000
-0.718425,-0.059538
-0.726955,-0.120609
-0.738082,-0.184886
-0.754913,-0.253513
-0.771087,-0.327340
-0.790768,-0.407388
-0.804047,-0.491709
-0.816341,-0.581098
-0.811534,-0.665955
-0.794863,-0.744814
-0.739912,-0.789558
-0.668373,-0.815242
-0.579459,-0.813230
-0.492502,-0.806376
-0.406769,-0.788592
-0.327469,-0.772586
-0.253418,-0.753433
-0.184865,-0.739085
-0.120677,-0.725958
-0.059516,-0.719192
0.000000,-0.715766
0.059516,-0.719192
0.120677,-0.725958
0.184865,-0.739085
0.253418,-0.753433
0.327469,-0.772586
0.406769,-0.788592
0.492502,-0.806376
0.579459,-0.813230
0.668373,-0.815242
0.739912,-0.789558
0.794863,-0.744814
0.811534,-0.665955
0.816341,-0.581098
0.804047,-0.491709
0.790768,-0.407388
0.771087,-0.327340
0.754913,-0.253513
0.738082,-0.184886
0.726955,-0.120609
0.718425,-0.059538
0.727557,-0.000000
0.728323,0.028572
0.731467,0.071829
0.739173,0.116376
0.745318,0.147104
0.756013,0.194852
0.770725,0.245901
0.780770,0.281692
0.795836,0.337814
0.813731,0.398901
0.824610,0.441498
0.838288,0.507290
0.852439,0.578403
0.858537,0.626201
0.860236,0.695864
0.854826,0.764153
0.841653,0.802331
0.800183,0.839511
0.741842,0.857709
0.697288,0.861966
0.624432,0.856499
0.554411,0.848053
0.507953,0.839784
0.463047,0.829325
0.397999,0.812092
0.338217,0.796911
0.300080,0.785817
0.245569,0.769535
0.195060,0.756841
0.162824,0.748828
0.116319,0.738307
0.071916,0.732195
0.042938,0.729303
-0.000000,0.726965
-0.042938,0.729303
-0.071916,0.732195
-0.116319,0.738307
-0.162824,0.748828
-0.195060,0.756841
-0.245569,0.769535
-0.300080,0.785817
-0.338217,0.796911
-0.397999,0.812092
-0.463047,0.829325
-0.507953,0.839784
-0.554411,0.848053
-0.624432,0.856499
-0.697288,0.861966
-0.741842,0.857709
-0.800183,0.839511
-0.841653,0.802331
-0.854826,0.764153
-0.860236,0.695864
-0.858537,0.626201
-0.852439,0.578403
-0.838288,0.507290
-0.824610,0.441498
-0.813731,0.398901
-0.795836,0.337814
-0.780770,0.281692
-0.770725,0.245901
-0.756013,0.194852
-0.745318,0.147104
-0.739173,0.116376
-0.731467,0.071829
-0.728323,0.028572
-0.727557,0.000000
-0.728323,-0.028572
-0.731467,-0.071829
-0.739173,-0.116376
-0.745318,-0.147104
-0.756013,-0.194852
-0.770725,-0.245901
-0.780770,-0.281692
-0.795836,-0.337814
-0.813731,-0.398901
-0.824610,-0.441498
-0.838288,-0.507290
-0.852439,-0.578403
-0.858537,-0.626201
-0.860236,-0.695864
-0.854826,-0.764153
-0.841653,-0.802331
-0.800183,-0.839511
-0.741842,-0.857709
-0.697288,-0.861966
-0.624432,-0.856499
-0.554411,-0.848053
-0.507953,-0.839784
-0.463047,-0.829325
-0.397999,-0.812092
-0.338217,-0.796911
-0.300080,-0.785817
-0.245569,-0.769535
-0.195060,-0.756841
-0.162824,-0.748828
-0.116319,-0.738307
-0.071916,-0.732195
-0.042938,-0.729303
0.000000,-0.726965
0.042938,-0.729303
0.071916,-0.732195
0.116319,-0.738307
0.162824,-0.748828
0.195060,-0.756841
0.245569,-0.769535
0.300080,-0.785817
0.338217,-0.796911
0.397999,-0.812092
0.463047,-0.829325
0.507953,-0.839784
0.554411,-0.848053
0.624432,-0.856499
0.697288,-0.861966
0.741842,-0.857709
0.800183,-0.839511
0.841653,-0.802331
0.854826,-0.764153
0.860236,-0.695864
0.858537,-0.626201
0.852439,-0.578403
0.838288,-0.507290
0.824610,-0.441498
0.813731,-0.398901
0.795836,-0.337814
0.780770,-0.281692
0.770725,-0.245901
0.756013,-0.194852
0.745318,-0.147104
0.739173,-0.116376
0.731467,-0.071829
0.728323,-0.028572
0.736359,-0.000000
0.739456,0.054725
0.748832,0.111305
0.763853,0.171298
0.783817,0.236404
0.807556,0.307877
0.833667,0.386989
0.860310,0.474293
0.885083,0.569877
0.904916,0.672555
0.914300,0.777916
0.901866,0.873880
0.828269,0.911802
0.725057,0.911115
0.620250,0.895801
0.520966,0.872953
0.429328,0.846771
0.346330,0.820231
0.271210,0.795116
0.203141,0.773179
0.140821,0.755586
0.082738,0.743360
0.027299,0.737077
-0.027299,0.737077
-0.082738,0.743360
-0.140821,0.755586
-0.203141,0.773179
-0.271210,0.795116
-0.346330,0.820231
-0.429328,0.846771
-0.520966,0.872953
-0.620250,0.895801
-0.725057,0.911115
-0.828269,0.911802
-0.901866,0.873880
-0.914300,0.777916
-0.904916,0.672555
-0.885083,0.569877
-0.860310,0.474293
-0.833667,0.386989
-0.807556,0.307877
-0.783817,0.236404
-0.763853,0.171298
-0.748832,0.111305
-0.739456,0.054725
-0.736359,0.000000
-0.739456,-0.054725
-0.748832,-0.111305
-0.763853,-0.171298
-0.783817,-0.236404
-0.807556,-0.307877
-0.833667,-0.386989
-0.860310,-0.474293
-0.885083,-0.569877
-0.904916,-0.672555
-0.914300,-0.777916
-0.901866,-0.873880
-0.828269,-0.911802
-0.725057,-0.911115
-0.620250,-0.895801
-0.520966,-0.872953
-0.429328,-0.846771
-0.346330,-0.820231
-0.271210,-0.795116
-0.203141,-0.773179
-0.140821,-0.755586
-0.082738,-0.743360
-0.027299,-0.737077
0.027299,-0.737077
0.082738,-0.743360
0.140821,-0.755586
0.203141,-0.773179
0.271210,-0.795116
0.346330,-0.820231
0.429328,-0.846771
0.520966,-0.872953
0.620250,-0.895801
0.725057,-0.911115
0.828269,-0.911802
0.901866,-0.873880
0.914300,-0.777916
0.904916,-0.672555
0.885083,-0.569877
0.860310,-0.474293
0.833667,-0.386989
0.807556,-0.307877
0.783817,-0.236404
0.763853,-0.171298
0.748832,-0.111305
0.739456,-0.054725
