1.469655,0.000000
1.431071,0.070304
1.385717,0.136481
1.337009,0.198326
1.285087,0.255620
1.230663,0.308265
1.174542,0.356293
1.117063,0.399692
1.058175,0.438311
0.997970,0.472005
0.936979,0.500826
0.875907,0.524998
0.815237,0.544724
0.760700,0.564174
0.732399,0.601065
0.701973,0.636231
0.669774,0.669774
0.636060,0.701784
0.600901,0.732200
0.564284,0.760850
0.526262,0.787606
0.486960,0.812443
0.446507,0.835356
0.404992,0.856284
0.362493,0.875136
0.319110,0.891853
0.274960,0.906423
0.230155,0.918829
0.184795,0.929029
0.138987,0.936977
0.092844,0.942658
0.046478,0.946074
0.000000,0.947223
-0.046478,0.946087
-0.092844,0.942663
-0.138986,0.936966
-0.184793,0.929019
-0.230157,0.918837
-0.274965,0.906438
-0.319109,0.891851
-0.362485,0.875117
-0.404990,0.856278
-0.446519,0.835377
-0.486970,0.812461
-0.526248,0.787585
-0.564259,0.760815
-0.600912,0.732213
-0.636117,0.701846
-0.669787,0.669787
-0.701844,0.636115
-0.732212,0.600911
-0.760817,0.564260
-0.787587,0.526249
-0.812459,0.486969
-0.835375,0.446517
-0.856279,0.404990
-0.875120,0.362486
-0.891852,0.319110
-0.906435,0.274964
-0.918835,0.230156
-0.929022,0.184794
-0.936970,0.138986
-0.942661,0.092844
-0.946081,0.046478
-0.947222,0.000000
-0.946081,-0.046478
-0.942661,-0.092844
-0.936970,-0.138986
-0.929022,-0.184794
-0.918835,-0.230156
-0.906435,-0.274964
-0.891852,-0.319110
-0.875120,-0.362486
-0.856279,-0.404990
-0.835375,-0.446517
-0.812459,-0.486969
-0.787587,-0.526249
-0.760817,-0.564260
-0.732212,-0.600911
-0.701844,-0.636115
-0.669787,-0.669787
-0.636117,-0.701846
-0.600912,-0.732213
-0.564259,-0.760815
-0.526248,-0.787585
-0.486970,-0.812461
-0.446519,-0.835377
-0.404990,-0.856278
-0.362485,-0.875117
-0.319109,-0.891851
-0.274965,-0.906438
-0.230157,-0.918837
-0.184793,-0.929019
-0.138986,-0.936966
-0.092844,-0.942663
-0.046478,-0.946087
-0.000000,-0.947223
0.046478,-0.946074
0.092844,-0.942658
0.138987,-0.936977
0.184795,-0.929029
0.230155,-0.918829
0.274960,-0.906423
0.319110,-0.891853
0.362493,-0.875136
0.404992,-0.856284
0.446507,-0.835356
0.486960,-0.812443
0.526262,-0.787606
0.564284,-0.760850
0.600901,-0.732200
0.636060,-0.701784
0.669774,-0.669774
0.701973,-0.636231
0.732399,-0.601065
0.760700,-0.564174
0.815237,-0.544724
0.875907,-0.524998
0.936979,-0.500826
0.997970,-0.472005
1.058175,-0.438311
1.117063,-0.399692
1.174542,-0.356293
1.230663,-0.308265
1.285087,-0.255620
1.337009,-0.198326
1.385717,-0.136481
1.431071,-0.070304
0.051065,0.000000
0.510662,0.000000
0.412003,0.080902
0.314866,0.160512
0.219973,0.239408
0.127455,0.317981
0.413585,0.000000
0.318479,0.080339
0.224515,0.159782
0.132242,0.238717
0.319712,-0.000000
0.227364,0.079948
0.135876,0.159266
0.228334,-0.000000
0.138147,0.079672
0.138919,0.000000
0.037125,0.396458
-0.043134,0.316990
-0.124740,0.237588
-0.207221,0.158288
-0.290194,0.079097
0.041779,0.317412
-0.039934,0.237856
-0.122757,0.158434
-0.206201,0.079154
0.045673,0.238220
-0.037531,0.158630
-0.121530,0.079230
0.048613,0.158897
-0.036040,0.079334
0.050444,0.079475
-0.373372,0.000000
-0.290194,-0.079097
-0.207221,-0.158288
-0.124740,-0.237588
-0.043134,-0.316990
-0.289905,0.000000
-0.206201,-0.079154
-0.122757,-0.158434
-0.039934,-0.237856
-0.205857,0.000000
-0.121530,-0.079230
-0.037531,-0.158630
-0.121114,0.000000
-0.036040,-0.079334
-0.035534,0.000000
0.037125,-0.396458
0.127455,-0.317981
0.219973,-0.239408
0.314866,-0.160512
0.412003,-0.080902
0.041779,-0.317412
0.132242,-0.238717
0.224515,-0.159782
0.318479,-0.080339
0.045673,-0.238220
0.135876,-0.159266
0.227364,-0.079948
0.048613,-0.158897
0.138147,-0.079672
0.050444,-0.079475
0.611917,0.000000
0.488153,0.097806
0.367690,0.193169
0.251699,0.287433
0.140020,0.381384
0.031931,0.475360
-0.062959,0.380148
-0.159879,0.284951
-0.258115,0.189853
-0.357083,0.094873
-0.456350,-0.000000
-0.357083,-0.094873
-0.258115,-0.189853
-0.159879,-0.284951
-0.062959,-0.380148
0.031931,-0.475360
0.140020,-0.381384
0.251699,-0.287433
0.367690,-0.193169
0.488153,-0.097806
0.880839,0.000000
0.847461,0.079050
0.808015,0.155884
0.764709,0.230201
0.809154,0.000000
0.777886,0.077442
0.741481,0.153116
0.740792,0.000000
0.711248,0.076164
0.675191,0.000000
0.719498,0.302014
0.628277,0.358457
0.543824,0.415321
0.464916,0.472978
0.390225,0.531398
0.701721,0.226788
0.599427,0.293614
0.504069,0.360029
0.414611,0.426741
0.329806,0.493971
0.677353,0.150921
0.566006,0.228284
0.461076,0.304406
0.361992,0.380308
0.267703,0.456433
0.647083,0.075149
0.528670,0.162914
0.415428,0.248727
0.307542,0.333839
0.204327,0.418885
0.318618,0.590414
0.243118,0.608651
0.167949,0.627070
0.093096,0.645625
0.248472,0.561677
0.172497,0.580000
0.096995,0.598487
0.177093,0.532889
0.100921,0.551318
0.104823,0.504106
0.018535,0.664280
-0.053393,0.645057
-0.125651,0.625844
-0.198141,0.606646
0.021908,0.617095
-0.050451,0.597822
-0.123094,0.578572
0.025290,0.569885
-0.047534,0.550563
0.028645,0.522642
-0.270786,0.587468
-0.331193,0.526843
-0.392077,0.466207
-0.453362,0.405570
-0.514973,0.344939
-0.195924,0.559348
-0.264887,0.490128
-0.334561,0.420895
-0.404805,0.351667
-0.475484,0.282457
-0.120585,0.531279
-0.198133,0.453438
-0.276712,0.375585
-0.356071,0.297752
-0.435978,0.219955
-0.044674,0.503276
-0.130855,0.416777
-0.218496,0.330273
-0.307168,0.243816
-0.396496,0.157429
-0.576839,0.284320
-0.595715,0.213240
-0.614861,0.142158
-0.634265,0.071077
-0.546475,0.213270
-0.565608,0.142178
-0.585023,0.071087
-0.516239,0.142201
-0.535665,0.071098
-0.486180,0.071110
-0.653908,-0.000000
-0.634265,-0.071077
-0.614861,-0.142158
-0.595715,-0.213240
-0.604700,-0.000000
-0.585023,-0.071087
-0.565608,-0.142178
-0.555379,-0.000000
-0.535665,-0.071098
-0.505933,-0.000000
-0.576839,-0.284320
-0.514973,-0.344939
-0.453362,-0.405570
-0.392077,-0.466207
-0.331193,-0.526843
-0.546475,-0.213270
-0.475484,-0.282457
-0.404805,-0.351667
-0.334561,-0.420895
-0.264887,-0.490128
-0.516239,-0.142201
-0.435978,-0.219955
-0.356071,-0.297752
-0.276712,-0.375585
-0.198133,-0.453438
-0.486180,-0.071110
-0.396496,-0.157429
-0.307168,-0.243816
-0.218496,-0.330273
-0.130855,-0.416777
-0.270786,-0.587468
-0.198141,-0.606646
-0.125651,-0.625844
-0.053393,-0.645057
-0.195924,-0.559348
-0.123094,-0.578572
-0.050451,-0.597822
-0.120585,-0.531279
-0.047534,-0.550563
-0.044674,-0.503276
0.018535,-0.664280
0.093096,-0.645625
0.167949,-0.627070
0.243118,-0.608651
0.021908,-0.617095
0.096995,-0.598487
0.172497,-0.580000
0.025290,-0.569885
0.100921,-0.551318
0.028645,-0.522642
0.318618,-0.590414
0.390225,-0.531398
0.464916,-0.472978
0.543824,-0.415321
0.628277,-0.358457
0.248472,-0.561677
0.329806,-0.493971
0.414611,-0.426741
0.504069,-0.360029
0.599427,-0.293614
0.177093,-0.532889
0.267703,-0.456433
0.361992,-0.380308
0.461076,-0.304406
0.566006,-0.228284
0.104823,-0.504106
0.204327,-0.418885
0.307542,-0.333839
0.415428,-0.248727
0.528670,-0.162914
0.719498,-0.302014
0.764709,-0.230201
0.808015,-0.155884
0.847461,-0.079050
0.701721,-0.226788
0.741481,-0.153116
0.777886,-0.077442
0.677353,-0.150921
0.711248,-0.076164
0.647083,-0.075149
0.956585,0.000000
0.910301,0.100924
0.853991,0.197346
0.792672,0.288796
0.730342,0.375663
0.633452,0.434015
0.545575,0.494198
0.464191,0.556035
0.387086,0.618980
0.293821,0.641786
0.200690,0.664837
0.107806,0.688074
0.015205,0.711447
-0.074274,0.687480
-0.164285,0.663512
-0.254653,0.639559
-0.345247,0.615627
-0.410131,0.550566
-0.475484,0.485494
-0.541228,0.420420
-0.607286,0.355352
-0.630645,0.266519
-0.654398,0.177678
-0.678529,0.088837
-0.703011,-0.000000
-0.678529,-0.088837
-0.654398,-0.177678
-0.630645,-0.266519
-0.607286,-0.355352
-0.541228,-0.420420
-0.475484,-0.485494
-0.410131,-0.550566
-0.345247,-0.615627
-0.254653,-0.639559
-0.164285,-0.663512
-0.074274,-0.687480
0.015205,-0.711447
0.107806,-0.688074
0.200690,-0.664837
0.293821,-0.641786
0.387086,-0.618980
0.464191,-0.556035
0.545575,-0.494198
0.633452,-0.434015
0.730342,-0.375663
0.792672,-0.288796
0.853991,-0.197346
0.910301,-0.100924
1.113028,0.000000
1.099553,0.056840
1.079857,0.112619
1.058344,0.000000
1.045989,0.055422
1.006340,0.000000
1.055438,0.166980
1.004316,0.227740
0.952371,0.285310
0.900423,0.339825
1.028228,0.109944
0.976211,0.184569
0.921106,0.255255
0.864905,0.322100
0.994827,0.054198
0.944703,0.142269
0.888212,0.225949
0.828964,0.305125
0.849119,0.391496
0.799037,0.425113
0.752057,0.458593
0.809023,0.385419
0.761543,0.420022
0.769447,0.380195
0.708520,0.492533
0.652273,0.528363
0.600091,0.565874
0.550586,0.604476
0.716907,0.454604
0.647020,0.497477
0.582864,0.542301
0.522637,0.588520
0.724281,0.415636
0.640786,0.466013
0.564690,0.518393
0.493804,0.572354
0.502882,0.643782
0.460523,0.667720
0.418407,0.691801
0.465018,0.635631
0.422252,0.659565
0.426381,0.627353
0.376497,0.715992
0.320021,0.733092
0.263388,0.750229
0.206668,0.767402
0.379803,0.683644
0.311323,0.702687
0.242702,0.721811
0.174038,0.741007
0.383341,0.651312
0.302601,0.672253
0.221810,0.693348
0.141082,0.714562
0.149912,0.784610
0.103089,0.789688
0.056166,0.794771
0.105395,0.760264
0.058299,0.765323
0.060481,0.735874
0.009169,0.799861
-0.037241,0.794607
-0.083778,0.789351
0.011145,0.770392
-0.035400,0.765120
0.013158,0.740921
-0.130417,0.784094
-0.185653,0.766607
-0.241071,0.749115
-0.296640,0.731621
-0.082063,0.759849
-0.148688,0.740214
-0.215585,0.720574
-0.282693,0.700934
-0.033530,0.735631
-0.111568,0.713837
-0.189992,0.692039
-0.268697,0.670247
-0.352332,0.714128
-0.391708,0.689421
-0.431185,0.664712
-0.349961,0.681298
-0.389422,0.656585
-0.347598,0.648465
-0.470751,0.640001
-0.511564,0.599127
-0.552528,0.558248
-0.593630,0.517367
-0.428982,0.631869
-0.477824,0.582936
-0.526898,0.533996
-0.576177,0.485054
-0.387148,0.623744
-0.444015,0.566748
-0.501217,0.509745
-0.558709,0.452738
-0.634855,0.476485
-0.659554,0.437186
-0.684338,0.397887
-0.625635,0.436111
-0.650410,0.396809
-0.616444,0.395734
-0.709202,0.358586
-0.726483,0.303529
-0.743894,0.248470
-0.761433,0.193410
-0.675270,0.357506
-0.694582,0.291192
-0.714093,0.224875
-0.733797,0.158556
-0.641299,0.356428
-0.662637,0.278855
-0.684261,0.201278
-0.706161,0.123698
-0.779094,0.138349
-0.784259,0.092233
-0.789503,0.046116
-0.753684,0.092238
-0.758929,0.046119
-0.728320,0.046121
-0.794827,-0.000000
-0.789503,-0.046116
-0.784259,-0.092233
-0.764256,-0.000000
-0.758929,-0.046119
-0.733651,-0.000000
-0.779094,-0.138349
-0.761433,-0.193410
-0.743894,-0.248470
-0.726483,-0.303529
-0.753684,-0.092238
-0.733797,-0.158556
-0.714093,-0.224875
-0.694582,-0.291192
-0.728320,-0.046121
-0.706161,-0.123698
-0.684261,-0.201278
-0.662637,-0.278855
-0.709202,-0.358586
-0.684338,-0.397887
-0.659554,-0.437186
-0.675270,-0.357506
-0.650410,-0.396809
-0.641299,-0.356428
-0.634855,-0.476485
-0.593630,-0.517367
-0.552528,-0.558248
-0.511564,-0.599127
-0.625635,-0.436111
-0.576177,-0.485054
-0.526898,-0.533996
-0.477824,-0.582936
-0.616444,-0.395734
-0.558709,-0.452738
-0.501217,-0.509745
-0.444015,-0.566748
-0.470751,-0.640001
-0.431185,-0.664712
-0.391708,-0.689421
-0.428982,-0.631869
-0.389422,-0.656585
-0.387148,-0.623744
-0.352332,-0.714128
-0.296640,-0.731621
-0.241071,-0.749115
-0.185653,-0.766607
-0.349961,-0.681298
-0.282693,-0.700934
-0.215585,-0.720574
-0.148688,-0.740214
-0.347598,-0.648465
-0.268697,-0.670247
-0.189992,-0.692039
-0.111568,-0.713837
-0.130417,-0.784094
-0.083778,-0.789351
-0.037241,-0.794607
-0.082063,-0.759849
-0.035400,-0.765120
-0.033530,-0.735631
0.009169,-0.799861
0.056166,-0.794771
0.103089,-0.789688
0.011145,-0.770392
0.058299,-0.765323
0.013158,-0.740921
0.149912,-0.784610
0.206668,-0.767402
0.263388,-0.750229
0.320021,-0.733092
0.105395,-0.760264
0.174038,-0.741007
0.242702,-0.721811
0.311323,-0.702687
0.060481,-0.735874
0.141082,-0.714562
0.221810,-0.693348
0.302601,-0.672253
0.376497,-0.715992
0.418407,-0.691801
0.460523,-0.667720
0.379803,-0.683644
0.422252,-0.659565
0.383341,-0.651312
0.502882,-0.643782
0.550586,-0.604476
0.600091,-0.565874
0.652273,-0.528363
0.465018,-0.635631
0.522637,-0.588520
0.582864,-0.542301
0.647020,-0.497477
0.426381,-0.627353
0.493804,-0.572354
0.564690,-0.518393
0.640786,-0.466013
0.708520,-0.492533
0.752057,-0.458593
0.799037,-0.425113
0.716907,-0.454604
0.761543,-0.420022
0.724281,-0.415636
0.849119,-0.391496
0.900423,-0.339825
0.952371,-0.285310
1.004316,-0.227740
0.809023,-0.385419
0.864905,-0.322100
0.921106,-0.255255
0.976211,-0.184569
0.769447,-0.380195
0.828964,-0.305125
0.888212,-0.225949
0.944703,-0.142269
1.055438,-0.166980
1.079857,-0.112619
1.099553,-0.056840
1.028228,-0.109944
1.045989,-0.055422
0.994827,-0.054198
1.171009,0.000000
1.149211,0.077721
1.116004,0.152955
1.075853,0.224876
1.012970,0.286753
0.950795,0.344566
0.889889,0.398619
0.819914,0.441821
0.756097,0.484849
0.699581,0.529488
0.643078,0.568709
0.590359,0.609731
0.539793,0.651735
0.484145,0.683762
0.428691,0.715989
0.373437,0.748366
0.313794,0.768518
0.253955,0.788695
0.194004,0.808900
0.131962,0.815711
0.069683,0.822518
0.007237,0.829330
-0.054509,0.822346
-0.116475,0.815356
-0.178611,0.808363
-0.237125,0.787899
-0.295834,0.767428
-0.354706,0.746954
-0.407123,0.714020
-0.459716,0.681082
-0.512460,0.648140
-0.556185,0.604381
-0.600070,0.560619
-0.644099,0.516854
-0.676954,0.464461
-0.709957,0.412065
-0.743098,0.359668
-0.763440,0.301266
-0.783922,0.242862
-0.804540,0.184457
-0.811346,0.122972
-0.818289,0.061486
-0.825366,-0.000000
-0.818289,-0.061486
-0.811346,-0.122972
-0.804540,-0.184457
-0.783922,-0.242862
-0.763440,-0.301266
-0.743098,-0.359668
-0.709957,-0.412065
-0.676954,-0.464461
-0.644099,-0.516854
-0.600070,-0.560619
-0.556185,-0.604381
-0.512460,-0.648140
-0.459716,-0.681082
-0.407123,-0.714020
-0.354706,-0.746954
-0.295834,-0.767428
-0.237125,-0.787899
-0.178611,-0.808363
-0.116475,-0.815356
-0.054509,-0.822346
0.007237,-0.829330
0.069683,-0.822518
0.131962,-0.815711
0.194004,-0.808900
0.253955,-0.788695
0.313794,-0.768518
0.373437,-0.748366
0.428691,-0.715989
0.484145,-0.683762
0.539793,-0.651735
0.590359,-0.609731
0.643078,-0.568709
0.699581,-0.529488
0.756097,-0.484849
0.819914,-0.441821
0.889889,-0.398619
0.950795,-0.344566
1.012970,-0.286753
1.075853,-0.224876
1.116004,-0.152955
1.149211,-0.077721
1.254617,0.000000
1.247749,0.041278
1.211606,0.000000
1.235910,0.082053
1.207684,0.134382
1.176591,0.184849
1.205652,0.040307
1.179630,0.105581
1.146420,0.168601
1.143599,0.233436
1.112215,0.266745
1.109524,0.228965
1.080843,0.298878
1.034672,0.337719
0.989285,0.374545
1.079589,0.261986
1.024467,0.312160
0.970268,0.359367
0.944573,0.409398
0.908278,0.432096
0.917024,0.403712
0.872946,0.454046
0.825240,0.480134
0.780864,0.506403
0.882106,0.426812
0.823196,0.461256
0.768969,0.495746
0.741061,0.534139
0.712773,0.554507
0.720705,0.531850
0.686597,0.575982
0.652067,0.603142
0.618612,0.630925
0.692858,0.552772
0.647602,0.585973
0.604689,0.620407
0.585903,0.659114
0.560103,0.678115
0.563094,0.655482
0.534409,0.697201
0.498328,0.719065
0.462191,0.740967
0.536960,0.674441
0.491231,0.701420
0.445521,0.728499
0.426031,0.762909
0.397757,0.776833
0.399869,0.755664
0.369434,0.790764
0.330192,0.804864
0.290824,0.818961
0.371381,0.769557
0.321997,0.786695
0.272442,0.803838
0.251358,0.833060
0.221083,0.841019
0.222773,0.820994
0.190749,0.848978
0.149640,0.854472
0.108413,0.859958
0.192353,0.828937
0.140810,0.835094
0.089090,0.841245
0.067088,0.865442
0.035936,0.867033
0.037235,0.847394
0.004732,0.868623
-0.026324,0.866981
0.005974,0.848976
-0.057435,0.865337
-0.098444,0.859775
-0.139546,0.854208
-0.025133,0.847327
-0.076508,0.841057
-0.128030,0.834780
-0.180728,0.848640
-0.210727,0.840609
-0.179674,0.828502
-0.240772,0.832576
-0.279575,0.818350
-0.318458,0.804121
-0.209712,0.820466
-0.258370,0.803123
-0.307159,0.785774
-0.357415,0.789890
-0.385067,0.775816
-0.356061,0.768423
-0.412760,0.761741
-0.447561,0.739512
-0.482434,0.717280
-0.383746,0.754346
-0.427356,0.726765
-0.471083,0.699181
-0.517374,0.695047
-0.541482,0.675543
-0.514915,0.671594
-0.565628,0.656038
-0.594807,0.626845
-0.624051,0.597651
-0.539054,0.652088
-0.575506,0.615613
-0.612066,0.579135
-0.653358,0.568455
-0.672876,0.544372
-0.648724,0.542655
-0.692428,0.520288
-0.714622,0.485500
-0.736877,0.450710
-0.668272,0.518571
-0.695796,0.474980
-0.723420,0.431388
-0.759191,0.415920
-0.773269,0.388310
-0.751138,0.387795
-0.787380,0.360700
-0.801549,0.321948
-0.815777,0.283195
-0.765246,0.360184
-0.782502,0.311607
-0.799852,0.263029
-0.830062,0.244442
-0.838088,0.214511
-0.817293,0.214450
-0.846145,0.184580
-0.851627,0.143683
-0.857165,0.102785
-0.825349,0.184518
-0.831492,0.133328
-0.837728,0.082136
-0.862759,0.061888
-0.864382,0.030944
-0.844053,0.030945
-0.866036,-0.000000
-0.864382,-0.030944
-0.845708,-0.000000
-0.862759,-0.061888
-0.857165,-0.102785
-0.851627,-0.143683
-0.844053,-0.030945
-0.837728,-0.082136
-0.831492,-0.133328
-0.846145,-0.184580
-0.838088,-0.214511
-0.825349,-0.184518
-0.830062,-0.244442
-0.815777,-0.283195
-0.801549,-0.321948
-0.817293,-0.214450
-0.799852,-0.263029
-0.782502,-0.311607
-0.787380,-0.360700
-0.773269,-0.388310
-0.765246,-0.360184
-0.759191,-0.415920
-0.736877,-0.450710
-0.714622,-0.485500
-0.751138,-0.387795
-0.723420,-0.431388
-0.695796,-0.474980
-0.692428,-0.520288
-0.672876,-0.544372
-0.668272,-0.518571
-0.653358,-0.568455
-0.624051,-0.597651
-0.594807,-0.626845
-0.648724,-0.542655
-0.612066,-0.579135
-0.575506,-0.615613
-0.565628,-0.656038
-0.541482,-0.675543
-0.539054,-0.652088
-0.517374,-0.695047
-0.482434,-0.717280
-0.447561,-0.739512
-0.514915,-0.671594
-0.471083,-0.699181
-0.427356,-0.726765
-0.412760,-0.761741
-0.385067,-0.775816
-0.383746,-0.754346
-0.357415,-0.789890
-0.318458,-0.804121
-0.279575,-0.818350
-0.356061,-0.768423
-0.307159,-0.785774
-0.258370,-0.803123
-0.240772,-0.832576
-0.210727,-0.840609
-0.209712,-0.820466
-0.180728,-0.848640
-0.139546,-0.854208
-0.098444,-0.859775
-0.179674,-0.828502
-0.128030,-0.834780
-0.076508,-0.841057
-0.057435,-0.865337
-0.026324,-0.866981
-0.025133,-0.847327
0.004732,-0.868623
0.035936,-0.867033
0.005974,-0.848976
0.067088,-0.865442
0.108413,-0.859958
0.149640,-0.854472
0.037235,-0.847394
0.089090,-0.841245
0.140810,-0.835094
0.190749,-0.848978
0.221083,-0.841019
0.192353,-0.828937
0.251358,-0.833060
0.290824,-0.818961
0.330192,-0.804864
0.222773,-0.820994
0.272442,-0.803838
0.321997,-0.786695
0.369434,-0.790764
0.397757,-0.776833
0.371381,-0.769557
0.426031,-0.762909
0.462191,-0.740967
0.498328,-0.719065
0.399869,-0.755664
0.445521,-0.728499
0.491231,-0.701420
0.534409,-0.697201
0.560103,-0.678115
0.536960,-0.674441
0.585903,-0.659114
0.618612,-0.630925
0.652067,-0.603142
0.563094,-0.655482
0.604689,-0.620407
0.647602,-0.585973
0.686597,-0.575982
0.712773,-0.554507
0.692858,-0.552772
0.741061,-0.534139
0.780864,-0.506403
0.825240,-0.480134
0.720705,-0.531850
0.768969,-0.495746
0.823196,-0.461256
0.872946,-0.454046
0.908278,-0.432096
0.882106,-0.426812
0.944573,-0.409398
0.989285,-0.374545
1.034672,-0.337719
0.917024,-0.403712
0.970268,-0.359367
1.024467,-0.312160
1.080843,-0.298878
1.112215,-0.266745
1.079589,-0.261986
1.143599,-0.233436
1.176591,-0.184849
1.207684,-0.134382
1.109524,-0.228965
1.146420,-0.168601
1.179630,-0.105581
1.235910,-0.082053
1.247749,-0.041278
1.205652,-0.040307
1.300665,0.000000
1.285716,0.063337
1.259465,0.125192
1.219893,0.183044
1.178242,0.238309
1.128899,0.288261
1.079833,0.335480
1.025658,0.376904
0.972557,0.415736
0.916326,0.448841
0.862284,0.480139
0.808481,0.507473
0.760300,0.536186
0.718281,0.566398
0.681305,0.599427
0.644290,0.630733
0.608150,0.662581
0.570105,0.691235
0.532149,0.720025
0.492085,0.745046
0.451917,0.770098
0.409830,0.791039
0.367595,0.811988
0.323753,0.828546
0.279757,0.845097
0.234548,0.857063
0.189194,0.869025
0.143063,0.876253
0.096796,0.883472
0.050218,0.885874
0.003513,0.888271
-0.043021,0.885817
-0.089674,0.883357
-0.135669,0.876069
-0.181773,0.868778
-0.226733,0.856737
-0.271795,0.844692
-0.315233,0.828026
-0.358767,0.811357
-0.400212,0.790250
-0.441748,0.769140
-0.480749,0.743821
-0.519836,0.718499
-0.555968,0.689246
-0.592183,0.659990
-0.625051,0.627123
-0.658000,0.594253
-0.687246,0.558131
-0.716570,0.522007
-0.741875,0.483026
-0.767254,0.444043
-0.788341,0.402630
-0.809500,0.361216
-0.826137,0.317825
-0.842845,0.274432
-0.854852,0.229537
-0.866927,0.184642
-0.874171,0.138736
-0.881482,0.092829
-0.883883,0.046415
-0.886352,-0.000000
-0.883883,-0.046415
-0.881482,-0.092829
-0.874171,-0.138736
-0.866927,-0.184642
-0.854852,-0.229537
-0.842845,-0.274432
-0.826137,-0.317825
-0.809500,-0.361216
-0.788341,-0.402630
-0.767254,-0.444043
-0.741875,-0.483026
-0.716570,-0.522007
-0.687246,-0.558131
-0.658000,-0.594253
-0.625051,-0.627123
-0.592183,-0.659990
-0.555968,-0.689246
-0.519836,-0.718499
-0.480749,-0.743821
-0.441748,-0.769140
-0.400212,-0.790250
-0.358767,-0.811357
-0.315233,-0.828026
-0.271795,-0.844692
-0.226733,-0.856737
-0.181773,-0.868778
-0.135669,-0.876069
-0.089674,-0.883357
-0.043021,-0.885817
0.003513,-0.888271
0.050218,-0.885874
0.096796,-0.883472
0.143063,-0.876253
0.189194,-0.869025
0.234548,-0.857063
0.279757,-0.845097
0.323753,-0.828546
0.367595,-0.811988
0.409830,-0.791039
0.451917,-0.770098
0.492085,-0.745046
0.532149,-0.720025
0.570105,-0.691235
0.608150,-0.662581
0.644290,-0.630733
0.681305,-0.599427
0.718281,-0.566398
0.760300,-0.536186
0.808481,-0.507473
0.862284,-0.480139
0.916326,-0.448841
0.972557,-0.415736
1.025658,-0.376904
1.079833,-0.335480
1.128899,-0.288261
1.178242,-0.238309
1.219893,-0.183044
1.259465,-0.125192
1.285716,-0.063337
1.338398,0.000000
1.331968,0.032578
1.313674,0.080771
1.290344,0.127577
1.270627,0.157523
1.237870,0.200760
1.204680,0.242157
1.180095,0.268117
1.141455,0.305057
1.103314,0.340176
1.076305,0.361822
1.034646,0.392166
0.993653,0.420739
0.965334,0.438023
0.922357,0.461945
0.880544,0.484436
0.852643,0.498138
0.811523,0.517451
0.774475,0.537864
0.752136,0.552263
0.721957,0.575221
0.695443,0.600506
0.677642,0.616847
0.650802,0.640656
0.624140,0.664652
0.605966,0.679953
0.577905,0.701620
0.549753,0.723313
0.530482,0.736938
0.500722,0.755835
0.470831,0.774728
0.450446,0.786441
0.419089,0.802290
0.387607,0.818134
0.366238,0.827794
0.333518,0.840382
0.300681,0.852958
0.278500,0.860443
0.244719,0.869621
0.210836,0.878795
0.188051,0.884029
0.153547,0.889694
0.118949,0.895350
0.095776,0.898269
0.060901,0.900351
0.025943,0.902429
0.002615,0.903007
-0.020684,0.902410
-0.055546,0.900301
-0.090483,0.898185
-0.113589,0.895240
-0.148032,0.889545
-0.182542,0.883848
-0.205225,0.878588
-0.238883,0.869371
-0.272603,0.860149
-0.294632,0.852626
-0.327146,0.839980
-0.359719,0.827334
-0.380870,0.817625
-0.411895,0.801690
-0.442976,0.785753
-0.463032,0.773957
-0.492236,0.754901
-0.521494,0.735844
-0.540251,0.722083
-0.567324,0.700111
-0.594447,0.678138
-0.611713,0.662552
-0.636364,0.637899
-0.661063,0.613245
-0.676662,0.595995
-0.698628,0.568926
-0.720640,0.541856
-0.734413,0.523117
-0.753458,0.493922
-0.772548,0.464725
-0.784352,0.444691
-0.800273,0.413682
-0.816238,0.382673
-0.825954,0.361549
-0.838580,0.329059
-0.851248,0.296569
-0.858776,0.274571
-0.867972,0.240949
-0.877209,0.207327
-0.882473,0.184682
-0.888139,0.150288
-0.893846,0.115894
-0.896791,0.092833
-0.898868,0.058036
-0.900985,0.023239
-0.901580,-0.000000
-0.900985,-0.023239
-0.898868,-0.058036
-0.896791,-0.092833
-0.893846,-0.115894
-0.888139,-0.150288
-0.882473,-0.184682
-0.877209,-0.207327
-0.867972,-0.240949
-0.858776,-0.274571
-0.851248,-0.296569
-0.838580,-0.329059
-0.825954,-0.361549
-0.816238,-0.382673
-0.800273,-0.413682
-0.784352,-0.444691
-0.772548,-0.464725
-0.753458,-0.493922
-0.734413,-0.523117
-0.720640,-0.541856
-0.698628,-0.568926
-0.676662,-0.595995
-0.661063,-0.613245
-0.636364,-0.637899
-0.611713,-0.662552
-0.594447,-0.678138
-0.567324,-0.700111
-0.540251,-0.722083
-0.521494,-0.735844
-0.492236,-0.754901
-0.463032,-0.773957
-0.442976,-0.785753
-0.411895,-0.801690
-0.380870,-0.817625
-0.359719,-0.827334
-0.327146,-0.839980
-0.294632,-0.852626
-0.272603,-0.860149
-0.238883,-0.869371
-0.205225,-0.878588
-0.182542,-0.883848
-0.148032,-0.889545
-0.113589,-0.895240
-0.090483,-0.898185
-0.055546,-0.900301
-0.020684,-0.902410
0.002615,-0.903007
0.025943,-0.902429
0.060901,-0.900351
0.095776,-0.898269
0.118949,-0.895350
0.153547,-0.889694
0.188051,-0.884029
0.210836,-0.878795
0.244719,-0.869621
0.278500,-0.860443
0.300681,-0.852958
0.333518,-0.840382
0.366238,-0.827794
0.387607,-0.818134
0.419089,-0.802290
0.450446,-0.786441
0.470831,-0.774728
0.500722,-0.755835
0.530482,-0.736938
0.549753,-0.723313
0.577905,-0.701620
0.605966,-0.679953
0.624140,-0.664652
0.650802,-0.640656
0.677642,-0.616847
0.695443,-0.600506
0.721957,-0.575221
0.752136,-0.552263
0.774475,-0.537864
0.811523,-0.517451
0.852643,-0.498138
0.880544,-0.484436
0.922357,-0.461945
0.965334,-0.438023
0.993653,-0.420739
1.034646,-0.392166
1.076305,-0.361822
1.103314,-0.340176
1.141455,-0.305057
1.180095,-0.268117
1.204680,-0.242157
1.237870,-0.200760
1.270627,-0.157523
1.290344,-0.127577
1.313674,-0.080771
1.331968,-0.032578
1.380215,0.000000
1.357760,0.066718
1.321851,0.130488
1.278820,0.190606
1.231233,0.246576
1.180211,0.298226
1.126844,0.345457
1.071634,0.388223
1.014895,0.426427
0.957076,0.460110
0.898956,0.489545
0.841427,0.515211
0.787148,0.539156
0.742933,0.567216
0.708528,0.601034
0.674600,0.634448
0.639848,0.666626
0.604107,0.697408
0.567181,0.726553
0.529003,0.753893
0.489618,0.779328
0.449092,0.802801
0.407517,0.824257
0.364962,0.843614
0.321523,0.860806
0.277299,0.875794
0.232408,0.888552
0.186950,0.899039
0.141040,0.907219
0.094788,0.913068
0.048315,0.916579
0.001735,0.917745
-0.044832,0.916558
-0.091272,0.913014
-0.137466,0.907128
-0.183296,0.898918
-0.228646,0.888404
-0.273398,0.875607
-0.317441,0.860562
-0.360660,0.843310
-0.402948,0.823896
-0.444195,0.802366
-0.484294,0.778777
-0.523144,0.753188
-0.560647,0.725668
-0.596705,0.696285
-0.631227,0.665115
-0.664122,0.632237
-0.695309,0.597737
-0.724707,0.561704
-0.752241,0.524228
-0.777839,0.485406
-0.801437,0.445339
-0.822974,0.404129
-0.842395,0.361882
-0.859650,0.318705
-0.874694,0.274711
-0.887491,0.230011
-0.898005,0.184722
-0.906211,0.138958
-0.912088,0.092837
-0.915619,0.046478
-0.916798,-0.000000
-0.915619,-0.046478
-0.912088,-0.092837
-0.906211,-0.138958
-0.898005,-0.184722
-0.887491,-0.230011
-0.874694,-0.274711
-0.859650,-0.318705
-0.842395,-0.361882
-0.822974,-0.404129
-0.801437,-0.445339
-0.777839,-0.485406
-0.752241,-0.524228
-0.724707,-0.561704
-0.695309,-0.597737
-0.664122,-0.632237
-0.631227,-0.665115
-0.596705,-0.696285
-0.560647,-0.725668
-0.523144,-0.753188
-0.484294,-0.778777
-0.444195,-0.802366
-0.402948,-0.823896
-0.360660,-0.843310
-0.317441,-0.860562
-0.273398,-0.875607
-0.228646,-0.888404
-0.183296,-0.898918
-0.137466,-0.907128
-0.091272,-0.913014
-0.044832,-0.916558
0.001735,-0.917745
0.048315,-0.916579
0.094788,-0.913068
0.141040,-0.907219
0.186950,-0.899039
0.232408,-0.888552
0.277299,-0.875794
0.321523,-0.860806
0.364962,-0.843614
0.407517,-0.824257
0.449092,-0.802801
0.489618,-0.779328
0.529003,-0.753893
0.567181,-0.726553
0.604107,-0.697408
0.639848,-0.666626
0.674600,-0.634448
0.708528,-0.601034
0.742933,-0.567216
0.787148,-0.539156
0.841427,-0.515211
0.898956,-0.489545
0.957076,-0.460110
1.014895,-0.426427
1.071634,-0.388223
1.126844,-0.345457
1.180211,-0.298226
1.231233,-0.246576
1.278820,-0.190606
1.321851,-0.130488
1.357760,-0.066718
