0.538567, 0.000000,0.008926, 0.493918,0.014826, 0.000000,0.538567,0.000000
0.008926, 0.493918,-0.488998, 0.000000,0.014826, 0.000000,0.008926,0.493918
-0.488998, 0.000000,0.008926, -0.493918,0.014826, 0.000000,-0.488998,0.000000
0.008926, -0.493918,0.538567, 0.000000,0.014826, 0.000000,0.008926,-0.493918
0.843194, 0.000000,0.661889, 0.370524,0.538567, 0.000000,0.843194,0.000000
0.661889, 0.370524,0.378191, 0.641517,0.008926, 0.493918,0.538567, 0.000000,0.661889,0.370524
0.378191, 0.641517,0.004092, 0.740912,0.008926, 0.493918,0.378191,0.641517
0.004092, 0.740912,-0.367648, 0.641623,0.008926, 0.493918,0.004092,0.740912
-0.367648, 0.641623,-0.639342, 0.370403,-0.488998, 0.000000,0.008926, 0.493918,-0.367648,0.641623
-0.639342, 0.370403,-0.738835, 0.000000,-0.488998, 0.000000,-0.639342,0.370403
-0.738835, 0.000000,-0.639342, -0.370403,-0.488998, 0.000000,-0.738835,0.000000
-0.639342, -0.370403,-0.367648, -0.641623,0.008926, -0.493918,-0.488998, 0.000000,-0.639342,-0.370403
-0.367648, -0.641623,0.004092, -0.740912,0.008926, -0.493918,-0.367648,-0.641623
0.004092, -0.740912,0.378191, -0.641517,0.008926, -0.493918,0.004092,-0.740912
0.378191, -0.641517,0.661889, -0.370524,0.538567, 0.000000,0.008926, -0.493918,0.378191,-0.641517
0.661889, -0.370524,0.843194, 0.000000,0.538567, 0.000000,0.661889,-0.370524
1.101096, 0.000000,0.884255, 0.192549,0.843194, 0.000000,1.101096,0.000000
0.884255, 0.192549,0.796456, 0.375246,0.661889, 0.370524,0.843194, 0.000000,0.884255,0.192549
0.796456, 0.375246,0.684817, 0.538949,0.661889, 0.370524,0.796456,0.375246
0.684817, 0.538949,0.543945, 0.675622,0.378191, 0.641517,0.661889, 0.370524,0.684817,0.538949
0.543945, 0.675622,0.378406, 0.778565,0.378191, 0.641517,0.543945,0.675622
0.378406, 0.778565,0.194821, 0.842622,0.004092, 0.740912,0.378191, 0.641517,0.378406,0.778565
0.194821, 0.842622,0.001956, 0.864449,0.004092, 0.740912,0.194821,0.842622
0.001956, 0.864449,-0.190736, 0.842812,0.004092, 0.740912,0.001956,0.864449
-0.190736, 0.842812,-0.373643, 0.778797,-0.367648, 0.641623,0.004092, 0.740912,-0.190736,0.842812
-0.373643, 0.778797,-0.537632, 0.675720,-0.367648, 0.641623,-0.373643,0.778797
-0.537632, 0.675720,-0.674564, 0.538835,-0.639342, 0.370403,-0.367648, 0.641623,-0.537632,0.675720
-0.674564, 0.538835,-0.777662, 0.374992,-0.639342, 0.370403,-0.674564,0.538835
-0.777662, 0.374992,-0.841730, 0.192338,-0.738835, 0.000000,-0.639342, 0.370403,-0.777662,0.374992
-0.841730, 0.192338,-0.863467, 0.000000,-0.738835, 0.000000,-0.841730,0.192338
-0.863467, 0.000000,-0.841730, -0.192338,-0.738835, 0.000000,-0.863467,0.000000
-0.841730, -0.192338,-0.777662, -0.374992,-0.639342, -0.370403,-0.738835, 0.000000,-0.841730,-0.192338
-0.777662, -0.374992,-0.674564, -0.538835,-0.639342, -0.370403,-0.777662,-0.374992
-0.674564, -0.538835,-0.537632, -0.675720,-0.367648, -0.641623,-0.639342, -0.370403,-0.674564,-0.538835
-0.537632, -0.675720,-0.373643, -0.778797,-0.367648, -0.641623,-0.537632,-0.675720
-0.373643, -0.778797,-0.190736, -0.842812,0.004092, -0.740912,-0.367648, -0.641623,-0.373643,-0.778797
-0.190736, -0.842812,0.001956, -0.864449,0.004092, -0.740912,-0.190736,-0.842812
0.001956, -0.864449,0.194821, -0.842622,0.004092, -0.740912,0.001956,-0.864449
0.194821, -0.842622,0.378406, -0.778565,0.378191, -0.641517,0.004092, -0.740912,0.194821,-0.842622
0.378406, -0.778565,0.543945, -0.675622,0.378191, -0.641517,0.378406,-0.778565
0.543945, -0.675622,0.684817, -0.538949,0.661889, -0.370524,0.378191, -0.641517,0.543945,-0.675622
0.684817, -0.538949,0.796456, -0.375246,0.661889, -0.370524,0.684817,-0.538949
0.796456, -0.375246,0.884255, -0.192549,0.843194, 0.000000,0.661889, -0.370524,0.796456,-0.375246
0.884255, -0.192549,1.101096, 0.000000,0.843194, 0.000000,0.884255,-0.192549
1.455299, 0.000000,0.970564, 0.193057,1.101096, 0.000000,1.455299,0.000000
0.970564, 0.193057,0.884255, 0.192549,1.101096, 0.000000,0.970564,0.193057
0.970564, 0.193057,0.913627, 0.378437,0.884255, 0.192549,0.970564,0.193057
0.913627, 0.378437,0.796456, 0.375246,0.884255, 0.192549,0.913627,0.378437
0.913627, 0.378437,0.821639, 0.549002,0.796456, 0.375246,0.913627,0.378437
0.821639, 0.549002,0.684817, 0.538949,0.796456, 0.375246,0.821639,0.549002
0.821639, 0.549002,0.698365, 0.698365,0.684817, 0.538949,0.821639,0.549002
0.698365, 0.698365,0.543945, 0.675622,0.684817, 0.538949,0.698365,0.698365
0.698365, 0.698365,0.548583, 0.821012,0.543945, 0.675622,0.698365,0.698365
0.548583, 0.821012,0.378406, 0.778565,0.543945, 0.675622,0.548583,0.821012
0.548583, 0.821012,0.377908, 0.912352,0.378406, 0.778565,0.548583,0.821012
0.377908, 0.912352,0.194821, 0.842622,0.378406, 0.778565,0.377908,0.912352
0.377908, 0.912352,0.192707, 0.968805,0.194821, 0.842622,0.377908,0.912352
0.192707, 0.968805,0.001956, 0.864449,0.194821, 0.842622,0.192707,0.968805
0.192707, 0.968805,0.000000, 0.988014,0.001956, 0.864449,0.192707,0.968805
0.000000, 0.988014,-0.192763, 0.969087,0.001956, 0.864449,0.000000,0.988014
-0.192763, 0.969087,-0.190736, 0.842812,0.001956, 0.864449,-0.192763,0.969087
-0.192763, 0.969087,-0.378073, 0.912750,-0.190736, 0.842812,-0.192763,0.969087
-0.378073, 0.912750,-0.373643, 0.778797,-0.190736, 0.842812,-0.378073,0.912750
-0.378073, 0.912750,-0.548769, 0.821290,-0.373643, 0.778797,-0.378073,0.912750
-0.548769, 0.821290,-0.537632, 0.675720,-0.373643, 0.778797,-0.548769,0.821290
-0.548769, 0.821290,-0.698357, 0.698357,-0.537632, 0.675720,-0.548769,0.821290
-0.698357, 0.698357,-0.674564, 0.538835,-0.537632, 0.675720,-0.698357,0.698357
-0.698357, 0.698357,-0.821193, 0.548703,-0.674564, 0.538835,-0.698357,0.698357
-0.821193, 0.548703,-0.777662, 0.374992,-0.674564, 0.538835,-0.821193,0.548703
-0.821193, 0.548703,-0.912591, 0.378007,-0.777662, 0.374992,-0.821193,0.548703
-0.912591, 0.378007,-0.841730, 0.192338,-0.777662, 0.374992,-0.912591,0.378007
-0.912591, 0.378007,-0.968962, 0.192738,-0.841730, 0.192338,-0.912591,0.378007
-0.968962, 0.192738,-0.863467, 0.000000,-0.841730, 0.192338,-0.968962,0.192738
-0.968962, 0.192738,-0.988016, 0.000000,-0.863467, 0.000000,-0.968962,0.192738
-0.988016, 0.000000,-0.968962, -0.192738,-0.863467, 0.000000,-0.988016,0.000000
-0.968962, -0.192738,-0.841730, -0.192338,-0.863467, 0.000000,-0.968962,-0.192738
-0.968962, -0.192738,-0.912591, -0.378007,-0.841730, -0.192338,-0.968962,-0.192738
-0.912591, -0.378007,-0.777662, -0.374992,-0.841730, -0.192338,-0.912591,-0.378007
-0.912591, -0.378007,-0.821193, -0.548703,-0.777662, -0.374992,-0.912591,-0.378007
-0.821193, -0.548703,-0.674564, -0.538835,-0.777662, -0.374992,-0.821193,-0.548703
-0.821193, -0.548703,-0.698357, -0.698357,-0.674564, -0.538835,-0.821193,-0.548703
-0.698357, -0.698357,-0.537632, -0.675720,-0.674564, -0.538835,-0.698357,-0.698357
-0.698357, -0.698357,-0.548769, -0.821290,-0.537632, -0.675720,-0.698357,-0.698357
-0.548769, -0.821290,-0.373643, -0.778797,-0.537632, -0.675720,-0.548769,-0.821290
-0.548769, -0.821290,-0.378073, -0.912750,-0.373643, -0.778797,-0.548769,-0.821290
-0.378073, -0.912750,-0.190736, -0.842812,-0.373643, -0.778797,-0.378073,-0.912750
-0.378073, -0.912750,-0.192763, -0.969087,-0.190736, -0.842812,-0.378073,-0.912750
-0.192763, -0.969087,0.001956, -0.864449,-0.190736, -0.842812,-0.192763,-0.969087
-0.192763, -0.969087,-0.000000, -0.988014,0.001956, -0.864449,-0.192763,-0.969087
-0.000000, -0.988014,0.192707, -0.968805,0.001956, -0.864449,-0.000000,-0.988014
0.192707, -0.968805,0.194821, -0.842622,0.001956, -0.864449,0.192707,-0.968805
0.192707, -0.968805,0.377908, -0.912352,0.194821, -0.842622,0.192707,-0.968805
0.377908, -0.912352,0.378406, -0.778565,0.194821, -0.842622,0.377908,-0.912352
0.377908, -0.912352,0.548583, -0.821012,0.378406, -0.778565,0.377908,-0.912352
0.548583, -0.821012,0.543945, -0.675622,0.378406, -0.778565,0.548583,-0.821012
0.548583, -0.821012,0.698365, -0.698365,0.543945, -0.675622,0.548583,-0.821012
0.698365, -0.698365,0.684817, -0.538949,0.543945, -0.675622,0.698365,-0.698365
0.698365, -0.698365,0.821639, -0.549002,0.684817, -0.538949,0.698365,-0.698365
0.821639, -0.549002,0.796456, -0.375246,0.684817, -0.538949,0.821639,-0.549002
0.821639, -0.549002,0.913627, -0.378437,0.796456, -0.375246,0.821639,-0.549002
0.913627, -0.378437,0.884255, -0.192549,0.796456, -0.375246,0.913627,-0.378437
0.913627, -0.378437,0.970564, -0.193057,0.884255, -0.192549,0.913627,-0.378437
0.970564, -0.193057,1.101096, 0.000000,0.884255, -0.192549,0.970564,-0.193057
0.970564, -0.193057,1.455299, 0.000000,1.101096, 0.000000,0.970564,-0.193057

