0.749850,0.000000
0.751212,0.024592
0.753456,0.049384
0.758326,0.074689
0.764147,0.100602
0.772304,0.127508
0.781539,0.155458
0.792648,0.184820
0.804998,0.215698
0.818619,0.248325
0.833648,0.282985
0.849243,0.319632
0.866380,0.358866
0.883319,0.400227
0.901865,0.444751
0.919438,0.491450
0.938572,0.541885
0.955994,0.594475
0.974775,0.651324
0.991211,0.710291
1.008570,0.773903
1.023200,0.839719
1.037760,0.910091
1.050561,0.983957
1.052117,1.052117
0.983957,1.050561
0.910091,1.037760
0.839719,1.023200
0.773903,1.008570
0.710291,0.991211
0.651324,0.974775
0.594475,0.955994
0.541885,0.938572
0.491450,0.919438
0.444751,0.901865
0.400227,0.883319
0.358866,0.866380
0.319632,0.849243
0.282985,0.833648
0.248325,0.818619
0.215698,0.804998
0.184820,0.792648
0.155458,0.781539
0.127508,0.772304
0.100602,0.764147
0.074689,0.758326
0.049384,0.753456
0.024592,0.751212
-0.000000,0.749850
-0.024592,0.751212
-0.049384,0.753456
-0.074689,0.758326
-0.100602,0.764147
-0.127508,0.772304
-0.155458,0.781539
-0.184820,0.792648
-0.215698,0.804998
-0.248325,0.818619
-0.282985,0.833648
-0.319632,0.849243
-0.358866,0.866380
-0.400227,0.883319
-0.444751,0.901865
-0.491450,0.919438
-0.541885,0.938572
-0.594475,0.955994
-0.651324,0.974775
-0.710291,0.991211
-0.773903,1.008570
-0.839719,1.023200
-0.910091,1.037760
-0.983957,1.050561
-1.052117,1.052117
-1.050561,0.983957
-1.037760,0.910091
-1.023200,0.839719
-1.008570,0.773903
-0.991211,0.710291
-0.974775,0.651324
-0.955994,0.594475
-0.938572,0.541885
-0.919438,0.491450
-0.901865,0.444751
-0.883319,0.400227
-0.866380,0.358866
-0.849243,0.319632
-0.833648,0.282985
-0.818619,0.248325
-0.804998,0.215698
-0.792648,0.184820
-0.781539,0.155458
-0.772304,0.127508
-0.764147,0.100602
-0.758326,0.074689
-0.753456,0.049384
-0.751212,0.024592
-0.749850,0.000000
-0.751212,-0.024592
-0.753456,-0.049384
-0.758326,-0.074689
-0.764147,-0.100602
-0.772304,-0.127508
-0.781539,-0.155458
-0.792648,-0.184820
-0.804998,-0.215698
-0.818619,-0.248325
-0.833648,-0.282985
-0.849243,-0.319632
-0.866380,-0.358866
-0.883319,-0.400227
-0.901865,-0.444751
-0.919438,-0.491450
-0.938572,-0.541885
-0.955994,-0.594475
-0.974775,-0.651324
-0.991211,-0.710291
-1.008570,-0.773903
-1.023200,-0.839719
-1.037760,-0.910091
-1.050561,-0.983957
-1.052117,-1.052117
-0.983957,-1.050561
-0.910091,-1.037760
-0.839719,-1.023200
-0.773903,-1.008570
-0.710291,-0.991211
-0.651324,-0.974775
-0.594475,-0.955994
-0.541885,-0.938572
-0.491450,-0.919438
-0.444751,-0.901865
-0.400227,-0.883319
-0.358866,-0.866380
-0.319632,-0.849243
-0.282985,-0.833648
-0.248325,-0.818619
-0.215698,-0.804998
-0.184820,-0.792648
-0.155458,-0.781539
-0.127508,-0.772304
-0.100602,-0.764147
-0.074689,-0.758326
-0.049384,-0.753456
-0.024592,-0.751212
0.000000,-0.749850
0.024592,-0.751212
0.049384,-0.753456
0.074689,-0.758326
0.100602,-0.764147
0.127508,-0.772304
0.155458,-0.781539
0.184820,-0.792648
0.215698,-0.804998
0.248325,-0.818619
0.282985,-0.833648
0.319632,-0.849243
0.358866,-0.866380
0.400227,-0.883319
0.444751,-0.901865
0.491450,-0.919438
0.541885,-0.938572
0.594475,-0.955994
0.651324,-0.974775
0.710291,-0.991211
0.773903,-1.008570
0.839719,-1.023200
0.910091,-1.037760
0.983957,-1.050561
1.052117,-1.052117
1.050561,-0.983957
1.037760,-0.910091
1.023200,-0.839719
1.008570,-0.773903
0.991211,-0.710291
0.974775,-0.651324
0.955994,-0.594475
0.938572,-0.541885
0.919438,-0.491450
0.901865,-0.444751
0.883319,-0.400227
0.866380,-0.358866
0.849243,-0.319632
0.833648,-0.282985
0.818619,-0.248325
0.804998,-0.215698
0.792648,-0.184820
0.781539,-0.155458
0.772304,-0.127508
0.764147,-0.100602
0.758326,-0.074689
0.753456,-0.049384
0.751212,-0.024592
-0.000000,-0.000000
0.403873,-0.000000
0.367176,0.075695
0.331278,0.150322
0.295083,0.223434
0.257673,0.294381
0.327105,-0.000000
0.288460,0.074553
0.250259,0.147841
0.211653,0.219538
0.247483,-0.000000
0.207462,0.073459
0.167618,0.145741
0.165945,-0.000000
0.125009,0.072620
0.083245,-0.000000
0.218393,0.362420
0.130860,0.356358
0.043587,0.353210
-0.043587,0.353210
-0.130860,0.356358
0.171986,0.289199
0.086035,0.285869
-0.000000,0.284722
-0.086035,0.285869
0.127300,0.216632
0.042480,0.215090
-0.042480,0.215090
0.084027,0.144354
-0.000000,0.143871
0.041754,0.072169
-0.218393,0.362420
-0.257673,0.294381
-0.295083,0.223434
-0.331278,0.150322
-0.367176,0.075695
-0.171986,0.289199
-0.211653,0.219538
-0.250259,0.147841
-0.288460,0.074553
-0.127300,0.216632
-0.167618,0.145741
-0.207462,0.073459
-0.084027,0.144354
-0.125009,0.072620
-0.041754,0.072169
-0.403873,0.000000
-0.367176,-0.075695
-0.331278,-0.150322
-0.295083,-0.223434
-0.257673,-0.294381
-0.327105,0.000000
-0.288460,-0.074553
-0.250259,-0.147841
-0.211653,-0.219538
-0.247483,0.000000
-0.207462,-0.073459
-0.167618,-0.145741
-0.165945,0.000000
-0.125009,-0.072620
-0.083245,0.000000
-0.218393,-0.362420
-0.130860,-0.356358
-0.043587,-0.353210
0.043587,-0.353210
0.130860,-0.356358
-0.171986,-0.289199
-0.086035,-0.285869
0.000000,-0.284722
0.086035,-0.285869
-0.127300,-0.216632
-0.042480,-0.215090
0.042480,-0.215090
-0.084027,-0.144354
0.000000,-0.143871
-0.041754,-0.072169
0.218393,-0.362420
0.257673,-0.294381
0.295083,-0.223434
0.331278,-0.150322
0.367176,-0.075695
0.171986,-0.289199
0.211653,-0.219538
0.250259,-0.147841
0.288460,-0.074553
0.127300,-0.216632
0.167618,-0.145741
0.207462,-0.073459
0.084027,-0.144354
0.125009,-0.072620
0.041754,-0.072169
0.476638,-0.000000
0.435953,0.091875
0.396711,0.182873
0.356628,0.271867
0.313732,0.357169
0.266679,0.436852
0.159136,0.425275
0.052891,0.419257
-0.052891,0.419257
-0.159136,0.425275
-0.266679,0.436852
-0.313732,0.357169
-0.356628,0.271867
-0.396711,0.182873
-0.435953,0.091875
-0.476638,0.000000
-0.435953,-0.091875
-0.396711,-0.182873
-0.356628,-0.271867
-0.313732,-0.357169
-0.266679,-0.436852
-0.159136,-0.425275
-0.052891,-0.419257
0.052891,-0.419257
0.159136,-0.425275
0.266679,-0.436852
0.313732,-0.357169
0.356628,-0.271867
0.396711,-0.182873
0.435953,-0.091875
0.626623,-0.000000
0.622460,0.053173
0.621411,0.107116
0.623311,0.162182
0.593143,-0.000000
0.588261,0.054003
0.586151,0.108591
0.556766,-0.000000
0.551221,0.054478
0.517822,-0.000000
0.627992,0.218715
0.618466,0.280432
0.608499,0.343371
0.597055,0.406713
0.582912,0.469280
0.586627,0.164066
0.570069,0.232766
0.553222,0.302311
0.534748,0.371661
0.513180,0.439356
0.548104,0.109369
0.523895,0.185376
0.499774,0.261749
0.474101,0.337303
0.445215,0.410395
0.511674,0.054653
0.479367,0.138384
0.447736,0.221902
0.414831,0.303988
0.378828,0.382922
0.564711,0.529511
0.525539,0.559458
0.482616,0.585144
0.436804,0.606864
0.487063,0.503577
0.446306,0.530930
0.403028,0.555084
0.411668,0.479083
0.370173,0.505141
0.338328,0.456729
0.389085,0.625156
0.330117,0.624142
0.272594,0.623717
0.216637,0.624394
0.357927,0.576366
0.301267,0.578969
0.245475,0.581998
0.327004,0.528839
0.272203,0.534475
0.296545,0.482399
0.162250,0.626597
0.096632,0.617191
0.032093,0.612504
-0.032093,0.612504
-0.096632,0.617191
0.190710,0.585955
0.113484,0.575080
0.037673,0.569645
-0.037673,0.569645
-0.113484,0.575080
0.217835,0.540461
0.129616,0.528684
0.043026,0.522757
-0.043026,0.522757
-0.129616,0.528684
0.243211,0.490569
0.144848,0.478558
0.048101,0.472435
-0.048101,0.472435
-0.144848,0.478558
-0.162250,0.626597
-0.216637,0.624394
-0.272594,0.623717
-0.330117,0.624142
-0.190710,0.585955
-0.245475,0.581998
-0.301267,0.578969
-0.217835,0.540461
-0.272203,0.534475
-0.243211,0.490569
-0.389085,0.625156
-0.436804,0.606864
-0.482616,0.585144
-0.525539,0.559458
-0.357927,0.576366
-0.403028,0.555084
-0.446306,0.530930
-0.327004,0.528839
-0.370173,0.505141
-0.296545,0.482399
-0.564711,0.529511
-0.582912,0.469280
-0.597055,0.406713
-0.608499,0.343371
-0.618466,0.280432
-0.487063,0.503577
-0.513180,0.439356
-0.534748,0.371661
-0.553222,0.302311
-0.570069,0.232766
-0.411668,0.479083
-0.445215,0.410395
-0.474101,0.337303
-0.499774,0.261749
-0.523895,0.185376
-0.338328,0.456729
-0.378828,0.382922
-0.414831,0.303988
-0.447736,0.221902
-0.479367,0.138384
-0.627992,0.218715
-0.623311,0.162182
-0.621411,0.107116
-0.622460,0.053173
-0.586627,0.164066
-0.586151,0.108591
-0.588261,0.054003
-0.548104,0.109369
-0.551221,0.054478
-0.511674,0.054653
-0.626623,0.000000
-0.622460,-0.053173
-0.621411,-0.107116
-0.623311,-0.162182
-0.593143,0.000000
-0.588261,-0.054003
-0.586151,-0.108591
-0.556766,0.000000
-0.551221,-0.054478
-0.517822,0.000000
-0.627992,-0.218715
-0.618466,-0.280432
-0.608499,-0.343371
-0.597055,-0.406713
-0.582912,-0.469280
-0.586627,-0.164066
-0.570069,-0.232766
-0.553222,-0.302311
-0.534748,-0.371661
-0.513180,-0.439356
-0.548104,-0.109369
-0.523895,-0.185376
-0.499774,-0.261749
-0.474101,-0.337303
-0.445215,-0.410395
-0.511674,-0.054653
-0.479367,-0.138384
-0.447736,-0.221902
-0.414831,-0.303988
-0.378828,-0.382922
-0.564711,-0.529511
-0.525539,-0.559458
-0.482616,-0.585144
-0.436804,-0.606864
-0.487063,-0.503577
-0.446306,-0.530930
-0.403028,-0.555084
-0.411668,-0.479083
-0.370173,-0.505141
-0.338328,-0.456729
-0.389085,-0.625156
-0.330117,-0.624142
-0.272594,-0.623717
-0.216637,-0.624394
-0.357927,-0.576366
-0.301267,-0.578969
-0.245475,-0.581998
-0.327004,-0.528839
-0.272203,-0.534475
-0.296545,-0.482399
-0.162250,-0.626597
-0.096632,-0.617191
-0.032093,-0.612504
0.032093,-0.612504
0.096632,-0.617191
-0.190710,-0.585955
-0.113484,-0.575080
-0.037673,-0.569645
0.037673,-0.569645
0.113484,-0.575080
-0.217835,-0.540461
-0.129616,-0.528684
-0.043026,-0.522757
0.043026,-0.522757
0.129616,-0.528684
-0.243211,-0.490569
-0.144848,-0.478558
-0.048101,-0.472435
0.048101,-0.472435
0.144848,-0.478558
0.162250,-0.626597
0.216637,-0.624394
0.272594,-0.623717
0.330117,-0.624142
0.190710,-0.585955
0.245475,-0.581998
0.301267,-0.578969
0.217835,-0.540461
0.272203,-0.534475
0.243211,-0.490569
0.389085,-0.625156
0.436804,-0.606864
0.482616,-0.585144
0.525539,-0.559458
0.357927,-0.576366
0.403028,-0.555084
0.446306,-0.530930
0.327004,-0.528839
0.370173,-0.505141
0.296545,-0.482399
0.564711,-0.529511
0.582912,-0.469280
0.597055,-0.406713
0.608499,-0.343371
0.618466,-0.280432
0.487063,-0.503577
0.513180,-0.439356
0.534748,-0.371661
0.553222,-0.302311
0.570069,-0.232766
0.411668,-0.479083
0.445215,-0.410395
0.474101,-0.337303
0.499774,-0.261749
0.523895,-0.185376
0.338328,-0.456729
0.378828,-0.382922
0.414831,-0.303988
0.447736,-0.221902
0.479367,-0.138384
0.627992,-0.218715
0.623311,-0.162182
0.621411,-0.107116
0.622460,-0.053173
0.586627,-0.164066
0.586151,-0.108591
0.588261,-0.054003
0.548104,-0.109369
0.551221,-0.054478
0.511674,-0.054653
0.656883,-0.000000
0.653185,0.065068
0.654808,0.131782
0.661490,0.200927
0.672986,0.273301
0.668821,0.342135
0.663782,0.413086
0.656309,0.484887
0.644351,0.555502
0.598397,0.597727
0.544173,0.631187
0.483860,0.656549
0.420106,0.675325
0.343244,0.668824
0.269835,0.663885
0.199859,0.661399
0.133084,0.662051
0.066078,0.653213
-0.000000,0.650278
-0.066078,0.653213
-0.133084,0.662051
-0.199859,0.661399
-0.269835,0.663885
-0.343244,0.668824
-0.420106,0.675325
-0.483860,0.656549
-0.544173,0.631187
-0.598397,0.597727
-0.644351,0.555502
-0.656309,0.484887
-0.663782,0.413086
-0.668821,0.342135
-0.672986,0.273301
-0.661490,0.200927
-0.654808,0.131782
-0.653185,0.065068
-0.656883,0.000000
-0.653185,-0.065068
-0.654808,-0.131782
-0.661490,-0.200927
-0.672986,-0.273301
-0.668821,-0.342135
-0.663782,-0.413086
-0.656309,-0.484887
-0.644351,-0.555502
-0.598397,-0.597727
-0.544173,-0.631187
-0.483860,-0.656549
-0.420106,-0.675325
-0.343244,-0.668824
-0.269835,-0.663885
-0.199859,-0.661399
-0.133084,-0.662051
-0.066078,-0.653213
0.000000,-0.650278
0.066078,-0.653213
0.133084,-0.662051
0.199859,-0.661399
0.269835,-0.663885
0.343244,-0.668824
0.420106,-0.675325
0.483860,-0.656549
0.544173,-0.631187
0.598397,-0.597727
0.644351,-0.555502
0.656309,-0.484887
0.663782,-0.413086
0.668821,-0.342135
0.672986,-0.273301
0.661490,-0.200927
0.654808,-0.131782
0.653185,-0.065068
0.703906,-0.000000
0.703707,0.030584
0.705198,0.061434
0.689722,-0.000000
0.689369,0.031454
0.674026,-0.000000
0.708375,0.092673
0.712084,0.132286
0.718104,0.173239
0.726403,0.215757
0.690640,0.063156
0.692550,0.111033
0.697685,0.160478
0.705969,0.211865
0.673522,0.032212
0.672930,0.088566
0.676572,0.146603
0.684298,0.206879
0.736963,0.260088
0.743142,0.296426
0.750195,0.334198
0.717348,0.265595
0.722176,0.302095
0.695984,0.269985
0.758061,0.373480
0.763103,0.422320
0.767986,0.473037
0.772306,0.525404
0.727746,0.339867
0.730428,0.395752
0.732712,0.453717
0.733874,0.513268
0.699443,0.306479
0.699024,0.368981
0.697947,0.433635
0.695107,0.499600
0.775492,0.579006
0.770059,0.617758
0.761952,0.655207
0.732894,0.573545
0.723855,0.608809
0.688962,0.565446
0.750501,0.690488
0.720639,0.720412
0.684490,0.743756
0.643187,0.760869
0.712075,0.642327
0.676718,0.676338
0.634307,0.702893
0.586350,0.722484
0.676886,0.597570
0.636188,0.635660
0.587797,0.665594
0.533533,0.687914
0.598354,0.772772
0.557195,0.774130
0.516153,0.774045
0.534778,0.736257
0.496177,0.738666
0.475698,0.703972
0.475639,0.772934
0.433480,0.766295
0.392763,0.759882
0.457766,0.739947
0.417250,0.735627
0.439173,0.707385
0.353493,0.753828
0.305240,0.743004
0.259282,0.733811
0.215418,0.726326
0.377871,0.731387
0.319494,0.720945
0.264045,0.712368
0.211283,0.705871
0.400182,0.705189
0.332182,0.696168
0.267540,0.689012
0.206053,0.684195
0.173464,0.720626
0.140523,0.714566
0.108404,0.710093
0.160966,0.701644
0.127723,0.696927
0.147459,0.682109
0.076983,0.707212
0.038372,0.703204
-0.000000,0.701871
-0.038372,0.703204
0.095201,0.693722
0.047394,0.688201
-0.000000,0.686366
-0.047394,0.688201
0.113963,0.678670
0.056660,0.671517
-0.000000,0.669141
-0.056660,0.671517
-0.076983,0.707212
-0.108404,0.710093
-0.140523,0.714566
-0.095201,0.693722
-0.127723,0.696927
-0.113963,0.678670
-0.173464,0.720626
-0.215418,0.726326
-0.259282,0.733811
-0.305240,0.743004
-0.160966,0.701644
-0.211283,0.705871
-0.264045,0.712368
-0.319494,0.720945
-0.147459,0.682109
-0.206053,0.684195
-0.267540,0.689012
-0.332182,0.696168
-0.353493,0.753828
-0.392763,0.759882
-0.433480,0.766295
-0.377871,0.731387
-0.417250,0.735627
-0.400182,0.705189
-0.475639,0.772934
-0.516153,0.774045
-0.557195,0.774130
-0.457766,0.739947
-0.496177,0.738666
-0.439173,0.707385
-0.598354,0.772772
-0.643187,0.760869
-0.684490,0.743756
-0.720639,0.720412
-0.534778,0.736257
-0.586350,0.722484
-0.634307,0.702893
-0.676718,0.676338
-0.475698,0.703972
-0.533533,0.687914
-0.587797,0.665594
-0.636188,0.635660
-0.750501,0.690488
-0.761952,0.655207
-0.770059,0.617758
-0.712075,0.642327
-0.723855,0.608809
-0.676886,0.597570
-0.775492,0.579006
-0.772306,0.525404
-0.767986,0.473037
-0.763103,0.422320
-0.732894,0.573545
-0.733874,0.513268
-0.732712,0.453717
-0.730428,0.395752
-0.688962,0.565446
-0.695107,0.499600
-0.697947,0.433635
-0.699024,0.368981
-0.758061,0.373480
-0.750195,0.334198
-0.743142,0.296426
-0.727746,0.339867
-0.722176,0.302095
-0.699443,0.306479
-0.736963,0.260088
-0.726403,0.215757
-0.718104,0.173239
-0.712084,0.132286
-0.717348,0.265595
-0.705969,0.211865
-0.697685,0.160478
-0.692550,0.111033
-0.695984,0.269985
-0.684298,0.206879
-0.676572,0.146603
-0.672930,0.088566
-0.708375,0.092673
-0.705198,0.061434
-0.703707,0.030584
-0.690640,0.063156
-0.689369,0.031454
-0.673522,0.032212
-0.703906,0.000000
-0.703707,-0.030584
-0.705198,-0.061434
-0.689722,0.000000
-0.689369,-0.031454
-0.674026,0.000000
-0.708375,-0.092673
-0.712084,-0.132286
-0.718104,-0.173239
-0.726403,-0.215757
-0.690640,-0.063156
-0.692550,-0.111033
-0.697685,-0.160478
-0.705969,-0.211865
-0.673522,-0.032212
-0.672930,-0.088566
-0.676572,-0.146603
-0.684298,-0.206879
-0.736963,-0.260088
-0.743142,-0.296426
-0.750195,-0.334198
-0.717348,-0.265595
-0.722176,-0.302095
-0.695984,-0.269985
-0.758061,-0.373480
-0.763103,-0.422320
-0.767986,-0.473037
-0.772306,-0.525404
-0.727746,-0.339867
-0.730428,-0.395752
-0.732712,-0.453717
-0.733874,-0.513268
-0.699443,-0.306479
-0.699024,-0.368981
-0.697947,-0.433635
-0.695107,-0.499600
-0.775492,-0.579006
-0.770059,-0.617758
-0.761952,-0.655207
-0.732894,-0.573545
-0.723855,-0.608809
-0.688962,-0.565446
-0.750501,-0.690488
-0.720639,-0.720412
-0.684490,-0.743756
-0.643187,-0.760869
-0.712075,-0.642327
-0.676718,-0.676338
-0.634307,-0.702893
-0.586350,-0.722484
-0.676886,-0.597570
-0.636188,-0.635660
-0.587797,-0.665594
-0.533533,-0.687914
-0.598354,-0.772772
-0.557195,-0.774130
-0.516153,-0.774045
-0.534778,-0.736257
-0.496177,-0.738666
-0.475698,-0.703972
-0.475639,-0.772934
-0.433480,-0.766295
-0.392763,-0.759882
-0.457766,-0.739947
-0.417250,-0.735627
-0.439173,-0.707385
-0.353493,-0.753828
-0.305240,-0.743004
-0.259282,-0.733811
-0.215418,-0.726326
-0.377871,-0.731387
-0.319494,-0.720945
-0.264045,-0.712368
-0.211283,-0.705871
-0.400182,-0.705189
-0.332182,-0.696168
-0.267540,-0.689012
-0.206053,-0.684195
-0.173464,-0.720626
-0.140523,-0.714566
-0.108404,-0.710093
-0.160966,-0.701644
-0.127723,-0.696927
-0.147459,-0.682109
-0.076983,-0.707212
-0.038372,-0.703204
0.000000,-0.701871
0.038372,-0.703204
-0.095201,-0.693722
-0.047394,-0.688201
0.000000,-0.686366
0.047394,-0.688201
-0.113963,-0.678670
-0.056660,-0.671517
0.000000,-0.669141
0.056660,-0.671517
0.076983,-0.707212
0.108404,-0.710093
0.140523,-0.714566
0.095201,-0.693722
0.127723,-0.696927
0.113963,-0.678670
0.173464,-0.720626
0.215418,-0.726326
0.259282,-0.733811
0.305240,-0.743004
0.160966,-0.701644
0.211283,-0.705871
0.264045,-0.712368
0.319494,-0.720945
0.147459,-0.682109
0.206053,-0.684195
0.267540,-0.689012
0.332182,-0.696168
0.353493,-0.753828
0.392763,-0.759882
0.433480,-0.766295
0.377871,-0.731387
0.417250,-0.735627
0.400182,-0.705189
0.475639,-0.772934
0.516153,-0.774045
0.557195,-0.774130
0.457766,-0.739947
0.496177,-0.738666
0.439173,-0.707385
0.598354,-0.772772
0.643187,-0.760869
0.684490,-0.743756
0.720639,-0.720412
0.534778,-0.736257
0.586350,-0.722484
0.634307,-0.702893
0.676718,-0.676338
0.475698,-0.703972
0.533533,-0.687914
0.587797,-0.665594
0.636188,-0.635660
0.750501,-0.690488
0.761952,-0.655207
0.770059,-0.617758
0.712075,-0.642327
0.723855,-0.608809
0.676886,-0.597570
0.775492,-0.579006
0.772306,-0.525404
0.767986,-0.473037
0.763103,-0.422320
0.732894,-0.573545
0.733874,-0.513268
0.732712,-0.453717
0.730428,-0.395752
0.688962,-0.565446
0.695107,-0.499600
0.697947,-0.433635
0.699024,-0.368981
0.758061,-0.373480
0.750195,-0.334198
0.743142,-0.296426
0.727746,-0.339867
0.722176,-0.302095
0.699443,-0.306479
0.736963,-0.260088
0.726403,-0.215757
0.718104,-0.173239
0.712084,-0.132286
0.717348,-0.265595
0.705969,-0.211865
0.697685,-0.160478
0.692550,-0.111033
0.695984,-0.269985
0.684298,-0.206879
0.676572,-0.146603
0.672930,-0.088566
0.708375,-0.092673
0.705198,-0.061434
0.703707,-0.030584
0.690640,-0.063156
0.689369,-0.031454
0.673522,-0.032212
0.716520,-0.000000
0.716848,0.039526
0.720292,0.079627
0.726843,0.120592
0.733459,0.162869
0.742760,0.207053
0.754726,0.253442
0.764950,0.301784
0.776926,0.352990
0.790562,0.407317
0.799267,0.462574
0.807922,0.520551
0.816004,0.581017
0.813643,0.637381
0.806680,0.692241
0.792977,0.743015
0.759624,0.776185
0.717122,0.799580
0.667810,0.814355
0.608613,0.814183
0.549790,0.811067
0.492496,0.806228
0.434372,0.794121
0.379406,0.782812
0.327458,0.772516
0.277254,0.759084
0.229802,0.747904
0.184805,0.739015
0.141574,0.729441
0.099902,0.722814
0.059495,0.719139
0.019784,0.715977
-0.019784,0.715977
-0.059495,0.719139
-0.099902,0.722814
-0.141574,0.729441
-0.184805,0.739015
-0.229802,0.747904
-0.277254,0.759084
-0.327458,0.772516
-0.379406,0.782812
-0.434372,0.794121
-0.492496,0.806228
-0.549790,0.811067
-0.608613,0.814183
-0.667810,0.814355
-0.717122,0.799580
-0.759624,0.776185
-0.792977,0.743015
-0.806680,0.692241
-0.813643,0.637381
-0.816004,0.581017
-0.807922,0.520551
-0.799267,0.462574
-0.790562,0.407317
-0.776926,0.352990
-0.764950,0.301784
-0.754726,0.253442
-0.742760,0.207053
-0.733459,0.162869
-0.726843,0.120592
-0.720292,0.079627
-0.716848,0.039526
-0.716520,0.000000
-0.716848,-0.039526
-0.720292,-0.079627
-0.726843,-0.120592
-0.733459,-0.162869
-0.742760,-0.207053
-0.754726,-0.253442
-0.764950,-0.301784
-0.776926,-0.352990
-0.790562,-0.407317
-0.799267,-0.462574
-0.807922,-0.520551
-0.816004,-0.581017
-0.813643,-0.637381
-0.806680,-0.692241
-0.792977,-0.743015
-0.759624,-0.776185
-0.717122,-0.799580
-0.667810,-0.814355
-0.608613,-0.814183
-0.549790,-0.811067
-0.492496,-0.806228
-0.434372,-0.794121
-0.379406,-0.782812
-0.327458,-0.772516
-0.277254,-0.759084
-0.229802,-0.747904
-0.184805,-0.739015
-0.141574,-0.729441
-0.099902,-0.722814
-0.059495,-0.719139
-0.019784,-0.715977
0.019784,-0.715977
0.059495,-0.719139
0.099902,-0.722814
0.141574,-0.729441
0.184805,-0.739015
0.229802,-0.747904
0.277254,-0.759084
0.327458,-0.772516
0.379406,-0.782812
0.434372,-0.794121
0.492496,-0.806228
0.549790,-0.811067
0.608613,-0.814183
0.667810,-0.814355
0.717122,-0.799580
0.759624,-0.776185
0.792977,-0.743015
0.806680,-0.692241
0.813643,-0.637381
0.816004,-0.581017
0.807922,-0.520551
0.799267,-0.462574
0.790562,-0.407317
0.776926,-0.352990
0.764950,-0.301784
0.754726,-0.253442
0.742760,-0.207053
0.733459,-0.162869
0.726843,-0.120592
0.720292,-0.079627
0.716848,-0.039526
0.730794,-0.000000
0.730974,0.018752
0.724026,-0.000000
0.731973,0.037580
0.734061,0.062889
0.737592,0.088584
0.724168,0.019266
0.725604,0.051552
0.729240,0.084331
0.742550,0.114745
0.746525,0.134830
0.735083,0.117772
0.751254,0.155345
0.757963,0.183458
0.765930,0.212575
0.738809,0.138324
0.745754,0.173501
0.754606,0.210119
0.775145,0.242785
0.781911,0.266232
0.765372,0.248360
0.789278,0.290424
0.798768,0.323750
0.809142,0.358583
0.771633,0.272125
0.781807,0.313079
0.793276,0.356197
0.820390,0.395021
0.827997,0.423153
0.806008,0.401660
0.835926,0.452234
0.844921,0.491798
0.854103,0.533001
0.812719,0.429727
0.821915,0.477425
0.831218,0.527326
0.863399,0.575896
0.868414,0.608161
0.840403,0.579409
0.873111,0.641117
0.875420,0.683839
0.875947,0.726605
0.843730,0.610542
0.843957,0.660459
0.841137,0.709818
0.873867,0.768583
0.867140,0.796362
0.833631,0.756773
0.857273,0.821657
0.833863,0.845694
0.803630,0.862649
0.823688,0.780731
0.795195,0.809450
0.758629,0.829624
0.768291,0.873553
0.737847,0.876556
0.716122,0.842531
0.706568,0.877778
0.662084,0.873865
0.618340,0.868805
0.687323,0.845729
0.634987,0.843296
0.583347,0.838933
0.575678,0.862984
0.543756,0.856893
0.532970,0.833316
0.512699,0.850744
0.481918,0.843067
0.502964,0.828489
0.452103,0.835594
0.413426,0.824617
0.376468,0.814309
0.473006,0.822034
0.424480,0.810096
0.378396,0.798950
0.341099,0.804670
0.315338,0.796657
0.334626,0.788682
0.290403,0.789188
0.258302,0.779098
0.227497,0.770151
0.309055,0.781555
0.268009,0.769636
0.228934,0.759386
0.197876,0.762333
0.176345,0.756446
0.191650,0.750819
0.155341,0.751285
0.128116,0.744817
0.101586,0.739737
0.169955,0.745614
0.134891,0.737570
0.100913,0.731633
0.075659,0.736039
0.056526,0.733649
0.067852,0.727803
0.037574,0.732068
0.012511,0.730603
-0.012511,0.730603
0.048311,0.725917
0.016076,0.723672
-0.016076,0.723672
-0.037574,0.732068
-0.056526,0.733649
-0.048311,0.725917
-0.075659,0.736039
-0.101586,0.739737
-0.128116,0.744817
-0.067852,0.727803
-0.100913,0.731633
-0.134891,0.737570
-0.155341,0.751285
-0.176345,0.756446
-0.169955,0.745614
-0.197876,0.762333
-0.227497,0.770151
-0.258302,0.779098
-0.191650,0.750819
-0.228934,0.759386
-0.268009,0.769636
-0.290403,0.789188
-0.315338,0.796657
-0.309055,0.781555
-0.341099,0.804670
-0.376468,0.814309
-0.413426,0.824617
-0.334626,0.788682
-0.378396,0.798950
-0.424480,0.810096
-0.452103,0.835594
-0.481918,0.843067
-0.473006,0.822034
-0.512699,0.850744
-0.543756,0.856893
-0.502964,0.828489
-0.575678,0.862984
-0.618340,0.868805
-0.662084,0.873865
-0.532970,0.833316
-0.583347,0.838933
-0.634987,0.843296
-0.706568,0.877778
-0.737847,0.876556
-0.687323,0.845729
-0.768291,0.873553
-0.803630,0.862649
-0.833863,0.845694
-0.716122,0.842531
-0.758629,0.829624
-0.795195,0.809450
-0.857273,0.821657
-0.867140,0.796362
-0.823688,0.780731
-0.873867,0.768583
-0.875947,0.726605
-0.875420,0.683839
-0.833631,0.756773
-0.841137,0.709818
-0.843957,0.660459
-0.873111,0.641117
-0.868414,0.608161
-0.843730,0.610542
-0.863399,0.575896
-0.854103,0.533001
-0.844921,0.491798
-0.840403,0.579409
-0.831218,0.527326
-0.821915,0.477425
-0.835926,0.452234
-0.827997,0.423153
-0.812719,0.429727
-0.820390,0.395021
-0.809142,0.358583
-0.798768,0.323750
-0.806008,0.401660
-0.793276,0.356197
-0.781807,0.313079
-0.789278,0.290424
-0.781911,0.266232
-0.771633,0.272125
-0.775145,0.242785
-0.765930,0.212575
-0.757963,0.183458
-0.765372,0.248360
-0.754606,0.210119
-0.745754,0.173501
-0.751254,0.155345
-0.746525,0.134830
-0.738809,0.138324
-0.742550,0.114745
-0.737592,0.088584
-0.734061,0.062889
-0.735083,0.117772
-0.729240,0.084331
-0.725604,0.051552
-0.731973,0.037580
-0.730974,0.018752
-0.724168,0.019266
-0.730794,0.000000
-0.730974,-0.018752
-0.724026,0.000000
-0.731973,-0.037580
-0.734061,-0.062889
-0.737592,-0.088584
-0.724168,-0.019266
-0.725604,-0.051552
-0.729240,-0.084331
-0.742550,-0.114745
-0.746525,-0.134830
-0.735083,-0.117772
-0.751254,-0.155345
-0.757963,-0.183458
-0.765930,-0.212575
-0.738809,-0.138324
-0.745754,-0.173501
-0.754606,-0.210119
-0.775145,-0.242785
-0.781911,-0.266232
-0.765372,-0.248360
-0.789278,-0.290424
-0.798768,-0.323750
-0.809142,-0.358583
-0.771633,-0.272125
-0.781807,-0.313079
-0.793276,-0.356197
-0.820390,-0.395021
-0.827997,-0.423153
-0.806008,-0.401660
-0.835926,-0.452234
-0.844921,-0.491798
-0.854103,-0.533001
-0.812719,-0.429727
-0.821915,-0.477425
-0.831218,-0.527326
-0.863399,-0.575896
-0.868414,-0.608161
-0.840403,-0.579409
-0.873111,-0.641117
-0.875420,-0.683839
-0.875947,-0.726605
-0.843730,-0.610542
-0.843957,-0.660459
-0.841137,-0.709818
-0.873867,-0.768583
-0.867140,-0.796362
-0.833631,-0.756773
-0.857273,-0.821657
-0.833863,-0.845694
-0.803630,-0.862649
-0.823688,-0.780731
-0.795195,-0.809450
-0.758629,-0.829624
-0.768291,-0.873553
-0.737847,-0.876556
-0.716122,-0.842531
-0.706568,-0.877778
-0.662084,-0.873865
-0.618340,-0.868805
-0.687323,-0.845729
-0.634987,-0.843296
-0.583347,-0.838933
-0.575678,-0.862984
-0.543756,-0.856893
-0.532970,-0.833316
-0.512699,-0.850744
-0.481918,-0.843067
-0.502964,-0.828489
-0.452103,-0.835594
-0.413426,-0.824617
-0.376468,-0.814309
-0.473006,-0.822034
-0.424480,-0.810096
-0.378396,-0.798950
-0.341099,-0.804670
-0.315338,-0.796657
-0.334626,-0.788682
-0.290403,-0.789188
-0.258302,-0.779098
-0.227497,-0.770151
-0.309055,-0.781555
-0.268009,-0.769636
-0.228934,-0.759386
-0.197876,-0.762333
-0.176345,-0.756446
-0.191650,-0.750819
-0.155341,-0.751285
-0.128116,-0.744817
-0.101586,-0.739737
-0.169955,-0.745614
-0.134891,-0.737570
-0.100913,-0.731633
-0.075659,-0.736039
-0.056526,-0.733649
-0.067852,-0.727803
-0.037574,-0.732068
-0.012511,-0.730603
0.012511,-0.730603
-0.048311,-0.725917
-0.016076,-0.723672
0.016076,-0.723672
0.037574,-0.732068
0.056526,-0.733649
0.048311,-0.725917
0.075659,-0.736039
0.101586,-0.739737
0.128116,-0.744817
0.067852,-0.727803
0.100913,-0.731633
0.134891,-0.737570
0.155341,-0.751285
0.176345,-0.756446
0.169955,-0.745614
0.197876,-0.762333
0.227497,-0.770151
0.258302,-0.779098
0.191650,-0.750819
0.228934,-0.759386
0.268009,-0.769636
0.290403,-0.789188
0.315338,-0.796657
0.309055,-0.781555
0.341099,-0.804670
0.376468,-0.814309
0.413426,-0.824617
0.334626,-0.788682
0.378396,-0.798950
0.424480,-0.810096
0.452103,-0.835594
0.481918,-0.843067
0.473006,-0.822034
0.512699,-0.850744
0.543756,-0.856893
0.502964,-0.828489
0.575678,-0.862984
0.618340,-0.868805
0.662084,-0.873865
0.532970,-0.833316
0.583347,-0.838933
0.634987,-0.843296
0.706568,-0.877778
0.737847,-0.876556
0.687323,-0.845729
0.768291,-0.873553
0.803630,-0.862649
0.833863,-0.845694
0.716122,-0.842531
0.758629,-0.829624
0.795195,-0.809450
0.857273,-0.821657
0.867140,-0.796362
0.823688,-0.780731
0.873867,-0.768583
0.875947,-0.726605
0.875420,-0.683839
0.833631,-0.756773
0.841137,-0.709818
0.843957,-0.660459
0.873111,-0.641117
0.868414,-0.608161
0.843730,-0.610542
0.863399,-0.575896
0.854103,-0.533001
0.844921,-0.491798
0.840403,-0.579409
0.831218,-0.527326
0.821915,-0.477425
0.835926,-0.452234
0.827997,-0.423153
0.812719,-0.429727
0.820390,-0.395021
0.809142,-0.358583
0.798768,-0.323750
0.806008,-0.401660
0.793276,-0.356197
0.781807,-0.313079
0.789278,-0.290424
0.781911,-0.266232
0.771633,-0.272125
0.775145,-0.242785
0.765930,-0.212575
0.757963,-0.183458
0.765372,-0.248360
0.754606,-0.210119
0.745754,-0.173501
0.751254,-0.155345
0.746525,-0.134830
0.738809,-0.138324
0.742550,-0.114745
0.737592,-0.088584
0.734061,-0.062889
0.735083,-0.117772
0.729240,-0.084331
0.725604,-0.051552
0.731973,-0.037580
0.730974,-0.018752
0.724168,-0.019266
0.736801,-0.000000
0.737451,0.027337
0.739933,0.054872
0.743691,0.082892
0.749216,0.111504
0.755853,0.141055
0.764170,0.171589
0.773319,0.203469
0.784017,0.236708
0.795154,0.271631
0.807658,0.308264
0.820095,0.346812
0.833658,0.387378
0.846519,0.429942
0.860182,0.474751
0.872350,0.521405
0.884844,0.570350
0.894788,0.620591
0.904244,0.672733
0.909495,0.724736
0.912477,0.776991
0.907364,0.824772
0.894988,0.867076
0.865246,0.893079
0.825701,0.908565
0.776273,0.911436
0.725172,0.910316
0.672343,0.903471
0.620839,0.895464
0.570108,0.884196
0.521547,0.872901
0.474610,0.859634
0.429976,0.846947
0.387327,0.833213
0.346801,0.820435
0.308268,0.807307
0.271596,0.795422
0.236744,0.783744
0.203431,0.773529
0.171637,0.763961
0.141022,0.756018
0.111548,0.749053
0.082872,0.743827
0.054901,0.739798
0.027331,0.737577
-0.000000,0.736661
-0.027331,0.737577
-0.054901,0.739798
-0.082872,0.743827
-0.111548,0.749053
-0.141022,0.756018
-0.171637,0.763961
-0.203431,0.773529
-0.236744,0.783744
-0.271596,0.795422
-0.308268,0.807307
-0.346801,0.820435
-0.387327,0.833213
-0.429976,0.846947
-0.474610,0.859634
-0.521547,0.872901
-0.570108,0.884196
-0.620839,0.895464
-0.672343,0.903471
-0.725172,0.910316
-0.776273,0.911436
-0.825701,0.908565
-0.865246,0.893079
-0.894988,0.867076
-0.907364,0.824772
-0.912477,0.776991
-0.909495,0.724736
-0.904244,0.672733
-0.894788,0.620591
-0.884844,0.570350
-0.872350,0.521405
-0.860182,0.474751
-0.846519,0.429942
-0.833658,0.387378
-0.820095,0.346812
-0.807658,0.308264
-0.795154,0.271631
-0.784017,0.236708
-0.773319,0.203469
-0.764170,0.171589
-0.755853,0.141055
-0.749216,0.111504
-0.743691,0.082892
-0.739933,0.054872
-0.737451,0.027337
-0.736801,0.000000
-0.737451,-0.027337
-0.739933,-0.054872
-0.743691,-0.082892
-0.749216,-0.111504
-0.755853,-0.141055
-0.764170,-0.171589
-0.773319,-0.203469
-0.784017,-0.236708
-0.795154,-0.271631
-0.807658,-0.308264
-0.820095,-0.346812
-0.833658,-0.387378
-0.846519,-0.429942
-0.860182,-0.474751
-0.872350,-0.521405
-0.884844,-0.570350
-0.894788,-0.620591
-0.904244,-0.672733
-0.909495,-0.724736
-0.912477,-0.776991
-0.907364,-0.824772
-0.894988,-0.867076
-0.865246,-0.893079
-0.825701,-0.908565
-0.776273,-0.911436
-0.725172,-0.910316
-0.672343,-0.903471
-0.620839,-0.895464
-0.570108,-0.884196
-0.521547,-0.872901
-0.474610,-0.859634
-0.429976,-0.846947
-0.387327,-0.833213
-0.346801,-0.820435
-0.308268,-0.807307
-0.271596,-0.795422
-0.236744,-0.783744
-0.203431,-0.773529
-0.171637,-0.763961
-0.141022,-0.756018
-0.111548,-0.749053
-0.082872,-0.743827
-0.054901,-0.739798
-0.027331,-0.737577
0.000000,-0.736661
0.027331,-0.737577
0.054901,-0.739798
0.082872,-0.743827
0.111548,-0.749053
0.141022,-0.756018
0.171637,-0.763961
0.203431,-0.773529
0.236744,-0.783744
0.271596,-0.795422
0.308268,-0.807307
0.346801,-0.820435
0.387327,-0.833213
0.429976,-0.846947
0.474610,-0.859634
0.521547,-0.872901
0.570108,-0.884196
0.620839,-0.895464
0.672343,-0.903471
0.725172,-0.910316
0.776273,-0.911436
0.825701,-0.908565
0.865246,-0.893079
0.894988,-0.867076
0.907364,-0.824772
0.912477,-0.776991
0.909495,-0.724736
0.904244,-0.672733
0.894788,-0.620591
0.884844,-0.570350
0.872350,-0.521405
0.860182,-0.474751
0.846519,-0.429942
0.833658,-0.387378
0.820095,-0.346812
0.807658,-0.308264
0.795154,-0.271631
0.784017,-0.236708
0.773319,-0.203469
0.764170,-0.171589
0.755853,-0.141055
0.749216,-0.111504
0.743691,-0.082892
0.739933,-0.054872
0.737451,-0.027337
0.740775,-0.000000
0.741014,0.013329
0.741969,0.033380
0.744079,0.053590
0.745907,0.067210
0.749247,0.087881
0.753729,0.108968
0.757085,0.123311
0.762649,0.145247
0.769313,0.167858
0.774041,0.183338
0.781554,0.207151
0.790095,0.231890
0.795966,0.248892
0.805041,0.275134
0.815042,0.302547
0.821755,0.321407
0.831888,0.350544
0.842812,0.381082
0.849988,0.402066
0.860548,0.434440
0.871725,0.468414
0.878890,0.491685
0.889081,0.527430
0.899655,0.564916
0.906195,0.590446
0.914953,0.629332
0.923724,0.669937
0.928726,0.697295
0.934385,0.738249
0.939190,0.780297
0.940750,0.807774
0.939623,0.847102
0.933866,0.883505
0.925564,0.903866
0.903401,0.925125
0.871699,0.936268
0.847435,0.939962
0.807159,0.940129
0.766384,0.937896
0.738720,0.934954
0.696790,0.928138
0.656361,0.920965
0.629662,0.915455
0.590089,0.905699
0.552299,0.896184
0.527574,0.889470
0.503475,0.882320
0.468180,0.871304
0.434564,0.860870
0.412746,0.853524
0.380938,0.842461
0.350625,0.832155
0.331018,0.825136
0.302466,0.814753
0.275184,0.805262
0.257550,0.798981
0.231852,0.789861
0.207183,0.781740
0.191203,0.776522
0.167846,0.769123
0.145268,0.762809
0.130570,0.758904
0.108972,0.753573
0.087896,0.749390
0.074072,0.746977
0.053599,0.743949
0.033389,0.742108
0.020006,0.741291
-0.000000,0.740692
-0.020006,0.741291
-0.033389,0.742108
-0.053599,0.743949
-0.074072,0.746977
-0.087896,0.749390
-0.108972,0.753573
-0.130570,0.758904
-0.145268,0.762809
-0.167846,0.769123
-0.191203,0.776522
-0.207183,0.781740
-0.231852,0.789861
-0.257550,0.798981
-0.275184,0.805262
-0.302466,0.814753
-0.331018,0.825136
-0.350625,0.832155
-0.380938,0.842461
-0.412746,0.853524
-0.434564,0.860870
-0.468180,0.871304
-0.503475,0.882320
-0.527574,0.889470
-0.552299,0.896184
-0.590089,0.905699
-0.629662,0.915455
-0.656361,0.920965
-0.696790,0.928138
-0.738720,0.934954
-0.766384,0.937896
-0.807159,0.940129
-0.847435,0.939962
-0.871699,0.936268
-0.903401,0.925125
-0.925564,0.903866
-0.933866,0.883505
-0.939623,0.847102
-0.940750,0.807774
-0.939190,0.780297
-0.934385,0.738249
-0.928726,0.697295
-0.923724,0.669937
-0.914953,0.629332
-0.906195,0.590446
-0.899655,0.564916
-0.889081,0.527430
-0.878890,0.491685
-0.871725,0.468414
-0.860548,0.434440
-0.849988,0.402066
-0.842812,0.381082
-0.831888,0.350544
-0.821755,0.321407
-0.815042,0.302547
-0.805041,0.275134
-0.795966,0.248892
-0.790095,0.231890
-0.781554,0.207151
-0.774041,0.183338
-0.769313,0.167858
-0.762649,0.145247
-0.757085,0.123311
-0.753729,0.108968
-0.749247,0.087881
-0.745907,0.067210
-0.744079,0.053590
-0.741969,0.033380
-0.741014,0.013329
-0.740775,0.000000
-0.741014,-0.013329
-0.741969,-0.033380
-0.744079,-0.053590
-0.745907,-0.067210
-0.749247,-0.087881
-0.753729,-0.108968
-0.757085,-0.123311
-0.762649,-0.145247
-0.769313,-0.167858
-0.774041,-0.183338
-0.781554,-0.207151
-0.790095,-0.231890
-0.795966,-0.248892
-0.805041,-0.275134
-0.815042,-0.302547
-0.821755,-0.321407
-0.831888,-0.350544
-0.842812,-0.381082
-0.849988,-0.402066
-0.860548,-0.434440
-0.871725,-0.468414
-0.878890,-0.491685
-0.889081,-0.527430
-0.899655,-0.564916
-0.906195,-0.590446
-0.914953,-0.629332
-0.923724,-0.669937
-0.928726,-0.697295
-0.934385,-0.738249
-0.939190,-0.780297
-0.940750,-0.807774
-0.939623,-0.847102
-0.933866,-0.883505
-0.925564,-0.903866
-0.903401,-0.925125
-0.871699,-0.936268
-0.847435,-0.939962
-0.807159,-0.940129
-0.766384,-0.937896
-0.738720,-0.934954
-0.696790,-0.928138
-0.656361,-0.920965
-0.629662,-0.915455
-0.590089,-0.905699
-0.552299,-0.896184
-0.527574,-0.889470
-0.503475,-0.882320
-0.468180,-0.871304
-0.434564,-0.860870
-0.412746,-0.853524
-0.380938,-0.842461
-0.350625,-0.832155
-0.331018,-0.825136
-0.302466,-0.814753
-0.275184,-0.805262
-0.257550,-0.798981
-0.231852,-0.789861
-0.207183,-0.781740
-0.191203,-0.776522
-0.167846,-0.769123
-0.145268,-0.762809
-0.130570,-0.758904
-0.108972,-0.753573
-0.087896,-0.749390
-0.074072,-0.746977
-0.053599,-0.743949
-0.033389,-0.742108
-0.020006,-0.741291
0.000000,-0.740692
0.020006,-0.741291
0.033389,-0.742108
0.053599,-0.743949
0.074072,-0.746977
0.087896,-0.749390
0.108972,-0.753573
0.130570,-0.758904
0.145268,-0.762809
0.167846,-0.769123
0.191203,-0.776522
0.207183,-0.781740
0.231852,-0.789861
0.257550,-0.798981
0.275184,-0.805262
0.302466,-0.814753
0.331018,-0.825136
0.350625,-0.832155
0.380938,-0.842461
0.412746,-0.853524
0.434564,-0.860870
0.468180,-0.871304
0.503475,-0.882320
0.527574,-0.889470
0.552299,-0.896184
0.590089,-0.905699
0.629662,-0.915455
0.656361,-0.920965
0.696790,-0.928138
0.738720,-0.934954
0.766384,-0.937896
0.807159,-0.940129
0.847435,-0.939962
0.871699,-0.936268
0.903401,-0.925125
0.925564,-0.903866
0.933866,-0.883505
0.939623,-0.847102
0.940750,-0.807774
0.939190,-0.780297
0.934385,-0.738249
0.928726,-0.697295
0.923724,-0.669937
0.914953,-0.629332
0.906195,-0.590446
0.899655,-0.564916
0.889081,-0.527430
0.878890,-0.491685
0.871725,-0.468414
0.860548,-0.434440
0.849988,-0.402066
0.842812,-0.381082
0.831888,-0.350544
0.821755,-0.321407
0.815042,-0.302547
0.805041,-0.275134
0.795966,-0.248892
0.790095,-0.231890
0.781554,-0.207151
0.774041,-0.183338
0.769313,-0.167858
0.762649,-0.145247
0.757085,-0.123311
0.753729,-0.108968
0.749247,-0.087881
0.745907,-0.067210
0.744079,-0.053590
0.741969,-0.033380
0.741014,-0.013329
0.744188,-0.000000
0.745129,0.025990
0.747566,0.052211
0.751841,0.078889
0.757575,0.106233
0.764987,0.134475
0.773780,0.163815
0.784014,0.194467
0.795481,0.226631
0.808091,0.260487
0.821702,0.296232
0.836110,0.334002
0.851191,0.373984
0.866677,0.416269
0.882403,0.460999
0.898084,0.508230
0.913447,0.557999
0.928217,0.610324
0.941920,0.665031
0.954237,0.722020
0.964290,0.780619
0.971277,0.840122
0.972947,0.898120
0.962950,0.947814
0.924542,0.969872
0.869383,0.972833
0.810261,0.968175
0.751199,0.959655
0.693161,0.948187
0.637440,0.935322
0.583741,0.920813
0.532842,0.905905
0.484200,0.890128
0.438335,0.874566
0.394775,0.858794
0.353718,0.843600
0.314829,0.828753
0.278118,0.814783
0.243331,0.801622
0.210353,0.789584
0.178972,0.778722
0.149000,0.769187
0.120242,0.761094
0.092473,0.754494
0.065494,0.749505
0.039067,0.746132
0.012988,0.744446
-0.012988,0.744446
-0.039067,0.746132
-0.065494,0.749505
-0.092473,0.754494
-0.120242,0.761094
-0.149000,0.769187
-0.178972,0.778722
-0.210353,0.789584
-0.243331,0.801622
-0.278118,0.814783
-0.314829,0.828753
-0.353718,0.843600
-0.394775,0.858794
-0.438335,0.874566
-0.484200,0.890128
-0.532842,0.905905
-0.583741,0.920813
-0.637440,0.935322
-0.693161,0.948187
-0.751199,0.959655
-0.810261,0.968175
-0.869383,0.972833
-0.924542,0.969872
-0.962950,0.947814
-0.972947,0.898120
-0.971277,0.840122
-0.964290,0.780619
-0.954237,0.722020
-0.941920,0.665031
-0.928217,0.610324
-0.913447,0.557999
-0.898084,0.508230
-0.882403,0.460999
-0.866677,0.416269
-0.851191,0.373984
-0.836110,0.334002
-0.821702,0.296232
-0.808091,0.260487
-0.795481,0.226631
-0.784014,0.194467
-0.773780,0.163815
-0.764987,0.134475
-0.757575,0.106233
-0.751841,0.078889
-0.747566,0.052211
-0.745129,0.025990
-0.744188,0.000000
-0.745129,-0.025990
-0.747566,-0.052211
-0.751841,-0.078889
-0.757575,-0.106233
-0.764987,-0.134475
-0.773780,-0.163815
-0.784014,-0.194467
-0.795481,-0.226631
-0.808091,-0.260487
-0.821702,-0.296232
-0.836110,-0.334002
-0.851191,-0.373984
-0.866677,-0.416269
-0.882403,-0.460999
-0.898084,-0.508230
-0.913447,-0.557999
-0.928217,-0.610324
-0.941920,-0.665031
-0.954237,-0.722020
-0.964290,-0.780619
-0.971277,-0.840122
-0.972947,-0.898120
-0.962950,-0.947814
-0.924542,-0.969872
-0.869383,-0.972833
-0.810261,-0.968175
-0.751199,-0.959655
-0.693161,-0.948187
-0.637440,-0.935322
-0.583741,-0.920813
-0.532842,-0.905905
-0.484200,-0.890128
-0.438335,-0.874566
-0.394775,-0.858794
-0.353718,-0.843600
-0.314829,-0.828753
-0.278118,-0.814783
-0.243331,-0.801622
-0.210353,-0.789584
-0.178972,-0.778722
-0.149000,-0.769187
-0.120242,-0.761094
-0.092473,-0.754494
-0.065494,-0.749505
-0.039067,-0.746132
-0.012988,-0.744446
0.012988,-0.744446
0.039067,-0.746132
0.065494,-0.749505
0.092473,-0.754494
0.120242,-0.761094
0.149000,-0.769187
0.178972,-0.778722
0.210353,-0.789584
0.243331,-0.801622
0.278118,-0.814783
0.314829,-0.828753
0.353718,-0.843600
0.394775,-0.858794
0.438335,-0.874566
0.484200,-0.890128
0.532842,-0.905905
0.583741,-0.920813
0.637440,-0.935322
0.693161,-0.948187
0.751199,-0.959655
0.810261,-0.968175
0.869383,-0.972833
0.924542,-0.969872
0.962950,-0.947814
0.972947,-0.898120
0.971277,-0.840122
0.964290,-0.780619
0.954237,-0.722020
0.941920,-0.665031
0.928217,-0.610324
0.913447,-0.557999
0.898084,-0.508230
0.882403,-0.460999
0.866677,-0.416269
0.851191,-0.373984
0.836110,-0.334002
0.821702,-0.296232
0.808091,-0.260487
0.795481,-0.226631
0.784014,-0.194467
0.773780,-0.163815
0.764987,-0.134475
0.757575,-0.106233
0.751841,-0.078889
0.747566,-0.052211
0.745129,-0.025990
