1.859005,0.000000
1.832706,0.090035
1.799816,0.177266
1.762565,0.261452
1.721082,0.342344
1.675870,0.419784
1.627443,0.493680
1.576007,0.563904
1.521598,0.630267
1.464403,0.692611
1.404812,0.750888
1.343186,0.805075
1.279722,0.855083
1.214576,0.900791
1.148024,0.942159
1.080420,0.979235
1.012047,1.012047
0.943099,1.040550
0.873788,1.064714
0.804405,1.084615
0.735246,1.100374
0.666538,1.112051
0.598470,1.119659
0.531267,1.123270
0.465185,1.123056
0.400449,1.119180
0.337239,1.111728
0.275730,1.100777
0.216119,1.086501
0.158591,1.069132
0.103302,1.048845
0.050392,1.025750
0.000000,1.000000
-0.047743,0.971841
-0.092732,0.941525
-0.134870,0.909221
-0.174062,0.875069
-0.210230,0.839285
-0.243330,0.802153
-0.273331,0.763908
-0.300182,0.724703
-0.323843,0.684708
-0.344323,0.644184
-0.361667,0.603406
-0.375894,0.562566
-0.386994,0.521800
-0.394998,0.481307
-0.400019,0.441353
-0.402166,0.402166
-0.401483,0.363883
-0.397997,0.326628
-0.391839,0.290608
-0.383217,0.256058
-0.372272,0.223131
-0.359031,0.191906
-0.343575,0.162499
-0.326161,0.135100
-0.307081,0.109875
-0.286437,0.086890
-0.264192,0.066177
-0.240489,0.047836
-0.215788,0.032009
-0.190553,0.018768
-0.164885,0.008100
-0.140995,0.000000
-0.164885,-0.008100
-0.190553,-0.018768
-0.215788,-0.032009
-0.240489,-0.047836
-0.264192,-0.066177
-0.286437,-0.086890
-0.307081,-0.109875
-0.326161,-0.135100
-0.343575,-0.162499
-0.359031,-0.191906
-0.372272,-0.223131
-0.383217,-0.256058
-0.391839,-0.290608
-0.397997,-0.326628
-0.401483,-0.363883
-0.402166,-0.402166
-0.400019,-0.441353
-0.394998,-0.481307
-0.386994,-0.521800
-0.375894,-0.562566
-0.361667,-0.603406
-0.344323,-0.644184
-0.323843,-0.684708
-0.300182,-0.724703
-0.273331,-0.763908
-0.243330,-0.802153
-0.210230,-0.839285
-0.174062,-0.875069
-0.134870,-0.909221
-0.092732,-0.941525
-0.047743,-0.971841
-0.000000,-1.000000
0.050392,-1.025750
0.103302,-1.048845
0.158591,-1.069132
0.216119,-1.086501
0.275730,-1.100777
0.337239,-1.111728
0.400449,-1.119180
0.465185,-1.123056
0.531267,-1.123270
0.598470,-1.119659
0.666538,-1.112051
0.735246,-1.100374
0.804405,-1.084615
0.873788,-1.064714
0.943099,-1.040550
1.012047,-1.012047
1.080420,-0.979235
1.148024,-0.942159
1.214576,-0.900791
1.279722,-0.855083
1.343186,-0.805075
1.404812,-0.750888
1.464403,-0.692611
1.521598,-0.630267
1.576007,-0.563904
1.627443,-0.493680
1.675870,-0.419784
1.721082,-0.342344
1.762565,-0.261452
1.799816,-0.177266
1.832706,-0.090035
0.349559,0.000000
0.835340,0.000000
0.723748,0.100888
0.612722,0.192692
0.502456,0.275738
0.392856,0.350312
0.726713,0.000000
0.621197,0.096392
0.516062,0.183921
0.411397,0.262829
0.624036,0.000000
0.524295,0.091990
0.424787,0.175266
0.527051,0.000000
0.432882,0.087647
0.435591,0.000000
0.283642,0.416667
0.226189,0.316354
0.169123,0.224262
0.112722,0.140641
0.057082,0.065779
0.307044,0.333333
0.244730,0.237171
0.182729,0.149412
0.121197,0.070274
0.325495,0.250000
0.258120,0.158067
0.190962,0.074677
0.338814,0.166667
0.266216,0.079019
0.346865,0.083333
0.002007,0.000000
0.057082,-0.065779
0.112722,-0.140641
0.169123,-0.224262
0.226189,-0.316354
0.060047,0.000000
0.121197,-0.070274
0.182729,-0.149412
0.244730,-0.237171
0.124036,0.000000
0.190962,-0.074677
0.258120,-0.158067
0.193718,0.000000
0.266216,-0.079019
0.268924,0.000000
0.283642,-0.416667
0.392856,-0.350312
0.502456,-0.275738
0.612722,-0.192692
0.723748,-0.100888
0.307044,-0.333333
0.411397,-0.262829
0.516062,-0.183921
0.621197,-0.096392
0.325495,-0.250000
0.424787,-0.175266
0.524295,-0.091990
0.338814,-0.166667
0.432882,-0.087647
0.346865,-0.083333
0.950300,0.000000
0.808654,0.125479
0.668300,0.237564
0.529561,0.336970
0.392158,0.424284
0.255503,0.500000
0.192158,0.375716
0.129561,0.263030
0.068300,0.162436
0.008654,0.074521
-0.049700,0.000000
0.008654,-0.074521
0.068300,-0.162436
0.129561,-0.263030
0.192158,-0.375716
0.255503,-0.500000
0.392158,-0.424284
0.529561,-0.336970
0.668300,-0.237564
0.808654,-0.125479
1.255897,-0.000000
1.219333,0.109559
1.176779,0.216320
1.129380,0.320170
1.175091,-0.000000
1.140167,0.106549
1.099667,0.210483
1.097393,-0.000000
1.063901,0.103676
1.022530,-0.000000
1.078037,0.421099
0.965126,0.492783
0.854699,0.559267
0.746321,0.620826
0.639623,0.677678
1.054462,0.311696
0.931213,0.396268
0.810655,0.473874
0.692327,0.544918
0.575804,0.609724
1.025169,0.204880
0.893689,0.302791
0.764765,0.391746
0.638060,0.472292
0.513144,0.544852
0.990322,0.100914
0.852748,0.212493
0.717240,0.312960
0.583738,0.402970
0.451861,0.483045
0.534282,0.730010
0.438301,0.724543
0.345684,0.717772
0.256295,0.709617
0.460683,0.668556
0.368369,0.663819
0.279399,0.657659
0.389545,0.609778
0.301013,0.605658
0.321084,0.553612
0.170004,0.700000
0.106295,0.650191
0.045684,0.601844
-0.011699,0.554880
0.193636,0.650000
0.129399,0.602148
0.068369,0.555796
0.215796,0.600000
0.151013,0.554150
0.236436,0.550000
-0.065718,0.509220
-0.088223,0.433706
-0.109371,0.362713
-0.128839,0.296425
-0.146258,0.235063
0.010683,0.510867
-0.020081,0.423814
-0.049442,0.342735
-0.076999,0.267896
-0.102325,0.199617
0.089545,0.509837
0.049221,0.410840
0.010214,0.319477
-0.027005,0.236100
-0.062003,0.161132
0.171084,0.506195
0.119900,0.394802
0.069815,0.292914
0.021356,0.200963
-0.025098,0.119469
-0.161193,0.178901
-0.150043,0.129830
-0.142836,0.083680
-0.140474,0.040441
-0.124961,0.138304
-0.119948,0.089517
-0.119641,0.043451
-0.094446,0.095120
-0.095907,0.046324
-0.069486,0.049086
-0.144103,-0.000000
-0.140474,-0.040441
-0.142836,-0.083680
-0.150043,-0.129830
-0.124909,-0.000000
-0.119641,-0.043451
-0.119948,-0.089517
-0.102607,-0.000000
-0.095907,-0.046324
-0.077470,-0.000000
-0.161193,-0.178901
-0.146258,-0.235063
-0.128839,-0.296425
-0.109371,-0.362713
-0.088223,-0.433706
-0.124961,-0.138304
-0.102325,-0.199617
-0.076999,-0.267896
-0.049442,-0.342735
-0.020081,-0.423814
-0.094446,-0.095120
-0.062003,-0.161132
-0.027005,-0.236100
0.010214,-0.319477
0.049221,-0.410840
-0.069486,-0.049086
-0.025098,-0.119469
0.021356,-0.200963
0.069815,-0.292914
0.119900,-0.394802
-0.065718,-0.509220
-0.011699,-0.554880
0.045684,-0.601844
0.106295,-0.650191
0.010683,-0.510867
0.068369,-0.555796
0.129399,-0.602148
0.089545,-0.509837
0.151013,-0.554150
0.171084,-0.506195
0.170004,-0.700000
0.256295,-0.709617
0.345684,-0.717772
0.438301,-0.724543
0.193636,-0.650000
0.279399,-0.657659
0.368369,-0.663819
0.215796,-0.600000
0.301013,-0.605658
0.236436,-0.550000
0.534282,-0.730010
0.639623,-0.677678
0.746321,-0.620826
0.854699,-0.559267
0.965126,-0.492783
0.460683,-0.668556
0.575804,-0.609724
0.692327,-0.544918
0.810655,-0.473874
0.931213,-0.396268
0.389545,-0.609778
0.513144,-0.544852
0.638060,-0.472292
0.764765,-0.391746
0.893689,-0.302791
0.321084,-0.553612
0.451861,-0.483045
0.583738,-0.402970
0.717240,-0.312960
0.852748,-0.212493
1.078037,-0.421099
1.129380,-0.320170
1.176779,-0.216320
1.219333,-0.109559
1.054462,-0.311696
1.099667,-0.210483
1.140167,-0.106549
1.025169,-0.204880
1.063901,-0.103676
0.990322,-0.100914
1.340199,-0.000000
1.290966,0.140456
1.232233,0.276118
1.166665,0.406857
1.095991,0.532806
0.970493,0.606419
0.848072,0.674336
0.728108,0.736851
0.610115,0.794207
0.486246,0.786128
0.367596,0.776176
0.253914,0.764186
0.144954,0.750000
0.066414,0.685573
-0.007404,0.623343
-0.076254,0.563150
-0.139885,0.504831
-0.159151,0.424927
-0.176447,0.350183
-0.191286,0.280840
-0.203047,0.217194
-0.182614,0.155643
-0.167286,0.098882
-0.158793,0.047044
-0.159801,-0.000000
-0.158793,-0.047044
-0.167286,-0.098882
-0.182614,-0.155643
-0.203047,-0.217194
-0.191286,-0.280840
-0.176447,-0.350183
-0.159151,-0.424927
-0.139885,-0.504831
-0.076254,-0.563150
-0.007404,-0.623343
0.066414,-0.685573
0.144954,-0.750000
0.253914,-0.764186
0.367596,-0.776176
0.486246,-0.786128
0.610115,-0.794207
0.728108,-0.736851
0.848072,-0.674336
0.970493,-0.606419
1.095991,-0.532806
1.166665,-0.406857
1.232233,-0.276118
1.290966,-0.140456
1.509639,-0.000000
1.496562,0.078253
1.478858,0.155687
1.451248,-0.000000
1.438919,0.076695
1.394855,-0.000000
1.457487,0.232155
1.408086,0.319775
1.357091,0.404843
1.304868,0.487495
1.422441,0.152658
1.371059,0.258373
1.316081,0.360716
1.258525,0.459823
1.383094,0.075228
1.331935,0.198581
1.274406,0.317808
1.212435,0.432951
1.251601,0.567862
1.193482,0.619716
1.135727,0.669976
1.198892,0.555858
1.142126,0.607035
1.147003,0.544182
1.078255,0.718708
0.996263,0.761770
0.915539,0.802745
0.835919,0.841692
1.085617,0.656639
0.988616,0.709460
0.893421,0.759208
0.799754,0.805997
1.091555,0.594663
0.980034,0.657668
0.870926,0.716401
0.763806,0.771052
0.757263,0.878667
0.690701,0.893371
0.625133,0.907101
0.707385,0.849926
0.642066,0.864485
0.658323,0.821780
0.560502,0.919856
0.481408,0.915139
0.404184,0.909612
0.328768,0.903234
0.577712,0.878047
0.483608,0.871776
0.392284,0.864398
0.303635,0.855846
0.594256,0.836164
0.485224,0.828768
0.380085,0.819915
0.278673,0.809494
0.255098,0.895969
0.200288,0.878773
0.146702,0.861376
0.217556,0.846053
0.164018,0.829393
0.180820,0.797398
0.094329,0.843750
0.049350,0.815155
0.005582,0.786788
0.111719,0.812500
0.066665,0.784638
0.128598,0.781250
-0.036961,0.758624
-0.079519,0.714531
-0.120332,0.671325
-0.159336,0.628970
0.022851,0.757009
-0.031056,0.705917
-0.082393,0.656066
-0.131055,0.607390
0.083467,0.754133
0.017577,0.696268
-0.044753,0.640077
-0.103357,0.585454
-0.196470,0.587426
-0.214792,0.548058
-0.232177,0.509665
-0.176937,0.559820
-0.195535,0.521260
-0.158069,0.532288
-0.248567,0.472247
-0.256182,0.422951
-0.262832,0.375627
-0.268379,0.330331
-0.213169,0.483696
-0.224066,0.424357
-0.233667,0.367879
-0.241738,0.314361
-0.176953,0.494550
-0.191734,0.425015
-0.204877,0.359402
-0.216033,0.297872
-0.272658,0.287123
-0.267309,0.252902
-0.261677,0.220209
-0.248005,0.263914
-0.243618,0.230566
-0.224775,0.240614
-0.255680,0.189110
-0.239241,0.153249
-0.223846,0.119672
-0.209679,0.088512
-0.238975,0.198791
-0.220640,0.154840
-0.204383,0.113961
-0.190705,0.076318
-0.221449,0.208142
-0.201787,0.155631
-0.185586,0.107030
-0.173827,0.062514
-0.197105,0.059903
-0.186704,0.039019
-0.179968,0.019100
-0.180621,0.042048
-0.175112,0.020658
-0.168437,0.022125
-0.177861,-0.000000
-0.179968,-0.019100
-0.186704,-0.039019
-0.173752,-0.000000
-0.175112,-0.020658
-0.167645,-0.000000
-0.197105,-0.059903
-0.209679,-0.088512
-0.223846,-0.119672
-0.239241,-0.153249
-0.180621,-0.042048
-0.190705,-0.076318
-0.204383,-0.113961
-0.220640,-0.154840
-0.168437,-0.022125
-0.173827,-0.062514
-0.185586,-0.107030
-0.201787,-0.155631
-0.255680,-0.189110
-0.261677,-0.220209
-0.267309,-0.252902
-0.238975,-0.198791
-0.243618,-0.230566
-0.221449,-0.208142
-0.272658,-0.287123
-0.268379,-0.330331
-0.262832,-0.375627
-0.256182,-0.422951
-0.248005,-0.263914
-0.241738,-0.314361
-0.233667,-0.367879
-0.224066,-0.424357
-0.224775,-0.240614
-0.216033,-0.297872
-0.204877,-0.359402
-0.191734,-0.425015
-0.248567,-0.472247
-0.232177,-0.509665
-0.214792,-0.548058
-0.213169,-0.483696
-0.195535,-0.521260
-0.176953,-0.494550
-0.196470,-0.587426
-0.159336,-0.628970
-0.120332,-0.671325
-0.079519,-0.714531
-0.176937,-0.559820
-0.131055,-0.607390
-0.082393,-0.656066
-0.031056,-0.705917
-0.158069,-0.532288
-0.103357,-0.585454
-0.044753,-0.640077
0.017577,-0.696268
-0.036961,-0.758624
0.005582,-0.786788
0.049350,-0.815155
0.022851,-0.757009
0.066665,-0.784638
0.083467,-0.754133
0.094329,-0.843750
0.146702,-0.861376
0.200288,-0.878773
0.111719,-0.812500
0.164018,-0.829393
0.128598,-0.781250
0.255098,-0.895969
0.328768,-0.903234
0.404184,-0.909612
0.481408,-0.915139
0.217556,-0.846053
0.303635,-0.855846
0.392284,-0.864398
0.483608,-0.871776
0.180820,-0.797398
0.278673,-0.809494
0.380085,-0.819915
0.485224,-0.828768
0.560502,-0.919856
0.625133,-0.907101
0.690701,-0.893371
0.577712,-0.878047
0.642066,-0.864485
0.594256,-0.836164
0.757263,-0.878667
0.835919,-0.841692
0.915539,-0.802745
0.996263,-0.761770
0.707385,-0.849926
0.799754,-0.805997
0.893421,-0.759208
0.988616,-0.709460
0.658323,-0.821780
0.763806,-0.771052
0.870926,-0.716401
0.980034,-0.657668
1.078255,-0.718708
1.135727,-0.669976
1.193482,-0.619716
1.085617,-0.656639
1.142126,-0.607035
1.091555,-0.594663
1.251601,-0.567862
1.304868,-0.487495
1.357091,-0.404843
1.408086,-0.319775
1.198892,-0.555858
1.258525,-0.459823
1.316081,-0.360716
1.371059,-0.258373
1.147003,-0.544182
1.212435,-0.432951
1.274406,-0.317808
1.331935,-0.198581
1.457487,-0.232155
1.478858,-0.155687
1.496562,-0.078253
1.422441,-0.152658
1.438919,-0.076695
1.383094,-0.075228
1.570410,-0.000000
1.550341,0.106365
1.521897,0.210965
1.487977,0.313484
1.427711,0.405393
1.366720,0.494230
1.305106,0.580222
1.225866,0.649871
1.147421,0.716694
1.069546,0.780845
0.981003,0.825527
0.893858,0.867898
0.807923,0.908023
0.717757,0.927573
0.629376,0.945429
0.542646,0.961589
0.457555,0.957811
0.374493,0.953013
0.293381,0.947148
0.218936,0.923441
0.146630,0.899413
0.076439,0.875000
0.016826,0.835961
-0.040672,0.797308
-0.096031,0.758976
-0.138213,0.709968
-0.178447,0.662027
-0.216651,0.615107
-0.240524,0.561770
-0.262746,0.510129
-0.283184,0.460182
-0.289615,0.407941
-0.294836,0.357946
-0.298659,0.310262
-0.290281,0.263810
-0.281333,0.220029
-0.271590,0.179075
-0.253118,0.141771
-0.235270,0.107313
-0.218146,0.075928
-0.198852,0.048643
-0.185034,0.023439
-0.179590,-0.000000
-0.185034,-0.023439
-0.198852,-0.048643
-0.218146,-0.075928
-0.235270,-0.107313
-0.253118,-0.141771
-0.271590,-0.179075
-0.281333,-0.220029
-0.290281,-0.263810
-0.298659,-0.310262
-0.294836,-0.357946
-0.289615,-0.407941
-0.283184,-0.460182
-0.262746,-0.510129
-0.240524,-0.561770
-0.216651,-0.615107
-0.178447,-0.662027
-0.138213,-0.709968
-0.096031,-0.758976
-0.040672,-0.797308
0.016826,-0.835961
0.076439,-0.875000
0.146630,-0.899413
0.218936,-0.923441
0.293381,-0.947148
0.374493,-0.953013
0.457555,-0.957811
0.542646,-0.961589
0.629376,-0.945429
0.717757,-0.927573
0.807923,-0.908023
0.893858,-0.867898
0.981003,-0.825527
1.069546,-0.780845
1.147421,-0.716694
1.225866,-0.649871
1.305106,-0.580222
1.366720,-0.494230
1.427711,-0.405393
1.487977,-0.313484
1.521897,-0.210965
1.550341,-0.106365
1.655872,-0.000000
1.650011,0.055487
1.612309,-0.000000
1.640704,0.110640
1.617203,0.182406
1.591467,0.252954
1.607047,0.054616
1.584529,0.143918
1.556713,0.231696
1.564131,0.322336
1.536007,0.371383
1.525881,0.317824
1.507668,0.419661
1.463911,0.479923
1.420190,0.538795
1.498633,0.366388
1.446174,0.442434
1.393520,0.516326
1.376411,0.596357
1.338646,0.635183
1.340596,0.588204
1.301023,0.673286
1.246613,0.718541
1.192615,0.762574
1.303453,0.626722
1.236447,0.684071
1.170043,0.739482
1.138955,0.805424
1.095751,0.832637
1.104099,0.793042
1.052830,0.859232
0.993034,0.888147
0.933859,0.916069
1.061429,0.820052
0.987159,0.856736
0.913862,0.891841
0.875249,0.943008
0.830019,0.958263
0.841427,0.925400
0.785165,0.973029
0.724605,0.985632
0.664814,0.997502
0.796714,0.940548
0.721289,0.956513
0.647087,0.971317
0.605756,1.008631
0.561580,1.012423
0.574031,0.984955
0.517853,1.015866
0.460660,1.013329
0.404335,1.010337
0.530381,0.988746
0.459198,0.985480
0.389402,0.981506
0.348860,1.006873
0.308438,1.000411
0.320946,0.976797
0.268511,0.993750
0.218175,0.978194
0.168754,0.962475
0.281060,0.970459
0.218641,0.950718
0.157687,0.930742
0.120250,0.946569
0.085779,0.931640
0.098178,0.910491
0.051825,0.916667
0.020449,0.898269
0.064239,0.895833
-0.010411,0.879917
-0.048251,0.852313
-0.085174,0.824896
0.032848,0.877752
-0.015718,0.844339
-0.062837,0.811202
-0.121183,0.797643
-0.144446,0.774049
-0.108493,0.778299
-0.167215,0.750655
-0.193555,0.717181
-0.219045,0.684178
-0.131797,0.755030
-0.165896,0.713743
-0.198655,0.673193
-0.243666,0.651631
-0.258229,0.625374
-0.230027,0.633350
-0.272343,0.599466
-0.286730,0.563676
-0.300384,0.528626
-0.244666,0.607442
-0.263635,0.562871
-0.281458,0.519467
-0.313269,0.494311
-0.319256,0.467906
-0.298057,0.477224
-0.324866,0.441991
-0.327885,0.407303
-0.330337,0.373597
-0.304184,0.451203
-0.308746,0.407764
-0.312446,0.365872
-0.332170,0.340883
-0.330418,0.316638
-0.315173,0.325559
-0.328385,0.293010
-0.321643,0.262415
-0.314565,0.233003
-0.313673,0.301729
-0.305937,0.263264
-0.297741,0.226651
-0.307074,0.204812
-0.299151,0.184626
-0.288944,0.191976
-0.291086,0.165163
-0.277317,0.140910
-0.263607,0.117967
-0.281501,0.172204
-0.265153,0.141527
-0.249076,0.112864
-0.249861,0.096414
-0.238453,0.081501
-0.233193,0.086356
-0.227261,0.067358
-0.211623,0.050395
-0.197585,0.034599
-0.222877,0.071729
-0.205206,0.049782
-0.190553,0.029486
-0.185782,0.020021
-0.179899,0.009843
-0.181196,0.010715
-0.177462,-0.000000
-0.179899,-0.009843
-0.179358,-0.000000
-0.185782,-0.020021
-0.197585,-0.034599
-0.211623,-0.050395
-0.181196,-0.010715
-0.190553,-0.029486
-0.205206,-0.049782
-0.227261,-0.067358
-0.238453,-0.081501
-0.222877,-0.071729
-0.249861,-0.096414
-0.263607,-0.117967
-0.277317,-0.140910
-0.233193,-0.086356
-0.249076,-0.112864
-0.265153,-0.141527
-0.291086,-0.165163
-0.299151,-0.184626
-0.281501,-0.172204
-0.307074,-0.204812
-0.314565,-0.233003
-0.321643,-0.262415
-0.288944,-0.191976
-0.297741,-0.226651
-0.305937,-0.263264
-0.328385,-0.293010
-0.330418,-0.316638
-0.313673,-0.301729
-0.332170,-0.340883
-0.330337,-0.373597
-0.327885,-0.407303
-0.315173,-0.325559
-0.312446,-0.365872
-0.308746,-0.407764
-0.324866,-0.441991
-0.319256,-0.467906
-0.304184,-0.451203
-0.313269,-0.494311
-0.300384,-0.528626
-0.286730,-0.563676
-0.298057,-0.477224
-0.281458,-0.519467
-0.263635,-0.562871
-0.272343,-0.599466
-0.258229,-0.625374
-0.244666,-0.607442
-0.243666,-0.651631
-0.219045,-0.684178
-0.193555,-0.717181
-0.230027,-0.633350
-0.198655,-0.673193
-0.165896,-0.713743
-0.167215,-0.750655
-0.144446,-0.774049
-0.131797,-0.755030
-0.121183,-0.797643
-0.085174,-0.824896
-0.048251,-0.852313
-0.108493,-0.778299
-0.062837,-0.811202
-0.015718,-0.844339
-0.010411,-0.879917
0.020449,-0.898269
0.032848,-0.877752
0.051825,-0.916667
0.085779,-0.931640
0.064239,-0.895833
0.120250,-0.946569
0.168754,-0.962475
0.218175,-0.978194
0.098178,-0.910491
0.157687,-0.930742
0.218641,-0.950718
0.268511,-0.993750
0.308438,-1.000411
0.281060,-0.970459
0.348860,-1.006873
0.404335,-1.010337
0.460660,-1.013329
0.320946,-0.976797
0.389402,-0.981506
0.459198,-0.985480
0.517853,-1.015866
0.561580,-1.012423
0.530381,-0.988746
0.605756,-1.008631
0.664814,-0.997502
0.724605,-0.985632
0.574031,-0.984955
0.647087,-0.971317
0.721289,-0.956513
0.785165,-0.973029
0.830019,-0.958263
0.796714,-0.940548
0.875249,-0.943008
0.933859,-0.916069
0.993034,-0.888147
0.841427,-0.925400
0.913862,-0.891841
0.987159,-0.856736
1.052830,-0.859232
1.095751,-0.832637
1.061429,-0.820052
1.138955,-0.805424
1.192615,-0.762574
1.246613,-0.718541
1.104099,-0.793042
1.170043,-0.739482
1.236447,-0.684071
1.301023,-0.673286
1.338646,-0.635183
1.303453,-0.626722
1.376411,-0.596357
1.420190,-0.538795
1.463911,-0.479923
1.340596,-0.588204
1.393520,-0.516326
1.446174,-0.442434
1.507668,-0.419661
1.536007,-0.371383
1.498633,-0.366388
1.564131,-0.322336
1.591467,-0.252954
1.617203,-0.182406
1.525881,-0.317824
1.556713,-0.231696
1.584529,-0.143918
1.640704,-0.110640
1.650011,-0.055487
1.607047,-0.054616
1.701499,-0.000000
1.689600,0.084495
1.669901,0.168032
1.637253,0.248357
1.602825,0.327028
1.559180,0.401015
1.515250,0.473261
1.463824,0.539832
1.412529,0.604689
1.355005,0.663102
1.297861,0.719902
1.235723,0.769705
1.174104,0.818001
1.108610,0.858877
1.043765,0.898381
0.976195,0.930236
0.909380,0.960855
0.840909,0.983702
0.773286,1.005462
0.705078,1.019506
0.637804,1.032623
0.570937,1.038173
0.505065,1.042948
0.440556,1.040463
0.377100,1.037381
0.315875,1.027420
0.255737,1.017020
0.198623,1.000251
0.142624,0.983229
0.090345,0.960414
0.039198,0.937500
-0.007651,0.909451
-0.053367,0.881499
-0.094289,0.849127
-0.134098,0.817007
-0.168746,0.781209
-0.202307,0.745850
-0.230463,0.707602
-0.257566,0.669949
-0.279129,0.630175
-0.299696,0.591174
-0.314720,0.550846
-0.328811,0.511445
-0.337450,0.471449
-0.345240,0.432542
-0.347814,0.393773
-0.349632,0.356239
-0.346542,0.319481
-0.342803,0.284096
-0.334629,0.250094
-0.325937,0.217598
-0.313343,0.186964
-0.300368,0.157942
-0.284240,0.131187
-0.267981,0.106146
-0.249448,0.083605
-0.231201,0.062806
-0.212125,0.044556
-0.194827,0.027958
-0.180264,0.013501
-0.173501,-0.000000
-0.180264,-0.013501
-0.194827,-0.027958
-0.212125,-0.044556
-0.231201,-0.062806
-0.249448,-0.083605
-0.267981,-0.106146
-0.284240,-0.131187
-0.300368,-0.157942
-0.313343,-0.186964
-0.325937,-0.217598
-0.334629,-0.250094
-0.342803,-0.284096
-0.346542,-0.319481
-0.349632,-0.356239
-0.347814,-0.393773
-0.345240,-0.432542
-0.337450,-0.471449
-0.328811,-0.511445
-0.314720,-0.550846
-0.299696,-0.591174
-0.279129,-0.630175
-0.257566,-0.669949
-0.230463,-0.707602
-0.202307,-0.745850
-0.168746,-0.781209
-0.134098,-0.817007
-0.094289,-0.849127
-0.053367,-0.881499
-0.007651,-0.909451
0.039198,-0.937500
0.090345,-0.960414
0.142624,-0.983229
0.198623,-1.000251
0.255737,-1.017020
0.315875,-1.027420
0.377100,-1.037381
0.440556,-1.040463
0.505065,-1.042948
0.570937,-1.038173
0.637804,-1.032623
0.705078,-1.019506
0.773286,-1.005462
0.840909,-0.983702
0.909380,-0.960855
0.976195,-0.930236
1.043765,-0.898381
1.108610,-0.858877
1.174104,-0.818001
1.235723,-0.769705
1.297861,-0.719902
1.355005,-0.663102
1.412529,-0.604689
1.463824,-0.539832
1.515250,-0.473261
1.559180,-0.401015
1.602825,-0.327028
1.637253,-0.248357
1.669901,-0.168032
1.689600,-0.084495
1.737867,-0.000000
1.733135,0.043001
1.719268,0.106990
1.701868,0.170090
1.686204,0.211174
1.659444,0.271475
1.632163,0.330621
1.611084,0.368646
1.577078,0.423968
1.543142,0.478171
1.518250,0.512641
1.478863,0.562316
1.439635,0.610913
1.411657,0.641466
1.367922,0.684990
1.324473,0.727522
1.294099,0.753938
1.247071,0.791020
1.200381,0.827177
1.168191,0.849288
1.118743,0.879699
1.069708,0.909274
1.036298,0.927011
0.985373,0.950705
0.934917,0.973648
0.900852,0.987001
0.849292,1.003984
0.798254,1.020305
0.764079,1.029334
0.712742,1.039769
0.661980,1.049643
0.628225,1.054483
0.577895,1.058592
0.528176,1.062228
0.495325,1.063051
0.446751,1.061176
0.398826,1.058941
0.367346,1.056007
0.321208,1.048561
0.275739,1.040839
0.246038,1.034418
0.202945,1.021881
0.160544,1.009192
0.132994,0.999641
0.093485,0.982585
0.054671,0.965458
0.029567,0.953125
0.005604,0.939548
-0.029050,0.917990
-0.063008,0.896502
-0.084147,0.880751
-0.114363,0.856057
-0.143888,0.831515
-0.161997,0.813999
-0.187516,0.786827
-0.212366,0.759931
-0.227329,0.741122
-0.248000,0.712200
-0.268023,0.683638
-0.279772,0.663969
-0.295521,0.633967
-0.310661,0.604439
-0.319204,0.584380
-0.330082,0.554026
-0.340386,0.524234
-0.345773,0.504213
-0.351885,0.474148
-0.357475,0.444744
-0.359830,0.425193
-0.361421,0.396089
-0.362543,0.367736
-0.362038,0.349053
-0.359389,0.321478
-0.356327,0.294738
-0.353187,0.277287
-0.346725,0.251805
-0.339924,0.227246
-0.334449,0.211364
-0.324637,0.188427
-0.314540,0.166482
-0.307054,0.152435
-0.294513,0.132436
-0.281813,0.113515
-0.272796,0.101541
-0.258310,0.084756
-0.243754,0.069091
-0.233770,0.059305
-0.218494,0.045833
-0.203739,0.033517
-0.194275,0.025912
-0.181307,0.015544
-0.171871,0.006065
-0.168383,-0.000000
-0.171871,-0.006065
-0.181307,-0.015544
-0.194275,-0.025912
-0.203739,-0.033517
-0.218494,-0.045833
-0.233770,-0.059305
-0.243754,-0.069091
-0.258310,-0.084756
-0.272796,-0.101541
-0.281813,-0.113515
-0.294513,-0.132436
-0.307054,-0.152435
-0.314540,-0.166482
-0.324637,-0.188427
-0.334449,-0.211364
-0.339924,-0.227246
-0.346725,-0.251805
-0.353187,-0.277287
-0.356327,-0.294738
-0.359389,-0.321478
-0.362038,-0.349053
-0.362543,-0.367736
-0.361421,-0.396089
-0.359830,-0.425193
-0.357475,-0.444744
-0.351885,-0.474148
-0.345773,-0.504213
-0.340386,-0.524234
-0.330082,-0.554026
-0.319204,-0.584380
-0.310661,-0.604439
-0.295521,-0.633967
-0.279772,-0.663969
-0.268023,-0.683638
-0.248000,-0.712200
-0.227329,-0.741122
-0.212366,-0.759931
-0.187516,-0.786827
-0.161997,-0.813999
-0.143888,-0.831515
-0.114363,-0.856057
-0.084147,-0.880751
-0.063008,-0.896502
-0.029050,-0.917990
0.005604,-0.939548
0.029567,-0.953125
0.054671,-0.965458
0.093485,-0.982585
0.132994,-0.999641
0.160544,-1.009192
0.202945,-1.021881
0.246038,-1.034418
0.275739,-1.040839
0.321208,-1.048561
0.367346,-1.056007
0.398826,-1.058941
0.446751,-1.061176
0.495325,-1.063051
0.528176,-1.062228
0.577895,-1.058592
0.628225,-1.054483
0.661980,-1.049643
0.712742,-1.039769
0.764079,-1.029334
0.798254,-1.020305
0.849292,-1.003984
0.900852,-0.987001
0.934917,-0.973648
0.985373,-0.950705
1.036298,-0.927011
1.069708,-0.909274
1.118743,-0.879699
1.168191,-0.849288
1.200381,-0.827177
1.247071,-0.791020
1.294099,-0.753938
1.324473,-0.727522
1.367922,-0.684990
1.411657,-0.641466
1.439635,-0.610913
1.478863,-0.562316
1.518250,-0.512641
1.543142,-0.478171
1.577078,-0.423968
1.611084,-0.368646
1.632163,-0.330621
1.659444,-0.271475
1.686204,-0.211174
1.701868,-0.170090
1.719268,-0.106990
1.733135,-0.043001
1.776957,-0.000000
1.761158,0.087258
1.734319,0.172465
1.700578,0.255034
1.661640,0.334527
1.618252,0.410699
1.571125,0.483361
1.520576,0.552326
1.466854,0.617408
1.410261,0.678455
1.351175,0.735392
1.289926,0.788138
1.226756,0.836605
1.161923,0.880699
1.095735,0.920409
1.028519,0.955739
0.960539,0.986686
0.892044,1.013228
0.823302,1.035396
0.754608,1.053264
0.686230,1.066915
0.618402,1.076395
0.551358,1.081776
0.485348,1.083186
0.420614,1.080775
0.357365,1.074663
0.295799,1.064961
0.236115,1.051828
0.178507,1.035467
0.123147,1.016063
0.070187,0.993767
0.019785,0.968750
-0.027945,0.941246
-0.072867,0.911497
-0.114884,0.879691
-0.153901,0.846012
-0.189840,0.810688
-0.222651,0.773982
-0.252290,0.736120
-0.278716,0.697295
-0.301906,0.657720
-0.321870,0.617652
-0.338637,0.577333
-0.352224,0.536965
-0.362654,0.496732
-0.369990,0.456866
-0.374334,0.417600
-0.375767,0.379135
-0.374359,0.341625
-0.370205,0.305256
-0.363473,0.270228
-0.354322,0.236729
-0.342872,0.204880
-0.329235,0.174809
-0.313626,0.146656
-0.296319,0.120578
-0.277520,0.096655
-0.257397,0.074940
-0.236199,0.055489
-0.214580,0.038358
-0.193241,0.023549
-0.173855,0.010875
-0.160543,-0.000000
-0.173855,-0.010875
-0.193241,-0.023549
-0.214580,-0.038358
-0.236199,-0.055489
-0.257397,-0.074940
-0.277520,-0.096655
-0.296319,-0.120578
-0.313626,-0.146656
-0.329235,-0.174809
-0.342872,-0.204880
-0.354322,-0.236729
-0.363473,-0.270228
-0.370205,-0.305256
-0.374359,-0.341625
-0.375767,-0.379135
-0.374334,-0.417600
-0.369990,-0.456866
-0.362654,-0.496732
-0.352224,-0.536965
-0.338637,-0.577333
-0.321870,-0.617652
-0.301906,-0.657720
-0.278716,-0.697295
-0.252290,-0.736120
-0.222651,-0.773982
-0.189840,-0.810688
-0.153901,-0.846012
-0.114884,-0.879691
-0.072867,-0.911497
-0.027945,-0.941246
0.019785,-0.968750
0.070187,-0.993767
0.123147,-1.016063
0.178507,-1.035467
0.236115,-1.051828
0.295799,-1.064961
0.357365,-1.074663
0.420614,-1.080775
0.485348,-1.083186
0.551358,-1.081776
0.618402,-1.076395
0.686230,-1.066915
0.754608,-1.053264
0.823302,-1.035396
0.892044,-1.013228
0.960539,-0.986686
1.028519,-0.955739
1.095735,-0.920409
1.161923,-0.880699
1.226756,-0.836605
1.289926,-0.788138
1.351175,-0.735392
1.410261,-0.678455
1.466854,-0.617408
1.520576,-0.552326
1.571125,-0.483361
1.618252,-0.410699
1.661640,-0.334527
1.700578,-0.255034
1.734319,-0.172465
1.761158,-0.087258
