1.455299,0.000000
0.913627,0.378437
0.698365,0.698365
0.377908,0.912352
0.000000,0.988014
-0.378073,0.912750
-0.698357,0.698357
-0.912591,0.378007
-0.988016,0.000000
-0.912591,-0.378007
-0.698357,-0.698357
-0.378073,-0.912750
-0.000000,-0.988014
0.377908,-0.912352
0.698365,-0.698365
0.913627,-0.378437
0.030222,0.000000
0.389580,0.000000
0.204469,0.164640
0.206981,0.000000
0.023377,0.329278
-0.144319,0.164639
0.028364,0.164639
-0.314266,0.000000
-0.144319,-0.164639
-0.143114,0.000000
0.023377,-0.329278
0.204469,-0.164640
0.028364,-0.164639
0.581256,0.000000
0.290336,0.246960
0.016145,0.493916
-0.230886,0.246958
-0.484704,0.000000
-0.230886,-0.246958
0.016145,-0.493916
0.290336,-0.246960
0.754555,0.000000
0.661158,0.185252
0.411988,0.376491
0.205843,0.567745
0.012730,0.617414
-0.174725,0.567782
-0.366451,0.376486
-0.560395,0.185208
-0.610829,0.000000
-0.560395,-0.185208
-0.366451,-0.376486
-0.174725,-0.567782
0.012730,-0.617414
0.205843,-0.567745
0.411988,-0.376491
0.661158,-0.185252
0.958398,0.000000
0.675945,0.370543
0.385342,0.641500
0.008882,0.740931
-0.364705,0.641625
-0.636918,0.370402
-0.736601,0.000000
-0.636918,-0.370402
-0.364705,-0.641625
0.008882,-0.740931
0.385342,-0.641500
0.675945,-0.370543
