0.422120, 0.000000,0.226464, 0.446273,-0.031118, 0.000000,0.422120,0.000000
0.226464, 0.446273,-0.271185, 0.446681,-0.031118, 0.000000,0.226464,0.446273
-0.271185, 0.446681,-0.525695, -0.000000,-0.031118, 0.000000,-0.271185,0.446681
-0.525695, -0.000000,-0.271185, -0.446681,-0.031118, 0.000000,-0.525695,-0.000000
-0.271185, -0.446681,0.226464, -0.446273,-0.031118, 0.000000,-0.271185,-0.446681
0.226464, -0.446273,0.422120, 0.000000,-0.031118, 0.000000,0.226464,-0.446273
0.573792, 0.000000,0.629379, 0.262981,0.422120, 0.000000,0.573792,0.000000
0.629379, 0.262981,0.564286, 0.498961,0.226464, 0.446273,0.422120, 0.000000,0.629379,0.262981
0.564286, 0.498961,0.366823, 0.666805,0.226464, 0.446273,0.564286,0.498961
0.366823, 0.666805,0.125362, 0.765167,0.226464, 0.446273,0.366823,0.666805
0.125362, 0.765167,-0.141734, 0.758387,-0.271185, 0.446681,0.226464, 0.446273,0.125362,0.765167
-0.141734, 0.758387,-0.393754, 0.672626,-0.271185, 0.446681,-0.141734,0.758387
-0.393754, 0.672626,-0.595178, 0.494792,-0.271185, 0.446681,-0.393754,0.672626
-0.595178, 0.494792,-0.734069, 0.265592,-0.525695, -0.000000,-0.271185, 0.446681,-0.595178,0.494792
-0.734069, 0.265592,-0.774728, -0.000000,-0.525695, -0.000000,-0.734069,0.265592
-0.774728, -0.000000,-0.734069, -0.265592,-0.525695, -0.000000,-0.774728,-0.000000
-0.734069, -0.265592,-0.595178, -0.494792,-0.271185, -0.446681,-0.525695, -0.000000,-0.734069,-0.265592
-0.595178, -0.494792,-0.393754, -0.672626,-0.271185, -0.446681,-0.595178,-0.494792
-0.393754, -0.672626,-0.141734, -0.758387,-0.271185, -0.446681,-0.393754,-0.672626
-0.141734, -0.758387,0.125362, -0.765167,0.226464, -0.446273,-0.271185, -0.446681,-0.141734,-0.758387
0.125362, -0.765167,0.366823, -0.666805,0.226464, -0.446273,0.125362,-0.765167
0.366823, -0.666805,0.564286, -0.498961,0.226464, -0.446273,0.366823,-0.666805
0.564286, -0.498961,0.629379, -0.262981,0.422120, 0.000000,0.226464, -0.446273,0.564286,-0.498961
0.629379, -0.262981,0.573792, 0.000000,0.422120, 0.000000,0.629379,-0.262981
0.576547, 0.000000,0.629993, 0.111924,0.573792, 0.000000,0.576547,0.000000
0.629993, 0.111924,0.735580, 0.252685,0.629379, 0.262981,0.573792, 0.000000,0.629993,0.111924
0.735580, 0.252685,0.793169, 0.404912,0.629379, 0.262981,0.735580,0.252685
0.793169, 0.404912,0.753559, 0.528377,0.564286, 0.498961,0.629379, 0.262981,0.793169,0.404912
0.753559, 0.528377,0.648952, 0.612094,0.564286, 0.498961,0.753559,0.528377
0.648952, 0.612094,0.536391, 0.684717,0.366823, 0.666805,0.564286, 0.498961,0.648952,0.612094
0.536391, 0.684717,0.434948, 0.770677,0.366823, 0.666805,0.536391,0.684717
0.434948, 0.770677,0.326629, 0.852761,0.366823, 0.666805,0.434948,0.770677
0.326629, 0.852761,0.199976, 0.896218,0.125362, 0.765167,0.366823, 0.666805,0.326629,0.852761
0.199976, 0.896218,0.064540, 0.898057,0.125362, 0.765167,0.199976,0.896218
0.064540, 0.898057,-0.069799, 0.884684,-0.141734, 0.758387,0.125362, 0.765167,0.064540,0.898057
-0.069799, 0.884684,-0.203880, 0.872852,-0.141734, 0.758387,-0.069799,0.884684
-0.203880, 0.872852,-0.337259, 0.848989,-0.393754, 0.672626,-0.141734, 0.758387,-0.203880,0.872852
-0.337259, 0.848989,-0.459438, 0.791992,-0.393754, 0.672626,-0.337259,0.848989
-0.459438, 0.791992,-0.562552, 0.703965,-0.393754, 0.672626,-0.459438,0.791992
-0.562552, 0.703965,-0.654741, 0.605325,-0.595178, 0.494792,-0.393754, 0.672626,-0.562552,0.703965
-0.654741, 0.605325,-0.744644, 0.504715,-0.595178, 0.494792,-0.654741,0.605325
-0.744644, 0.504715,-0.823493, 0.394624,-0.734069, 0.265592,-0.595178, 0.494792,-0.744644,0.504715
-0.823493, 0.394624,-0.873188, 0.269281,-0.734069, 0.265592,-0.823493,0.394624
-0.873188, 0.269281,-0.890655, 0.134943,-0.774728, -0.000000,-0.734069, 0.265592,-0.873188,0.269281
-0.890655, 0.134943,-0.892423, -0.000000,-0.774728, -0.000000,-0.890655,0.134943
-0.892423, -0.000000,-0.890655, -0.134943,-0.774728, -0.000000,-0.892423,-0.000000
-0.890655, -0.134943,-0.873188, -0.269281,-0.734069, -0.265592,-0.774728, -0.000000,-0.890655,-0.134943
-0.873188, -0.269281,-0.823493, -0.394624,-0.734069, -0.265592,-0.873188,-0.269281
-0.823493, -0.394624,-0.744644, -0.504715,-0.595178, -0.494792,-0.734069, -0.265592,-0.823493,-0.394624
-0.744644, -0.504715,-0.654741, -0.605325,-0.595178, -0.494792,-0.744644,-0.504715
-0.654741, -0.605325,-0.562552, -0.703965,-0.393754, -0.672626,-0.595178, -0.494792,-0.654741,-0.605325
-0.562552, -0.703965,-0.459438, -0.791992,-0.393754, -0.672626,-0.562552,-0.703965
-0.459438, -0.791992,-0.337259, -0.848989,-0.393754, -0.672626,-0.459438,-0.791992
-0.337259, -0.848989,-0.203880, -0.872852,-0.141734, -0.758387,-0.393754, -0.672626,-0.337259,-0.848989
-0.203880, -0.872852,-0.069799, -0.884684,-0.141734, -0.758387,-0.203880,-0.872852
-0.069799, -0.884684,0.064540, -0.898057,0.125362, -0.765167,-0.141734, -0.758387,-0.069799,-0.884684
0.064540, -0.898057,0.199976, -0.896218,0.125362, -0.765167,0.064540,-0.898057
0.199976, -0.896218,0.326629, -0.852761,0.366823, -0.666805,0.125362, -0.765167,0.199976,-0.896218
0.326629, -0.852761,0.434948, -0.770677,0.366823, -0.666805,0.326629,-0.852761
0.434948, -0.770677,0.536391, -0.684717,0.366823, -0.666805,0.434948,-0.770677
0.536391, -0.684717,0.648952, -0.612094,0.564286, -0.498961,0.366823, -0.666805,0.536391,-0.684717
0.648952, -0.612094,0.753559, -0.528377,0.564286, -0.498961,0.648952,-0.612094
0.753559, -0.528377,0.793169, -0.404912,0.629379, -0.262981,0.564286, -0.498961,0.753559,-0.528377
0.793169, -0.404912,0.735580, -0.252685,0.629379, -0.262981,0.793169,-0.404912
0.735580, -0.252685,0.629993, -0.111924,0.573792, 0.000000,0.629379, -0.262981,0.735580,-0.252685
0.629993, -0.111924,0.576547, 0.000000,0.573792, 0.000000,0.629993,-0.111924
0.502488, 0.000000,0.599522, 0.078929,0.576547, 0.000000,0.502488,0.000000
0.599522, 0.078929,0.629993, 0.111924,0.576547, 0.000000,0.599522,0.078929
0.599522, 0.078929,0.813405, 0.217951,0.629993, 0.111924,0.599522,0.078929
0.813405, 0.217951,0.735580, 0.252685,0.629993, 0.111924,0.813405,0.217951
0.813405, 0.217951,0.981335, 0.406482,0.735580, 0.252685,0.813405,0.217951
0.981335, 0.406482,0.793169, 0.404912,0.735580, 0.252685,0.981335,0.406482
0.981335, 0.406482,0.993453, 0.573570,0.793169, 0.404912,0.981335,0.406482
0.993453, 0.573570,0.753559, 0.528377,0.793169, 0.404912,0.993453,0.573570
0.993453, 0.573570,0.868624, 0.666519,0.753559, 0.528377,0.993453,0.573570
0.868624, 0.666519,0.648952, 0.612094,0.753559, 0.528377,0.868624,0.666519
0.868624, 0.666519,0.707107, 0.707107,0.648952, 0.612094,0.868624,0.666519
0.707107, 0.707107,0.536391, 0.684717,0.648952, 0.612094,0.707107,0.707107
0.707107, 0.707107,0.584984, 0.762366,0.536391, 0.684717,0.707107,0.707107
0.584984, 0.762366,0.434948, 0.770677,0.536391, 0.684717,0.584984,0.762366
0.584984, 0.762366,0.500000, 0.866025,0.434948, 0.770677,0.584984,0.762366
0.500000, 0.866025,0.406482, 0.981335,0.434948, 0.770677,0.500000,0.866025
0.406482, 0.981335,0.326629, 0.852761,0.434948, 0.770677,0.406482,0.981335
0.406482, 0.981335,0.279974, 1.044877,0.326629, 0.852761,0.406482,0.981335
0.279974, 1.044877,0.199976, 0.896218,0.326629, 0.852761,0.279974,1.044877
0.279974, 1.044877,0.136563, 1.037303,0.199976, 0.896218,0.279974,1.044877
0.136563, 1.037303,0.064540, 0.898057,0.199976, 0.896218,0.136563,1.037303
0.136563, 1.037303,0.000000, 1.000000,0.064540, 0.898057,0.136563,1.037303
0.000000, 1.000000,-0.069799, 0.884684,0.064540, 0.898057,0.000000,1.000000
0.000000, 1.000000,-0.129473, 0.983445,-0.069799, 0.884684,0.000000,1.000000
-0.129473, 0.983445,-0.203880, 0.872852,-0.069799, 0.884684,-0.129473,0.983445
-0.129473, 0.983445,-0.265543, 0.991019,-0.203880, 0.872852,-0.129473,0.983445
-0.265543, 0.991019,-0.337259, 0.848989,-0.203880, 0.872852,-0.265543,0.991019
-0.265543, 0.991019,-0.406482, 0.981335,-0.337259, 0.848989,-0.265543,0.991019
-0.406482, 0.981335,-0.459438, 0.791992,-0.337259, 0.848989,-0.406482,0.981335
-0.406482, 0.981335,-0.531095, 0.919883,-0.459438, 0.791992,-0.406482,0.981335
-0.531095, 0.919883,-0.626310, 0.816223,-0.459438, 0.791992,-0.531095,0.919883
-0.626310, 0.816223,-0.562552, 0.703965,-0.459438, 0.791992,-0.626310,0.816223
-0.626310, 0.816223,-0.707107, 0.707107,-0.562552, 0.703965,-0.626310,0.816223
-0.707107, 0.707107,-0.654741, 0.605325,-0.562552, 0.703965,-0.707107,0.707107
-0.707107, 0.707107,-0.798436, 0.612661,-0.654741, 0.605325,-0.707107,0.707107
-0.798436, 0.612661,-0.744644, 0.504715,-0.654741, 0.605325,-0.798436,0.612661
-0.798436, 0.612661,-0.900170, 0.519713,-0.744644, 0.504715,-0.798436,0.612661
-0.900170, 0.519713,-0.823493, 0.394624,-0.744644, 0.504715,-0.900170,0.519713
-0.900170, 0.519713,-0.981335, 0.406482,-0.823493, 0.394624,-0.900170,0.519713
-0.981335, 0.406482,-0.873188, 0.269281,-0.823493, 0.394624,-0.981335,0.406482
-0.981335, 0.406482,-1.014403, 0.271808,-0.873188, 0.269281,-0.981335,0.406482
-1.014403, 0.271808,-0.890655, 0.134943,-0.873188, 0.269281,-1.014403,0.271808
-1.014403, 0.271808,-1.008609, 0.132786,-0.890655, 0.134943,-1.014403,0.271808
-1.008609, 0.132786,-0.892423, -0.000000,-0.890655, 0.134943,-1.008609,0.132786
-1.008609, 0.132786,-1.000000, 0.000000,-0.892423, -0.000000,-1.008609,0.132786
-1.000000, 0.000000,-1.008609, -0.132786,-0.892423, -0.000000,-1.000000,0.000000
-1.008609, -0.132786,-0.890655, -0.134943,-0.892423, -0.000000,-1.008609,-0.132786
-1.008609, -0.132786,-1.014403, -0.271808,-0.890655, -0.134943,-1.008609,-0.132786
-1.014403, -0.271808,-0.873188, -0.269281,-0.890655, -0.134943,-1.014403,-0.271808
-1.014403, -0.271808,-0.981335, -0.406482,-0.873188, -0.269281,-1.014403,-0.271808
-0.981335, -0.406482,-0.823493, -0.394624,-0.873188, -0.269281,-0.981335,-0.406482
-0.981335, -0.406482,-0.900170, -0.519713,-0.823493, -0.394624,-0.981335,-0.406482
-0.900170, -0.519713,-0.744644, -0.504715,-0.823493, -0.394624,-0.900170,-0.519713
-0.900170, -0.519713,-0.798436, -0.612661,-0.744644, -0.504715,-0.900170,-0.519713
-0.798436, -0.612661,-0.654741, -0.605325,-0.744644, -0.504715,-0.798436,-0.612661
-0.798436, -0.612661,-0.707107, -0.707107,-0.654741, -0.605325,-0.798436,-0.612661
-0.707107, -0.707107,-0.562552, -0.703965,-0.654741, -0.605325,-0.707107,-0.707107
-0.707107, -0.707107,-0.626310, -0.816223,-0.562552, -0.703965,-0.707107,-0.707107
-0.626310, -0.816223,-0.459438, -0.791992,-0.562552, -0.703965,-0.626310,-0.816223
-0.626310, -0.816223,-0.531095, -0.919883,-0.459438, -0.791992,-0.626310,-0.816223
-0.531095, -0.919883,-0.406482, -0.981335,-0.459438, -0.791992,-0.531095,-0.919883
-0.406482, -0.981335,-0.337259, -0.848989,-0.459438, -0.791992,-0.406482,-0.981335
-0.406482, -0.981335,-0.265543, -0.991019,-0.337259, -0.848989,-0.406482,-0.981335
-0.265543, -0.991019,-0.203880, -0.872852,-0.337259, -0.848989,-0.265543,-0.991019
-0.265543, -0.991019,-0.129473, -0.983445,-0.203880, -0.872852,-0.265543,-0.991019
-0.129473, -0.983445,-0.069799, -0.884684,-0.203880, -0.872852,-0.129473,-0.983445
-0.129473, -0.983445,0.000000, -1.000000,-0.069799, -0.884684,-0.129473,-0.983445
0.000000, -1.000000,0.064540, -0.898057,-0.069799, -0.884684,0.000000,-1.000000
0.000000, -1.000000,0.136563, -1.037303,0.064540, -0.898057,0.000000,-1.000000
0.136563, -1.037303,0.199976, -0.896218,0.064540, -0.898057,0.136563,-1.037303
0.136563, -1.037303,0.279974, -1.044877,0.199976, -0.896218,0.136563,-1.037303
0.279974, -1.044877,0.326629, -0.852761,0.199976, -0.896218,0.279974,-1.044877
0.279974, -1.044877,0.406482, -0.981335,0.326629, -0.852761,0.279974,-1.044877
0.406482, -0.981335,0.434948, -0.770677,0.326629, -0.852761,0.406482,-0.981335
0.406482, -0.981335,0.500000, -0.866025,0.434948, -0.770677,0.406482,-0.981335
0.500000, -0.866025,0.584984, -0.762366,0.434948, -0.770677,0.500000,-0.866025
0.584984, -0.762366,0.536391, -0.684717,0.434948, -0.770677,0.584984,-0.762366
0.584984, -0.762366,0.707107, -0.707107,0.536391, -0.684717,0.584984,-0.762366
0.707107, -0.707107,0.648952, -0.612094,0.536391, -0.684717,0.707107,-0.707107
0.707107, -0.707107,0.868624, -0.666519,0.648952, -0.612094,0.707107,-0.707107
0.868624, -0.666519,0.753559, -0.528377,0.648952, -0.612094,0.868624,-0.666519
0.868624, -0.666519,0.993453, -0.573570,0.753559, -0.528377,0.868624,-0.666519
0.993453, -0.573570,0.793169, -0.404912,0.753559, -0.528377,0.993453,-0.573570
0.993453, -0.573570,0.981335, -0.406482,0.793169, -0.404912,0.993453,-0.573570
0.981335, -0.406482,0.735580, -0.252685,0.793169, -0.404912,0.981335,-0.406482
0.981335, -0.406482,0.813405, -0.217951,0.735580, -0.252685,0.981335,-0.406482
0.813405, -0.217951,0.629993, -0.111924,0.735580, -0.252685,0.813405,-0.217951
0.813405, -0.217951,0.599522, -0.078929,0.629993, -0.111924,0.813405,-0.217951
0.599522, -0.078929,0.576547, 0.000000,0.629993, -0.111924,0.599522,-0.078929
0.599522, -0.078929,0.502488, 0.000000,0.576547, 0.000000,0.599522,-0.078929

