1.469655,0.000000
1.058175,0.438311
0.669774,0.669774
0.362493,0.875136
0.000000,0.947223
-0.362485,0.875117
-0.669787,0.669787
-0.875120,0.362486
-0.947222,0.000000
-0.875120,-0.362486
-0.669787,-0.669787
-0.362485,-0.875117
-0.000000,-0.947223
0.362493,-0.875136
0.669774,-0.669774
1.058175,-0.438311
0.056426,-0.000000
0.422520,-0.000000
0.231745,0.160189
0.235378,-0.000000
0.045701,0.317954
-0.119163,0.158611
0.053610,0.159224
-0.287135,0.000000
-0.119163,-0.158611
-0.117163,-0.000000
0.045701,-0.317954
0.231745,-0.160189
0.053610,-0.159224
0.621603,-0.000000
0.317926,0.241140
0.033510,0.475556
-0.205986,0.237590
-0.455618,0.000000
-0.205986,-0.237590
0.033510,-0.475556
0.317926,-0.241140
0.797829,-0.000000
0.704786,0.187601
0.440596,0.370124
0.218123,0.547806
0.025735,0.593706
-0.156806,0.545459
-0.341425,0.361609
-0.530310,0.177780
-0.579268,0.000000
-0.530310,-0.177780
-0.341425,-0.361609
-0.156806,-0.545459
0.025735,-0.593706
0.218123,-0.547806
0.440596,-0.370124
0.704786,-0.187601
1.001590,0.000000
0.733289,0.382364
0.386353,0.618242
0.017565,0.711634
-0.343903,0.615722
-0.606224,0.355399
-0.702100,0.000000
-0.606224,-0.355399
-0.343903,-0.615722
0.017565,-0.711634
0.386353,-0.618242
0.733289,-0.382364
