0.502488,0.000000
0.508982,0.016662
0.528113,0.034614
0.558845,0.055041
0.599522,0.078929
0.647973,0.106981
0.701641,0.139565
0.757736,0.176679
0.813405,0.217951
0.865894,0.262666
0.912703,0.309821
0.951723,0.358203
0.981335,0.406482
1.000485,0.453314
1.008714,0.497443
1.006148,0.537797
0.993453,0.573570
0.971759,0.604278
0.942553,0.629794
0.907563,0.650351
0.868624,0.666519
0.827552,0.679154
0.786029,0.689329
0.745501,0.698238
0.707107,0.707107
0.671626,0.717088
0.639468,0.729174
0.610679,0.744115
0.584984,0.762366
0.561843,0.784050
0.540526,0.808954
0.520198,0.836546
0.500000,0.866025
0.479127,0.896383
0.456894,0.926489
0.432784,0.955175
0.406482,0.981335
0.377879,1.004000
0.347064,1.022419
0.314299,1.036106
0.279974,1.044877
0.244558,1.048852
0.208548,1.048443
0.172416,1.044310
0.136563,1.037303
0.101288,1.028391
0.066761,1.018580
0.033026,1.008835
-0.000000,1.000000
-0.032499,0.992739
-0.064723,0.987485
-0.096957,0.984416
-0.129473,0.983445
-0.162499,0.984240
-0.196178,0.986254
-0.230552,0.988782
-0.265543,0.991019
-0.300960,0.992132
-0.336509,0.991324
-0.371821,0.987904
-0.406482,0.981335
-0.440077,0.971271
-0.472228,0.957583
-0.502632,0.940358
-0.531095,0.919883
-0.557552,0.896616
-0.582079,0.871143
-0.604888,0.844120
-0.626310,0.816223
-0.646768,0.788089
-0.666737,0.760268
-0.686702,0.733184
-0.707107,0.707107
-0.728316,0.682143
-0.750572,0.658234
-0.773969,0.635180
-0.798436,0.612661
-0.823736,0.590281
-0.849481,0.567605
-0.875158,0.544208
-0.900170,0.519713
-0.923878,0.493823
-0.945661,0.466348
-0.964961,0.437218
-0.981335,0.406482
-0.994488,0.374299
-1.004305,0.340915
-1.010857,0.306640
-1.014403,0.271808
-1.015362,0.236749
-1.014286,0.201754
-1.011812,0.167051
-1.008609,0.132786
-1.005323,0.099016
-1.002524,0.065709
-1.000655,0.032758
-1.000000,0.000000
-1.000655,-0.032758
-1.002524,-0.065709
-1.005323,-0.099016
-1.008609,-0.132786
-1.011812,-0.167051
-1.014286,-0.201754
-1.015362,-0.236749
-1.014403,-0.271808
-1.010857,-0.306640
-1.004305,-0.340915
-0.994488,-0.374299
-0.981335,-0.406482
-0.964961,-0.437218
-0.945661,-0.466348
-0.923878,-0.493823
-0.900170,-0.519713
-0.875158,-0.544208
-0.849481,-0.567605
-0.823736,-0.590281
-0.798436,-0.612661
-0.773969,-0.635180
-0.750572,-0.658234
-0.728316,-0.682143
-0.707107,-0.707107
-0.686702,-0.733184
-0.666737,-0.760268
-0.646768,-0.788089
-0.626310,-0.816223
-0.604888,-0.844120
-0.582079,-0.871143
-0.557552,-0.896616
-0.531095,-0.919883
-0.502632,-0.940358
-0.472228,-0.957583
-0.440077,-0.971271
-0.406482,-0.981335
-0.371821,-0.987904
-0.336509,-0.991324
-0.300960,-0.992132
-0.265543,-0.991019
-0.230552,-0.988782
-0.196178,-0.986254
-0.162499,-0.984240
-0.129473,-0.983445
-0.096957,-0.984416
-0.064723,-0.987485
-0.032499,-0.992739
0.000000,-1.000000
0.033026,-1.008835
0.066761,-1.018580
0.101288,-1.028391
0.136563,-1.037303
0.172416,-1.044310
0.208548,-1.048443
0.244558,-1.048852
0.279974,-1.044877
0.314299,-1.036106
0.347064,-1.022419
0.377879,-1.004000
0.406482,-0.981335
0.432784,-0.955175
0.456894,-0.926489
0.479127,-0.896383
0.500000,-0.866025
0.520198,-0.836546
0.540526,-0.808954
0.561843,-0.784050
0.584984,-0.762366
0.610679,-0.744115
0.639468,-0.729174
0.671626,-0.717088
0.707107,-0.707107
0.745501,-0.698238
0.786029,-0.689329
0.827552,-0.679154
0.868624,-0.666519
0.907563,-0.650351
0.942553,-0.629794
0.971759,-0.604278
0.993453,-0.573570
1.006148,-0.537797
1.008714,-0.497443
1.000485,-0.453314
0.981335,-0.406482
0.951723,-0.358203
0.912703,-0.309821
0.865894,-0.262666
0.813405,-0.217951
0.757736,-0.176679
0.701641,-0.139565
0.647973,-0.106981
0.599522,-0.078929
0.558845,-0.055041
0.528113,-0.034614
0.508982,-0.016662
-0.031095,0.000000
0.354169,-0.000000
0.319561,0.074394
0.285670,0.148827
0.251542,0.223247
0.216655,0.297639
0.281518,-0.000000
0.244934,0.074410
0.208908,0.148826
0.172818,0.223237
0.205950,-0.000000
0.167998,0.074413
0.130489,0.148826
0.128316,-0.000000
0.089388,0.074413
0.049175,-0.000000
0.180833,0.372039
0.099229,0.372075
0.017228,0.372071
-0.065171,0.372056
-0.147926,0.372063
0.136306,0.297647
0.055295,0.297653
-0.026310,0.297652
-0.108431,0.297651
0.093007,0.223238
0.012314,0.223239
-0.069098,0.223238
0.050816,0.148826
-0.029826,0.148825
0.009529,0.074413
-0.230977,0.372089
-0.273902,0.297654
-0.316469,0.223232
-0.358712,0.148826
-0.400669,0.074422
-0.190986,0.297656
-0.233581,0.223239
-0.275776,0.148825
-0.317638,0.074414
-0.151098,0.223239
-0.193256,0.148826
-0.235001,0.074413
-0.111234,0.148826
-0.152845,0.074413
-0.071285,0.074413
-0.442402,0.000000
-0.400669,-0.074422
-0.358712,-0.148826
-0.316469,-0.223232
-0.273902,-0.297654
-0.359241,0.000000
-0.317638,-0.074414
-0.275776,-0.148825
-0.233581,-0.223239
-0.276430,0.000000
-0.235001,-0.074413
-0.193256,-0.148826
-0.194060,0.000000
-0.152845,-0.074413
-0.112236,0.000000
-0.230977,-0.372089
-0.147926,-0.372063
-0.065171,-0.372056
0.017228,-0.372071
0.099229,-0.372075
-0.190986,-0.297656
-0.108431,-0.297651
-0.026310,-0.297652
0.055295,-0.297653
-0.151098,-0.223239
-0.069098,-0.223238
0.012314,-0.223239
-0.111234,-0.148826
-0.029826,-0.148825
-0.071285,-0.074413
0.180833,-0.372039
0.216655,-0.297639
0.251542,-0.223247
0.285670,-0.148827
0.319561,-0.074394
0.136306,-0.297647
0.172818,-0.223237
0.208908,-0.148826
0.244934,-0.074410
0.093007,-0.223238
0.130489,-0.148826
0.167998,-0.074413
0.050816,-0.148826
0.089388,-0.074413
0.009529,-0.074413
0.422578,-0.000000
0.384736,0.089210
0.347789,0.178602
0.309527,0.267929
0.269080,0.357123
0.226555,0.446371
0.127642,0.446530
0.028476,0.446501
-0.071071,0.446438
-0.170973,0.446476
-0.271135,0.446583
-0.322861,0.357188
-0.374198,0.267858
-0.425125,0.178594
-0.475632,0.089329
-0.525809,0.000000
-0.475632,-0.089329
-0.425125,-0.178594
-0.374198,-0.267858
-0.322861,-0.357188
-0.271135,-0.446583
-0.170973,-0.446476
-0.071071,-0.446438
0.028476,-0.446501
0.127642,-0.446530
0.226555,-0.446371
0.269080,-0.357123
0.309527,-0.267929
0.347789,-0.178602
0.384736,-0.089210
0.554529,-0.000000
0.553149,0.051271
0.556942,0.103254
0.564603,0.156143
0.527691,-0.000000
0.524665,0.051973
0.525645,0.104399
0.496082,-0.000000
0.491782,0.052395
0.460770,-0.000000
0.574672,0.209946
0.567396,0.266952
0.555387,0.323474
0.538525,0.379042
0.517278,0.433484
0.529623,0.157393
0.516269,0.222100
0.499222,0.286661
0.477900,0.350581
0.452532,0.413700
0.490594,0.105068
0.469756,0.177702
0.446655,0.250417
0.420142,0.322758
0.390122,0.394589
0.455487,0.052639
0.426315,0.133452
0.396476,0.214448
0.364252,0.295264
0.329167,0.375795
0.492522,0.486958
0.454131,0.520026
0.415604,0.553704
0.377229,0.588190
0.423924,0.476229
0.386439,0.510176
0.348703,0.544607
0.357221,0.466147
0.320081,0.500577
0.291598,0.456270
0.339104,0.623517
0.290983,0.643422
0.242849,0.663110
0.194538,0.682265
0.310882,0.579563
0.262841,0.598815
0.214757,0.617927
0.282616,0.535320
0.234786,0.554177
0.254463,0.490899
0.145967,0.700703
0.083202,0.699520
0.020394,0.698188
-0.042436,0.697199
-0.105308,0.696898
0.166515,0.636695
0.094502,0.636237
0.022399,0.635478
-0.049781,0.634894
-0.122039,0.634811
0.186847,0.572945
0.105675,0.572917
0.024398,0.572548
-0.057013,0.572234
-0.138553,0.572250
0.206900,0.509525
0.116726,0.509675
0.026415,0.509536
-0.064118,0.509384
-0.154864,0.509428
-0.168254,0.697413
-0.218713,0.680086
-0.268984,0.662645
-0.319006,0.644869
-0.194371,0.635312
-0.244472,0.617513
-0.294384,0.599536
-0.220182,0.572632
-0.269985,0.554508
-0.245754,0.509661
-0.368727,0.626618
-0.409222,0.591479
-0.449612,0.556191
-0.490056,0.520962
-0.344085,0.581278
-0.384727,0.546411
-0.425294,0.511443
-0.319640,0.536225
-0.360346,0.501517
-0.295334,0.491351
-0.530701,0.485953
-0.563061,0.430979
-0.595574,0.376305
-0.627963,0.321726
-0.659945,0.267070
-0.465891,0.476510
-0.502898,0.412742
-0.539987,0.349278
-0.576918,0.285941
-0.613447,0.222568
-0.400984,0.466743
-0.442795,0.394343
-0.484568,0.322190
-0.526130,0.250163
-0.567297,0.178123
-0.336040,0.456731
-0.382770,0.375810
-0.429304,0.295044
-0.475545,0.214381
-0.521389,0.133713
-0.691297,0.212230
-0.699929,0.159259
-0.708392,0.106206
-0.716908,0.053113
-0.649413,0.159057
-0.658231,0.106081
-0.667031,0.053055
-0.607995,0.105978
-0.616975,0.053004
-0.566849,0.052964
-0.725683,0.000000
-0.716908,-0.053113
-0.708392,-0.106206
-0.699929,-0.159259
-0.675952,0.000000
-0.667031,-0.053055
-0.658231,-0.106081
-0.625985,0.000000
-0.616975,-0.053004
-0.575910,0.000000
-0.691297,-0.212230
-0.659945,-0.267070
-0.627963,-0.321726
-0.595574,-0.376305
-0.563061,-0.430979
-0.649413,-0.159057
-0.613447,-0.222568
-0.576918,-0.285941
-0.539987,-0.349278
-0.502898,-0.412742
-0.607995,-0.105978
-0.567297,-0.178123
-0.526130,-0.250163
-0.484568,-0.322190
-0.442795,-0.394343
-0.566849,-0.052964
-0.521389,-0.133713
-0.475545,-0.214381
-0.429304,-0.295044
-0.382770,-0.375810
-0.530701,-0.485953
-0.490056,-0.520962
-0.449612,-0.556191
-0.409222,-0.591479
-0.465891,-0.476510
-0.425294,-0.511443
-0.384727,-0.546411
-0.400984,-0.466743
-0.360346,-0.501517
-0.336040,-0.456731
-0.368727,-0.626618
-0.319006,-0.644869
-0.268984,-0.662645
-0.218713,-0.680086
-0.344085,-0.581278
-0.294384,-0.599536
-0.244472,-0.617513
-0.319640,-0.536225
-0.269985,-0.554508
-0.295334,-0.491351
-0.168254,-0.697413
-0.105308,-0.696898
-0.042436,-0.697199
0.020394,-0.698188
0.083202,-0.699520
-0.194371,-0.635312
-0.122039,-0.634811
-0.049781,-0.634894
0.022399,-0.635478
0.094502,-0.636237
-0.220182,-0.572632
-0.138553,-0.572250
-0.057013,-0.572234
0.024398,-0.572548
0.105675,-0.572917
-0.245754,-0.509661
-0.154864,-0.509428
-0.064118,-0.509384
0.026415,-0.509536
0.116726,-0.509675
0.145967,-0.700703
0.194538,-0.682265
0.242849,-0.663110
0.290983,-0.643422
0.166515,-0.636695
0.214757,-0.617927
0.262841,-0.598815
0.186847,-0.572945
0.234786,-0.554177
0.206900,-0.509525
0.339104,-0.623517
0.377229,-0.588190
0.415604,-0.553704
0.454131,-0.520026
0.310882,-0.579563
0.348703,-0.544607
0.386439,-0.510176
0.282616,-0.535320
0.320081,-0.500577
0.254463,-0.490899
0.492522,-0.486958
0.517278,-0.433484
0.538525,-0.379042
0.555387,-0.323474
0.567396,-0.266952
0.423924,-0.476229
0.452532,-0.413700
0.477900,-0.350581
0.499222,-0.286661
0.516269,-0.222100
0.357221,-0.466147
0.390122,-0.394589
0.420142,-0.322758
0.446655,-0.250417
0.469756,-0.177702
0.291598,-0.456270
0.329167,-0.375795
0.364252,-0.295264
0.396476,-0.214448
0.426315,-0.133452
0.574672,-0.209946
0.564603,-0.156143
0.556942,-0.103254
0.553149,-0.051271
0.529623,-0.157393
0.525645,-0.104399
0.524665,-0.051973
0.490594,-0.105068
0.491782,-0.052395
0.455487,-0.052639
0.575212,-0.000000
0.577246,0.062833
0.589095,0.127510
0.607317,0.194440
0.628108,0.263426
0.623440,0.325066
0.610672,0.385186
0.590484,0.443193
0.564321,0.499071
0.514068,0.538771
0.464066,0.579601
0.415041,0.622284
0.367107,0.667025
0.307148,0.693175
0.247014,0.718612
0.186372,0.742549
0.125162,0.764631
0.058383,0.761931
-0.008332,0.759549
-0.075013,0.758267
-0.141768,0.758519
-0.205281,0.737628
-0.268573,0.716735
-0.331433,0.695142
-0.393654,0.672406
-0.443918,0.627874
-0.494008,0.583137
-0.544371,0.538748
-0.595413,0.495086
-0.630317,0.437622
-0.665385,0.380434
-0.700063,0.323159
-0.733832,0.265552
-0.744428,0.199337
-0.754406,0.132923
-0.764389,0.066456
-0.774988,0.000000
-0.764389,-0.066456
-0.754406,-0.132923
-0.744428,-0.199337
-0.733832,-0.265552
-0.700063,-0.323159
-0.665385,-0.380434
-0.630317,-0.437622
-0.595413,-0.495086
-0.544371,-0.538748
-0.494008,-0.583137
-0.443918,-0.627874
-0.393654,-0.672406
-0.331433,-0.695142
-0.268573,-0.716735
-0.205281,-0.737628
-0.141768,-0.758519
-0.075013,-0.758267
-0.008332,-0.759549
0.058383,-0.761931
0.125162,-0.764631
0.186372,-0.742549
0.247014,-0.718612
0.307148,-0.693175
0.367107,-0.667025
0.415041,-0.622284
0.464066,-0.579601
0.514068,-0.538771
0.564321,-0.499071
0.590484,-0.443193
0.610672,-0.385186
0.623440,-0.325066
0.628108,-0.263426
0.607317,-0.194440
0.589095,-0.127510
0.577246,-0.062833
0.590761,-0.000000
0.593504,0.028974
0.601349,0.058486
0.589617,-0.000000
0.591619,0.030124
0.584226,-0.000000
0.613895,0.088826
0.633658,0.128214
0.656965,0.169673
0.682237,0.213148
0.597971,0.060674
0.612891,0.107454
0.633391,0.156445
0.657231,0.207687
0.585587,0.031015
0.594399,0.085615
0.610931,0.142334
0.632306,0.201386
0.707908,0.258398
0.721742,0.294258
0.732902,0.330278
0.682113,0.260923
0.691926,0.295761
0.655461,0.262514
0.741017,0.366116
0.738302,0.406697
0.730055,0.445562
0.716823,0.482477
0.699475,0.330634
0.696879,0.378462
0.687571,0.424502
0.672240,0.468407
0.661914,0.296519
0.658713,0.351345
0.647932,0.404461
0.630299,0.455388
0.699341,0.517387
0.677290,0.540673
0.654138,0.563189
0.651884,0.510118
0.630863,0.533768
0.607069,0.504092
0.630383,0.585221
0.594886,0.607936
0.560591,0.631615
0.527757,0.656708
0.609014,0.556953
0.568211,0.585237
0.528497,0.614618
0.490244,0.645669
0.586872,0.528175
0.541195,0.562150
0.496276,0.597269
0.452653,0.634210
0.496447,0.683527
0.469769,0.703478
0.443841,0.724530
0.453527,0.678726
0.427313,0.699200
0.410408,0.673263
0.418458,0.746527
0.390703,0.765042
0.362926,0.783673
0.401549,0.720420
0.373359,0.737972
0.384423,0.693890
0.334978,0.802128
0.297212,0.818958
0.258853,0.834360
0.219942,0.848142
0.345194,0.755616
0.300221,0.775937
0.254684,0.794909
0.208552,0.812172
0.355948,0.710694
0.303557,0.734091
0.250757,0.756399
0.197376,0.777039
0.180585,0.860262
0.147149,0.862839
0.113695,0.864809
0.161908,0.827597
0.128700,0.830627
0.143449,0.795788
0.080286,0.866414
0.038008,0.862225
-0.004071,0.858770
-0.046013,0.856396
0.095471,0.833234
0.044924,0.829385
-0.005444,0.826203
-0.055697,0.824181
0.110416,0.799212
0.051707,0.795888
-0.006873,0.793081
-0.065374,0.791439
-0.087915,0.855334
-0.121370,0.850955
-0.154923,0.847389
-0.105949,0.823634
-0.139422,0.819454
-0.123913,0.791340
-0.188603,0.844501
-0.229354,0.834784
-0.270146,0.825028
-0.310859,0.814854
-0.172969,0.815854
-0.221335,0.802464
-0.269666,0.789033
-0.317798,0.775054
-0.157350,0.787214
-0.213301,0.770077
-0.269126,0.752916
-0.324630,0.735109
-0.351347,0.803945
-0.381841,0.790123
-0.411980,0.775577
-0.365543,0.760134
-0.395648,0.745656
-0.379601,0.716225
-0.441724,0.760333
-0.468519,0.739844
-0.495005,0.718992
-0.425444,0.730630
-0.452424,0.710546
-0.409442,0.701351
-0.521267,0.697940
-0.550727,0.667433
-0.580405,0.637363
-0.610525,0.607918
-0.479174,0.690170
-0.515501,0.654800
-0.551935,0.619712
-0.588788,0.585213
-0.436574,0.681573
-0.479850,0.641557
-0.523100,0.601595
-0.566709,0.562124
-0.641281,0.579209
-0.662789,0.553113
-0.684793,0.527429
-0.626333,0.551495
-0.647868,0.525385
-0.611022,0.523426
-0.707240,0.502066
-0.730734,0.467239
-0.754273,0.432369
-0.777566,0.397288
-0.669769,0.499584
-0.697092,0.457255
-0.724508,0.414978
-0.751622,0.372515
-0.632529,0.497295
-0.663641,0.447405
-0.694886,0.397680
-0.725780,0.347812
-0.800332,0.361875
-0.813232,0.330887
-0.825479,0.299632
-0.778055,0.329700
-0.790473,0.298550
-0.755865,0.297594
-0.837059,0.268148
-0.843603,0.226488
-0.849578,0.184753
-0.855280,0.143042
-0.802365,0.267208
-0.810232,0.217370
-0.817489,0.167416
-0.824555,0.117468
-0.767968,0.266339
-0.777199,0.208321
-0.785806,0.150142
-0.794321,0.091944
-0.861030,0.101423
-0.861884,0.067551
-0.863248,0.033753
-0.831872,0.067600
-0.833494,0.033786
-0.803286,0.033794
-0.865218,0.000000
-0.863248,-0.033753
-0.861884,-0.067551
-0.835580,0.000000
-0.833494,-0.033786
-0.805465,0.000000
-0.861030,-0.101423
-0.855280,-0.143042
-0.849578,-0.184753
-0.843603,-0.226488
-0.831872,-0.067600
-0.824555,-0.117468
-0.817489,-0.167416
-0.810232,-0.217370
-0.803286,-0.033794
-0.794321,-0.091944
-0.785806,-0.150142
-0.777199,-0.208321
-0.837059,-0.268148
-0.825479,-0.299632
-0.813232,-0.330887
-0.802365,-0.267208
-0.790473,-0.298550
-0.767968,-0.266339
-0.800332,-0.361875
-0.777566,-0.397288
-0.754273,-0.432369
-0.730734,-0.467239
-0.778055,-0.329700
-0.751622,-0.372515
-0.724508,-0.414978
-0.697092,-0.457255
-0.755865,-0.297594
-0.725780,-0.347812
-0.694886,-0.397680
-0.663641,-0.447405
-0.707240,-0.502066
-0.684793,-0.527429
-0.662789,-0.553113
-0.669769,-0.499584
-0.647868,-0.525385
-0.632529,-0.497295
-0.641281,-0.579209
-0.610525,-0.607918
-0.580405,-0.637363
-0.550727,-0.667433
-0.626333,-0.551495
-0.588788,-0.585213
-0.551935,-0.619712
-0.515501,-0.654800
-0.611022,-0.523426
-0.566709,-0.562124
-0.523100,-0.601595
-0.479850,-0.641557
-0.521267,-0.697940
-0.495005,-0.718992
-0.468519,-0.739844
-0.479174,-0.690170
-0.452424,-0.710546
-0.436574,-0.681573
-0.441724,-0.760333
-0.411980,-0.775577
-0.381841,-0.790123
-0.425444,-0.730630
-0.395648,-0.745656
-0.409442,-0.701351
-0.351347,-0.803945
-0.310859,-0.814854
-0.270146,-0.825028
-0.229354,-0.834784
-0.365543,-0.760134
-0.317798,-0.775054
-0.269666,-0.789033
-0.221335,-0.802464
-0.379601,-0.716225
-0.324630,-0.735109
-0.269126,-0.752916
-0.213301,-0.770077
-0.188603,-0.844501
-0.154923,-0.847389
-0.121370,-0.850955
-0.172969,-0.815854
-0.139422,-0.819454
-0.157350,-0.787214
-0.087915,-0.855334
-0.046013,-0.856396
-0.004071,-0.858770
0.038008,-0.862225
-0.105949,-0.823634
-0.055697,-0.824181
-0.005444,-0.826203
0.044924,-0.829385
-0.123913,-0.791340
-0.065374,-0.791439
-0.006873,-0.793081
0.051707,-0.795888
0.080286,-0.866414
0.113695,-0.864809
0.147149,-0.862839
0.095471,-0.833234
0.128700,-0.830627
0.110416,-0.799212
0.180585,-0.860262
0.219942,-0.848142
0.258853,-0.834360
0.297212,-0.818958
0.161908,-0.827597
0.208552,-0.812172
0.254684,-0.794909
0.300221,-0.775937
0.143449,-0.795788
0.197376,-0.777039
0.250757,-0.756399
0.303557,-0.734091
0.334978,-0.802128
0.362926,-0.783673
0.390703,-0.765042
0.345194,-0.755616
0.373359,-0.737972
0.355948,-0.710694
0.418458,-0.746527
0.443841,-0.724530
0.469769,-0.703478
0.401549,-0.720420
0.427313,-0.699200
0.384423,-0.693890
0.496447,-0.683527
0.527757,-0.656708
0.560591,-0.631615
0.594886,-0.607936
0.453527,-0.678726
0.490244,-0.645669
0.528497,-0.614618
0.568211,-0.585237
0.410408,-0.673263
0.452653,-0.634210
0.496276,-0.597269
0.541195,-0.562150
0.630383,-0.585221
0.654138,-0.563189
0.677290,-0.540673
0.609014,-0.556953
0.630863,-0.533768
0.586872,-0.528175
0.699341,-0.517387
0.716823,-0.482477
0.730055,-0.445562
0.738302,-0.406697
0.651884,-0.510118
0.672240,-0.468407
0.687571,-0.424502
0.696879,-0.378462
0.607069,-0.504092
0.630299,-0.455388
0.647932,-0.404461
0.658713,-0.351345
0.741017,-0.366116
0.732902,-0.330278
0.721742,-0.294258
0.699475,-0.330634
0.691926,-0.295761
0.661914,-0.296519
0.707908,-0.258398
0.682237,-0.213148
0.656965,-0.169673
0.633658,-0.128214
0.682113,-0.260923
0.657231,-0.207687
0.633391,-0.156445
0.612891,-0.107454
0.655461,-0.262514
0.632306,-0.201386
0.610931,-0.142334
0.594399,-0.085615
0.613895,-0.088826
0.601349,-0.058486
0.593504,-0.028974
0.597971,-0.060674
0.591619,-0.030124
0.585587,-0.031015
0.586943,-0.000000
0.593090,0.036808
0.609600,0.075028
0.635238,0.115451
0.665844,0.158948
0.699066,0.205458
0.732638,0.254633
0.756818,0.304187
0.775125,0.354087
0.786634,0.403354
0.781316,0.447086
0.768814,0.488085
0.750137,0.526134
0.718710,0.556621
0.685056,0.585218
0.650566,0.612749
0.611271,0.636063
0.574058,0.660908
0.539201,0.687946
0.502812,0.713502
0.468328,0.741688
0.435136,0.772103
0.398941,0.798481
0.362462,0.824896
0.325321,0.850522
0.284206,0.867428
0.242216,0.881951
0.199546,0.894023
0.154549,0.896581
0.109583,0.897806
0.064832,0.898407
0.019666,0.892879
-0.025191,0.888733
-0.069883,0.886403
-0.114393,0.880261
-0.159140,0.876006
-0.204227,0.873246
-0.248371,0.864982
-0.292637,0.856536
-0.336825,0.847345
-0.378102,0.830047
-0.418663,0.811106
-0.458364,0.790567
-0.493694,0.762429
-0.528355,0.733622
-0.562605,0.704618
-0.592985,0.670912
-0.623947,0.638141
-0.655799,0.606471
-0.684478,0.571798
-0.714300,0.538032
-0.745100,0.504890
-0.771176,0.468284
-0.797149,0.431431
-0.822575,0.394113
-0.840532,0.353043
-0.857054,0.311342
-0.872086,0.269133
-0.879064,0.224505
-0.885262,0.179844
-0.891135,0.135299
-0.891052,0.089997
-0.891985,0.044924
-0.894241,0.000000
-0.891985,-0.044924
-0.891052,-0.089997
-0.891135,-0.135299
-0.885262,-0.179844
-0.879064,-0.224505
-0.872086,-0.269133
-0.857054,-0.311342
-0.840532,-0.353043
-0.822575,-0.394113
-0.797149,-0.431431
-0.771176,-0.468284
-0.745100,-0.504890
-0.714300,-0.538032
-0.684478,-0.571798
-0.655799,-0.606471
-0.623947,-0.638141
-0.592985,-0.670912
-0.562605,-0.704618
-0.528355,-0.733622
-0.493694,-0.762429
-0.458364,-0.790567
-0.418663,-0.811106
-0.378102,-0.830047
-0.336825,-0.847345
-0.292637,-0.856536
-0.248371,-0.864982
-0.204227,-0.873246
-0.159140,-0.876006
-0.114393,-0.880261
-0.069883,-0.886403
-0.025191,-0.888733
0.019666,-0.892879
0.064832,-0.898407
0.109583,-0.897806
0.154549,-0.896581
0.199546,-0.894023
0.242216,-0.881951
0.284206,-0.867428
0.325321,-0.850522
0.362462,-0.824896
0.398941,-0.798481
0.435136,-0.772103
0.468328,-0.741688
0.502812,-0.713502
0.539201,-0.687946
0.574058,-0.660908
0.611271,-0.636063
0.650566,-0.612749
0.685056,-0.585218
0.718710,-0.556621
0.750137,-0.526134
0.768814,-0.488085
0.781316,-0.447086
0.786634,-0.403354
0.775125,-0.354087
0.756818,-0.304187
0.732638,-0.254633
0.699066,-0.205458
0.665844,-0.158948
0.635238,-0.115451
0.609600,-0.075028
0.593090,-0.036808
0.572601,-0.000000
0.574721,0.016559
0.581209,-0.000000
0.580213,0.033370
0.593174,0.056551
0.611409,0.080955
0.583015,0.017498
0.593238,0.047285
0.611133,0.078441
0.634249,0.106832
0.653934,0.127608
0.635884,0.111494
0.675076,0.149428
0.704133,0.180225
0.733762,0.212795
0.653190,0.132603
0.683925,0.169824
0.716088,0.209440
0.763111,0.246926
0.782609,0.273205
0.748216,0.251206
0.800785,0.299965
0.819939,0.335512
0.835388,0.371063
0.764909,0.276835
0.787055,0.319599
0.804345,0.362506
0.846871,0.406215
0.850099,0.431163
0.816215,0.404897
0.850913,0.455429
0.845015,0.485042
0.835236,0.512944
0.817988,0.428874
0.812289,0.465623
0.801090,0.500118
0.822005,0.539048
0.807892,0.556233
0.785081,0.532216
0.792485,0.572476
0.767677,0.591055
0.741926,0.608491
0.771430,0.549186
0.742968,0.573587
0.712996,0.596460
0.715776,0.625108
0.694892,0.636292
0.682420,0.618355
0.674374,0.647475
0.646189,0.661255
0.619397,0.675897
0.662925,0.630398
0.628952,0.648784
0.596789,0.668389
0.594131,0.691716
0.575421,0.703781
0.566585,0.689664
0.557582,0.716738
0.533785,0.734082
0.511199,0.753062
0.548713,0.702730
0.518606,0.724184
0.490092,0.747827
0.489585,0.773600
0.473181,0.789067
0.462735,0.773394
0.457021,0.805142
0.440160,0.820463
0.446125,0.788792
0.423250,0.835996
0.399660,0.855300
0.375614,0.874249
0.428823,0.803346
0.399059,0.826414
0.368878,0.849272
0.351027,0.892532
0.331224,0.903568
0.338054,0.871365
0.311073,0.913883
0.282936,0.924347
0.254301,0.933293
0.318154,0.881815
0.283516,0.895535
0.248185,0.907286
0.225291,0.940759
0.202754,0.943346
0.212319,0.917034
0.180161,0.945265
0.149593,0.944794
0.119154,0.943668
0.189983,0.919817
0.152146,0.920714
0.114404,0.920635
0.088915,0.942195
0.066163,0.939405
0.076885,0.920061
0.043564,0.936815
0.013544,0.932008
-0.016260,0.928125
0.054254,0.918011
0.016648,0.912727
-0.020688,0.908624
-0.045922,0.925338
-0.068139,0.922747
-0.057862,0.905987
-0.090370,0.920873
-0.119960,0.917640
-0.149731,0.915548
-0.080166,0.903862
-0.117216,0.899212
-0.154486,0.896093
-0.179741,0.914446
-0.202249,0.912848
-0.192053,0.894238
-0.224901,0.911541
-0.254798,0.907777
-0.284846,0.903932
-0.214580,0.892316
-0.251629,0.886419
-0.288831,0.880383
-0.314968,0.899757
-0.337130,0.894883
-0.326047,0.873825
-0.359215,0.889591
-0.387386,0.879076
-0.415182,0.867570
-0.347937,0.868235
-0.382691,0.854376
-0.416892,0.839168
-0.442507,0.855040
-0.462059,0.843739
-0.450429,0.822640
-0.481299,0.831940
-0.499367,0.818176
-0.469709,0.811084
-0.517150,0.804092
-0.539508,0.783487
-0.561525,0.762705
-0.487891,0.797652
-0.516674,0.773153
-0.544960,0.748257
-0.583334,0.741943
-0.598559,0.725043
-0.572928,0.723288
-0.613864,0.708390
-0.633446,0.685456
-0.653477,0.663192
-0.588484,0.706785
-0.613407,0.678401
-0.638861,0.650838
-0.674074,0.641628
-0.688899,0.624842
-0.665057,0.624198
-0.704133,0.608433
-0.723830,0.586000
-0.744227,0.564051
-0.680041,0.607461
-0.704263,0.578952
-0.729412,0.551133
-0.765245,0.542453
-0.780117,0.525459
-0.755381,0.523807
-0.795167,0.508490
-0.813634,0.484692
-0.832020,0.460674
-0.769966,0.506548
-0.792322,0.476406
-0.814580,0.446015
-0.850137,0.436347
-0.861952,0.417047
-0.836440,0.415230
-0.873410,0.397514
-0.885741,0.370087
-0.897204,0.342267
-0.847761,0.395717
-0.862930,0.361475
-0.876931,0.326713
-0.907756,0.314108
-0.913567,0.292254
-0.889722,0.291521
-0.918914,0.270296
-0.922940,0.240248
-0.926446,0.210200
-0.895416,0.269723
-0.900846,0.232360
-0.905612,0.194988
-0.929604,0.180228
-0.930587,0.157555
-0.910020,0.157714
-0.931615,0.134978
-0.930934,0.104751
-0.930793,0.074706
-0.911495,0.135182
-0.911031,0.097410
-0.911360,0.059857
-0.931361,0.044818
-0.931262,0.022392
-0.912696,0.022462
-0.931665,0.000000
-0.931262,-0.022392
-0.913160,0.000000
-0.931361,-0.044818
-0.930793,-0.074706
-0.930934,-0.104751
-0.912696,-0.022462
-0.911360,-0.059857
-0.911031,-0.097410
-0.931615,-0.134978
-0.930587,-0.157555
-0.911495,-0.135182
-0.929604,-0.180228
-0.926446,-0.210200
-0.922940,-0.240248
-0.910020,-0.157714
-0.905612,-0.194988
-0.900846,-0.232360
-0.918914,-0.270296
-0.913567,-0.292254
-0.895416,-0.269723
-0.907756,-0.314108
-0.897204,-0.342267
-0.885741,-0.370087
-0.889722,-0.291521
-0.876931,-0.326713
-0.862930,-0.361475
-0.873410,-0.397514
-0.861952,-0.417047
-0.847761,-0.395717
-0.850137,-0.436347
-0.832020,-0.460674
-0.813634,-0.484692
-0.836440,-0.415230
-0.814580,-0.446015
-0.792322,-0.476406
-0.795167,-0.508490
-0.780117,-0.525459
-0.769966,-0.506548
-0.765245,-0.542453
-0.744227,-0.564051
-0.723830,-0.586000
-0.755381,-0.523807
-0.729412,-0.551133
-0.704263,-0.578952
-0.704133,-0.608433
-0.688899,-0.624842
-0.680041,-0.607461
-0.674074,-0.641628
-0.653477,-0.663192
-0.633446,-0.685456
-0.665057,-0.624198
-0.638861,-0.650838
-0.613407,-0.678401
-0.613864,-0.708390
-0.598559,-0.725043
-0.588484,-0.706785
-0.583334,-0.741943
-0.561525,-0.762705
-0.539508,-0.783487
-0.572928,-0.723288
-0.544960,-0.748257
-0.516674,-0.773153
-0.517150,-0.804092
-0.499367,-0.818176
-0.487891,-0.797652
-0.481299,-0.831940
-0.462059,-0.843739
-0.469709,-0.811084
-0.442507,-0.855040
-0.415182,-0.867570
-0.387386,-0.879076
-0.450429,-0.822640
-0.416892,-0.839168
-0.382691,-0.854376
-0.359215,-0.889591
-0.337130,-0.894883
-0.347937,-0.868235
-0.314968,-0.899757
-0.284846,-0.903932
-0.254798,-0.907777
-0.326047,-0.873825
-0.288831,-0.880383
-0.251629,-0.886419
-0.224901,-0.911541
-0.202249,-0.912848
-0.214580,-0.892316
-0.179741,-0.914446
-0.149731,-0.915548
-0.119960,-0.917640
-0.192053,-0.894238
-0.154486,-0.896093
-0.117216,-0.899212
-0.090370,-0.920873
-0.068139,-0.922747
-0.080166,-0.903862
-0.045922,-0.925338
-0.016260,-0.928125
0.013544,-0.932008
-0.057862,-0.905987
-0.020688,-0.908624
0.016648,-0.912727
0.043564,-0.936815
0.066163,-0.939405
0.054254,-0.918011
0.088915,-0.942195
0.119154,-0.943668
0.149593,-0.944794
0.076885,-0.920061
0.114404,-0.920635
0.152146,-0.920714
0.180161,-0.945265
0.202754,-0.943346
0.189983,-0.919817
0.225291,-0.940759
0.254301,-0.933293
0.282936,-0.924347
0.212319,-0.917034
0.248185,-0.907286
0.283516,-0.895535
0.311073,-0.913883
0.331224,-0.903568
0.318154,-0.881815
0.351027,-0.892532
0.375614,-0.874249
0.399660,-0.855300
0.338054,-0.871365
0.368878,-0.849272
0.399059,-0.826414
0.423250,-0.835996
0.440160,-0.820463
0.428823,-0.803346
0.457021,-0.805142
0.473181,-0.789067
0.446125,-0.788792
0.489585,-0.773600
0.511199,-0.753062
0.533785,-0.734082
0.462735,-0.773394
0.490092,-0.747827
0.518606,-0.724184
0.557582,-0.716738
0.575421,-0.703781
0.548713,-0.702730
0.594131,-0.691716
0.619397,-0.675897
0.646189,-0.661255
0.566585,-0.689664
0.596789,-0.668389
0.628952,-0.648784
0.674374,-0.647475
0.694892,-0.636292
0.662925,-0.630398
0.715776,-0.625108
0.741926,-0.608491
0.767677,-0.591055
0.682420,-0.618355
0.712996,-0.596460
0.742968,-0.573587
0.792485,-0.572476
0.807892,-0.556233
0.771430,-0.549186
0.822005,-0.539048
0.835236,-0.512944
0.845015,-0.485042
0.785081,-0.532216
0.801090,-0.500118
0.812289,-0.465623
0.850913,-0.455429
0.850099,-0.431163
0.817988,-0.428874
0.846871,-0.406215
0.835388,-0.371063
0.819939,-0.335512
0.816215,-0.404897
0.804345,-0.362506
0.787055,-0.319599
0.800785,-0.299965
0.782609,-0.273205
0.764909,-0.276835
0.763111,-0.246926
0.733762,-0.212795
0.704133,-0.180225
0.748216,-0.251206
0.716088,-0.209440
0.683925,-0.169824
0.675076,-0.149428
0.653934,-0.127608
0.653190,-0.132603
0.634249,-0.106832
0.611409,-0.080955
0.593174,-0.056551
0.635884,-0.111494
0.611133,-0.078441
0.593238,-0.047285
0.580213,-0.033370
0.574721,-0.016559
0.583015,-0.017498
0.560741,-0.000000
0.565936,0.023307
0.579102,0.047359
0.601506,0.073341
0.630065,0.101310
0.664217,0.132380
0.701566,0.165996
0.739559,0.202696
0.777299,0.241620
0.810635,0.282381
0.840650,0.324270
0.862382,0.365930
0.878822,0.407239
0.885016,0.446069
0.885426,0.483208
0.875786,0.516194
0.861267,0.546748
0.838697,0.572542
0.813112,0.596020
0.782435,0.615345
0.750908,0.633260
0.717319,0.648578
0.684702,0.663856
0.652270,0.678418
0.621855,0.694280
0.592691,0.710970
0.565682,0.729809
0.539796,0.750095
0.515481,0.772615
0.491343,0.796066
0.467839,0.821091
0.443306,0.845521
0.418529,0.870352
0.391811,0.892670
0.364313,0.914111
0.334589,0.931342
0.304007,0.946781
0.271533,0.957091
0.238500,0.965344
0.204303,0.968585
0.170004,0.970222
0.135315,0.967881
0.100900,0.964914
0.066628,0.959525
0.032759,0.954649
-0.000809,0.948836
-0.034113,0.944432
-0.067266,0.940020
-0.100451,0.937372
-0.133722,0.934798
-0.167295,0.933716
-0.201040,0.931975
-0.235167,0.930966
-0.269233,0.928080
-0.303509,0.924980
-0.337168,0.918746
-0.370679,0.911512
-0.402863,0.900321
-0.434517,0.887759
-0.464235,0.871106
-0.493187,0.853198
-0.519961,0.831807
-0.546034,0.809695
-0.570100,0.785119
-0.593841,0.760557
-0.616129,0.734638
-0.638637,0.709363
-0.660353,0.683543
-0.682806,0.658693
-0.704931,0.633608
-0.728066,0.609436
-0.750880,0.584833
-0.774604,0.560772
-0.797473,0.535761
-0.820787,0.510789
-0.842308,0.484322
-0.863599,0.457466
-0.882039,0.428792
-0.899612,0.399532
-0.913532,0.368500
-0.926229,0.336951
-0.934996,0.304021
-0.942615,0.270835
-0.946660,0.236833
-0.950042,0.202879
-0.950714,0.168645
-0.951453,0.134657
-0.950528,0.100714
-0.950377,0.067031
-0.949411,0.033462
-0.949673,0.000000
-0.949411,-0.033462
-0.950377,-0.067031
-0.950528,-0.100714
-0.951453,-0.134657
-0.950714,-0.168645
-0.950042,-0.202879
-0.946660,-0.236833
-0.942615,-0.270835
-0.934996,-0.304021
-0.926229,-0.336951
-0.913532,-0.368500
-0.899612,-0.399532
-0.882039,-0.428792
-0.863599,-0.457466
-0.842308,-0.484322
-0.820787,-0.510789
-0.797473,-0.535761
-0.774604,-0.560772
-0.750880,-0.584833
-0.728066,-0.609436
-0.704931,-0.633608
-0.682806,-0.658693
-0.660353,-0.683543
-0.638637,-0.709363
-0.616129,-0.734638
-0.593841,-0.760557
-0.570100,-0.785119
-0.546034,-0.809695
-0.519961,-0.831807
-0.493187,-0.853198
-0.464235,-0.871106
-0.434517,-0.887759
-0.402863,-0.900321
-0.370679,-0.911512
-0.337168,-0.918746
-0.303509,-0.924980
-0.269233,-0.928080
-0.235167,-0.930966
-0.201040,-0.931975
-0.167295,-0.933716
-0.133722,-0.934798
-0.100451,-0.937372
-0.067266,-0.940020
-0.034113,-0.944432
-0.000809,-0.948836
0.032759,-0.954649
0.066628,-0.959525
0.100900,-0.964914
0.135315,-0.967881
0.170004,-0.970222
0.204303,-0.968585
0.238500,-0.965344
0.271533,-0.957091
0.304007,-0.946781
0.334589,-0.931342
0.364313,-0.914111
0.391811,-0.892670
0.418529,-0.870352
0.443306,-0.845521
0.467839,-0.821091
0.491343,-0.796066
0.515481,-0.772615
0.539796,-0.750095
0.565682,-0.729809
0.592691,-0.710970
0.621855,-0.694280
0.652270,-0.678418
0.684702,-0.663856
0.717319,-0.648578
0.750908,-0.633260
0.782435,-0.615345
0.813112,-0.596020
0.838697,-0.572542
0.861267,-0.546748
0.875786,-0.516194
0.885426,-0.483208
0.885016,-0.446069
0.878822,-0.407239
0.862382,-0.365930
0.840650,-0.324270
0.810635,-0.282381
0.777299,-0.241620
0.739559,-0.202696
0.701566,-0.165996
0.664217,-0.132380
0.630065,-0.101310
0.601506,-0.073341
0.579102,-0.047359
0.565936,-0.023307
0.549580,-0.000000
0.551266,0.010888
0.557698,0.027450
0.569832,0.044721
0.580929,0.056848
0.600948,0.075973
0.625323,0.096721
0.643431,0.111547
0.672444,0.135104
0.703558,0.160658
0.724638,0.178701
0.756129,0.206993
0.787170,0.236980
0.806673,0.257618
0.833838,0.289233
0.858341,0.321676
0.872318,0.343340
0.889712,0.375612
0.903079,0.407572
0.909044,0.428252
0.913722,0.458119
0.914101,0.486655
0.911457,0.504550
0.903393,0.529566
0.891777,0.552692
0.881710,0.566786
0.863403,0.585886
0.842973,0.603182
0.827889,0.613546
0.803337,0.627353
0.778289,0.640045
0.761010,0.647770
0.734444,0.658323
0.708742,0.668806
0.691700,0.675601
0.666425,0.685600
0.642783,0.696570
0.627461,0.704157
0.605172,0.716023
0.584604,0.729545
0.571346,0.739077
0.552027,0.754109
0.533962,0.770910
0.522154,0.782580
0.504516,0.800539
0.487393,0.819788
0.475904,0.832770
0.464155,0.845728
0.446168,0.864976
0.427856,0.884396
0.415017,0.896568
0.395068,0.913904
0.374436,0.930458
0.359970,0.940199
0.337499,0.953254
0.314344,0.964863
0.298309,0.971037
0.273636,0.978422
0.248556,0.984209
0.231469,0.986551
0.205506,0.988275
0.179513,0.988788
0.162062,0.987943
0.135839,0.985330
0.109880,0.982274
0.092619,0.979536
0.066863,0.974713
0.041457,0.970321
0.024617,0.967166
-0.000482,0.962297
-0.025358,0.958536
-0.041890,0.956119
-0.066622,0.952684
-0.091380,0.950623
-0.107916,0.949415
-0.132774,0.947752
-0.157886,0.947254
-0.174708,0.946932
-0.200033,0.946204
-0.225691,0.946060
-0.242846,0.945669
-0.268555,0.944236
-0.294475,0.942656
-0.311686,0.940982
-0.337207,0.937011
-0.362663,0.932275
-0.379397,0.928270
-0.403855,0.920388
-0.427934,0.911433
-0.443599,0.904563
-0.466147,0.892289
-0.488115,0.879024
-0.502315,0.869423
-0.515889,0.858860
-0.535574,0.842076
-0.554728,0.824823
-0.566849,0.812521
-0.584440,0.793476
-0.601796,0.774519
-0.612909,0.761455
-0.629220,0.741641
-0.645723,0.722382
-0.656496,0.709393
-0.672547,0.689937
-0.689189,0.671256
-0.700223,0.658768
-0.716818,0.640108
-0.734212,0.622148
-0.745780,0.610099
-0.763132,0.591949
-0.781199,0.574192
-0.793093,0.562135
-0.810660,0.543710
-0.828583,0.525283
-0.840135,0.512621
-0.856750,0.493029
-0.873199,0.473110
-0.883486,0.459354
-0.897719,0.437973
-0.911290,0.416118
-0.919440,0.401078
-0.930097,0.377785
-0.939809,0.354082
-0.945310,0.337911
-0.951858,0.313090
-0.957499,0.288070
-0.960383,0.271176
-0.963153,0.245516
-0.965374,0.219905
-0.966219,0.202763
-0.966303,0.176965
-0.966394,0.151381
-0.966122,0.134350
-0.964988,0.108856
-0.964419,0.083593
-0.963971,0.066797
-0.962946,0.041675
-0.962842,0.016664
-0.962826,0.000000
-0.962842,-0.016664
-0.962946,-0.041675
-0.963971,-0.066797
-0.964419,-0.083593
-0.964988,-0.108856
-0.966122,-0.134350
-0.966394,-0.151381
-0.966303,-0.176965
-0.966219,-0.202763
-0.965374,-0.219905
-0.963153,-0.245516
-0.960383,-0.271176
-0.957499,-0.288070
-0.951858,-0.313090
-0.945310,-0.337911
-0.939809,-0.354082
-0.930097,-0.377785
-0.919440,-0.401078
-0.911290,-0.416118
-0.897719,-0.437973
-0.883486,-0.459354
-0.873199,-0.473110
-0.856750,-0.493029
-0.840135,-0.512621
-0.828583,-0.525283
-0.810660,-0.543710
-0.793093,-0.562135
-0.781199,-0.574192
-0.763132,-0.591949
-0.745780,-0.610099
-0.734212,-0.622148
-0.716818,-0.640108
-0.700223,-0.658768
-0.689189,-0.671256
-0.672547,-0.689937
-0.656496,-0.709393
-0.645723,-0.722382
-0.629220,-0.741641
-0.612909,-0.761455
-0.601796,-0.774519
-0.584440,-0.793476
-0.566849,-0.812521
-0.554728,-0.824823
-0.535574,-0.842076
-0.515889,-0.858860
-0.502315,-0.869423
-0.488115,-0.879024
-0.466147,-0.892289
-0.443599,-0.904563
-0.427934,-0.911433
-0.403855,-0.920388
-0.379397,-0.928270
-0.362663,-0.932275
-0.337207,-0.937011
-0.311686,-0.940982
-0.294475,-0.942656
-0.268555,-0.944236
-0.242846,-0.945669
-0.225691,-0.946060
-0.200033,-0.946204
-0.174708,-0.946932
-0.157886,-0.947254
-0.132774,-0.947752
-0.107916,-0.949415
-0.091380,-0.950623
-0.066622,-0.952684
-0.041890,-0.956119
-0.025358,-0.958536
-0.000482,-0.962297
0.024617,-0.967166
0.041457,-0.970321
0.066863,-0.974713
0.092619,-0.979536
0.109880,-0.982274
0.135839,-0.985330
0.162062,-0.987943
0.179513,-0.988788
0.205506,-0.988275
0.231469,-0.986551
0.248556,-0.984209
0.273636,-0.978422
0.298309,-0.971037
0.314344,-0.964863
0.337499,-0.953254
0.359970,-0.940199
0.374436,-0.930458
0.395068,-0.913904
0.415017,-0.896568
0.427856,-0.884396
0.446168,-0.864976
0.464155,-0.845728
0.475904,-0.832770
0.487393,-0.819788
0.504516,-0.800539
0.522154,-0.782580
0.533962,-0.770910
0.552027,-0.754109
0.571346,-0.739077
0.584604,-0.729545
0.605172,-0.716023
0.627461,-0.704157
0.642783,-0.696570
0.666425,-0.685600
0.691700,-0.675601
0.708742,-0.668806
0.734444,-0.658323
0.761010,-0.647770
0.778289,-0.640045
0.803337,-0.627353
0.827889,-0.613546
0.842973,-0.603182
0.863403,-0.585886
0.881710,-0.566786
0.891777,-0.552692
0.903393,-0.529566
0.911457,-0.504550
0.914101,-0.486655
0.913722,-0.458119
0.909044,-0.428252
0.903079,-0.407572
0.889712,-0.375612
0.872318,-0.343340
0.858341,-0.321676
0.833838,-0.289233
0.806673,-0.257618
0.787170,-0.236980
0.756129,-0.206993
0.724638,-0.178701
0.703558,-0.160658
0.672444,-0.135104
0.643431,-0.111547
0.625323,-0.096721
0.600948,-0.075973
0.580929,-0.056848
0.569832,-0.044721
0.557698,-0.027450
0.551266,-0.010888
0.535714,-0.000000
0.541155,0.020216
0.557534,0.041556
0.583663,0.064922
0.618188,0.091194
0.659094,0.120840
0.704130,0.154194
0.750874,0.191127
0.796752,0.231300
0.839485,0.274020
0.876823,0.318381
0.907125,0.363345
0.928983,0.407732
0.941684,0.450473
0.944920,0.490508
0.938951,0.527061
0.924508,0.559536
0.902630,0.587675
0.874750,0.611531
0.842321,0.631423
0.806990,0.648011
0.770212,0.662075
0.733376,0.674635
0.697573,0.686669
0.663609,0.699194
0.632012,0.713071
0.602904,0.728964
0.576236,0.747341
0.551573,0.768290
0.528436,0.791743
0.506110,0.817199
0.483947,0.844096
0.461255,0.871501
0.437435,0.898473
0.412100,0.924056
0.384944,0.947278
0.355913,0.967396
0.325051,0.983736
0.292593,0.995987
0.258853,1.003985
0.224212,1.007916
0.189082,1.008159
0.153823,1.005311
0.118760,1.000136
0.084102,0.993434
0.049971,0.986078
0.016378,0.978805
-0.016767,0.972294
-0.049610,0.966999
-0.082363,0.963189
-0.115222,0.960908
-0.148375,0.959949
-0.181944,0.959961
-0.215974,0.960365
-0.250424,0.960553
-0.285137,0.959800
-0.319899,0.957451
-0.354396,0.952892
-0.388303,0.945634
-0.421272,0.935379
-0.452983,0.921950
-0.483196,0.905438
-0.511719,0.886002
-0.538542,0.864085
-0.563692,0.840138
-0.587377,0.814718
-0.609866,0.788404
-0.631511,0.761706
-0.652713,0.735108
-0.673840,0.708927
-0.695263,0.683405
-0.717223,0.658594
-0.739898,0.634446
-0.763294,0.610776
-0.787301,0.587307
-0.811660,0.563719
-0.835986,0.539647
-0.859824,0.514776
-0.882630,0.488811
-0.903891,0.461559
-0.923093,0.432906
-0.939832,0.402845
-0.953806,0.371472
-0.964856,0.338951
-0.973007,0.305531
-0.978402,0.271467
-0.981388,0.237047
-0.982369,0.202517
-0.981894,0.168085
-0.980497,0.133902
-0.978731,0.100027
-0.977085,0.066474
-0.975920,0.033165
-0.975527,0.000000
-0.975920,-0.033165
-0.977085,-0.066474
-0.978731,-0.100027
-0.980497,-0.133902
-0.981894,-0.168085
-0.982369,-0.202517
-0.981388,-0.237047
-0.978402,-0.271467
-0.973007,-0.305531
-0.964856,-0.338951
-0.953806,-0.371472
-0.939832,-0.402845
-0.923093,-0.432906
-0.903891,-0.461559
-0.882630,-0.488811
-0.859824,-0.514776
-0.835986,-0.539647
-0.811660,-0.563719
-0.787301,-0.587307
-0.763294,-0.610776
-0.739898,-0.634446
-0.717223,-0.658594
-0.695263,-0.683405
-0.673840,-0.708927
-0.652713,-0.735108
-0.631511,-0.761706
-0.609866,-0.788404
-0.587377,-0.814718
-0.563692,-0.840138
-0.538542,-0.864085
-0.511719,-0.886002
-0.483196,-0.905438
-0.452983,-0.921950
-0.421272,-0.935379
-0.388303,-0.945634
-0.354396,-0.952892
-0.319899,-0.957451
-0.285137,-0.959800
-0.250424,-0.960553
-0.215974,-0.960365
-0.181944,-0.959961
-0.148375,-0.959949
-0.115222,-0.960908
-0.082363,-0.963189
-0.049610,-0.966999
-0.016767,-0.972294
0.016378,-0.978805
0.049971,-0.986078
0.084102,-0.993434
0.118760,-1.000136
0.153823,-1.005311
0.189082,-1.008159
0.224212,-1.007916
0.258853,-1.003985
0.292593,-0.995987
0.325051,-0.983736
0.355913,-0.967396
0.384944,-0.947278
0.412100,-0.924056
0.437435,-0.898473
0.461255,-0.871501
0.483947,-0.844096
0.506110,-0.817199
0.528436,-0.791743
0.551573,-0.768290
0.576236,-0.747341
0.602904,-0.728964
0.632012,-0.713071
0.663609,-0.699194
0.697573,-0.686669
0.733376,-0.674635
0.770212,-0.662075
0.806990,-0.648011
0.842321,-0.631423
0.874750,-0.611531
0.902630,-0.587675
0.924508,-0.559536
0.938951,-0.527061
0.944920,-0.490508
0.941684,-0.450473
0.928983,-0.407732
0.907125,-0.363345
0.876823,-0.318381
0.839485,-0.274020
0.796752,-0.231300
0.750874,-0.191127
0.704130,-0.154194
0.659094,-0.120840
0.618188,-0.091194
0.583663,-0.064922
0.557534,-0.041556
0.541155,-0.020216
