0.749850,0.000000
0.804998,0.215698
0.938572,0.541885
1.052117,1.052117
0.541885,0.938572
0.215698,0.804998
0.000000,0.749850
-0.215698,0.804998
-0.541885,0.938572
-1.052117,1.052117
-0.938572,0.541885
-0.804998,0.215698
-0.749850,0.000000
-0.804998,-0.215698
-0.938572,-0.541885
-1.052117,-1.052117
-0.541885,-0.938572
-0.215698,-0.804998
-0.000000,-0.749850
0.215698,-0.804998
0.541885,-0.938572
1.052117,-1.052117
0.938572,-0.541885
0.804998,-0.215698
-0.000000,0.000000
0.332068,0.000000
0.253687,0.149564
0.168530,0.000000
0.174492,0.291763
0.000000,0.287372
0.085190,0.145626
-0.174492,0.291763
-0.253687,0.149564
-0.085190,0.145626
-0.332068,0.000000
-0.253687,-0.149564
-0.168530,0.000000
-0.174492,-0.291763
-0.000000,-0.287372
-0.085190,-0.145626
0.174492,-0.291763
0.253687,-0.149564
0.085190,-0.145626
0.482986,0.000000
0.381349,0.231217
0.272019,0.440455
0.000000,0.422759
-0.272019,0.440455
-0.381349,0.231217
-0.482986,0.000000
-0.381349,-0.231217
-0.272019,-0.440455
-0.000000,-0.422759
0.272019,-0.440455
0.381349,-0.231217
0.578655,-0.000000
0.572571,0.139488
0.526056,0.326069
0.454742,0.497154
0.346107,0.558025
0.207494,0.569015
0.000000,0.545222
-0.207494,0.569015
-0.346107,0.558025
-0.454742,0.497154
-0.526056,0.326069
-0.572571,0.139488
-0.578655,-0.000000
-0.572571,-0.139488
-0.526056,-0.326069
-0.454742,-0.497154
-0.346107,-0.558025
-0.207494,-0.569015
0.000000,-0.545222
0.207494,-0.569015
0.346107,-0.558025
0.454742,-0.497154
0.526056,-0.326069
0.572571,-0.139488
0.651523,-0.000000
0.674882,0.270148
0.676321,0.584412
0.421015,0.683407
0.129305,0.654391
-0.129305,0.654391
-0.421015,0.683407
-0.676321,0.584412
-0.674882,0.270148
-0.651523,-0.000000
-0.674882,-0.270148
-0.676321,-0.584412
-0.421015,-0.683407
-0.129305,-0.654391
0.129305,-0.654391
0.421015,-0.683407
0.676321,-0.584412
0.674882,-0.270148
