1.000000,0.000000
0.866025,0.500000
0.500000,0.866025
0.000000,1.000000
-0.500000,0.866025
-0.866025,0.500000
-1.000000,0.000000
-0.866025,-0.500000
-0.500000,-0.866025
-0.000000,-1.000000
0.500000,-0.866025
0.866025,-0.500000
0.000000,0.000000
0.250000,0.000000
0.125000,0.216506
-0.125000,0.216506
-0.250000,0.000000
-0.125000,-0.216506
0.125000,-0.216506
0.500000,0.000000
0.250000,0.433013
-0.250000,0.433013
-0.500000,0.000000
-0.250000,-0.433013
0.250000,-0.433013
