0.500000, 0.000000,0.250000, 0.433013,0.000000, 0.000000,0.500000,0.000000
0.250000, 0.433013,-0.250000, 0.433013,0.000000, 0.000000,0.250000,0.433013
-0.250000, 0.433013,-0.500000, 0.000000,0.000000, 0.000000,-0.250000,0.433013
-0.500000, 0.000000,-0.250000, -0.433013,0.000000, 0.000000,-0.500000,0.000000
-0.250000, -0.433013,0.250000, -0.433013,0.000000, 0.000000,-0.250000,-0.433013
0.250000, -0.433013,0.500000, 0.000000,0.000000, 0.000000,0.250000,-0.433013
0.750000, 0.000000,0.704769, 0.256515,0.500000, 0.000000,0.750000,0.000000
0.704769, 0.256515,0.574533, 0.482091,0.250000, 0.433013,0.500000, 0.000000,0.704769,0.256515
0.574533, 0.482091,0.375000, 0.649519,0.250000, 0.433013,0.574533,0.482091
0.375000, 0.649519,0.130236, 0.738606,0.250000, 0.433013,0.375000,0.649519
0.130236, 0.738606,-0.130236, 0.738606,-0.250000, 0.433013,0.250000, 0.433013,0.130236,0.738606
-0.130236, 0.738606,-0.375000, 0.649519,-0.250000, 0.433013,-0.130236,0.738606
-0.375000, 0.649519,-0.574533, 0.482091,-0.250000, 0.433013,-0.375000,0.649519
-0.574533, 0.482091,-0.704769, 0.256515,-0.500000, 0.000000,-0.250000, 0.433013,-0.574533,0.482091
-0.704769, 0.256515,-0.750000, -0.000000,-0.500000, 0.000000,-0.704769,0.256515
-0.750000, -0.000000,-0.704769, -0.256515,-0.500000, 0.000000,-0.750000,-0.000000
-0.704769, -0.256515,-0.574533, -0.482091,-0.250000, -0.433013,-0.500000, 0.000000,-0.704769,-0.256515
-0.574533, -0.482091,-0.375000, -0.649519,-0.250000, -0.433013,-0.574533,-0.482091
-0.375000, -0.649519,-0.130236, -0.738606,-0.250000, -0.433013,-0.375000,-0.649519
-0.130236, -0.738606,0.130236, -0.738606,0.250000, -0.433013,-0.250000, -0.433013,-0.130236,-0.738606
0.130236, -0.738606,0.375000, -0.649519,0.250000, -0.433013,0.130236,-0.738606
0.375000, -0.649519,0.574533, -0.482091,0.250000, -0.433013,0.375000,-0.649519
0.574533, -0.482091,0.704769, -0.256515,0.500000, 0.000000,0.250000, -0.433013,0.574533,-0.482091
0.704769, -0.256515,0.750000, 0.000000,0.500000, 0.000000,0.704769,-0.256515
0.875000, 0.000000,0.865227, 0.130412,0.750000, 0.000000,0.875000,0.000000
0.865227, 0.130412,0.836126, 0.257911,0.704769, 0.256515,0.750000, 0.000000,0.865227,0.130412
0.836126, 0.257911,0.788348, 0.379648,0.704769, 0.256515,0.836126,0.257911
0.788348, 0.379648,0.722959, 0.492905,0.574533, 0.482091,0.704769, 0.256515,0.788348,0.379648
0.722959, 0.492905,0.641420, 0.595151,0.574533, 0.482091,0.722959,0.492905
0.641420, 0.595151,0.545554, 0.684103,0.375000, 0.649519,0.574533, 0.482091,0.641420,0.595151
0.545554, 0.684103,0.437500, 0.757772,0.375000, 0.649519,0.545554,0.684103
0.437500, 0.757772,0.319673, 0.814515,0.375000, 0.649519,0.437500,0.757772
0.319673, 0.814515,0.194706, 0.853062,0.130236, 0.738606,0.375000, 0.649519,0.319673,0.814515
0.194706, 0.853062,0.065389, 0.872553,0.130236, 0.738606,0.194706,0.853062
0.065389, 0.872553,-0.065389, 0.872553,-0.130236, 0.738606,0.130236, 0.738606,0.065389,0.872553
-0.065389, 0.872553,-0.194706, 0.853062,-0.130236, 0.738606,-0.065389,0.872553
-0.194706, 0.853062,-0.319673, 0.814515,-0.375000, 0.649519,-0.130236, 0.738606,-0.194706,0.853062
-0.319673, 0.814515,-0.437500, 0.757772,-0.375000, 0.649519,-0.319673,0.814515
-0.437500, 0.757772,-0.545554, 0.684103,-0.375000, 0.649519,-0.437500,0.757772
-0.545554, 0.684103,-0.641420, 0.595151,-0.574533, 0.482091,-0.375000, 0.649519,-0.545554,0.684103
-0.641420, 0.595151,-0.722959, 0.492905,-0.574533, 0.482091,-0.641420,0.595151
-0.722959, 0.492905,-0.788348, 0.379648,-0.704769, 0.256515,-0.574533, 0.482091,-0.722959,0.492905
-0.788348, 0.379648,-0.836126, 0.257911,-0.704769, 0.256515,-0.788348,0.379648
-0.836126, 0.257911,-0.865227, 0.130412,-0.750000, -0.000000,-0.704769, 0.256515,-0.836126,0.257911
-0.865227, 0.130412,-0.875000, -0.000000,-0.750000, -0.000000,-0.865227,0.130412
-0.875000, -0.000000,-0.865227, -0.130412,-0.750000, -0.000000,-0.875000,-0.000000
-0.865227, -0.130412,-0.836126, -0.257911,-0.704769, -0.256515,-0.750000, -0.000000,-0.865227,-0.130412
-0.836126, -0.257911,-0.788348, -0.379648,-0.704769, -0.256515,-0.836126,-0.257911
-0.788348, -0.379648,-0.722959, -0.492905,-0.574533, -0.482091,-0.704769, -0.256515,-0.788348,-0.379648
-0.722959, -0.492905,-0.641420, -0.595151,-0.574533, -0.482091,-0.722959,-0.492905
-0.641420, -0.595151,-0.545554, -0.684103,-0.375000, -0.649519,-0.574533, -0.482091,-0.641420,-0.595151
-0.545554, -0.684103,-0.437500, -0.757772,-0.375000, -0.649519,-0.545554,-0.684103
-0.437500, -0.757772,-0.319673, -0.814515,-0.375000, -0.649519,-0.437500,-0.757772
-0.319673, -0.814515,-0.194706, -0.853062,-0.130236, -0.738606,-0.375000, -0.649519,-0.319673,-0.814515
-0.194706, -0.853062,-0.065389, -0.872553,-0.130236, -0.738606,-0.194706,-0.853062
-0.065389, -0.872553,0.065389, -0.872553,0.130236, -0.738606,-0.130236, -0.738606,-0.065389,-0.872553
0.065389, -0.872553,0.194706, -0.853062,0.130236, -0.738606,0.065389,-0.872553
0.194706, -0.853062,0.319673, -0.814515,0.375000, -0.649519,0.130236, -0.738606,0.194706,-0.853062
0.319673, -0.814515,0.437500, -0.757772,0.375000, -0.649519,0.319673,-0.814515
0.437500, -0.757772,0.545554, -0.684103,0.375000, -0.649519,0.437500,-0.757772
0.545554, -0.684103,0.641420, -0.595151,0.574533, -0.482091,0.375000, -0.649519,0.545554,-0.684103
0.641420, -0.595151,0.722959, -0.492905,0.574533, -0.482091,0.641420,-0.595151
0.722959, -0.492905,0.788348, -0.379648,0.704769, -0.256515,0.574533, -0.482091,0.722959,-0.492905
0.788348, -0.379648,0.836126, -0.257911,0.704769, -0.256515,0.788348,-0.379648
0.836126, -0.257911,0.865227, -0.130412,0.750000, 0.000000,0.704769, -0.256515,0.836126,-0.257911
0.865227, -0.130412,0.875000, 0.000000,0.750000, 0.000000,0.865227,-0.130412
1.000000, 0.000000,0.991445, 0.130526,0.875000, 0.000000,1.000000,0.000000
0.991445, 0.130526,0.865227, 0.130412,0.875000, 0.000000,0.991445,0.130526
0.991445, 0.130526,0.965926, 0.258819,0.865227, 0.130412,0.991445,0.130526
0.965926, 0.258819,0.836126, 0.257911,0.865227, 0.130412,0.965926,0.258819
0.965926, 0.258819,0.923880, 0.382683,0.836126, 0.257911,0.965926,0.258819
0.923880, 0.382683,0.788348, 0.379648,0.836126, 0.257911,0.923880,0.382683
0.923880, 0.382683,0.866025, 0.500000,0.788348, 0.379648,0.923880,0.382683
0.866025, 0.500000,0.722959, 0.492905,0.788348, 0.379648,0.866025,0.500000
0.866025, 0.500000,0.793353, 0.608761,0.722959, 0.492905,0.866025,0.500000
0.793353, 0.608761,0.641420, 0.595151,0.722959, 0.492905,0.793353,0.608761
0.793353, 0.608761,0.707107, 0.707107,0.641420, 0.595151,0.793353,0.608761
0.707107, 0.707107,0.545554, 0.684103,0.641420, 0.595151,0.707107,0.707107
0.707107, 0.707107,0.608761, 0.793353,0.545554, 0.684103,0.707107,0.707107
0.608761, 0.793353,0.437500, 0.757772,0.545554, 0.684103,0.608761,0.793353
0.608761, 0.793353,0.500000, 0.866025,0.437500, 0.757772,0.608761,0.793353
0.500000, 0.866025,0.382683, 0.923880,0.437500, 0.757772,0.500000,0.866025
0.382683, 0.923880,0.319673, 0.814515,0.437500, 0.757772,0.382683,0.923880
0.382683, 0.923880,0.258819, 0.965926,0.319673, 0.814515,0.382683,0.923880
0.258819, 0.965926,0.194706, 0.853062,0.319673, 0.814515,0.258819,0.965926
0.258819, 0.965926,0.130526, 0.991445,0.194706, 0.853062,0.258819,0.965926
0.130526, 0.991445,0.065389, 0.872553,0.194706, 0.853062,0.130526,0.991445
0.130526, 0.991445,0.000000, 1.000000,0.065389, 0.872553,0.130526,0.991445
0.000000, 1.000000,-0.065389, 0.872553,0.065389, 0.872553,0.000000,1.000000
0.000000, 1.000000,-0.130526, 0.991445,-0.065389, 0.872553,0.000000,1.000000
-0.130526, 0.991445,-0.194706, 0.853062,-0.065389, 0.872553,-0.130526,0.991445
-0.130526, 0.991445,-0.258819, 0.965926,-0.194706, 0.853062,-0.130526,0.991445
-0.258819, 0.965926,-0.319673, 0.814515,-0.194706, 0.853062,-0.258819,0.965926
-0.258819, 0.965926,-0.382683, 0.923880,-0.319673, 0.814515,-0.258819,0.965926
-0.382683, 0.923880,-0.437500, 0.757772,-0.319673, 0.814515,-0.382683,0.923880
-0.382683, 0.923880,-0.500000, 0.866025,-0.437500, 0.757772,-0.382683,0.923880
-0.500000, 0.866025,-0.608761, 0.793353,-0.437500, 0.757772,-0.500000,0.866025
-0.608761, 0.793353,-0.545554, 0.684103,-0.437500, 0.757772,-0.608761,0.793353
-0.608761, 0.793353,-0.707107, 0.707107,-0.545554, 0.684103,-0.608761,0.793353
-0.707107, 0.707107,-0.641420, 0.595151,-0.545554, 0.684103,-0.707107,0.707107
-0.707107, 0.707107,-0.793353, 0.608761,-0.641420, 0.595151,-0.707107,0.707107
-0.793353, 0.608761,-0.722959, 0.492905,-0.641420, 0.595151,-0.793353,0.608761
-0.793353, 0.608761,-0.866025, 0.500000,-0.722959, 0.492905,-0.793353,0.608761
-0.866025, 0.500000,-0.788348, 0.379648,-0.722959, 0.492905,-0.866025,0.500000
-0.866025, 0.500000,-0.923880, 0.382683,-0.788348, 0.379648,-0.866025,0.500000
-0.923880, 0.382683,-0.836126, 0.257911,-0.788348, 0.379648,-0.923880,0.382683
-0.923880, 0.382683,-0.965926, 0.258819,-0.836126, 0.257911,-0.923880,0.382683
-0.965926, 0.258819,-0.865227, 0.130412,-0.836126, 0.257911,-0.965926,0.258819
-0.965926, 0.258819,-0.991445, 0.130526,-0.865227, 0.130412,-0.965926,0.258819
-0.991445, 0.130526,-0.875000, -0.000000,-0.865227, 0.130412,-0.991445,0.130526
-0.991445, 0.130526,-1.000000, 0.000000,-0.875000, -0.000000,-0.991445,0.130526
-1.000000, 0.000000,-0.991445, -0.130526,-0.875000, -0.000000,-1.000000,0.000000
-0.991445, -0.130526,-0.865227, -0.130412,-0.875000, -0.000000,-0.991445,-0.130526
-0.991445, -0.130526,-0.965926, -0.258819,-0.865227, -0.130412,-0.991445,-0.130526
-0.965926, -0.258819,-0.836126, -0.257911,-0.865227, -0.130412,-0.965926,-0.258819
-0.965926, -0.258819,-0.923880, -0.382683,-0.836126, -0.257911,-0.965926,-0.258819
-0.923880, -0.382683,-0.788348, -0.379648,-0.836126, -0.257911,-0.923880,-0.382683
-0.923880, -0.382683,-0.866025, -0.500000,-0.788348, -0.379648,-0.923880,-0.382683
-0.866025, -0.500000,-0.722959, -0.492905,-0.788348, -0.379648,-0.866025,-0.500000
-0.866025, -0.500000,-0.793353, -0.608761,-0.722959, -0.492905,-0.866025,-0.500000
-0.793353, -0.608761,-0.641420, -0.595151,-0.722959, -0.492905,-0.793353,-0.608761
-0.793353, -0.608761,-0.707107, -0.707107,-0.641420, -0.595151,-0.793353,-0.608761
-0.707107, -0.707107,-0.545554, -0.684103,-0.641420, -0.595151,-0.707107,-0.707107
-0.707107, -0.707107,-0.608761, -0.793353,-0.545554, -0.684103,-0.707107,-0.707107
-0.608761, -0.793353,-0.437500, -0.757772,-0.545554, -0.684103,-0.608761,-0.793353
-0.608761, -0.793353,-0.500000, -0.866025,-0.437500, -0.757772,-0.608761,-0.793353
-0.500000, -0.866025,-0.382683, -0.923880,-0.437500, -0.757772,-0.500000,-0.866025
-0.382683, -0.923880,-0.319673, -0.814515,-0.437500, -0.757772,-0.382683,-0.923880
-0.382683, -0.923880,-0.258819, -0.965926,-0.319673, -0.814515,-0.382683,-0.923880
-0.258819, -0.965926,-0.194706, -0.853062,-0.319673, -0.814515,-0.258819,-0.965926
-0.258819, -0.965926,-0.130526, -0.991445,-0.194706, -0.853062,-0.258819,-0.965926
-0.130526, -0.991445,-0.065389, -0.872553,-0.194706, -0.853062,-0.130526,-0.991445
-0.130526, -0.991445,0.000000, -1.000000,-0.065389, -0.872553,-0.130526,-0.991445
0.000000, -1.000000,0.065389, -0.872553,-0.065389, -0.872553,0.000000,-1.000000
0.000000, -1.000000,0.130526, -0.991445,0.065389, -0.872553,0.000000,-1.000000
0.130526, -0.991445,0.194706, -0.853062,0.065389, -0.872553,0.130526,-0.991445
0.130526, -0.991445,0.258819, -0.965926,0.194706, -0.853062,0.130526,-0.991445
0.258819, -0.965926,0.319673, -0.814515,0.194706, -0.853062,0.258819,-0.965926
0.258819, -0.965926,0.382683, -0.923880,0.319673, -0.814515,0.258819,-0.965926
0.382683, -0.923880,0.437500, -0.757772,0.319673, -0.814515,0.382683,-0.923880
0.382683, -0.923880,0.500000, -0.866025,0.437500, -0.757772,0.382683,-0.923880
0.500000, -0.866025,0.608761, -0.793353,0.437500, -0.757772,0.500000,-0.866025
0.608761, -0.793353,0.545554, -0.684103,0.437500, -0.757772,0.608761,-0.793353
0.608761, -0.793353,0.707107, -0.707107,0.545554, -0.684103,0.608761,-0.793353
0.707107, -0.707107,0.641420, -0.595151,0.545554, -0.684103,0.707107,-0.707107
0.707107, -0.707107,0.793353, -0.608761,0.641420, -0.595151,0.707107,-0.707107
0.793353, -0.608761,0.722959, -0.492905,0.641420, -0.595151,0.793353,-0.608761
0.793353, -0.608761,0.866025, -0.500000,0.722959, -0.492905,0.793353,-0.608761
0.866025, -0.500000,0.788348, -0.379648,0.722959, -0.492905,0.866025,-0.500000
0.866025, -0.500000,0.923880, -0.382683,0.788348, -0.379648,0.866025,-0.500000
0.923880, -0.382683,0.836126, -0.257911,0.788348, -0.379648,0.923880,-0.382683
0.923880, -0.382683,0.965926, -0.258819,0.836126, -0.257911,0.923880,-0.382683
0.965926, -0.258819,0.865227, -0.130412,0.836126, -0.257911,0.965926,-0.258819
0.965926, -0.258819,0.991445, -0.130526,0.865227, -0.130412,0.965926,-0.258819
0.991445, -0.130526,0.875000, 0.000000,0.865227, -0.130412,0.991445,-0.130526
0.991445, -0.130526,1.000000, 0.000000,0.875000, 0.000000,0.991445,-0.130526

