1.000000,0.000000
0.997148,0.043509
0.994297,0.087017
0.991445,0.130526
0.982939,0.173290
0.974432,0.216055
0.965926,0.258819
0.951910,0.300107
0.937895,0.341395
0.923880,0.382683
0.904595,0.421789
0.885310,0.460894
0.866025,0.500000
0.841801,0.536254
0.817577,0.572508
0.793353,0.608761
0.764604,0.641543
0.735856,0.674325
0.707107,0.707107
0.674325,0.735856
0.641543,0.764604
0.608761,0.793353
0.572508,0.817577
0.536254,0.841801
0.500000,0.866025
0.460894,0.885310
0.421789,0.904595
0.382683,0.923880
0.341395,0.937895
0.300107,0.951910
0.258819,0.965926
0.216055,0.974432
0.173290,0.982939
0.130526,0.991445
0.087017,0.994297
0.043509,0.997148
0.000000,1.000000
-0.043509,0.997148
-0.087017,0.994297
-0.130526,0.991445
-0.173290,0.982939
-0.216055,0.974432
-0.258819,0.965926
-0.300107,0.951910
-0.341395,0.937895
-0.382683,0.923880
-0.421789,0.904595
-0.460894,0.885310
-0.500000,0.866025
-0.536254,0.841801
-0.572508,0.817577
-0.608761,0.793353
-0.641543,0.764604
-0.674325,0.735856
-0.707107,0.707107
-0.735856,0.674325
-0.764604,0.641543
-0.793353,0.608761
-0.817577,0.572508
-0.841801,0.536254
-0.866025,0.500000
-0.885310,0.460894
-0.904595,0.421789
-0.923880,0.382683
-0.937895,0.341395
-0.951910,0.300107
-0.965926,0.258819
-0.974432,0.216055
-0.982939,0.173290
-0.991445,0.130526
-0.994297,0.087017
-0.997148,0.043509
-1.000000,0.000000
-0.997148,-0.043509
-0.994297,-0.087017
-0.991445,-0.130526
-0.982939,-0.173290
-0.974432,-0.216055
-0.965926,-0.258819
-0.951910,-0.300107
-0.937895,-0.341395
-0.923880,-0.382683
-0.904595,-0.421789
-0.885310,-0.460894
-0.866025,-0.500000
-0.841801,-0.536254
-0.817577,-0.572508
-0.793353,-0.608761
-0.764604,-0.641543
-0.735856,-0.674325
-0.707107,-0.707107
-0.674325,-0.735856
-0.641543,-0.764604
-0.608761,-0.793353
-0.572508,-0.817577
-0.536254,-0.841801
-0.500000,-0.866025
-0.460894,-0.885310
-0.421789,-0.904595
-0.382683,-0.923880
-0.341395,-0.937895
-0.300107,-0.951910
-0.258819,-0.965926
-0.216055,-0.974432
-0.173290,-0.982939
-0.130526,-0.991445
-0.087017,-0.994297
-0.043509,-0.997148
0.000000,-1.000000
0.043509,-0.997148
0.087017,-0.994297
0.130526,-0.991445
0.173290,-0.982939
0.216055,-0.974432
0.258819,-0.965926
0.300107,-0.951910
0.341395,-0.937895
0.382683,-0.923880
0.421789,-0.904595
0.460894,-0.885310
0.500000,-0.866025
0.536254,-0.841801
0.572508,-0.817577
0.608761,-0.793353
0.641543,-0.764604
0.674325,-0.735856
0.707107,-0.707107
0.735856,-0.674325
0.764604,-0.641543
0.793353,-0.608761
0.817577,-0.572508
0.841801,-0.536254
0.866025,-0.500000
0.885310,-0.460894
0.904595,-0.421789
0.923880,-0.382683
0.937895,-0.341395
0.951910,-0.300107
0.965926,-0.258819
0.974432,-0.216055
0.982939,-0.173290
0.991445,-0.130526
0.994297,-0.087017
0.997148,-0.043509
0.000000,0.000000
0.083333,0.000000
0.062500,0.036084
0.041667,0.000000
0.041667,0.072169
0.000000,0.072169
0.020833,0.036084
-0.041667,0.072169
-0.062500,0.036084
-0.020833,0.036084
-0.083333,0.000000
-0.062500,-0.036084
-0.041667,0.000000
-0.041667,-0.072169
-0.000000,-0.072169
-0.020833,-0.036084
0.041667,-0.072169
0.062500,-0.036084
0.020833,-0.036084
0.125000,0.000000
0.104167,0.036084
0.083333,0.072169
0.062500,0.108253
0.020833,0.108253
-0.020833,0.108253
-0.062500,0.108253
-0.083333,0.072169
-0.104167,0.036084
-0.125000,0.000000
-0.104167,-0.036084
-0.083333,-0.072169
-0.062500,-0.108253
-0.020833,-0.108253
0.020833,-0.108253
0.062500,-0.108253
0.083333,-0.072169
0.104167,-0.036084
0.208333,0.000000
0.197169,0.041667
0.166667,0.000000
0.186004,0.083333
0.134669,0.077751
0.155502,0.041667
0.165171,0.119418
0.134669,0.149920
0.113835,0.113835
0.104167,0.180422
0.062500,0.191587
0.083333,0.144338
0.020833,0.202751
0.000000,0.155502
0.041667,0.155502
-0.020833,0.202751
-0.062500,0.191587
-0.041667,0.155502
-0.104167,0.180422
-0.134669,0.149920
-0.083333,0.144338
-0.165171,0.119418
-0.134669,0.077751
-0.113835,0.113835
-0.186004,0.083333
-0.197169,0.041667
-0.155502,0.041667
-0.208333,0.000000
-0.197169,-0.041667
-0.166667,0.000000
-0.186004,-0.083333
-0.134669,-0.077751
-0.155502,-0.041667
-0.165171,-0.119418
-0.134669,-0.149920
-0.113835,-0.113835
-0.104167,-0.180422
-0.062500,-0.191587
-0.083333,-0.144338
-0.020833,-0.202751
-0.000000,-0.155502
-0.041667,-0.155502
0.020833,-0.202751
0.062500,-0.191587
0.041667,-0.155502
0.104167,-0.180422
0.134669,-0.149920
0.083333,-0.144338
0.165171,-0.119418
0.134669,-0.077751
0.113835,-0.113835
0.186004,-0.083333
0.197169,-0.041667
0.155502,-0.041667
0.250000,0.000000
0.238835,0.041667
0.227671,0.083333
0.216506,0.125000
0.186004,0.155502
0.155502,0.186004
0.125000,0.216506
0.083333,0.227671
0.041667,0.238835
0.000000,0.250000
-0.041667,0.238835
-0.083333,0.227671
-0.125000,0.216506
-0.155502,0.186004
-0.186004,0.155502
-0.216506,0.125000
-0.227671,0.083333
-0.238835,0.041667
-0.250000,0.000000
-0.238835,-0.041667
-0.227671,-0.083333
-0.216506,-0.125000
-0.186004,-0.155502
-0.155502,-0.186004
-0.125000,-0.216506
-0.083333,-0.227671
-0.041667,-0.238835
-0.000000,-0.250000
0.041667,-0.238835
0.083333,-0.227671
0.125000,-0.216506
0.155502,-0.186004
0.186004,-0.155502
0.216506,-0.125000
0.227671,-0.083333
0.238835,-0.041667
0.333333,0.000000
0.325795,0.042753
0.291667,0.000000
0.318256,0.085505
0.272964,0.084419
0.284128,0.042753
0.307092,0.127172
0.285386,0.164768
0.261799,0.126086
0.263680,0.202364
0.209591,0.194184
0.240093,0.163682
0.233178,0.232866
0.199922,0.260770
0.179089,0.224686
0.166667,0.288675
0.125873,0.303523
0.145833,0.252591
0.085079,0.318371
0.063373,0.278603
0.105039,0.267439
0.043412,0.329535
0.000000,0.329535
0.021706,0.289768
-0.043412,0.329535
-0.063373,0.278603
-0.021706,0.289768
-0.085079,0.318371
-0.125873,0.303523
-0.105039,0.267439
-0.166667,0.288675
-0.199922,0.260770
-0.145833,0.252591
-0.233178,0.232866
-0.209591,0.194184
-0.179089,0.224686
-0.263680,0.202364
-0.285386,0.164768
-0.240093,0.163682
-0.307092,0.127172
-0.272964,0.084419
-0.261799,0.126086
-0.318256,0.085505
-0.325795,0.042753
-0.284128,0.042753
-0.333333,-0.000000
-0.325795,-0.042753
-0.291667,-0.000000
-0.318256,-0.085505
-0.272964,-0.084419
-0.284128,-0.042753
-0.307092,-0.127172
-0.285386,-0.164768
-0.261799,-0.126086
-0.263680,-0.202364
-0.209591,-0.194184
-0.240093,-0.163682
-0.233178,-0.232866
-0.199922,-0.260770
-0.179089,-0.224686
-0.166667,-0.288675
-0.125873,-0.303523
-0.145833,-0.252591
-0.085079,-0.318371
-0.063373,-0.278603
-0.105039,-0.267439
-0.043412,-0.329535
0.000000,-0.329535
-0.021706,-0.289768
0.043412,-0.329535
0.063373,-0.278603
0.021706,-0.289768
0.085079,-0.318371
0.125873,-0.303523
0.105039,-0.267439
0.166667,-0.288675
0.199922,-0.260770
0.145833,-0.252591
0.233178,-0.232866
0.209591,-0.194184
0.179089,-0.224686
0.263680,-0.202364
0.285386,-0.164768
0.240093,-0.163682
0.307092,-0.127172
0.272964,-0.084419
0.261799,-0.126086
0.318256,-0.085505
0.325795,-0.042753
0.284128,-0.042753
0.375000,0.000000
0.367462,0.042753
0.359923,0.085505
0.352385,0.128258
0.330679,0.165853
0.308973,0.203449
0.287267,0.241045
0.254011,0.268950
0.220756,0.296855
0.187500,0.324760
0.146706,0.339607
0.105912,0.354455
0.065118,0.369303
0.021706,0.369303
-0.021706,0.369303
-0.065118,0.369303
-0.105912,0.354455
-0.146706,0.339607
-0.187500,0.324760
-0.220756,0.296855
-0.254011,0.268950
-0.287267,0.241045
-0.308973,0.203449
-0.330679,0.165853
-0.352385,0.128258
-0.359923,0.085505
-0.367462,0.042753
-0.375000,-0.000000
-0.367462,-0.042753
-0.359923,-0.085505
-0.352385,-0.128258
-0.330679,-0.165853
-0.308973,-0.203449
-0.287267,-0.241045
-0.254011,-0.268950
-0.220756,-0.296855
-0.187500,-0.324760
-0.146706,-0.339607
-0.105912,-0.354455
-0.065118,-0.369303
-0.021706,-0.369303
0.021706,-0.369303
0.065118,-0.369303
0.105912,-0.354455
0.146706,-0.339607
0.187500,-0.324760
0.220756,-0.296855
0.254011,-0.268950
0.287267,-0.241045
0.308973,-0.203449
0.330679,-0.165853
0.352385,-0.128258
0.359923,-0.085505
0.367462,-0.042753
0.458333,0.000000
0.452654,0.043137
0.416667,0.000000
0.446975,0.086273
0.403449,0.085889
0.410988,0.043137
0.439437,0.129026
0.422787,0.169222
0.395911,0.128642
0.406137,0.209419
0.357555,0.206434
0.379261,0.168838
0.384431,0.247015
0.357944,0.281533
0.335849,0.244030
0.331458,0.316051
0.276107,0.306453
0.309362,0.278548
0.298202,0.343955
0.263684,0.370442
0.242851,0.334357
0.229167,0.396928
0.188970,0.413578
0.208333,0.360844
0.148773,0.430228
0.127343,0.392342
0.168137,0.377494
0.107979,0.445076
0.064843,0.450755
0.086549,0.407190
0.021706,0.456434
0.000000,0.412869
0.043412,0.412869
-0.021706,0.456434
-0.064843,0.450755
-0.043412,0.412869
-0.107979,0.445076
-0.127343,0.392342
-0.086549,0.407190
-0.148773,0.430228
-0.188970,0.413578
-0.168137,0.377494
-0.229167,0.396928
-0.263684,0.370442
-0.208333,0.360844
-0.298202,0.343955
-0.276107,0.306453
-0.242851,0.334357
-0.331458,0.316051
-0.357944,0.281533
-0.309362,0.278548
-0.384431,0.247015
-0.357555,0.206434
-0.335849,0.244030
-0.406137,0.209419
-0.422787,0.169222
-0.379261,0.168838
-0.439437,0.129026
-0.403449,0.085889
-0.395911,0.128642
-0.446975,0.086273
-0.452654,0.043137
-0.410988,0.043137
-0.458333,-0.000000
-0.452654,-0.043137
-0.416667,-0.000000
-0.446975,-0.086273
-0.403449,-0.085889
-0.410988,-0.043137
-0.439437,-0.129026
-0.422787,-0.169222
-0.395911,-0.128642
-0.406137,-0.209419
-0.357555,-0.206434
-0.379261,-0.168838
-0.384431,-0.247015
-0.357944,-0.281533
-0.335849,-0.244030
-0.331458,-0.316051
-0.276107,-0.306453
-0.309362,-0.278548
-0.298202,-0.343955
-0.263684,-0.370442
-0.242851,-0.334357
-0.229167,-0.396928
-0.188970,-0.413578
-0.208333,-0.360844
-0.148773,-0.430228
-0.127343,-0.392342
-0.168137,-0.377494
-0.107979,-0.445076
-0.064843,-0.450755
-0.086549,-0.407190
-0.021706,-0.456434
-0.000000,-0.412869
-0.043412,-0.412869
0.021706,-0.456434
0.064843,-0.450755
0.043412,-0.412869
0.107979,-0.445076
0.127343,-0.392342
0.086549,-0.407190
0.148773,-0.430228
0.188970,-0.413578
0.168137,-0.377494
0.229167,-0.396928
0.263684,-0.370442
0.208333,-0.360844
0.298202,-0.343955
0.276107,-0.306453
0.242851,-0.334357
0.331458,-0.316051
0.357944,-0.281533
0.309362,-0.278548
0.384431,-0.247015
0.357555,-0.206434
0.335849,-0.244030
0.406137,-0.209419
0.422787,-0.169222
0.379261,-0.168838
0.439437,-0.129026
0.403449,-0.085889
0.395911,-0.128642
0.446975,-0.086273
0.452654,-0.043137
0.410988,-0.043137
0.500000,0.000000
0.494321,0.043137
0.488642,0.086273
0.482963,0.129410
0.466313,0.169606
0.449663,0.209803
0.433013,0.250000
0.406526,0.284518
0.380040,0.319036
0.353553,0.353553
0.319036,0.380040
0.284518,0.406526
0.250000,0.433013
0.209803,0.449663
0.169606,0.466313
0.129410,0.482963
0.086273,0.488642
0.043137,0.494321
0.000000,0.500000
-0.043137,0.494321
-0.086273,0.488642
-0.129410,0.482963
-0.169606,0.466313
-0.209803,0.449663
-0.250000,0.433013
-0.284518,0.406526
-0.319036,0.380040
-0.353553,0.353553
-0.380040,0.319036
-0.406526,0.284518
-0.433013,0.250000
-0.449663,0.209803
-0.466313,0.169606
-0.482963,0.129410
-0.488642,0.086273
-0.494321,0.043137
-0.500000,0.000000
-0.494321,-0.043137
-0.488642,-0.086273
-0.482963,-0.129410
-0.466313,-0.169606
-0.449663,-0.209803
-0.433013,-0.250000
-0.406526,-0.284518
-0.380040,-0.319036
-0.353553,-0.353553
-0.319036,-0.380040
-0.284518,-0.406526
-0.250000,-0.433013
-0.209803,-0.449663
-0.169606,-0.466313
-0.129410,-0.482963
-0.086273,-0.488642
-0.043137,-0.494321
-0.000000,-0.500000
0.043137,-0.494321
0.086273,-0.488642
0.129410,-0.482963
0.169606,-0.466313
0.209803,-0.449663
0.250000,-0.433013
0.284518,-0.406526
0.319036,-0.380040
0.353553,-0.353553
0.380040,-0.319036
0.406526,-0.284518
0.433013,-0.250000
0.449663,-0.209803
0.466313,-0.169606
0.482963,-0.129410
0.488642,-0.086273
0.494321,-0.043137
0.583333,0.000000
0.578781,0.043315
0.541667,0.000000
0.574228,0.086630
0.531435,0.086451
0.537114,0.043315
0.568549,0.129766
0.555090,0.171188
0.525756,0.129588
0.541632,0.212610
0.495647,0.211207
0.512297,0.171010
0.524982,0.252807
0.503205,0.290525
0.478997,0.251403
0.481428,0.328244
0.430734,0.323640
0.457220,0.289122
0.454942,0.362762
0.425799,0.395128
0.404247,0.358158
0.396656,0.427495
0.340587,0.417011
0.375104,0.390524
0.362138,0.453981
0.326902,0.479581
0.306069,0.443497
0.291667,0.505181
0.251879,0.522896
0.270833,0.469097
0.212090,0.540611
0.190848,0.503462
0.231045,0.486812
0.171894,0.557261
0.129292,0.566316
0.150652,0.520112
0.086690,0.575372
0.064913,0.534846
0.108050,0.529167
0.043554,0.581051
0.000000,0.581051
0.021777,0.540525
-0.043554,0.581051
-0.064913,0.534846
-0.021777,0.540525
-0.086690,0.575372
-0.129292,0.566316
-0.108050,0.529167
-0.171894,0.557261
-0.190848,0.503462
-0.150652,0.520112
-0.212090,0.540611
-0.251879,0.522896
-0.231045,0.486812
-0.291667,0.505181
-0.326902,0.479581
-0.270833,0.469097
-0.362138,0.453981
-0.340587,0.417011
-0.306069,0.443497
-0.396656,0.427495
-0.425799,0.395128
-0.375104,0.390524
-0.454942,0.362762
-0.430734,0.323640
-0.404247,0.358158
-0.481428,0.328244
-0.503205,0.290525
-0.457220,0.289122
-0.524982,0.252807
-0.495647,0.211207
-0.478997,0.251403
-0.541632,0.212610
-0.555090,0.171188
-0.512297,0.171010
-0.568549,0.129766
-0.531435,0.086451
-0.525756,0.129588
-0.574228,0.086630
-0.578781,0.043315
-0.537114,0.043315
-0.583333,0.000000
-0.578781,-0.043315
-0.541667,0.000000
-0.574228,-0.086630
-0.531435,-0.086451
-0.537114,-0.043315
-0.568549,-0.129766
-0.555090,-0.171188
-0.525756,-0.129588
-0.541632,-0.212610
-0.495647,-0.211207
-0.512297,-0.171010
-0.524982,-0.252807
-0.503205,-0.290525
-0.478997,-0.251403
-0.481428,-0.328244
-0.430734,-0.323640
-0.457220,-0.289122
-0.454942,-0.362762
-0.425799,-0.395128
-0.404247,-0.358158
-0.396656,-0.427495
-0.340587,-0.417011
-0.375104,-0.390524
-0.362138,-0.453981
-0.326902,-0.479581
-0.306069,-0.443497
-0.291667,-0.505181
-0.251879,-0.522896
-0.270833,-0.469097
-0.212090,-0.540611
-0.190848,-0.503462
-0.231045,-0.486812
-0.171894,-0.557261
-0.129292,-0.566316
-0.150652,-0.520112
-0.086690,-0.575372
-0.064913,-0.534846
-0.108050,-0.529167
-0.043554,-0.581051
-0.000000,-0.581051
-0.021777,-0.540525
0.043554,-0.581051
0.064913,-0.534846
0.021777,-0.540525
0.086690,-0.575372
0.129292,-0.566316
0.108050,-0.529167
0.171894,-0.557261
0.190848,-0.503462
0.150652,-0.520112
0.212090,-0.540611
0.251879,-0.522896
0.231045,-0.486812
0.291667,-0.505181
0.326902,-0.479581
0.270833,-0.469097
0.362138,-0.453981
0.340587,-0.417011
0.306069,-0.443497
0.396656,-0.427495
0.425799,-0.395128
0.375104,-0.390524
0.454942,-0.362762
0.430734,-0.323640
0.404247,-0.358158
0.481428,-0.328244
0.503205,-0.290525
0.457220,-0.289122
0.524982,-0.252807
0.495647,-0.211207
0.478997,-0.251403
0.541632,-0.212610
0.555090,-0.171188
0.512297,-0.171010
0.568549,-0.129766
0.531435,-0.086451
0.525756,-0.129588
0.574228,-0.086630
0.578781,-0.043315
0.537114,-0.043315
0.625000,0.000000
0.620447,0.043315
0.615895,0.086630
0.611342,0.129945
0.597883,0.171367
0.584425,0.212789
0.570966,0.254210
0.549189,0.291929
0.527412,0.329647
0.505636,0.367366
0.476493,0.399732
0.447350,0.432099
0.418207,0.464466
0.382971,0.490066
0.347736,0.515666
0.312500,0.541266
0.272712,0.558981
0.232924,0.576696
0.193136,0.594410
0.150534,0.603466
0.107932,0.612521
0.065330,0.621576
0.021777,0.621576
-0.021777,0.621576
-0.065330,0.621576
-0.107932,0.612521
-0.150534,0.603466
-0.193136,0.594410
-0.232924,0.576696
-0.272712,0.558981
-0.312500,0.541266
-0.347736,0.515666
-0.382971,0.490066
-0.418207,0.464466
-0.447350,0.432099
-0.476493,0.399732
-0.505636,0.367366
-0.527412,0.329647
-0.549189,0.291929
-0.570966,0.254210
-0.584425,0.212789
-0.597883,0.171367
-0.611342,0.129945
-0.615895,0.086630
-0.620447,0.043315
-0.625000,0.000000
-0.620447,-0.043315
-0.615895,-0.086630
-0.611342,-0.129945
-0.597883,-0.171367
-0.584425,-0.212789
-0.570966,-0.254210
-0.549189,-0.291929
-0.527412,-0.329647
-0.505636,-0.367366
-0.476493,-0.399732
-0.447350,-0.432099
-0.418207,-0.464466
-0.382971,-0.490066
-0.347736,-0.515666
-0.312500,-0.541266
-0.272712,-0.558981
-0.232924,-0.576696
-0.193136,-0.594410
-0.150534,-0.603466
-0.107932,-0.612521
-0.065330,-0.621576
-0.021777,-0.621576
0.021777,-0.621576
0.065330,-0.621576
0.107932,-0.612521
0.150534,-0.603466
0.193136,-0.594410
0.232924,-0.576696
0.272712,-0.558981
0.312500,-0.541266
0.347736,-0.515666
0.382971,-0.490066
0.418207,-0.464466
0.447350,-0.432099
0.476493,-0.399732
0.505636,-0.367366
0.527412,-0.329647
0.549189,-0.291929
0.570966,-0.254210
0.584425,-0.212789
0.597883,-0.171367
0.611342,-0.129945
0.615895,-0.086630
0.620447,-0.043315
0.708333,0.000000
0.704535,0.043412
0.666667,0.000000
0.700737,0.086824
0.658316,0.086727
0.662869,0.043412
0.696185,0.130139
0.684906,0.172232
0.653763,0.130042
0.673627,0.214325
0.629026,0.213557
0.642485,0.172135
0.660168,0.255747
0.641751,0.295242
0.615567,0.254979
0.623335,0.334737
0.575374,0.332192
0.597150,0.294474
0.601558,0.372455
0.576563,0.408152
0.553597,0.369911
0.551567,0.443849
0.499459,0.437974
0.528602,0.405607
0.522424,0.476216
0.491610,0.507030
0.470316,0.470341
0.460796,0.537844
0.404266,0.526755
0.439501,0.501155
0.425560,0.563444
0.389864,0.588439
0.369030,0.552355
0.354167,0.613435
0.314672,0.631851
0.333333,0.577350
0.275177,0.650268
0.254050,0.613482
0.293838,0.595767
0.235389,0.667983
0.193296,0.679262
0.214262,0.631197
0.151203,0.690541
0.129567,0.651531
0.172169,0.642475
0.108601,0.699596
0.065189,0.703394
0.086966,0.660586
0.021777,0.707192
-0.000000,0.664384
0.043554,0.664384
-0.021777,0.707192
-0.065189,0.703394
-0.043554,0.664384
-0.108601,0.699596
-0.129567,0.651531
-0.086966,0.660586
-0.151203,0.690541
-0.193296,0.679262
-0.172169,0.642475
-0.235389,0.667983
-0.254050,0.613482
-0.214262,0.631197
-0.275177,0.650268
-0.314672,0.631851
-0.293838,0.595767
-0.354167,0.613435
-0.389864,0.588439
-0.333333,0.577350
-0.425560,0.563444
-0.404266,0.526755
-0.369030,0.552355
-0.460796,0.537844
-0.491610,0.507030
-0.439501,0.501155
-0.522424,0.476216
-0.499459,0.437974
-0.470316,0.470341
-0.551567,0.443849
-0.576563,0.408152
-0.528602,0.405607
-0.601558,0.372455
-0.575374,0.332192
-0.553597,0.369911
-0.623335,0.334737
-0.641751,0.295242
-0.597150,0.294474
-0.660168,0.255747
-0.629026,0.213557
-0.615567,0.254979
-0.673627,0.214325
-0.684906,0.172232
-0.642485,0.172135
-0.696185,0.130139
-0.658316,0.086727
-0.653763,0.130042
-0.700737,0.086824
-0.704535,0.043412
-0.662869,0.043412
-0.708333,-0.000000
-0.704535,-0.043412
-0.666667,0.000000
-0.700737,-0.086824
-0.658316,-0.086727
-0.662869,-0.043412
-0.696185,-0.130139
-0.684906,-0.172232
-0.653763,-0.130042
-0.673627,-0.214325
-0.629026,-0.213557
-0.642485,-0.172135
-0.660168,-0.255747
-0.641751,-0.295242
-0.615567,-0.254979
-0.623335,-0.334737
-0.575374,-0.332192
-0.597150,-0.294474
-0.601558,-0.372455
-0.576563,-0.408152
-0.553597,-0.369911
-0.551567,-0.443849
-0.499459,-0.437974
-0.528602,-0.405607
-0.522424,-0.476216
-0.491610,-0.507030
-0.470316,-0.470341
-0.460796,-0.537844
-0.404266,-0.526755
-0.439501,-0.501155
-0.425560,-0.563444
-0.389864,-0.588439
-0.369030,-0.552355
-0.354167,-0.613435
-0.314672,-0.631851
-0.333333,-0.577350
-0.275177,-0.650268
-0.254050,-0.613482
-0.293838,-0.595767
-0.235389,-0.667983
-0.193296,-0.679262
-0.214262,-0.631197
-0.151203,-0.690541
-0.129567,-0.651531
-0.172169,-0.642475
-0.108601,-0.699596
-0.065189,-0.703394
-0.086966,-0.660586
-0.021777,-0.707192
0.000000,-0.664384
-0.043554,-0.664384
0.021777,-0.707192
0.065189,-0.703394
0.043554,-0.664384
0.108601,-0.699596
0.129567,-0.651531
0.086966,-0.660586
0.151203,-0.690541
0.193296,-0.679262
0.172169,-0.642475
0.235389,-0.667983
0.254050,-0.613482
0.214262,-0.631197
0.275177,-0.650268
0.314672,-0.631851
0.293838,-0.595767
0.354167,-0.613435
0.389864,-0.588439
0.333333,-0.577350
0.425560,-0.563444
0.404266,-0.526755
0.369030,-0.552355
0.460796,-0.537844
0.491610,-0.507030
0.439501,-0.501155
0.522424,-0.476216
0.499459,-0.437974
0.470316,-0.470341
0.551567,-0.443849
0.576563,-0.408152
0.528602,-0.405607
0.601558,-0.372455
0.575374,-0.332192
0.553597,-0.369911
0.623335,-0.334737
0.641751,-0.295242
0.597150,-0.294474
0.660168,-0.255747
0.629026,-0.213557
0.615567,-0.254979
0.673627,-0.214325
0.684906,-0.172232
0.642485,-0.172135
0.696185,-0.130139
0.658316,-0.086727
0.653763,-0.130042
0.700737,-0.086824
0.704535,-0.043412
0.662869,-0.043412
0.750000,0.000000
0.746202,0.043412
0.742404,0.086824
0.738606,0.130236
0.727327,0.172329
0.716048,0.214422
0.704769,0.256515
0.686353,0.296010
0.667936,0.335505
0.649519,0.375000
0.624524,0.410697
0.599529,0.446394
0.574533,0.482091
0.543719,0.512905
0.512905,0.543719
0.482091,0.574533
0.446394,0.599529
0.410697,0.624524
0.375000,0.649519
0.335505,0.667936
0.296010,0.686353
0.256515,0.704769
0.214422,0.716048
0.172329,0.727327
0.130236,0.738606
0.086824,0.742404
0.043412,0.746202
-0.000000,0.750000
-0.043412,0.746202
-0.086824,0.742404
-0.130236,0.738606
-0.172329,0.727327
-0.214422,0.716048
-0.256515,0.704769
-0.296010,0.686353
-0.335505,0.667936
-0.375000,0.649519
-0.410697,0.624524
-0.446394,0.599529
-0.482091,0.574533
-0.512905,0.543719
-0.543719,0.512905
-0.574533,0.482091
-0.599529,0.446394
-0.624524,0.410697
-0.649519,0.375000
-0.667936,0.335505
-0.686353,0.296010
-0.704769,0.256515
-0.716048,0.214422
-0.727327,0.172329
-0.738606,0.130236
-0.742404,0.086824
-0.746202,0.043412
-0.750000,-0.000000
-0.746202,-0.043412
-0.742404,-0.086824
-0.738606,-0.130236
-0.727327,-0.172329
-0.716048,-0.214422
-0.704769,-0.256515
-0.686353,-0.296010
-0.667936,-0.335505
-0.649519,-0.375000
-0.624524,-0.410697
-0.599529,-0.446394
-0.574533,-0.482091
-0.543719,-0.512905
-0.512905,-0.543719
-0.482091,-0.574533
-0.446394,-0.599529
-0.410697,-0.624524
-0.375000,-0.649519
-0.335505,-0.667936
-0.296010,-0.686353
-0.256515,-0.704769
-0.214422,-0.716048
-0.172329,-0.727327
-0.130236,-0.738606
-0.086824,-0.742404
-0.043412,-0.746202
0.000000,-0.750000
0.043412,-0.746202
0.086824,-0.742404
0.130236,-0.738606
0.172329,-0.727327
0.214422,-0.716048
0.256515,-0.704769
0.296010,-0.686353
0.335505,-0.667936
0.375000,-0.649519
0.410697,-0.624524
0.446394,-0.599529
0.482091,-0.574533
0.512905,-0.543719
0.543719,-0.512905
0.574533,-0.482091
0.599529,-0.446394
0.624524,-0.410697
0.649519,-0.375000
0.667936,-0.335505
0.686353,-0.296010
0.704769,-0.256515
0.716048,-0.214422
0.727327,-0.172329
0.738606,-0.130236
0.742404,-0.086824
0.746202,-0.043412
0.833333,0.000000
0.830076,0.043471
0.791667,0.000000
0.826818,0.086941
0.784611,0.086883
0.788409,0.043471
0.823020,0.130353
0.813320,0.172853
0.780813,0.130295
0.803619,0.215353
0.759834,0.214887
0.771113,0.172794
0.792341,0.257446
0.776414,0.298025
0.748555,0.256980
0.760488,0.338604
0.714212,0.337054
0.732629,0.297559
0.742072,0.378099
0.720275,0.415851
0.695795,0.376549
0.698479,0.453603
0.649004,0.449999
0.673999,0.414302
0.673484,0.489300
0.646304,0.523382
0.624009,0.485695
0.619125,0.557464
0.566015,0.550592
0.596829,0.519778
0.588310,0.588279
0.556355,0.617929
0.535201,0.581406
0.524399,0.647579
0.467548,0.636052
0.503245,0.611056
0.488702,0.672575
0.452685,0.697131
0.431851,0.661047
0.416667,0.721688
0.377391,0.740602
0.395833,0.685603
0.338116,0.759516
0.317063,0.722934
0.356558,0.704518
0.298621,0.777933
0.256965,0.790782
0.277568,0.741351
0.215309,0.803631
0.193819,0.765479
0.235912,0.754200
0.173216,0.814910
0.130110,0.821407
0.151726,0.776758
0.087005,0.827904
0.065208,0.787053
0.108620,0.783255
0.043593,0.831702
0.000000,0.831702
0.021796,0.790851
-0.043593,0.831702
-0.065208,0.787053
-0.021796,0.790851
-0.087005,0.827904
-0.130110,0.821407
-0.108620,0.783255
-0.173216,0.814910
-0.193819,0.765479
-0.151726,0.776758
-0.215309,0.803631
-0.256965,0.790782
-0.235912,0.754200
-0.298621,0.777933
-0.317063,0.722934
-0.277568,0.741351
-0.338116,0.759516
-0.377391,0.740602
-0.356558,0.704518
-0.416667,0.721688
-0.452685,0.697131
-0.395833,0.685603
-0.488702,0.672575
-0.467548,0.636052
-0.431851,0.661047
-0.524399,0.647579
-0.556355,0.617929
-0.503245,0.611056
-0.588310,0.588279
-0.566015,0.550592
-0.535201,0.581406
-0.619125,0.557464
-0.646304,0.523382
-0.596829,0.519778
-0.673484,0.489300
-0.649004,0.449999
-0.624009,0.485695
-0.698479,0.453603
-0.720275,0.415851
-0.673999,0.414302
-0.742072,0.378099
-0.714212,0.337054
-0.695795,0.376549
-0.760488,0.338604
-0.776414,0.298025
-0.732629,0.297559
-0.792341,0.257446
-0.759834,0.214887
-0.748555,0.256980
-0.803619,0.215353
-0.813320,0.172853
-0.771113,0.172794
-0.823020,0.130353
-0.784611,0.086883
-0.780813,0.130295
-0.826818,0.086941
-0.830076,0.043471
-0.788409,0.043471
-0.833333,-0.000000
-0.830076,-0.043471
-0.791667,-0.000000
-0.826818,-0.086941
-0.784611,-0.086883
-0.788409,-0.043471
-0.823020,-0.130353
-0.813320,-0.172853
-0.780813,-0.130295
-0.803619,-0.215353
-0.759834,-0.214887
-0.771113,-0.172794
-0.792341,-0.257446
-0.776414,-0.298025
-0.748555,-0.256980
-0.760488,-0.338604
-0.714212,-0.337054
-0.732629,-0.297559
-0.742072,-0.378099
-0.720275,-0.415851
-0.695795,-0.376549
-0.698479,-0.453603
-0.649004,-0.449999
-0.673999,-0.414302
-0.673484,-0.489300
-0.646304,-0.523382
-0.624009,-0.485695
-0.619125,-0.557464
-0.566015,-0.550592
-0.596829,-0.519778
-0.588310,-0.588279
-0.556355,-0.617929
-0.535201,-0.581406
-0.524399,-0.647579
-0.467548,-0.636052
-0.503245,-0.611056
-0.488702,-0.672575
-0.452685,-0.697131
-0.431851,-0.661047
-0.416667,-0.721688
-0.377391,-0.740602
-0.395833,-0.685603
-0.338116,-0.759516
-0.317063,-0.722934
-0.356558,-0.704518
-0.298621,-0.777933
-0.256965,-0.790782
-0.277568,-0.741351
-0.215309,-0.803631
-0.193819,-0.765479
-0.235912,-0.754200
-0.173216,-0.814910
-0.130110,-0.821407
-0.151726,-0.776758
-0.087005,-0.827904
-0.065208,-0.787053
-0.108620,-0.783255
-0.043593,-0.831702
0.000000,-0.831702
-0.021796,-0.790851
0.043593,-0.831702
0.065208,-0.787053
0.021796,-0.790851
0.087005,-0.827904
0.130110,-0.821407
0.108620,-0.783255
0.173216,-0.814910
0.193819,-0.765479
0.151726,-0.776758
0.215309,-0.803631
0.256965,-0.790782
0.235912,-0.754200
0.298621,-0.777933
0.317063,-0.722934
0.277568,-0.741351
0.338116,-0.759516
0.377391,-0.740602
0.356558,-0.704518
0.416667,-0.721688
0.452685,-0.697131
0.395833,-0.685603
0.488702,-0.672575
0.467548,-0.636052
0.431851,-0.661047
0.524399,-0.647579
0.556355,-0.617929
0.503245,-0.611056
0.588310,-0.588279
0.566015,-0.550592
0.535201,-0.581406
0.619125,-0.557464
0.646304,-0.523382
0.596829,-0.519778
0.673484,-0.489300
0.649004,-0.449999
0.624009,-0.485695
0.698479,-0.453603
0.720275,-0.415851
0.673999,-0.414302
0.742072,-0.378099
0.714212,-0.337054
0.695795,-0.376549
0.760488,-0.338604
0.776414,-0.298025
0.732629,-0.297559
0.792341,-0.257446
0.759834,-0.214887
0.748555,-0.256980
0.803619,-0.215353
0.813320,-0.172853
0.771113,-0.172794
0.823020,-0.130353
0.784611,-0.086883
0.780813,-0.130295
0.826818,-0.086941
0.830076,-0.043471
0.788409,-0.043471
0.875000,0.000000
0.871742,0.043471
0.868485,0.086941
0.865227,0.130412
0.855527,0.172912
0.845826,0.215411
0.836126,0.257911
0.820200,0.298490
0.804274,0.339069
0.788348,0.379648
0.766551,0.417401
0.744755,0.455153
0.722959,0.492905
0.695779,0.526987
0.668600,0.561069
0.641420,0.595151
0.609465,0.624802
0.577509,0.654452
0.545554,0.684103
0.509536,0.708659
0.473518,0.733216
0.437500,0.757772
0.398224,0.776686
0.358949,0.795600
0.319673,0.814515
0.278018,0.827364
0.236362,0.840213
0.194706,0.853062
0.151600,0.859559
0.108494,0.866056
0.065389,0.872553
0.021796,0.872553
-0.021796,0.872553
-0.065389,0.872553
-0.108494,0.866056
-0.151600,0.859559
-0.194706,0.853062
-0.236362,0.840213
-0.278018,0.827364
-0.319673,0.814515
-0.358949,0.795600
-0.398224,0.776686
-0.437500,0.757772
-0.473518,0.733216
-0.509536,0.708659
-0.545554,0.684103
-0.577509,0.654452
-0.609465,0.624802
-0.641420,0.595151
-0.668600,0.561069
-0.695779,0.526987
-0.722959,0.492905
-0.744755,0.455153
-0.766551,0.417401
-0.788348,0.379648
-0.804274,0.339069
-0.820200,0.298490
-0.836126,0.257911
-0.845826,0.215411
-0.855527,0.172912
-0.865227,0.130412
-0.868485,0.086941
-0.871742,0.043471
-0.875000,-0.000000
-0.871742,-0.043471
-0.868485,-0.086941
-0.865227,-0.130412
-0.855527,-0.172912
-0.845826,-0.215411
-0.836126,-0.257911
-0.820200,-0.298490
-0.804274,-0.339069
-0.788348,-0.379648
-0.766551,-0.417401
-0.744755,-0.455153
-0.722959,-0.492905
-0.695779,-0.526987
-0.668600,-0.561069
-0.641420,-0.595151
-0.609465,-0.624802
-0.577509,-0.654452
-0.545554,-0.684103
-0.509536,-0.708659
-0.473518,-0.733216
-0.437500,-0.757772
-0.398224,-0.776686
-0.358949,-0.795600
-0.319673,-0.814515
-0.278018,-0.827364
-0.236362,-0.840213
-0.194706,-0.853062
-0.151600,-0.859559
-0.108494,-0.866056
-0.065389,-0.872553
-0.021796,-0.872553
0.021796,-0.872553
0.065389,-0.872553
0.108494,-0.866056
0.151600,-0.859559
0.194706,-0.853062
0.236362,-0.840213
0.278018,-0.827364
0.319673,-0.814515
0.358949,-0.795600
0.398224,-0.776686
0.437500,-0.757772
0.473518,-0.733216
0.509536,-0.708659
0.545554,-0.684103
0.577509,-0.654452
0.609465,-0.624802
0.641420,-0.595151
0.668600,-0.561069
0.695779,-0.526987
0.722959,-0.492905
0.744755,-0.455153
0.766551,-0.417401
0.788348,-0.379648
0.804274,-0.339069
0.820200,-0.298490
0.836126,-0.257911
0.845826,-0.215411
0.855527,-0.172912
0.865227,-0.130412
0.868485,-0.086941
0.871742,-0.043471
0.958333,0.000000
0.955482,0.043509
0.916667,0.000000
0.952630,0.087017
0.910557,0.086979
0.913815,0.043509
0.949372,0.130488
0.940866,0.173252
0.907300,0.130450
0.932360,0.216017
0.889093,0.215714
0.898793,0.173214
0.922659,0.258516
0.908644,0.299804
0.879393,0.258214
0.894628,0.341093
0.849451,0.340081
0.865377,0.299502
0.878702,0.381672
0.859418,0.420777
0.833525,0.380660
0.840133,0.459883
0.792444,0.457518
0.814240,0.419766
0.818337,0.497635
0.794113,0.533889
0.770648,0.495270
0.769889,0.570143
0.719244,0.565606
0.746424,0.531524
0.742709,0.604225
0.713960,0.637006
0.692065,0.599688
0.685211,0.669788
0.631360,0.662120
0.663316,0.632470
0.653256,0.699439
0.620474,0.728188
0.599405,0.691771
0.587692,0.756936
0.530605,0.745076
0.566623,0.720519
0.551674,0.781493
0.515420,0.805717
0.494587,0.769633
0.479167,0.829941
0.440061,0.849226
0.458333,0.793857
0.400956,0.868510
0.379952,0.832055
0.419228,0.813141
0.361680,0.887425
0.320392,0.901440
0.340677,0.850970
0.279104,0.915455
0.257733,0.877834
0.299389,0.864985
0.237448,0.928305
0.194684,0.936811
0.216077,0.890683
0.151919,0.945317
0.130207,0.905687
0.173313,0.899190
0.108814,0.951814
0.065305,0.954666
0.087101,0.912184
0.021796,0.957518
0.000000,0.915036
0.043593,0.915036
-0.021796,0.957518
-0.065305,0.954666
-0.043593,0.915036
-0.108814,0.951814
-0.130207,0.905687
-0.087101,0.912184
-0.151919,0.945317
-0.194684,0.936811
-0.173313,0.899190
-0.237448,0.928305
-0.257733,0.877834
-0.216077,0.890683
-0.279104,0.915455
-0.320392,0.901440
-0.299389,0.864985
-0.361680,0.887425
-0.379952,0.832055
-0.340677,0.850970
-0.400956,0.868510
-0.440061,0.849226
-0.419228,0.813141
-0.479167,0.829941
-0.515420,0.805717
-0.458333,0.793857
-0.551674,0.781493
-0.530605,0.745076
-0.494587,0.769633
-0.587692,0.756936
-0.620474,0.728188
-0.566623,0.720519
-0.653256,0.699439
-0.631360,0.662120
-0.599405,0.691771
-0.685211,0.669788
-0.713960,0.637006
-0.663316,0.632470
-0.742709,0.604225
-0.719244,0.565606
-0.692065,0.599688
-0.769889,0.570143
-0.794113,0.533889
-0.746424,0.531524
-0.818337,0.497635
-0.792444,0.457518
-0.770648,0.495270
-0.840133,0.459883
-0.859418,0.420777
-0.814240,0.419766
-0.878702,0.381672
-0.849451,0.340081
-0.833525,0.380660
-0.894628,0.341093
-0.908644,0.299804
-0.865377,0.299502
-0.922659,0.258516
-0.889093,0.215714
-0.879393,0.258214
-0.932360,0.216017
-0.940866,0.173252
-0.898793,0.173214
-0.949372,0.130488
-0.910557,0.086979
-0.907300,0.130450
-0.952630,0.087017
-0.955482,0.043509
-0.913815,0.043509
-0.958333,0.000000
-0.955482,-0.043509
-0.916667,-0.000000
-0.952630,-0.087017
-0.910557,-0.086979
-0.913815,-0.043509
-0.949372,-0.130488
-0.940866,-0.173252
-0.907300,-0.130450
-0.932360,-0.216017
-0.889093,-0.215714
-0.898793,-0.173214
-0.922659,-0.258516
-0.908644,-0.299804
-0.879393,-0.258214
-0.894628,-0.341093
-0.849451,-0.340081
-0.865377,-0.299502
-0.878702,-0.381672
-0.859418,-0.420777
-0.833525,-0.380660
-0.840133,-0.459883
-0.792444,-0.457518
-0.814240,-0.419766
-0.818337,-0.497635
-0.794113,-0.533889
-0.770648,-0.495270
-0.769889,-0.570143
-0.719244,-0.565606
-0.746424,-0.531524
-0.742709,-0.604225
-0.713960,-0.637006
-0.692065,-0.599688
-0.685211,-0.669788
-0.631360,-0.662120
-0.663316,-0.632470
-0.653256,-0.699439
-0.620474,-0.728188
-0.599405,-0.691771
-0.587692,-0.756936
-0.530605,-0.745076
-0.566623,-0.720519
-0.551674,-0.781493
-0.515420,-0.805717
-0.494587,-0.769633
-0.479167,-0.829941
-0.440061,-0.849226
-0.458333,-0.793857
-0.400956,-0.868510
-0.379952,-0.832055
-0.419228,-0.813141
-0.361680,-0.887425
-0.320392,-0.901440
-0.340677,-0.850970
-0.279104,-0.915455
-0.257733,-0.877834
-0.299389,-0.864985
-0.237448,-0.928305
-0.194684,-0.936811
-0.216077,-0.890683
-0.151919,-0.945317
-0.130207,-0.905687
-0.173313,-0.899190
-0.108814,-0.951814
-0.065305,-0.954666
-0.087101,-0.912184
-0.021796,-0.957518
0.000000,-0.915036
-0.043593,-0.915036
0.021796,-0.957518
0.065305,-0.954666
0.043593,-0.915036
0.108814,-0.951814
0.130207,-0.905687
0.087101,-0.912184
0.151919,-0.945317
0.194684,-0.936811
0.173313,-0.899190
0.237448,-0.928305
0.257733,-0.877834
0.216077,-0.890683
0.279104,-0.915455
0.320392,-0.901440
0.299389,-0.864985
0.361680,-0.887425
0.379952,-0.832055
0.340677,-0.850970
0.400956,-0.868510
0.440061,-0.849226
0.419228,-0.813141
0.479167,-0.829941
0.515420,-0.805717
0.458333,-0.793857
0.551674,-0.781493
0.530605,-0.745076
0.494587,-0.769633
0.587692,-0.756936
0.620474,-0.728188
0.566623,-0.720519
0.653256,-0.699439
0.631360,-0.662120
0.599405,-0.691771
0.685211,-0.669788
0.713960,-0.637006
0.663316,-0.632470
0.742709,-0.604225
0.719244,-0.565606
0.692065,-0.599688
0.769889,-0.570143
0.794113,-0.533889
0.746424,-0.531524
0.818337,-0.497635
0.792444,-0.457518
0.770648,-0.495270
0.840133,-0.459883
0.859418,-0.420777
0.814240,-0.419766
0.878702,-0.381672
0.849451,-0.340081
0.833525,-0.380660
0.894628,-0.341093
0.908644,-0.299804
0.865377,-0.299502
0.922659,-0.258516
0.889093,-0.215714
0.879393,-0.258214
0.932360,-0.216017
0.940866,-0.173252
0.898793,-0.173214
0.949372,-0.130488
0.910557,-0.086979
0.907300,-0.130450
0.952630,-0.087017
0.955482,-0.043509
0.913815,-0.043509
