1.000000,0.000000
0.991445,0.130526
0.965926,0.258819
0.923880,0.382683
0.866025,0.500000
0.793353,0.608761
0.707107,0.707107
0.608761,0.793353
0.500000,0.866025
0.382683,0.923880
0.258819,0.965926
0.130526,0.991445
0.000000,1.000000
-0.130526,0.991445
-0.258819,0.965926
-0.382683,0.923880
-0.500000,0.866025
-0.608761,0.793353
-0.707107,0.707107
-0.793353,0.608761
-0.866025,0.500000
-0.923880,0.382683
-0.965926,0.258819
-0.991445,0.130526
-1.000000,0.000000
-0.991445,-0.130526
-0.965926,-0.258819
-0.923880,-0.382683
-0.866025,-0.500000
-0.793353,-0.608761
-0.707107,-0.707107
-0.608761,-0.793353
-0.500000,-0.866025
-0.382683,-0.923880
-0.258819,-0.965926
-0.130526,-0.991445
0.000000,-1.000000
0.130526,-0.991445
0.258819,-0.965926
0.382683,-0.923880
0.500000,-0.866025
0.608761,-0.793353
0.707107,-0.707107
0.793353,-0.608761
0.866025,-0.500000
0.923880,-0.382683
0.965926,-0.258819
0.991445,-0.130526
0.000000,0.000000
0.125000,0.000000
0.062500,0.108253
-0.062500,0.108253
-0.125000,0.000000
-0.062500,-0.108253
0.062500,-0.108253
0.250000,0.000000
0.216506,0.125000
0.125000,0.216506
0.000000,0.250000
-0.125000,0.216506
-0.216506,0.125000
-0.250000,0.000000
-0.216506,-0.125000
-0.125000,-0.216506
-0.000000,-0.250000
0.125000,-0.216506
0.216506,-0.125000
0.375000,0.000000
0.352385,0.128258
0.287267,0.241045
0.187500,0.324760
0.065118,0.369303
-0.065118,0.369303
-0.187500,0.324760
-0.287267,0.241045
-0.352385,0.128258
-0.375000,-0.000000
-0.352385,-0.128258
-0.287267,-0.241045
-0.187500,-0.324760
-0.065118,-0.369303
0.065118,-0.369303
0.187500,-0.324760
0.287267,-0.241045
0.352385,-0.128258
0.500000,0.000000
0.482963,0.129410
0.433013,0.250000
0.353553,0.353553
0.250000,0.433013
0.129410,0.482963
0.000000,0.500000
-0.129410,0.482963
-0.250000,0.433013
-0.353553,0.353553
-0.433013,0.250000
-0.482963,0.129410
-0.500000,0.000000
-0.482963,-0.129410
-0.433013,-0.250000
-0.353553,-0.353553
-0.250000,-0.433013
-0.129410,-0.482963
-0.000000,-0.500000
0.129410,-0.482963
0.250000,-0.433013
0.353553,-0.353553
0.433013,-0.250000
0.482963,-0.129410
0.625000,0.000000
0.611342,0.129945
0.570966,0.254210
0.505636,0.367366
0.418207,0.464466
0.312500,0.541266
0.193136,0.594410
0.065330,0.621576
-0.065330,0.621576
-0.193136,0.594410
-0.312500,0.541266
-0.418207,0.464466
-0.505636,0.367366
-0.570966,0.254210
-0.611342,0.129945
-0.625000,0.000000
-0.611342,-0.129945
-0.570966,-0.254210
-0.505636,-0.367366
-0.418207,-0.464466
-0.312500,-0.541266
-0.193136,-0.594410
-0.065330,-0.621576
0.065330,-0.621576
0.193136,-0.594410
0.312500,-0.541266
0.418207,-0.464466
0.505636,-0.367366
0.570966,-0.254210
0.611342,-0.129945
0.750000,0.000000
0.738606,0.130236
0.704769,0.256515
0.649519,0.375000
0.574533,0.482091
0.482091,0.574533
0.375000,0.649519
0.256515,0.704769
0.130236,0.738606
-0.000000,0.750000
-0.130236,0.738606
-0.256515,0.704769
-0.375000,0.649519
-0.482091,0.574533
-0.574533,0.482091
-0.649519,0.375000
-0.704769,0.256515
-0.738606,0.130236
-0.750000,-0.000000
-0.738606,-0.130236
-0.704769,-0.256515
-0.649519,-0.375000
-0.574533,-0.482091
-0.482091,-0.574533
-0.375000,-0.649519
-0.256515,-0.704769
-0.130236,-0.738606
0.000000,-0.750000
0.130236,-0.738606
0.256515,-0.704769
0.375000,-0.649519
0.482091,-0.574533
0.574533,-0.482091
0.649519,-0.375000
0.704769,-0.256515
0.738606,-0.130236
0.875000,0.000000
0.865227,0.130412
0.836126,0.257911
0.788348,0.379648
0.722959,0.492905
0.641420,0.595151
0.545554,0.684103
0.437500,0.757772
0.319673,0.814515
0.194706,0.853062
0.065389,0.872553
-0.065389,0.872553
-0.194706,0.853062
-0.319673,0.814515
-0.437500,0.757772
-0.545554,0.684103
-0.641420,0.595151
-0.722959,0.492905
-0.788348,0.379648
-0.836126,0.257911
-0.865227,0.130412
-0.875000,-0.000000
-0.865227,-0.130412
-0.836126,-0.257911
-0.788348,-0.379648
-0.722959,-0.492905
-0.641420,-0.595151
-0.545554,-0.684103
-0.437500,-0.757772
-0.319673,-0.814515
-0.194706,-0.853062
-0.065389,-0.872553
0.065389,-0.872553
0.194706,-0.853062
0.319673,-0.814515
0.437500,-0.757772
0.545554,-0.684103
0.641420,-0.595151
0.722959,-0.492905
0.788348,-0.379648
0.836126,-0.257911
0.865227,-0.130412
