1.000000,0.000000
0.966506,0.125000
0.933013,0.250000
0.899519,0.375000
0.866025,0.500000
0.774519,0.591506
0.683013,0.683013
0.591506,0.774519
0.500000,0.866025
0.375000,0.899519
0.250000,0.933013
0.125000,0.966506
0.000000,1.000000
-0.125000,0.966506
-0.250000,0.933013
-0.375000,0.899519
-0.500000,0.866025
-0.591506,0.774519
-0.683013,0.683013
-0.774519,0.591506
-0.866025,0.500000
-0.899519,0.375000
-0.933013,0.250000
-0.966506,0.125000
-1.000000,0.000000
-0.966506,-0.125000
-0.933013,-0.250000
-0.899519,-0.375000
-0.866025,-0.500000
-0.774519,-0.591506
-0.683013,-0.683013
-0.591506,-0.774519
-0.500000,-0.866025
-0.375000,-0.899519
-0.250000,-0.933013
-0.125000,-0.966506
-0.000000,-1.000000
0.125000,-0.966506
0.250000,-0.933013
0.375000,-0.899519
0.500000,-0.866025
0.591506,-0.774519
0.683013,-0.683013
0.774519,-0.591506
0.866025,-0.500000
0.899519,-0.375000
0.933013,-0.250000
0.966506,-0.125000
0.000000,0.000000
0.375000,0.000000
0.312500,0.108253
0.250000,0.216506
0.250000,0.000000
0.187500,0.108253
0.125000,0.000000
0.187500,0.324760
0.062500,0.324760
-0.062500,0.324760
0.125000,0.216506
0.000000,0.216506
0.062500,0.108253
-0.187500,0.324760
-0.250000,0.216506
-0.312500,0.108253
-0.125000,0.216506
-0.187500,0.108253
-0.062500,0.108253
-0.375000,0.000000
-0.312500,-0.108253
-0.250000,-0.216506
-0.250000,0.000000
-0.187500,-0.108253
-0.125000,0.000000
-0.187500,-0.324760
-0.062500,-0.324760
0.062500,-0.324760
-0.125000,-0.216506
-0.000000,-0.216506
-0.062500,-0.108253
0.187500,-0.324760
0.250000,-0.216506
0.312500,-0.108253
0.125000,-0.216506
0.187500,-0.108253
0.062500,-0.108253
0.500000,0.000000
0.437500,0.108253
0.375000,0.216506
0.312500,0.324760
0.250000,0.433013
0.125000,0.433013
0.000000,0.433013
-0.125000,0.433013
-0.250000,0.433013
-0.312500,0.324760
-0.375000,0.216506
-0.437500,0.108253
-0.500000,0.000000
-0.437500,-0.108253
-0.375000,-0.216506
-0.312500,-0.324760
-0.250000,-0.433013
-0.125000,-0.433013
-0.000000,-0.433013
0.125000,-0.433013
0.250000,-0.433013
0.312500,-0.324760
0.375000,-0.216506
0.437500,-0.108253
0.875000,0.000000
0.841506,0.125000
0.808013,0.250000
0.750000,0.000000
0.716506,0.125000
0.625000,0.000000
0.774519,0.375000
0.620513,0.358253
0.466506,0.341506
0.683013,0.250000
0.529006,0.233253
0.591506,0.125000
0.712019,0.483253
0.620513,0.574760
0.529006,0.666266
0.558013,0.466506
0.466506,0.558013
0.404006,0.449760
0.437500,0.757772
0.312500,0.791266
0.187500,0.824760
0.375000,0.649519
0.250000,0.683013
0.312500,0.541266
0.062500,0.858253
0.000000,0.716506
-0.062500,0.574760
0.125000,0.716506
0.062500,0.574760
0.187500,0.574760
-0.062500,0.858253
-0.187500,0.824760
-0.312500,0.791266
-0.125000,0.716506
-0.250000,0.683013
-0.187500,0.574760
-0.437500,0.757772
-0.529006,0.666266
-0.620513,0.574760
-0.375000,0.649519
-0.466506,0.558013
-0.312500,0.541266
-0.712019,0.483253
-0.620513,0.358253
-0.529006,0.233253
-0.558013,0.466506
-0.466506,0.341506
-0.404006,0.449760
-0.774519,0.375000
-0.808013,0.250000
-0.841506,0.125000
-0.683013,0.250000
-0.716506,0.125000
-0.591506,0.125000
-0.875000,0.000000
-0.841506,-0.125000
-0.808013,-0.250000
-0.750000,0.000000
-0.716506,-0.125000
-0.625000,0.000000
-0.774519,-0.375000
-0.620513,-0.358253
-0.466506,-0.341506
-0.683013,-0.250000
-0.529006,-0.233253
-0.591506,-0.125000
-0.712019,-0.483253
-0.620513,-0.574760
-0.529006,-0.666266
-0.558013,-0.466506
-0.466506,-0.558013
-0.404006,-0.449760
-0.437500,-0.757772
-0.312500,-0.791266
-0.187500,-0.824760
-0.375000,-0.649519
-0.250000,-0.683013
-0.312500,-0.541266
-0.062500,-0.858253
-0.000000,-0.716506
0.062500,-0.574760
-0.125000,-0.716506
-0.062500,-0.574760
-0.187500,-0.574760
0.062500,-0.858253
0.187500,-0.824760
0.312500,-0.791266
0.125000,-0.716506
0.250000,-0.683013
0.187500,-0.574760
0.437500,-0.757772
0.529006,-0.666266
0.620513,-0.574760
0.375000,-0.649519
0.466506,-0.558013
0.312500,-0.541266
0.712019,-0.483253
0.620513,-0.358253
0.529006,-0.233253
0.558013,-0.466506
0.466506,-0.341506
0.404006,-0.449760
0.774519,-0.375000
0.808013,-0.250000
0.841506,-0.125000
0.683013,-0.250000
0.716506,-0.125000
0.591506,-0.125000
