1.000000,0.000000
0.875000,0.216506
0.750000,0.433013
0.625000,0.649519
0.500000,0.866025
0.250000,0.866025
0.000000,0.866025
-0.250000,0.866025
-0.500000,0.866025
-0.625000,0.649519
-0.750000,0.433013
-0.875000,0.216506
-1.000000,0.000000
-0.875000,-0.216506
-0.750000,-0.433013
-0.625000,-0.649519
-0.500000,-0.866025
-0.250000,-0.866025
-0.000000,-0.866025
0.250000,-0.866025
0.500000,-0.866025
0.625000,-0.649519
0.750000,-0.433013
0.875000,-0.216506
0.000000,0.000000
0.530330,0.000000
0.441942,0.153093
0.353553,0.306186
0.353553,0.000000
0.265165,0.153093
0.176777,0.000000
0.265165,0.459279
0.088388,0.459279
-0.088388,0.459279
0.176777,0.306186
0.000000,0.306186
0.088388,0.153093
-0.265165,0.459279
-0.353553,0.306186
-0.441942,0.153093
-0.176777,0.306186
-0.265165,0.153093
-0.088388,0.153093
-0.530330,0.000000
-0.441942,-0.153093
-0.353553,-0.306186
-0.353553,0.000000
-0.265165,-0.153093
-0.176777,0.000000
-0.265165,-0.459279
-0.088388,-0.459279
0.088388,-0.459279
-0.176777,-0.306186
-0.000000,-0.306186
-0.088388,-0.153093
0.265165,-0.459279
0.353553,-0.306186
0.441942,-0.153093
0.176777,-0.306186
0.265165,-0.153093
0.088388,-0.153093
0.707107,0.000000
0.618718,0.153093
0.530330,0.306186
0.441942,0.459279
0.353553,0.612372
0.176777,0.612372
0.000000,0.612372
-0.176777,0.612372
-0.353553,0.612372
-0.441942,0.459279
-0.530330,0.306186
-0.618718,0.153093
-0.707107,0.000000
-0.618718,-0.153093
-0.530330,-0.306186
-0.441942,-0.459279
-0.353553,-0.612372
-0.176777,-0.612372
-0.000000,-0.612372
0.176777,-0.612372
0.353553,-0.612372
0.441942,-0.459279
0.530330,-0.306186
0.618718,-0.153093
0.926777,0.000000
0.810930,0.200653
0.695083,0.401306
0.579235,0.601959
0.853553,0.000000
0.746859,0.184800
0.640165,0.369599
0.533471,0.554399
0.780330,0.000000
0.682789,0.168946
0.585248,0.337893
0.487706,0.506839
0.463388,0.802612
0.231694,0.802612
0.000000,0.802612
-0.231694,0.802612
0.426777,0.739199
0.213388,0.739199
0.000000,0.739199
-0.213388,0.739199
0.390165,0.675786
0.195083,0.675786
0.000000,0.675786
-0.195083,0.675786
-0.463388,0.802612
-0.579235,0.601959
-0.695083,0.401306
-0.810930,0.200653
-0.426777,0.739199
-0.533471,0.554399
-0.640165,0.369599
-0.746859,0.184800
-0.390165,0.675786
-0.487706,0.506839
-0.585248,0.337893
-0.682789,0.168946
-0.926777,0.000000
-0.810930,-0.200653
-0.695083,-0.401306
-0.579235,-0.601959
-0.853553,0.000000
-0.746859,-0.184800
-0.640165,-0.369599
-0.533471,-0.554399
-0.780330,0.000000
-0.682789,-0.168946
-0.585248,-0.337893
-0.487706,-0.506839
-0.463388,-0.802612
-0.231694,-0.802612
-0.000000,-0.802612
0.231694,-0.802612
-0.426777,-0.739199
-0.213388,-0.739199
-0.000000,-0.739199
0.213388,-0.739199
-0.390165,-0.675786
-0.195083,-0.675786
-0.000000,-0.675786
0.195083,-0.675786
0.463388,-0.802612
0.579235,-0.601959
0.695083,-0.401306
0.810930,-0.200653
0.426777,-0.739199
0.533471,-0.554399
0.640165,-0.369599
0.746859,-0.184800
0.390165,-0.675786
0.487706,-0.506839
0.585248,-0.337893
0.682789,-0.168946
