0.382683, 0.000000,0.331414, 0.191342,0.000000, 0.000000,0.382683,0.000000
0.331414, 0.191342,0.191342, 0.331414,0.000000, 0.000000,0.331414,0.191342
0.191342, 0.331414,0.000000, 0.382683,0.000000, 0.000000,0.191342,0.331414
0.000000, 0.382683,-0.191342, 0.331414,0.000000, 0.000000,0.000000,0.382683
-0.191342, 0.331414,-0.331414, 0.191342,0.000000, 0.000000,-0.191342,0.331414
-0.331414, 0.191342,-0.382683, 0.000000,0.000000, 0.000000,-0.331414,0.191342
-0.382683, 0.000000,-0.331414, -0.191342,0.000000, 0.000000,-0.382683,0.000000
-0.331414, -0.191342,-0.191342, -0.331414,0.000000, 0.000000,-0.331414,-0.191342
-0.191342, -0.331414,-0.000000, -0.382683,0.000000, 0.000000,-0.191342,-0.331414
-0.000000, -0.382683,0.191342, -0.331414,0.000000, 0.000000,-0.000000,-0.382683
0.191342, -0.331414,0.331414, -0.191342,0.000000, 0.000000,0.191342,-0.331414
0.331414, -0.191342,0.382683, 0.000000,0.000000, 0.000000,0.331414,-0.191342
0.707107, 0.000000,0.612372, 0.353553,0.331414, 0.191342,0.382683, 0.000000,0.707107,0.000000
0.612372, 0.353553,0.353553, 0.612372,0.191342, 0.331414,0.331414, 0.191342,0.612372,0.353553
0.353553, 0.612372,0.000000, 0.707107,0.000000, 0.382683,0.191342, 0.331414,0.353553,0.612372
0.000000, 0.707107,-0.353553, 0.612372,-0.191342, 0.331414,0.000000, 0.382683,0.000000,0.707107
-0.353553, 0.612372,-0.612372, 0.353553,-0.331414, 0.191342,-0.191342, 0.331414,-0.353553,0.612372
-0.612372, 0.353553,-0.707107, 0.000000,-0.382683, 0.000000,-0.331414, 0.191342,-0.612372,0.353553
-0.707107, 0.000000,-0.612372, -0.353553,-0.331414, -0.191342,-0.382683, 0.000000,-0.707107,0.000000
-0.612372, -0.353553,-0.353553, -0.612372,-0.191342, -0.331414,-0.331414, -0.191342,-0.612372,-0.353553
-0.353553, -0.612372,-0.000000, -0.707107,-0.000000, -0.382683,-0.191342, -0.331414,-0.353553,-0.612372
-0.000000, -0.707107,0.353553, -0.612372,0.191342, -0.331414,-0.000000, -0.382683,-0.000000,-0.707107
0.353553, -0.612372,0.612372, -0.353553,0.331414, -0.191342,0.191342, -0.331414,0.353553,-0.612372
0.612372, -0.353553,0.707107, 0.000000,0.382683, 0.000000,0.331414, -0.191342,0.612372,-0.353553
0.923880, 0.000000,0.800103, 0.461940,0.612372, 0.353553,0.707107, 0.000000,0.923880,0.000000
0.800103, 0.461940,0.461940, 0.800103,0.353553, 0.612372,0.612372, 0.353553,0.800103,0.461940
0.461940, 0.800103,0.000000, 0.923880,0.000000, 0.707107,0.353553, 0.612372,0.461940,0.800103
0.000000, 0.923880,-0.461940, 0.800103,-0.353553, 0.612372,0.000000, 0.707107,0.000000,0.923880
-0.461940, 0.800103,-0.800103, 0.461940,-0.612372, 0.353553,-0.353553, 0.612372,-0.461940,0.800103
-0.800103, 0.461940,-0.923880, 0.000000,-0.707107, 0.000000,-0.612372, 0.353553,-0.800103,0.461940
-0.923880, 0.000000,-0.800103, -0.461940,-0.612372, -0.353553,-0.707107, 0.000000,-0.923880,0.000000
-0.800103, -0.461940,-0.461940, -0.800103,-0.353553, -0.612372,-0.612372, -0.353553,-0.800103,-0.461940
-0.461940, -0.800103,-0.000000, -0.923880,-0.000000, -0.707107,-0.353553, -0.612372,-0.461940,-0.800103
-0.000000, -0.923880,0.461940, -0.800103,0.353553, -0.612372,-0.000000, -0.707107,-0.000000,-0.923880
0.461940, -0.800103,0.800103, -0.461940,0.612372, -0.353553,0.353553, -0.612372,0.461940,-0.800103
0.800103, -0.461940,0.923880, 0.000000,0.707107, 0.000000,0.612372, -0.353553,0.800103,-0.461940
1.000000, 0.000000,0.866025, 0.500000,0.800103, 0.461940,0.923880, 0.000000,1.000000,0.000000
0.866025, 0.500000,0.500000, 0.866025,0.461940, 0.800103,0.800103, 0.461940,0.866025,0.500000
0.500000, 0.866025,0.000000, 1.000000,0.000000, 0.923880,0.461940, 0.800103,0.500000,0.866025
0.000000, 1.000000,-0.500000, 0.866025,-0.461940, 0.800103,0.000000, 0.923880,0.000000,1.000000
-0.500000, 0.866025,-0.866025, 0.500000,-0.800103, 0.461940,-0.461940, 0.800103,-0.500000,0.866025
-0.866025, 0.500000,-1.000000, 0.000000,-0.923880, 0.000000,-0.800103, 0.461940,-0.866025,0.500000
-1.000000, 0.000000,-0.866025, -0.500000,-0.800103, -0.461940,-0.923880, 0.000000,-1.000000,0.000000
-0.866025, -0.500000,-0.500000, -0.866025,-0.461940, -0.800103,-0.800103, -0.461940,-0.866025,-0.500000
-0.500000, -0.866025,-0.000000, -1.000000,-0.000000, -0.923880,-0.461940, -0.800103,-0.500000,-0.866025
-0.000000, -1.000000,0.500000, -0.866025,0.461940, -0.800103,-0.000000, -0.923880,-0.000000,-1.000000
0.500000, -0.866025,0.866025, -0.500000,0.800103, -0.461940,0.461940, -0.800103,0.500000,-0.866025
0.866025, -0.500000,1.000000, 0.000000,0.923880, 0.000000,0.800103, -0.461940,0.866025,-0.500000

