1.000000,0.000000
0.991445,0.130526
0.965926,0.258819
0.923880,0.382683
0.866025,0.500000
0.793353,0.608761
0.707107,0.707107
0.608761,0.793353
0.500000,0.866025
0.382683,0.923880
0.258819,0.965926
0.130526,0.991445
0.000000,1.000000
-0.130526,0.991445
-0.258819,0.965926
-0.382683,0.923880
-0.500000,0.866025
-0.608761,0.793353
-0.707107,0.707107
-0.793353,0.608761
-0.866025,0.500000
-0.923880,0.382683
-0.965926,0.258819
-0.991445,0.130526
-1.000000,0.000000
-0.991445,-0.130526
-0.965926,-0.258819
-0.923880,-0.382683
-0.866025,-0.500000
-0.793353,-0.608761
-0.707107,-0.707107
-0.608761,-0.793353
-0.500000,-0.866025
-0.382683,-0.923880
-0.258819,-0.965926
-0.130526,-0.991445
0.000000,-1.000000
0.130526,-0.991445
0.258819,-0.965926
0.382683,-0.923880
0.500000,-0.866025
0.608761,-0.793353
0.707107,-0.707107
0.793353,-0.608761
0.866025,-0.500000
0.923880,-0.382683
0.965926,-0.258819
0.991445,-0.130526
0.000000,0.000000
0.098017,0.000000
0.097179,0.012794
0.094677,0.025369
0.090556,0.037510
0.084885,0.049009
0.077762,0.059669
0.069309,0.069309
0.059669,0.077762
0.049009,0.084885
0.037510,0.090556
0.025369,0.094677
0.012794,0.097179
0.000000,0.098017
-0.012794,0.097179
-0.025369,0.094677
-0.037510,0.090556
-0.049009,0.084885
-0.059669,0.077762
-0.069309,0.069309
-0.077762,0.059669
-0.084885,0.049009
-0.090556,0.037510
-0.094677,0.025369
-0.097179,0.012794
-0.098017,0.000000
-0.097179,-0.012794
-0.094677,-0.025369
-0.090556,-0.037510
-0.084885,-0.049009
-0.077762,-0.059669
-0.069309,-0.069309
-0.059669,-0.077762
-0.049009,-0.084885
-0.037510,-0.090556
-0.025369,-0.094677
-0.012794,-0.097179
0.000000,-0.098017
0.012794,-0.097179
0.025369,-0.094677
0.037510,-0.090556
0.049009,-0.084885
0.059669,-0.077762
0.069309,-0.069309
0.077762,-0.059669
0.084885,-0.049009
0.090556,-0.037510
0.094677,-0.025369
0.097179,-0.012794
0.195090,0.000000
0.193421,0.025464
0.188443,0.050493
0.180240,0.074658
0.168953,0.097545
0.154776,0.118763
0.137950,0.137950
0.118763,0.154776
0.097545,0.168953
0.074658,0.180240
0.050493,0.188443
0.025464,0.193421
0.000000,0.195090
-0.025464,0.193421
-0.050493,0.188443
-0.074658,0.180240
-0.097545,0.168953
-0.118763,0.154776
-0.137950,0.137950
-0.154776,0.118763
-0.168953,0.097545
-0.180240,0.074658
-0.188443,0.050493
-0.193421,0.025464
-0.195090,0.000000
-0.193421,-0.025464
-0.188443,-0.050493
-0.180240,-0.074658
-0.168953,-0.097545
-0.154776,-0.118763
-0.137950,-0.137950
-0.118763,-0.154776
-0.097545,-0.168953
-0.074658,-0.180240
-0.050493,-0.188443
-0.025464,-0.193421
0.000000,-0.195090
0.025464,-0.193421
0.050493,-0.188443
0.074658,-0.180240
0.097545,-0.168953
0.118763,-0.154776
0.137950,-0.137950
0.154776,-0.118763
0.168953,-0.097545
0.180240,-0.074658
0.188443,-0.050493
0.193421,-0.025464
0.290285,0.000000
0.287801,0.037890
0.280393,0.075131
0.268188,0.111087
0.251394,0.145142
0.230298,0.176714
0.205262,0.205262
0.176714,0.230298
0.145142,0.251394
0.111087,0.268188
0.075131,0.280393
0.037890,0.287801
0.000000,0.290285
-0.037890,0.287801
-0.075131,0.280393
-0.111087,0.268188
-0.145142,0.251394
-0.176714,0.230298
-0.205262,0.205262
-0.230298,0.176714
-0.251394,0.145142
-0.268188,0.111087
-0.280393,0.075131
-0.287801,0.037890
-0.290285,0.000000
-0.287801,-0.037890
-0.280393,-0.075131
-0.268188,-0.111087
-0.251394,-0.145142
-0.230298,-0.176714
-0.205262,-0.205262
-0.176714,-0.230298
-0.145142,-0.251394
-0.111087,-0.268188
-0.075131,-0.280393
-0.037890,-0.287801
0.000000,-0.290285
0.037890,-0.287801
0.075131,-0.280393
0.111087,-0.268188
0.145142,-0.251394
0.176714,-0.230298
0.205262,-0.205262
0.230298,-0.176714
0.251394,-0.145142
0.268188,-0.111087
0.280393,-0.075131
0.287801,-0.037890
0.382683,0.000000
0.379410,0.049950
0.369644,0.099046
0.353553,0.146447
0.331414,0.191342
0.303603,0.232963
0.270598,0.270598
0.232963,0.303603
0.191342,0.331414
0.146447,0.353553
0.099046,0.369644
0.049950,0.379410
0.000000,0.382683
-0.049950,0.379410
-0.099046,0.369644
-0.146447,0.353553
-0.191342,0.331414
-0.232963,0.303603
-0.270598,0.270598
-0.303603,0.232963
-0.331414,0.191342
-0.353553,0.146447
-0.369644,0.099046
-0.379410,0.049950
-0.382683,0.000000
-0.379410,-0.049950
-0.369644,-0.099046
-0.353553,-0.146447
-0.331414,-0.191342
-0.303603,-0.232963
-0.270598,-0.270598
-0.232963,-0.303603
-0.191342,-0.331414
-0.146447,-0.353553
-0.099046,-0.369644
-0.049950,-0.379410
0.000000,-0.382683
0.049950,-0.379410
0.099046,-0.369644
0.146447,-0.353553
0.191342,-0.331414
0.232963,-0.303603
0.270598,-0.270598
0.303603,-0.232963
0.331414,-0.191342
0.353553,-0.146447
0.369644,-0.099046
0.379410,-0.049950
0.471397,0.000000
0.467364,0.061530
0.455334,0.122006
0.435514,0.180396
0.408242,0.235698
0.373984,0.286968
0.333328,0.333328
0.286968,0.373984
0.235698,0.408242
0.180396,0.435514
0.122006,0.455334
0.061530,0.467364
0.000000,0.471397
-0.061530,0.467364
-0.122006,0.455334
-0.180396,0.435514
-0.235698,0.408242
-0.286968,0.373984
-0.333328,0.333328
-0.373984,0.286968
-0.408242,0.235698
-0.435514,0.180396
-0.455334,0.122006
-0.467364,0.061530
-0.471397,0.000000
-0.467364,-0.061530
-0.455334,-0.122006
-0.435514,-0.180396
-0.408242,-0.235698
-0.373984,-0.286968
-0.333328,-0.333328
-0.286968,-0.373984
-0.235698,-0.408242
-0.180396,-0.435514
-0.122006,-0.455334
-0.061530,-0.467364
0.000000,-0.471397
0.061530,-0.467364
0.122006,-0.455334
0.180396,-0.435514
0.235698,-0.408242
0.286968,-0.373984
0.333328,-0.333328
0.373984,-0.286968
0.408242,-0.235698
0.435514,-0.180396
0.455334,-0.122006
0.467364,-0.061530
0.555570,0.000000
0.550817,0.072516
0.536640,0.143792
0.513280,0.212608
0.481138,0.277785
0.440764,0.338210
0.392847,0.392847
0.338210,0.440764
0.277785,0.481138
0.212608,0.513280
0.143792,0.536640
0.072516,0.550817
0.000000,0.555570
-0.072516,0.550817
-0.143792,0.536640
-0.212608,0.513280
-0.277785,0.481138
-0.338210,0.440764
-0.392847,0.392847
-0.440764,0.338210
-0.481138,0.277785
-0.513280,0.212608
-0.536640,0.143792
-0.550817,0.072516
-0.555570,0.000000
-0.550817,-0.072516
-0.536640,-0.143792
-0.513280,-0.212608
-0.481138,-0.277785
-0.440764,-0.338210
-0.392847,-0.392847
-0.338210,-0.440764
-0.277785,-0.481138
-0.212608,-0.513280
-0.143792,-0.536640
-0.072516,-0.550817
0.000000,-0.555570
0.072516,-0.550817
0.143792,-0.536640
0.212608,-0.513280
0.277785,-0.481138
0.338210,-0.440764
0.392847,-0.392847
0.440764,-0.338210
0.481138,-0.277785
0.513280,-0.212608
0.536640,-0.143792
0.550817,-0.072516
0.634393,0.000000
0.628966,0.082805
0.612777,0.164193
0.586103,0.242772
0.549401,0.317197
0.503298,0.386194
0.448584,0.448584
0.386194,0.503298
0.317197,0.549401
0.242772,0.586103
0.164193,0.612777
0.082805,0.628966
0.000000,0.634393
-0.082805,0.628966
-0.164193,0.612777
-0.242772,0.586103
-0.317197,0.549401
-0.386194,0.503298
-0.448584,0.448584
-0.503298,0.386194
-0.549401,0.317197
-0.586103,0.242772
-0.612777,0.164193
-0.628966,0.082805
-0.634393,0.000000
-0.628966,-0.082805
-0.612777,-0.164193
-0.586103,-0.242772
-0.549401,-0.317197
-0.503298,-0.386194
-0.448584,-0.448584
-0.386194,-0.503298
-0.317197,-0.549401
-0.242772,-0.586103
-0.164193,-0.612777
-0.082805,-0.628966
0.000000,-0.634393
0.082805,-0.628966
0.164193,-0.612777
0.242772,-0.586103
0.317197,-0.549401
0.386194,-0.503298
0.448584,-0.448584
0.503298,-0.386194
0.549401,-0.317197
0.586103,-0.242772
0.612777,-0.164193
0.628966,-0.082805
0.707107,0.000000
0.701057,0.092296
0.683013,0.183013
0.653281,0.270598
0.612372,0.353553
0.560986,0.430459
0.500000,0.500000
0.430459,0.560986
0.353553,0.612372
0.270598,0.653281
0.183013,0.683013
0.092296,0.701057
0.000000,0.707107
-0.092296,0.701057
-0.183013,0.683013
-0.270598,0.653281
-0.353553,0.612372
-0.430459,0.560986
-0.500000,0.500000
-0.560986,0.430459
-0.612372,0.353553
-0.653281,0.270598
-0.683013,0.183013
-0.701057,0.092296
-0.707107,0.000000
-0.701057,-0.092296
-0.683013,-0.183013
-0.653281,-0.270598
-0.612372,-0.353553
-0.560986,-0.430459
-0.500000,-0.500000
-0.430459,-0.560986
-0.353553,-0.612372
-0.270598,-0.653281
-0.183013,-0.683013
-0.092296,-0.701057
0.000000,-0.707107
0.092296,-0.701057
0.183013,-0.683013
0.270598,-0.653281
0.353553,-0.612372
0.430459,-0.560986
0.500000,-0.500000
0.560986,-0.430459
0.612372,-0.353553
0.653281,-0.270598
0.683013,-0.183013
0.701057,-0.092296
0.773010,0.000000
0.766397,0.100898
0.746671,0.200070
0.714169,0.295818
0.669447,0.386505
0.613270,0.470579
0.546601,0.546601
0.470579,0.613270
0.386505,0.669447
0.295818,0.714169
0.200070,0.746671
0.100898,0.766397
0.000000,0.773010
-0.100898,0.766397
-0.200070,0.746671
-0.295818,0.714169
-0.386505,0.669447
-0.470579,0.613270
-0.546601,0.546601
-0.613270,0.470579
-0.669447,0.386505
-0.714169,0.295818
-0.746671,0.200070
-0.766397,0.100898
-0.773010,0.000000
-0.766397,-0.100898
-0.746671,-0.200070
-0.714169,-0.295818
-0.669447,-0.386505
-0.613270,-0.470579
-0.546601,-0.546601
-0.470579,-0.613270
-0.386505,-0.669447
-0.295818,-0.714169
-0.200070,-0.746671
-0.100898,-0.766397
0.000000,-0.773010
0.100898,-0.766397
0.200070,-0.746671
0.295818,-0.714169
0.386505,-0.669447
0.470579,-0.613270
0.546601,-0.546601
0.613270,-0.470579
0.669447,-0.386505
0.714169,-0.295818
0.746671,-0.200070
0.766397,-0.100898
0.831470,0.000000
0.824356,0.108529
0.803138,0.215200
0.768178,0.318190
0.720074,0.415735
0.659649,0.506167
0.587938,0.587938
0.506167,0.659649
0.415735,0.720074
0.318190,0.768178
0.215200,0.803138
0.108529,0.824356
0.000000,0.831470
-0.108529,0.824356
-0.215200,0.803138
-0.318190,0.768178
-0.415735,0.720074
-0.506167,0.659649
-0.587938,0.587938
-0.659649,0.506167
-0.720074,0.415735
-0.768178,0.318190
-0.803138,0.215200
-0.824356,0.108529
-0.831470,0.000000
-0.824356,-0.108529
-0.803138,-0.215200
-0.768178,-0.318190
-0.720074,-0.415735
-0.659649,-0.506167
-0.587938,-0.587938
-0.506167,-0.659649
-0.415735,-0.720074
-0.318190,-0.768178
-0.215200,-0.803138
-0.108529,-0.824356
0.000000,-0.831470
0.108529,-0.824356
0.215200,-0.803138
0.318190,-0.768178
0.415735,-0.720074
0.506167,-0.659649
0.587938,-0.587938
0.659649,-0.506167
0.720074,-0.415735
0.768178,-0.318190
0.803138,-0.215200
0.824356,-0.108529
0.881921,0.000000
0.874376,0.115114
0.851871,0.228258
0.814789,0.337497
0.763766,0.440961
0.699675,0.536880
0.623613,0.623613
0.536880,0.699675
0.440961,0.763766
0.337497,0.814789
0.228258,0.851871
0.115114,0.874376
0.000000,0.881921
-0.115114,0.874376
-0.228258,0.851871
-0.337497,0.814789
-0.440961,0.763766
-0.536880,0.699675
-0.623613,0.623613
-0.699675,0.536880
-0.763766,0.440961
-0.814789,0.337497
-0.851871,0.228258
-0.874376,0.115114
-0.881921,0.000000
-0.874376,-0.115114
-0.851871,-0.228258
-0.814789,-0.337497
-0.763766,-0.440961
-0.699675,-0.536880
-0.623613,-0.623613
-0.536880,-0.699675
-0.440961,-0.763766
-0.337497,-0.814789
-0.228258,-0.851871
-0.115114,-0.874376
0.000000,-0.881921
0.115114,-0.874376
0.228258,-0.851871
0.337497,-0.814789
0.440961,-0.763766
0.536880,-0.699675
0.623613,-0.623613
0.699675,-0.536880
0.763766,-0.440961
0.814789,-0.337497
0.851871,-0.228258
0.874376,-0.115114
0.923880,0.000000
0.915976,0.120590
0.892399,0.239118
0.853553,0.353553
0.800103,0.461940
0.732963,0.562422
0.653281,0.653281
0.562422,0.732963
0.461940,0.800103
0.353553,0.853553
0.239118,0.892399
0.120590,0.915976
0.000000,0.923880
-0.120590,0.915976
-0.239118,0.892399
-0.353553,0.853553
-0.461940,0.800103
-0.562422,0.732963
-0.653281,0.653281
-0.732963,0.562422
-0.800103,0.461940
-0.853553,0.353553
-0.892399,0.239118
-0.915976,0.120590
-0.923880,0.000000
-0.915976,-0.120590
-0.892399,-0.239118
-0.853553,-0.353553
-0.800103,-0.461940
-0.732963,-0.562422
-0.653281,-0.653281
-0.562422,-0.732963
-0.461940,-0.800103
-0.353553,-0.853553
-0.239118,-0.892399
-0.120590,-0.915976
0.000000,-0.923880
0.120590,-0.915976
0.239118,-0.892399
0.353553,-0.853553
0.461940,-0.800103
0.562422,-0.732963
0.653281,-0.653281
0.732963,-0.562422
0.800103,-0.461940
0.853553,-0.353553
0.892399,-0.239118
0.915976,-0.120590
0.956940,0.000000
0.948754,0.124906
0.924333,0.247674
0.884098,0.366205
0.828735,0.478470
0.759192,0.582548
0.676659,0.676659
0.582548,0.759192
0.478470,0.828735
0.366205,0.884098
0.247674,0.924333
0.124906,0.948754
0.000000,0.956940
-0.124906,0.948754
-0.247674,0.924333
-0.366205,0.884098
-0.478470,0.828735
-0.582548,0.759192
-0.676659,0.676659
-0.759192,0.582548
-0.828735,0.478470
-0.884098,0.366205
-0.924333,0.247674
-0.948754,0.124906
-0.956940,0.000000
-0.948754,-0.124906
-0.924333,-0.247674
-0.884098,-0.366205
-0.828735,-0.478470
-0.759192,-0.582548
-0.676659,-0.676659
-0.582548,-0.759192
-0.478470,-0.828735
-0.366205,-0.884098
-0.247674,-0.924333
-0.124906,-0.948754
0.000000,-0.956940
0.124906,-0.948754
0.247674,-0.924333
0.366205,-0.884098
0.478470,-0.828735
0.582548,-0.759192
0.676659,-0.676659
0.759192,-0.582548
0.828735,-0.478470
0.884098,-0.366205
0.924333,-0.247674
0.948754,-0.124906
0.980785,0.000000
0.972395,0.128018
0.947366,0.253846
0.906127,0.375330
0.849385,0.490393
0.778109,0.597064
0.693520,0.693520
0.597064,0.778109
0.490393,0.849385
0.375330,0.906127
0.253846,0.947366
0.128018,0.972395
0.000000,0.980785
-0.128018,0.972395
-0.253846,0.947366
-0.375330,0.906127
-0.490393,0.849385
-0.597064,0.778109
-0.693520,0.693520
-0.778109,0.597064
-0.849385,0.490393
-0.906127,0.375330
-0.947366,0.253846
-0.972395,0.128018
-0.980785,0.000000
-0.972395,-0.128018
-0.947366,-0.253846
-0.906127,-0.375330
-0.849385,-0.490393
-0.778109,-0.597064
-0.693520,-0.693520
-0.597064,-0.778109
-0.490393,-0.849385
-0.375330,-0.906127
-0.253846,-0.947366
-0.128018,-0.972395
0.000000,-0.980785
0.128018,-0.972395
0.253846,-0.947366
0.375330,-0.906127
0.490393,-0.849385
0.597064,-0.778109
0.693520,-0.693520
0.778109,-0.597064
0.849385,-0.490393
0.906127,-0.375330
0.947366,-0.253846
0.972395,-0.128018
0.995185,0.000000
0.986671,0.129898
0.961275,0.257573
0.919431,0.380841
0.861855,0.497592
0.789533,0.605830
0.703702,0.703702
0.605830,0.789533
0.497592,0.861855
0.380841,0.919431
0.257573,0.961275
0.129898,0.986671
0.000000,0.995185
-0.129898,0.986671
-0.257573,0.961275
-0.380841,0.919431
-0.497592,0.861855
-0.605830,0.789533
-0.703702,0.703702
-0.789533,0.605830
-0.861855,0.497592
-0.919431,0.380841
-0.961275,0.257573
-0.986671,0.129898
-0.995185,0.000000
-0.986671,-0.129898
-0.961275,-0.257573
-0.919431,-0.380841
-0.861855,-0.497592
-0.789533,-0.605830
-0.703702,-0.703702
-0.605830,-0.789533
-0.497592,-0.861855
-0.380841,-0.919431
-0.257573,-0.961275
-0.129898,-0.986671
0.000000,-0.995185
0.129898,-0.986671
0.257573,-0.961275
0.380841,-0.919431
0.497592,-0.861855
0.605830,-0.789533
0.703702,-0.703702
0.789533,-0.605830
0.861855,-0.497592
0.919431,-0.380841
0.961275,-0.257573
0.986671,-0.129898
