0.500000, 0.000000,0.250000, 0.433013,0.000000, 0.000000,0.500000,0.000000
0.250000, 0.433013,-0.250000, 0.433013,0.000000, 0.000000,0.250000,0.433013
-0.250000, 0.433013,-0.500000, 0.000000,0.000000, 0.000000,-0.250000,0.433013
-0.500000, 0.000000,-0.250000, -0.433013,0.000000, 0.000000,-0.500000,0.000000
-0.250000, -0.433013,0.250000, -0.433013,0.000000, 0.000000,-0.250000,-0.433013
0.250000, -0.433013,0.500000, 0.000000,0.000000, 0.000000,0.250000,-0.433013
0.750000, 0.000000,0.704769, 0.256515,0.500000, 0.000000,0.750000,0.000000
0.704769, 0.256515,0.574533, 0.482091,0.250000, 0.433013,0.500000, 0.000000,0.704769,0.256515
0.574533, 0.482091,0.375000, 0.649519,0.250000, 0.433013,0.574533,0.482091
0.375000, 0.649519,0.130236, 0.738606,0.250000, 0.433013,0.375000,0.649519
0.130236, 0.738606,-0.130236, 0.738606,-0.250000, 0.433013,0.250000, 0.433013,0.130236,0.738606
-0.130236, 0.738606,-0.375000, 0.649519,-0.250000, 0.433013,-0.130236,0.738606
-0.375000, 0.649519,-0.574533, 0.482091,-0.250000, 0.433013,-0.375000,0.649519
-0.574533, 0.482091,-0.704769, 0.256515,-0.500000, 0.000000,-0.250000, 0.433013,-0.574533,0.482091
-0.704769, 0.256515,-0.750000, -0.000000,-0.500000, 0.000000,-0.704769,0.256515
-0.750000, -0.000000,-0.704769, -0.256515,-0.500000, 0.000000,-0.750000,-0.000000
-0.704769, -0.256515,-0.574533, -0.482091,-0.250000, -0.433013,-0.500000, 0.000000,-0.704769,-0.256515
-0.574533, -0.482091,-0.375000, -0.649519,-0.250000, -0.433013,-0.574533,-0.482091
-0.375000, -0.649519,-0.130236, -0.738606,-0.250000, -0.433013,-0.375000,-0.649519
-0.130236, -0.738606,0.130236, -0.738606,0.250000, -0.433013,-0.250000, -0.433013,-0.130236,-0.738606
0.130236, -0.738606,0.375000, -0.649519,0.250000, -0.433013,0.130236,-0.738606
0.375000, -0.649519,0.574533, -0.482091,0.250000, -0.433013,0.375000,-0.649519
0.574533, -0.482091,0.704769, -0.256515,0.500000, 0.000000,0.250000, -0.433013,0.574533,-0.482091
0.704769, -0.256515,0.750000, 0.000000,0.500000, 0.000000,0.704769,-0.256515
0.875000, 0.000000,0.865227, 0.130412,0.750000, 0.000000,0.875000,0.000000
0.865227, 0.130412,0.836126, 0.257911,0.704769, 0.256515,0.750000, 0.000000,0.865227,0.130412
0.836126, 0.257911,0.788348, 0.379648,0.704769, 0.256515,0.836126,0.257911
0.788348, 0.379648,0.722959, 0.492905,0.574533, 0.482091,0.704769, 0.256515,0.788348,0.379648
0.722959, 0.492905,0.641420, 0.595151,0.574533, 0.482091,0.722959,0.492905
0.641420, 0.595151,0.545554, 0.684103,0.375000, 0.649519,0.574533, 0.482091,0.641420,0.595151
0.545554, 0.684103,0.437500, 0.757772,0.375000, 0.649519,0.545554,0.684103
0.437500, 0.757772,0.319673, 0.814515,0.375000, 0.649519,0.437500,0.757772
0.319673, 0.814515,0.194706, 0.853062,0.130236, 0.738606,0.375000, 0.649519,0.319673,0.814515
0.194706, 0.853062,0.065389, 0.872553,0.130236, 0.738606,0.194706,0.853062
0.065389, 0.872553,-0.065389, 0.872553,-0.130236, 0.738606,0.130236, 0.738606,0.065389,0.872553
-0.065389, 0.872553,-0.194706, 0.853062,-0.130236, 0.738606,-0.065389,0.872553
-0.194706, 0.853062,-0.319673, 0.814515,-0.375000, 0.649519,-0.130236, 0.738606,-0.194706,0.853062
-0.319673, 0.814515,-0.437500, 0.757772,-0.375000, 0.649519,-0.319673,0.814515
-0.437500, 0.757772,-0.545554, 0.684103,-0.375000, 0.649519,-0.437500,0.757772
-0.545554, 0.684103,-0.641420, 0.595151,-0.574533, 0.482091,-0.375000, 0.649519,-0.545554,0.684103
-0.641420, 0.595151,-0.722959, 0.492905,-0.574533, 0.482091,-0.641420,0.595151
-0.722959, 0.492905,-0.788348, 0.379648,-0.704769, 0.256515,-0.574533, 0.482091,-0.722959,0.492905
-0.788348, 0.379648,-0.836126, 0.257911,-0.704769, 0.256515,-0.788348,0.379648
-0.836126, 0.257911,-0.865227, 0.130412,-0.750000, -0.000000,-0.704769, 0.256515,-0.836126,0.257911
-0.865227, 0.130412,-0.875000, -0.000000,-0.750000, -0.000000,-0.865227,0.130412
-0.875000, -0.000000,-0.865227, -0.130412,-0.750000, -0.000000,-0.875000,-0.000000
-0.865227, -0.130412,-0.836126, -0.257911,-0.704769, -0.256515,-0.750000, -0.000000,-0.865227,-0.130412
-0.836126, -0.257911,-0.788348, -0.379648,-0.704769, -0.256515,-0.836126,-0.257911
-0.788348, -0.379648,-0.722959, -0.492905,-0.574533, -0.482091,-0.704769, -0.256515,-0.788348,-0.379648
-0.722959, -0.492905,-0.641420, -0.595151,-0.574533, -0.482091,-0.722959,-0.492905
-0.641420, -0.595151,-0.545554, -0.684103,-0.375000, -0.649519,-0.574533, -0.482091,-0.641420,-0.595151
-0.545554, -0.684103,-0.437500, -0.757772,-0.375000, -0.649519,-0.545554,-0.684103
-0.437500, -0.757772,-0.319673, -0.814515,-0.375000, -0.649519,-0.437500,-0.757772
-0.319673, -0.814515,-0.194706, -0.853062,-0.130236, -0.738606,-0.375000, -0.649519,-0.319673,-0.814515
-0.194706, -0.853062,-0.065389, -0.872553,-0.130236, -0.738606,-0.194706,-0.853062
-0.065389, -0.872553,0.065389, -0.872553,0.130236, -0.738606,-0.130236, -0.738606,-0.065389,-0.872553
0.065389, -0.872553,0.194706, -0.853062,0.130236, -0.738606,0.065389,-0.872553
0.194706, -0.853062,0.319673, -0.814515,0.375000, -0.649519,0.130236, -0.738606,0.194706,-0.853062
0.319673, -0.814515,0.437500, -0.757772,0.375000, -0.649519,0.319673,-0.814515
0.437500, -0.757772,0.545554, -0.684103,0.375000, -0.649519,0.437500,-0.757772
0.545554, -0.684103,0.641420, -0.595151,0.574533, -0.482091,0.375000, -0.649519,0.545554,-0.684103
0.641420, -0.595151,0.722959, -0.492905,0.574533, -0.482091,0.641420,-0.595151
0.722959, -0.492905,0.788348, -0.379648,0.704769, -0.256515,0.574533, -0.482091,0.722959,-0.492905
0.788348, -0.379648,0.836126, -0.257911,0.704769, -0.256515,0.788348,-0.379648
0.836126, -0.257911,0.865227, -0.130412,0.750000, 0.000000,0.704769, -0.256515,0.836126,-0.257911
0.865227, -0.130412,0.875000, 0.000000,0.750000, 0.000000,0.865227,-0.130412
0.937500, 0.000000,0.935216, 0.065397,0.875000, 0.000000,0.937500,0.000000
0.935216, 0.065397,0.928376, 0.130475,0.865227, 0.130412,0.875000, 0.000000,0.935216,0.065397
0.928376, 0.130475,0.917013, 0.194917,0.865227, 0.130412,0.928376,0.130475
0.917013, 0.194917,0.901183, 0.258410,0.836126, 0.257911,0.865227, 0.130412,0.917013,0.194917
0.901183, 0.258410,0.880962, 0.320644,0.836126, 0.257911,0.901183,0.258410
0.880962, 0.320644,0.856449, 0.381316,0.788348, 0.379648,0.836126, 0.257911,0.880962,0.320644
0.856449, 0.381316,0.827763, 0.440130,0.788348, 0.379648,0.856449,0.381316
0.827763, 0.440130,0.795045, 0.496799,0.722959, 0.492905,0.788348, 0.379648,0.827763,0.440130
0.795045, 0.496799,0.758453, 0.551049,0.722959, 0.492905,0.795045,0.496799
0.758453, 0.551049,0.718167, 0.602613,0.641420, 0.595151,0.722959, 0.492905,0.758453,0.551049
0.718167, 0.602613,0.674381, 0.651242,0.641420, 0.595151,0.718167,0.602613
0.674381, 0.651242,0.627310, 0.696698,0.545554, 0.684103,0.641420, 0.595151,0.674381,0.651242
0.627310, 0.696698,0.577183, 0.738760,0.545554, 0.684103,0.627310,0.696698
0.577183, 0.738760,0.524243, 0.777223,0.437500, 0.757772,0.545554, 0.684103,0.577183,0.738760
0.524243, 0.777223,0.468750, 0.811899,0.437500, 0.757772,0.524243,0.777223
0.468750, 0.811899,0.410973, 0.842619,0.437500, 0.757772,0.468750,0.811899
0.410973, 0.842619,0.351194, 0.869235,0.319673, 0.814515,0.437500, 0.757772,0.410973,0.842619
0.351194, 0.869235,0.289703, 0.891615,0.319673, 0.814515,0.351194,0.869235
0.289703, 0.891615,0.226802, 0.909652,0.194706, 0.853062,0.319673, 0.814515,0.289703,0.891615
0.226802, 0.909652,0.162795, 0.923257,0.194706, 0.853062,0.226802,0.909652
0.162795, 0.923257,0.097995, 0.932364,0.065389, 0.872553,0.194706, 0.853062,0.162795,0.923257
0.097995, 0.932364,0.032718, 0.936929,0.065389, 0.872553,0.097995,0.932364
0.032718, 0.936929,-0.032718, 0.936929,-0.065389, 0.872553,0.065389, 0.872553,0.032718,0.936929
-0.032718, 0.936929,-0.097995, 0.932364,-0.065389, 0.872553,-0.032718,0.936929
-0.097995, 0.932364,-0.162795, 0.923257,-0.194706, 0.853062,-0.065389, 0.872553,-0.097995,0.932364
-0.162795, 0.923257,-0.226802, 0.909652,-0.194706, 0.853062,-0.162795,0.923257
-0.226802, 0.909652,-0.289703, 0.891615,-0.319673, 0.814515,-0.194706, 0.853062,-0.226802,0.909652
-0.289703, 0.891615,-0.351194, 0.869235,-0.319673, 0.814515,-0.289703,0.891615
-0.351194, 0.869235,-0.410973, 0.842619,-0.437500, 0.757772,-0.319673, 0.814515,-0.351194,0.869235
-0.410973, 0.842619,-0.468750, 0.811899,-0.437500, 0.757772,-0.410973,0.842619
-0.468750, 0.811899,-0.524243, 0.777223,-0.437500, 0.757772,-0.468750,0.811899
-0.524243, 0.777223,-0.577183, 0.738760,-0.545554, 0.684103,-0.437500, 0.757772,-0.524243,0.777223
-0.577183, 0.738760,-0.627310, 0.696698,-0.545554, 0.684103,-0.577183,0.738760
-0.627310, 0.696698,-0.674381, 0.651242,-0.641420, 0.595151,-0.545554, 0.684103,-0.627310,0.696698
-0.674381, 0.651242,-0.718167, 0.602613,-0.641420, 0.595151,-0.674381,0.651242
-0.718167, 0.602613,-0.758453, 0.551049,-0.722959, 0.492905,-0.641420, 0.595151,-0.718167,0.602613
-0.758453, 0.551049,-0.795045, 0.496799,-0.722959, 0.492905,-0.758453,0.551049
-0.795045, 0.496799,-0.827763, 0.440130,-0.788348, 0.379648,-0.722959, 0.492905,-0.795045,0.496799
-0.827763, 0.440130,-0.856449, 0.381316,-0.788348, 0.379648,-0.827763,0.440130
-0.856449, 0.381316,-0.880962, 0.320644,-0.836126, 0.257911,-0.788348, 0.379648,-0.856449,0.381316
-0.880962, 0.320644,-0.901183, 0.258410,-0.836126, 0.257911,-0.880962,0.320644
-0.901183, 0.258410,-0.917013, 0.194917,-0.865227, 0.130412,-0.836126, 0.257911,-0.901183,0.258410
-0.917013, 0.194917,-0.928376, 0.130475,-0.865227, 0.130412,-0.917013,0.194917
-0.928376, 0.130475,-0.935216, 0.065397,-0.875000, -0.000000,-0.865227, 0.130412,-0.928376,0.130475
-0.935216, 0.065397,-0.937500, -0.000000,-0.875000, -0.000000,-0.935216,0.065397
-0.937500, -0.000000,-0.935216, -0.065397,-0.875000, -0.000000,-0.937500,-0.000000
-0.935216, -0.065397,-0.928376, -0.130475,-0.865227, -0.130412,-0.875000, -0.000000,-0.935216,-0.065397
-0.928376, -0.130475,-0.917013, -0.194917,-0.865227, -0.130412,-0.928376,-0.130475
-0.917013, -0.194917,-0.901183, -0.258410,-0.836126, -0.257911,-0.865227, -0.130412,-0.917013,-0.194917
-0.901183, -0.258410,-0.880962, -0.320644,-0.836126, -0.257911,-0.901183,-0.258410
-0.880962, -0.320644,-0.856449, -0.381316,-0.788348, -0.379648,-0.836126, -0.257911,-0.880962,-0.320644
-0.856449, -0.381316,-0.827763, -0.440130,-0.788348, -0.379648,-0.856449,-0.381316
-0.827763, -0.440130,-0.795045, -0.496799,-0.722959, -0.492905,-0.788348, -0.379648,-0.827763,-0.440130
-0.795045, -0.496799,-0.758453, -0.551049,-0.722959, -0.492905,-0.795045,-0.496799
-0.758453, -0.551049,-0.718167, -0.602613,-0.641420, -0.595151,-0.722959, -0.492905,-0.758453,-0.551049
-0.718167, -0.602613,-0.674381, -0.651242,-0.641420, -0.595151,-0.718167,-0.602613
-0.674381, -0.651242,-0.627310, -0.696698,-0.545554, -0.684103,-0.641420, -0.595151,-0.674381,-0.651242
-0.627310, -0.696698,-0.577183, -0.738760,-0.545554, -0.684103,-0.627310,-0.696698
-0.577183, -0.738760,-0.524243, -0.777223,-0.437500, -0.757772,-0.545554, -0.684103,-0.577183,-0.738760
-0.524243, -0.777223,-0.468750, -0.811899,-0.437500, -0.757772,-0.524243,-0.777223
-0.468750, -0.811899,-0.410973, -0.842619,-0.437500, -0.757772,-0.468750,-0.811899
-0.410973, -0.842619,-0.351194, -0.869235,-0.319673, -0.814515,-0.437500, -0.757772,-0.410973,-0.842619
-0.351194, -0.869235,-0.289703, -0.891615,-0.319673, -0.814515,-0.351194,-0.869235
-0.289703, -0.891615,-0.226802, -0.909652,-0.194706, -0.853062,-0.319673, -0.814515,-0.289703,-0.891615
-0.226802, -0.909652,-0.162795, -0.923257,-0.194706, -0.853062,-0.226802,-0.909652
-0.162795, -0.923257,-0.097995, -0.932364,-0.065389, -0.872553,-0.194706, -0.853062,-0.162795,-0.923257
-0.097995, -0.932364,-0.032718, -0.936929,-0.065389, -0.872553,-0.097995,-0.932364
-0.032718, -0.936929,0.032718, -0.936929,0.065389, -0.872553,-0.065389, -0.872553,-0.032718,-0.936929
0.032718, -0.936929,0.097995, -0.932364,0.065389, -0.872553,0.032718,-0.936929
0.097995, -0.932364,0.162795, -0.923257,0.194706, -0.853062,0.065389, -0.872553,0.097995,-0.932364
0.162795, -0.923257,0.226802, -0.909652,0.194706, -0.853062,0.162795,-0.923257
0.226802, -0.909652,0.289703, -0.891615,0.319673, -0.814515,0.194706, -0.853062,0.226802,-0.909652
0.289703, -0.891615,0.351194, -0.869235,0.319673, -0.814515,0.289703,-0.891615
0.351194, -0.869235,0.410973, -0.842619,0.437500, -0.757772,0.319673, -0.814515,0.351194,-0.869235
0.410973, -0.842619,0.468750, -0.811899,0.437500, -0.757772,0.410973,-0.842619
0.468750, -0.811899,0.524243, -0.777223,0.437500, -0.757772,0.468750,-0.811899
0.524243, -0.777223,0.577183, -0.738760,0.545554, -0.684103,0.437500, -0.757772,0.524243,-0.777223
0.577183, -0.738760,0.627310, -0.696698,0.545554, -0.684103,0.577183,-0.738760
0.627310, -0.696698,0.674381, -0.651242,0.641420, -0.595151,0.545554, -0.684103,0.627310,-0.696698
0.674381, -0.651242,0.718167, -0.602613,0.641420, -0.595151,0.674381,-0.651242
0.718167, -0.602613,0.758453, -0.551049,0.722959, -0.492905,0.641420, -0.595151,0.718167,-0.602613
0.758453, -0.551049,0.795045, -0.496799,0.722959, -0.492905,0.758453,-0.551049
0.795045, -0.496799,0.827763, -0.440130,0.788348, -0.379648,0.722959, -0.492905,0.795045,-0.496799
0.827763, -0.440130,0.856449, -0.381316,0.788348, -0.379648,0.827763,-0.440130
0.856449, -0.381316,0.880962, -0.320644,0.836126, -0.257911,0.788348, -0.379648,0.856449,-0.381316
0.880962, -0.320644,0.901183, -0.258410,0.836126, -0.257911,0.880962,-0.320644
0.901183, -0.258410,0.917013, -0.194917,0.865227, -0.130412,0.836126, -0.257911,0.901183,-0.258410
0.917013, -0.194917,0.928376, -0.130475,0.865227, -0.130412,0.917013,-0.194917
0.928376, -0.130475,0.935216, -0.065397,0.875000, 0.000000,0.865227, -0.130412,0.928376,-0.130475
0.935216, -0.065397,0.937500, 0.000000,0.875000, 0.000000,0.935216,-0.065397
0.968750, 0.000000,0.968197, 0.032719,0.937500, 0.000000,0.968750,0.000000
0.968197, 0.032719,0.966540, 0.065400,0.935216, 0.065397,0.937500, 0.000000,0.968197,0.032719
0.966540, 0.065400,0.963780, 0.098007,0.935216, 0.065397,0.966540,0.065400
0.963780, 0.098007,0.959920, 0.130502,0.928376, 0.130475,0.935216, 0.065397,0.963780,0.098007
0.959920, 0.130502,0.954964, 0.162848,0.928376, 0.130475,0.959920,0.130502
0.954964, 0.162848,0.948920, 0.195008,0.917013, 0.194917,0.928376, 0.130475,0.954964,0.162848
0.948920, 0.195008,0.941792, 0.226946,0.917013, 0.194917,0.948920,0.195008
0.941792, 0.226946,0.933590, 0.258624,0.901183, 0.258410,0.917013, 0.194917,0.941792,0.226946
0.933590, 0.258624,0.924322, 0.290008,0.901183, 0.258410,0.933590,0.258624
0.924322, 0.290008,0.914000, 0.321061,0.880962, 0.320644,0.901183, 0.258410,0.924322,0.290008
0.914000, 0.321061,0.902635, 0.351747,0.880962, 0.320644,0.914000,0.321061
0.902635, 0.351747,0.890240, 0.382032,0.856449, 0.381316,0.880962, 0.320644,0.902635,0.351747
0.890240, 0.382032,0.876830, 0.411881,0.856449, 0.381316,0.890240,0.382032
0.876830, 0.411881,0.862418, 0.441261,0.827763, 0.440130,0.856449, 0.381316,0.876830,0.411881
0.862418, 0.441261,0.847023, 0.470136,0.827763, 0.440130,0.862418,0.441261
0.847023, 0.470136,0.830662, 0.498476,0.795045, 0.496799,0.827763, 0.440130,0.847023,0.470136
0.830662, 0.498476,0.813352, 0.526246,0.795045, 0.496799,0.830662,0.498476
0.813352, 0.526246,0.795115, 0.553416,0.758453, 0.551049,0.795045, 0.496799,0.813352,0.526246
0.795115, 0.553416,0.775970, 0.579955,0.758453, 0.551049,0.795115,0.553416
0.775970, 0.579955,0.755940, 0.605832,0.718167, 0.602613,0.758453, 0.551049,0.775970,0.579955
0.755940, 0.605832,0.735047, 0.631017,0.718167, 0.602613,0.755940,0.605832
0.735047, 0.631017,0.713316, 0.655483,0.674381, 0.651242,0.718167, 0.602613,0.735047,0.631017
0.713316, 0.655483,0.690770, 0.679200,0.674381, 0.651242,0.713316,0.655483
0.690770, 0.679200,0.667437, 0.702143,0.627310, 0.696698,0.674381, 0.651242,0.690770,0.679200
0.667437, 0.702143,0.643342, 0.724285,0.627310, 0.696698,0.667437,0.702143
0.643342, 0.724285,0.618513, 0.745600,0.577183, 0.738760,0.627310, 0.696698,0.643342,0.724285
0.618513, 0.745600,0.592978, 0.766064,0.577183, 0.738760,0.618513,0.745600
0.592978, 0.766064,0.566766, 0.785654,0.524243, 0.777223,0.577183, 0.738760,0.592978,0.766064
0.566766, 0.785654,0.539908, 0.804348,0.524243, 0.777223,0.566766,0.785654
0.539908, 0.804348,0.512434, 0.822124,0.468750, 0.811899,0.524243, 0.777223,0.539908,0.804348
0.512434, 0.822124,0.484375, 0.838962,0.468750, 0.811899,0.512434,0.822124
0.484375, 0.838962,0.455763, 0.854843,0.468750, 0.811899,0.484375,0.838962
0.455763, 0.854843,0.426632, 0.869748,0.410973, 0.842619,0.468750, 0.811899,0.455763,0.854843
0.426632, 0.869748,0.397013, 0.883661,0.410973, 0.842619,0.426632,0.869748
0.397013, 0.883661,0.366942, 0.896566,0.351194, 0.869235,0.410973, 0.842619,0.397013,0.883661
0.366942, 0.896566,0.336452, 0.908447,0.351194, 0.869235,0.366942,0.896566
0.336452, 0.908447,0.305578, 0.919292,0.289703, 0.891615,0.351194, 0.869235,0.336452,0.908447
0.305578, 0.919292,0.274355, 0.929089,0.289703, 0.891615,0.305578,0.919292
0.274355, 0.929089,0.242820, 0.937825,0.226802, 0.909652,0.289703, 0.891615,0.274355,0.929089
0.242820, 0.937825,0.211007, 0.945491,0.226802, 0.909652,0.242820,0.937825
0.211007, 0.945491,0.178953, 0.952078,0.162795, 0.923257,0.226802, 0.909652,0.211007,0.945491
0.178953, 0.952078,0.146696, 0.957579,0.162795, 0.923257,0.178953,0.952078
0.146696, 0.957579,0.114271, 0.961987,0.097995, 0.932364,0.162795, 0.923257,0.146696,0.957579
0.114271, 0.961987,0.081715, 0.965297,0.097995, 0.932364,0.114271,0.961987
0.081715, 0.965297,0.049066, 0.967507,0.032718, 0.936929,0.097995, 0.932364,0.081715,0.965297
0.049066, 0.967507,0.016362, 0.968612,0.032718, 0.936929,0.049066,0.967507
0.016362, 0.968612,-0.016362, 0.968612,-0.032718, 0.936929,0.032718, 0.936929,0.016362,0.968612
-0.016362, 0.968612,-0.049066, 0.967507,-0.032718, 0.936929,-0.016362,0.968612
-0.049066, 0.967507,-0.081715, 0.965297,-0.097995, 0.932364,-0.032718, 0.936929,-0.049066,0.967507
-0.081715, 0.965297,-0.114271, 0.961987,-0.097995, 0.932364,-0.081715,0.965297
-0.114271, 0.961987,-0.146696, 0.957579,-0.162795, 0.923257,-0.097995, 0.932364,-0.114271,0.961987
-0.146696, 0.957579,-0.178953, 0.952078,-0.162795, 0.923257,-0.146696,0.957579
-0.178953, 0.952078,-0.211007, 0.945491,-0.226802, 0.909652,-0.162795, 0.923257,-0.178953,0.952078
-0.211007, 0.945491,-0.242820, 0.937825,-0.226802, 0.909652,-0.211007,0.945491
-0.242820, 0.937825,-0.274355, 0.929089,-0.289703, 0.891615,-0.226802, 0.909652,-0.242820,0.937825
-0.274355, 0.929089,-0.305578, 0.919292,-0.289703, 0.891615,-0.274355,0.929089
-0.305578, 0.919292,-0.336452, 0.908447,-0.351194, 0.869235,-0.289703, 0.891615,-0.305578,0.919292
-0.336452, 0.908447,-0.366942, 0.896566,-0.351194, 0.869235,-0.336452,0.908447
-0.366942, 0.896566,-0.397013, 0.883661,-0.410973, 0.842619,-0.351194, 0.869235,-0.366942,0.896566
-0.397013, 0.883661,-0.426632, 0.869748,-0.410973, 0.842619,-0.397013,0.883661
-0.426632, 0.869748,-0.455763, 0.854843,-0.468750, 0.811899,-0.410973, 0.842619,-0.426632,0.869748
-0.455763, 0.854843,-0.484375, 0.838962,-0.468750, 0.811899,-0.455763,0.854843
-0.484375, 0.838962,-0.512434, 0.822124,-0.468750, 0.811899,-0.484375,0.838962
-0.512434, 0.822124,-0.539908, 0.804348,-0.524243, 0.777223,-0.468750, 0.811899,-0.512434,0.822124
-0.539908, 0.804348,-0.566766, 0.785654,-0.524243, 0.777223,-0.539908,0.804348
-0.566766, 0.785654,-0.592978, 0.766064,-0.577183, 0.738760,-0.524243, 0.777223,-0.566766,0.785654
-0.592978, 0.766064,-0.618513, 0.745600,-0.577183, 0.738760,-0.592978,0.766064
-0.618513, 0.745600,-0.643342, 0.724285,-0.627310, 0.696698,-0.577183, 0.738760,-0.618513,0.745600
-0.643342, 0.724285,-0.667437, 0.702143,-0.627310, 0.696698,-0.643342,0.724285
-0.667437, 0.702143,-0.690770, 0.679200,-0.674381, 0.651242,-0.627310, 0.696698,-0.667437,0.702143
-0.690770, 0.679200,-0.713316, 0.655483,-0.674381, 0.651242,-0.690770,0.679200
-0.713316, 0.655483,-0.735047, 0.631017,-0.718167, 0.602613,-0.674381, 0.651242,-0.713316,0.655483
-0.735047, 0.631017,-0.755940, 0.605832,-0.718167, 0.602613,-0.735047,0.631017
-0.755940, 0.605832,-0.775970, 0.579955,-0.758453, 0.551049,-0.718167, 0.602613,-0.755940,0.605832
-0.775970, 0.579955,-0.795115, 0.553416,-0.758453, 0.551049,-0.775970,0.579955
-0.795115, 0.553416,-0.813352, 0.526246,-0.795045, 0.496799,-0.758453, 0.551049,-0.795115,0.553416
-0.813352, 0.526246,-0.830662, 0.498476,-0.795045, 0.496799,-0.813352,0.526246
-0.830662, 0.498476,-0.847023, 0.470136,-0.827763, 0.440130,-0.795045, 0.496799,-0.830662,0.498476
-0.847023, 0.470136,-0.862418, 0.441261,-0.827763, 0.440130,-0.847023,0.470136
-0.862418, 0.441261,-0.876830, 0.411881,-0.856449, 0.381316,-0.827763, 0.440130,-0.862418,0.441261
-0.876830, 0.411881,-0.890240, 0.382032,-0.856449, 0.381316,-0.876830,0.411881
-0.890240, 0.382032,-0.902635, 0.351747,-0.880962, 0.320644,-0.856449, 0.381316,-0.890240,0.382032
-0.902635, 0.351747,-0.914000, 0.321061,-0.880962, 0.320644,-0.902635,0.351747
-0.914000, 0.321061,-0.924322, 0.290008,-0.901183, 0.258410,-0.880962, 0.320644,-0.914000,0.321061
-0.924322, 0.290008,-0.933590, 0.258624,-0.901183, 0.258410,-0.924322,0.290008
-0.933590, 0.258624,-0.941792, 0.226946,-0.917013, 0.194917,-0.901183, 0.258410,-0.933590,0.258624
-0.941792, 0.226946,-0.948920, 0.195008,-0.917013, 0.194917,-0.941792,0.226946
-0.948920, 0.195008,-0.954964, 0.162848,-0.928376, 0.130475,-0.917013, 0.194917,-0.948920,0.195008
-0.954964, 0.162848,-0.959920, 0.130502,-0.928376, 0.130475,-0.954964,0.162848
-0.959920, 0.130502,-0.963780, 0.098007,-0.935216, 0.065397,-0.928376, 0.130475,-0.959920,0.130502
-0.963780, 0.098007,-0.966540, 0.065400,-0.935216, 0.065397,-0.963780,0.098007
-0.966540, 0.065400,-0.968197, 0.032719,-0.937500, -0.000000,-0.935216, 0.065397,-0.966540,0.065400
-0.968197, 0.032719,-0.968750, 0.000000,-0.937500, -0.000000,-0.968197,0.032719
-0.968750, 0.000000,-0.968197, -0.032719,-0.937500, -0.000000,-0.968750,0.000000
-0.968197, -0.032719,-0.966540, -0.065400,-0.935216, -0.065397,-0.937500, -0.000000,-0.968197,-0.032719
-0.966540, -0.065400,-0.963780, -0.098007,-0.935216, -0.065397,-0.966540,-0.065400
-0.963780, -0.098007,-0.959920, -0.130502,-0.928376, -0.130475,-0.935216, -0.065397,-0.963780,-0.098007
-0.959920, -0.130502,-0.954964, -0.162848,-0.928376, -0.130475,-0.959920,-0.130502
-0.954964, -0.162848,-0.948920, -0.195008,-0.917013, -0.194917,-0.928376, -0.130475,-0.954964,-0.162848
-0.948920, -0.195008,-0.941792, -0.226946,-0.917013, -0.194917,-0.948920,-0.195008
-0.941792, -0.226946,-0.933590, -0.258624,-0.901183, -0.258410,-0.917013, -0.194917,-0.941792,-0.226946
-0.933590, -0.258624,-0.924322, -0.290008,-0.901183, -0.258410,-0.933590,-0.258624
-0.924322, -0.290008,-0.914000, -0.321061,-0.880962, -0.320644,-0.901183, -0.258410,-0.924322,-0.290008
-0.914000, -0.321061,-0.902635, -0.351747,-0.880962, -0.320644,-0.914000,-0.321061
-0.902635, -0.351747,-0.890240, -0.382032,-0.856449, -0.381316,-0.880962, -0.320644,-0.902635,-0.351747
-0.890240, -0.382032,-0.876830, -0.411881,-0.856449, -0.381316,-0.890240,-0.382032
-0.876830, -0.411881,-0.862418, -0.441261,-0.827763, -0.440130,-0.856449, -0.381316,-0.876830,-0.411881
-0.862418, -0.441261,-0.847023, -0.470136,-0.827763, -0.440130,-0.862418,-0.441261
-0.847023, -0.470136,-0.830662, -0.498476,-0.795045, -0.496799,-0.827763, -0.440130,-0.847023,-0.470136
-0.830662, -0.498476,-0.813352, -0.526246,-0.795045, -0.496799,-0.830662,-0.498476
-0.813352, -0.526246,-0.795115, -0.553416,-0.758453, -0.551049,-0.795045, -0.496799,-0.813352,-0.526246
-0.795115, -0.553416,-0.775970, -0.579955,-0.758453, -0.551049,-0.795115,-0.553416
-0.775970, -0.579955,-0.755940, -0.605832,-0.718167, -0.602613,-0.758453, -0.551049,-0.775970,-0.579955
-0.755940, -0.605832,-0.735047, -0.631017,-0.718167, -0.602613,-0.755940,-0.605832
-0.735047, -0.631017,-0.713316, -0.655483,-0.674381, -0.651242,-0.718167, -0.602613,-0.735047,-0.631017
-0.713316, -0.655483,-0.690770, -0.679200,-0.674381, -0.651242,-0.713316,-0.655483
-0.690770, -0.679200,-0.667437, -0.702143,-0.627310, -0.696698,-0.674381, -0.651242,-0.690770,-0.679200
-0.667437, -0.702143,-0.643342, -0.724285,-0.627310, -0.696698,-0.667437,-0.702143
-0.643342, -0.724285,-0.618513, -0.745600,-0.577183, -0.738760,-0.627310, -0.696698,-0.643342,-0.724285
-0.618513, -0.745600,-0.592978, -0.766064,-0.577183, -0.738760,-0.618513,-0.745600
-0.592978, -0.766064,-0.566766, -0.785654,-0.524243, -0.777223,-0.577183, -0.738760,-0.592978,-0.766064
-0.566766, -0.785654,-0.539908, -0.804348,-0.524243, -0.777223,-0.566766,-0.785654
-0.539908, -0.804348,-0.512434, -0.822124,-0.468750, -0.811899,-0.524243, -0.777223,-0.539908,-0.804348
-0.512434, -0.822124,-0.484375, -0.838962,-0.468750, -0.811899,-0.512434,-0.822124
-0.484375, -0.838962,-0.455763, -0.854843,-0.468750, -0.811899,-0.484375,-0.838962
-0.455763, -0.854843,-0.426632, -0.869748,-0.410973, -0.842619,-0.468750, -0.811899,-0.455763,-0.854843
-0.426632, -0.869748,-0.397013, -0.883661,-0.410973, -0.842619,-0.426632,-0.869748
-0.397013, -0.883661,-0.366942, -0.896566,-0.351194, -0.869235,-0.410973, -0.842619,-0.397013,-0.883661
-0.366942, -0.896566,-0.336452, -0.908447,-0.351194, -0.869235,-0.366942,-0.896566
-0.336452, -0.908447,-0.305578, -0.919292,-0.289703, -0.891615,-0.351194, -0.869235,-0.336452,-0.908447
-0.305578, -0.919292,-0.274355, -0.929089,-0.289703, -0.891615,-0.305578,-0.919292
-0.274355, -0.929089,-0.242820, -0.937825,-0.226802, -0.909652,-0.289703, -0.891615,-0.274355,-0.929089
-0.242820, -0.937825,-0.211007, -0.945491,-0.226802, -0.909652,-0.242820,-0.937825
-0.211007, -0.945491,-0.178953, -0.952078,-0.162795, -0.923257,-0.226802, -0.909652,-0.211007,-0.945491
-0.178953, -0.952078,-0.146696, -0.957579,-0.162795, -0.923257,-0.178953,-0.952078
-0.146696, -0.957579,-0.114271, -0.961987,-0.097995, -0.932364,-0.162795, -0.923257,-0.146696,-0.957579
-0.114271, -0.961987,-0.081715, -0.965297,-0.097995, -0.932364,-0.114271,-0.961987
-0.081715, -0.965297,-0.049066, -0.967507,-0.032718, -0.936929,-0.097995, -0.932364,-0.081715,-0.965297
-0.049066, -0.967507,-0.016362, -0.968612,-0.032718, -0.936929,-0.049066,-0.967507
-0.016362, -0.968612,0.016362, -0.968612,0.032718, -0.936929,-0.032718, -0.936929,-0.016362,-0.968612
0.016362, -0.968612,0.049066, -0.967507,0.032718, -0.936929,0.016362,-0.968612
0.049066, -0.967507,0.081715, -0.965297,0.097995, -0.932364,0.032718, -0.936929,0.049066,-0.967507
0.081715, -0.965297,0.114271, -0.961987,0.097995, -0.932364,0.081715,-0.965297
0.114271, -0.961987,0.146696, -0.957579,0.162795, -0.923257,0.097995, -0.932364,0.114271,-0.961987
0.146696, -0.957579,0.178953, -0.952078,0.162795, -0.923257,0.146696,-0.957579
0.178953, -0.952078,0.211007, -0.945491,0.226802, -0.909652,0.162795, -0.923257,0.178953,-0.952078
0.211007, -0.945491,0.242820, -0.937825,0.226802, -0.909652,0.211007,-0.945491
0.242820, -0.937825,0.274355, -0.929089,0.289703, -0.891615,0.226802, -0.909652,0.242820,-0.937825
0.274355, -0.929089,0.305578, -0.919292,0.289703, -0.891615,0.274355,-0.929089
0.305578, -0.919292,0.336452, -0.908447,0.351194, -0.869235,0.289703, -0.891615,0.305578,-0.919292
0.336452, -0.908447,0.366942, -0.896566,0.351194, -0.869235,0.336452,-0.908447
0.366942, -0.896566,0.397013, -0.883661,0.410973, -0.842619,0.351194, -0.869235,0.366942,-0.896566
0.397013, -0.883661,0.426632, -0.869748,0.410973, -0.842619,0.397013,-0.883661
0.426632, -0.869748,0.455763, -0.854843,0.468750, -0.811899,0.410973, -0.842619,0.426632,-0.869748
0.455763, -0.854843,0.484375, -0.838962,0.468750, -0.811899,0.455763,-0.854843
0.484375, -0.838962,0.512434, -0.822124,0.468750, -0.811899,0.484375,-0.838962
0.512434, -0.822124,0.539908, -0.804348,0.524243, -0.777223,0.468750, -0.811899,0.512434,-0.822124
0.539908, -0.804348,0.566766, -0.785654,0.524243, -0.777223,0.539908,-0.804348
0.566766, -0.785654,0.592978, -0.766064,0.577183, -0.738760,0.524243, -0.777223,0.566766,-0.785654
0.592978, -0.766064,0.618513, -0.745600,0.577183, -0.738760,0.592978,-0.766064
0.618513, -0.745600,0.643342, -0.724285,0.627310, -0.696698,0.577183, -0.738760,0.618513,-0.745600
0.643342, -0.724285,0.667437, -0.702143,0.627310, -0.696698,0.643342,-0.724285
0.667437, -0.702143,0.690770, -0.679200,0.674381, -0.651242,0.627310, -0.696698,0.667437,-0.702143
0.690770, -0.679200,0.713316, -0.655483,0.674381, -0.651242,0.690770,-0.679200
0.713316, -0.655483,0.735047, -0.631017,0.718167, -0.602613,0.674381, -0.651242,0.713316,-0.655483
0.735047, -0.631017,0.755940, -0.605832,0.718167, -0.602613,0.735047,-0.631017
0.755940, -0.605832,0.775970, -0.579955,0.758453, -0.551049,0.718167, -0.602613,0.755940,-0.605832
0.775970, -0.579955,0.795115, -0.553416,0.758453, -0.551049,0.775970,-0.579955
0.795115, -0.553416,0.813352, -0.526246,0.795045, -0.496799,0.758453, -0.551049,0.795115,-0.553416
0.813352, -0.526246,0.830662, -0.498476,0.795045, -0.496799,0.813352,-0.526246
0.830662, -0.498476,0.847023, -0.470136,0.827763, -0.440130,0.795045, -0.496799,0.830662,-0.498476
0.847023, -0.470136,0.862418, -0.441261,0.827763, -0.440130,0.847023,-0.470136
0.862418, -0.441261,0.876830, -0.411881,0.856449, -0.381316,0.827763, -0.440130,0.862418,-0.441261
0.876830, -0.411881,0.890240, -0.382032,0.856449, -0.381316,0.876830,-0.411881
0.890240, -0.382032,0.902635, -0.351747,0.880962, -0.320644,0.856449, -0.381316,0.890240,-0.382032
0.902635, -0.351747,0.914000, -0.321061,0.880962, -0.320644,0.902635,-0.351747
0.914000, -0.321061,0.924322, -0.290008,0.901183, -0.258410,0.880962, -0.320644,0.914000,-0.321061
0.924322, -0.290008,0.933590, -0.258624,0.901183, -0.258410,0.924322,-0.290008
0.933590, -0.258624,0.941792, -0.226946,0.917013, -0.194917,0.901183, -0.258410,0.933590,-0.258624
0.941792, -0.226946,0.948920, -0.195008,0.917013, -0.194917,0.941792,-0.226946
0.948920, -0.195008,0.954964, -0.162848,0.928376, -0.130475,0.917013, -0.194917,0.948920,-0.195008
0.954964, -0.162848,0.959920, -0.130502,0.928376, -0.130475,0.954964,-0.162848
0.959920, -0.130502,0.963780, -0.098007,0.935216, -0.065397,0.928376, -0.130475,0.959920,-0.130502
0.963780, -0.098007,0.966540, -0.065400,0.935216, -0.065397,0.963780,-0.098007
0.966540, -0.065400,0.968197, -0.032719,0.937500, 0.000000,0.935216, -0.065397,0.966540,-0.065400
0.968197, -0.032719,0.968750, 0.000000,0.937500, 0.000000,0.968197,-0.032719
1.000000, 0.000000,0.999465, 0.032719,0.968750, 0.000000,1.000000,0.000000
0.999465, 0.032719,0.968197, 0.032719,0.968750, 0.000000,0.999465,0.032719
0.999465, 0.032719,0.997859, 0.065403,0.968197, 0.032719,0.999465,0.032719
0.997859, 0.065403,0.966540, 0.065400,0.968197, 0.032719,0.997859,0.065403
0.997859, 0.065403,0.995185, 0.098017,0.966540, 0.065400,0.997859,0.065403
0.995185, 0.098017,0.963780, 0.098007,0.966540, 0.065400,0.995185,0.098017
0.995185, 0.098017,0.991445, 0.130526,0.963780, 0.098007,0.995185,0.098017
0.991445, 0.130526,0.959920, 0.130502,0.963780, 0.098007,0.991445,0.130526
0.991445, 0.130526,0.986643, 0.162895,0.959920, 0.130502,0.991445,0.130526
0.986643, 0.162895,0.954964, 0.162848,0.959920, 0.130502,0.986643,0.162895
0.986643, 0.162895,0.980785, 0.195090,0.954964, 0.162848,0.986643,0.162895
0.980785, 0.195090,0.948920, 0.195008,0.954964, 0.162848,0.980785,0.195090
0.980785, 0.195090,0.973877, 0.227076,0.948920, 0.195008,0.980785,0.195090
0.973877, 0.227076,0.941792, 0.226946,0.948920, 0.195008,0.973877,0.227076
0.973877, 0.227076,0.965926, 0.258819,0.941792, 0.226946,0.973877,0.227076
0.965926, 0.258819,0.933590, 0.258624,0.941792, 0.226946,0.965926,0.258819
0.965926, 0.258819,0.956940, 0.290285,0.933590, 0.258624,0.965926,0.258819
0.956940, 0.290285,0.924322, 0.290008,0.933590, 0.258624,0.956940,0.290285
0.956940, 0.290285,0.946930, 0.321439,0.924322, 0.290008,0.956940,0.290285
0.946930, 0.321439,0.914000, 0.321061,0.924322, 0.290008,0.946930,0.321439
0.946930, 0.321439,0.935906, 0.352250,0.914000, 0.321061,0.946930,0.321439
0.935906, 0.352250,0.902635, 0.351747,0.914000, 0.321061,0.935906,0.352250
0.935906, 0.352250,0.923880, 0.382683,0.902635, 0.351747,0.935906,0.352250
0.923880, 0.382683,0.890240, 0.382032,0.902635, 0.351747,0.923880,0.382683
0.923880, 0.382683,0.910864, 0.412707,0.890240, 0.382032,0.923880,0.382683
0.910864, 0.412707,0.876830, 0.411881,0.890240, 0.382032,0.910864,0.412707
0.910864, 0.412707,0.896873, 0.442289,0.876830, 0.411881,0.910864,0.412707
0.896873, 0.442289,0.862418, 0.441261,0.876830, 0.411881,0.896873,0.442289
0.896873, 0.442289,0.881921, 0.471397,0.862418, 0.441261,0.896873,0.442289
0.881921, 0.471397,0.847023, 0.470136,0.862418, 0.441261,0.881921,0.471397
0.881921, 0.471397,0.866025, 0.500000,0.847023, 0.470136,0.881921,0.471397
0.866025, 0.500000,0.830662, 0.498476,0.847023, 0.470136,0.866025,0.500000
0.866025, 0.500000,0.849202, 0.528068,0.830662, 0.498476,0.866025,0.500000
0.849202, 0.528068,0.813352, 0.526246,0.830662, 0.498476,0.849202,0.528068
0.849202, 0.528068,0.831470, 0.555570,0.813352, 0.526246,0.849202,0.528068
0.831470, 0.555570,0.795115, 0.553416,0.813352, 0.526246,0.831470,0.555570
0.831470, 0.555570,0.812847, 0.582478,0.795115, 0.553416,0.831470,0.555570
0.812847, 0.582478,0.775970, 0.579955,0.795115, 0.553416,0.812847,0.582478
0.812847, 0.582478,0.793353, 0.608761,0.775970, 0.579955,0.812847,0.582478
0.793353, 0.608761,0.755940, 0.605832,0.775970, 0.579955,0.793353,0.608761
0.793353, 0.608761,0.773010, 0.634393,0.755940, 0.605832,0.793353,0.608761
0.773010, 0.634393,0.735047, 0.631017,0.755940, 0.605832,0.773010,0.634393
0.773010, 0.634393,0.751840, 0.659346,0.735047, 0.631017,0.773010,0.634393
0.751840, 0.659346,0.713316, 0.655483,0.735047, 0.631017,0.751840,0.659346
0.751840, 0.659346,0.729864, 0.683592,0.713316, 0.655483,0.751840,0.659346
0.729864, 0.683592,0.690770, 0.679200,0.713316, 0.655483,0.729864,0.683592
0.729864, 0.683592,0.707107, 0.707107,0.690770, 0.679200,0.729864,0.683592
0.707107, 0.707107,0.667437, 0.702143,0.690770, 0.679200,0.707107,0.707107
0.707107, 0.707107,0.683592, 0.729864,0.667437, 0.702143,0.707107,0.707107
0.683592, 0.729864,0.643342, 0.724285,0.667437, 0.702143,0.683592,0.729864
0.683592, 0.729864,0.659346, 0.751840,0.643342, 0.724285,0.683592,0.729864
0.659346, 0.751840,0.618513, 0.745600,0.643342, 0.724285,0.659346,0.751840
0.659346, 0.751840,0.634393, 0.773010,0.618513, 0.745600,0.659346,0.751840
0.634393, 0.773010,0.592978, 0.766064,0.618513, 0.745600,0.634393,0.773010
0.634393, 0.773010,0.608761, 0.793353,0.592978, 0.766064,0.634393,0.773010
0.608761, 0.793353,0.566766, 0.785654,0.592978, 0.766064,0.608761,0.793353
0.608761, 0.793353,0.582478, 0.812847,0.566766, 0.785654,0.608761,0.793353
0.582478, 0.812847,0.539908, 0.804348,0.566766, 0.785654,0.582478,0.812847
0.582478, 0.812847,0.555570, 0.831470,0.539908, 0.804348,0.582478,0.812847
0.555570, 0.831470,0.512434, 0.822124,0.539908, 0.804348,0.555570,0.831470
0.555570, 0.831470,0.528068, 0.849202,0.512434, 0.822124,0.555570,0.831470
0.528068, 0.849202,0.484375, 0.838962,0.512434, 0.822124,0.528068,0.849202
0.528068, 0.849202,0.500000, 0.866025,0.484375, 0.838962,0.528068,0.849202
0.500000, 0.866025,0.471397, 0.881921,0.484375, 0.838962,0.500000,0.866025
0.471397, 0.881921,0.455763, 0.854843,0.484375, 0.838962,0.471397,0.881921
0.471397, 0.881921,0.442289, 0.896873,0.455763, 0.854843,0.471397,0.881921
0.442289, 0.896873,0.426632, 0.869748,0.455763, 0.854843,0.442289,0.896873
0.442289, 0.896873,0.412707, 0.910864,0.426632, 0.869748,0.442289,0.896873
0.412707, 0.910864,0.397013, 0.883661,0.426632, 0.869748,0.412707,0.910864
0.412707, 0.910864,0.382683, 0.923880,0.397013, 0.883661,0.412707,0.910864
0.382683, 0.923880,0.366942, 0.896566,0.397013, 0.883661,0.382683,0.923880
0.382683, 0.923880,0.352250, 0.935906,0.366942, 0.896566,0.382683,0.923880
0.352250, 0.935906,0.336452, 0.908447,0.366942, 0.896566,0.352250,0.935906
0.352250, 0.935906,0.321439, 0.946930,0.336452, 0.908447,0.352250,0.935906
0.321439, 0.946930,0.305578, 0.919292,0.336452, 0.908447,0.321439,0.946930
0.321439, 0.946930,0.290285, 0.956940,0.305578, 0.919292,0.321439,0.946930
0.290285, 0.956940,0.274355, 0.929089,0.305578, 0.919292,0.290285,0.956940
0.290285, 0.956940,0.258819, 0.965926,0.274355, 0.929089,0.290285,0.956940
0.258819, 0.965926,0.242820, 0.937825,0.274355, 0.929089,0.258819,0.965926
0.258819, 0.965926,0.227076, 0.973877,0.242820, 0.937825,0.258819,0.965926
0.227076, 0.973877,0.211007, 0.945491,0.242820, 0.937825,0.227076,0.973877
0.227076, 0.973877,0.195090, 0.980785,0.211007, 0.945491,0.227076,0.973877
0.195090, 0.980785,0.178953, 0.952078,0.211007, 0.945491,0.195090,0.980785
0.195090, 0.980785,0.162895, 0.986643,0.178953, 0.952078,0.195090,0.980785
0.162895, 0.986643,0.146696, 0.957579,0.178953, 0.952078,0.162895,0.986643
0.162895, 0.986643,0.130526, 0.991445,0.146696, 0.957579,0.162895,0.986643
0.130526, 0.991445,0.114271, 0.961987,0.146696, 0.957579,0.130526,0.991445
0.130526, 0.991445,0.098017, 0.995185,0.114271, 0.961987,0.130526,0.991445
0.098017, 0.995185,0.081715, 0.965297,0.114271, 0.961987,0.098017,0.995185
0.098017, 0.995185,0.065403, 0.997859,0.081715, 0.965297,0.098017,0.995185
0.065403, 0.997859,0.049066, 0.967507,0.081715, 0.965297,0.065403,0.997859
0.065403, 0.997859,0.032719, 0.999465,0.049066, 0.967507,0.065403,0.997859
0.032719, 0.999465,0.016362, 0.968612,0.049066, 0.967507,0.032719,0.999465
0.032719, 0.999465,-0.000000, 1.000000,0.016362, 0.968612,0.032719,0.999465
-0.000000, 1.000000,-0.016362, 0.968612,0.016362, 0.968612,-0.000000,1.000000
-0.000000, 1.000000,-0.032719, 0.999465,-0.016362, 0.968612,-0.000000,1.000000
-0.032719, 0.999465,-0.049066, 0.967507,-0.016362, 0.968612,-0.032719,0.999465
-0.032719, 0.999465,-0.065403, 0.997859,-0.049066, 0.967507,-0.032719,0.999465
-0.065403, 0.997859,-0.081715, 0.965297,-0.049066, 0.967507,-0.065403,0.997859
-0.065403, 0.997859,-0.098017, 0.995185,-0.081715, 0.965297,-0.065403,0.997859
-0.098017, 0.995185,-0.114271, 0.961987,-0.081715, 0.965297,-0.098017,0.995185
-0.098017, 0.995185,-0.130526, 0.991445,-0.114271, 0.961987,-0.098017,0.995185
-0.130526, 0.991445,-0.146696, 0.957579,-0.114271, 0.961987,-0.130526,0.991445
-0.130526, 0.991445,-0.162895, 0.986643,-0.146696, 0.957579,-0.130526,0.991445
-0.162895, 0.986643,-0.178953, 0.952078,-0.146696, 0.957579,-0.162895,0.986643
-0.162895, 0.986643,-0.195090, 0.980785,-0.178953, 0.952078,-0.162895,0.986643
-0.195090, 0.980785,-0.211007, 0.945491,-0.178953, 0.952078,-0.195090,0.980785
-0.195090, 0.980785,-0.227076, 0.973877,-0.211007, 0.945491,-0.195090,0.980785
-0.227076, 0.973877,-0.242820, 0.937825,-0.211007, 0.945491,-0.227076,0.973877
-0.227076, 0.973877,-0.258819, 0.965926,-0.242820, 0.937825,-0.227076,0.973877
-0.258819, 0.965926,-0.274355, 0.929089,-0.242820, 0.937825,-0.258819,0.965926
-0.258819, 0.965926,-0.290285, 0.956940,-0.274355, 0.929089,-0.258819,0.965926
-0.290285, 0.956940,-0.305578, 0.919292,-0.274355, 0.929089,-0.290285,0.956940
-0.290285, 0.956940,-0.321439, 0.946930,-0.305578, 0.919292,-0.290285,0.956940
-0.321439, 0.946930,-0.336452, 0.908447,-0.305578, 0.919292,-0.321439,0.946930
-0.321439, 0.946930,-0.352250, 0.935906,-0.336452, 0.908447,-0.321439,0.946930
-0.352250, 0.935906,-0.366942, 0.896566,-0.336452, 0.908447,-0.352250,0.935906
-0.352250, 0.935906,-0.382683, 0.923880,-0.366942, 0.896566,-0.352250,0.935906
-0.382683, 0.923880,-0.397013, 0.883661,-0.366942, 0.896566,-0.382683,0.923880
-0.382683, 0.923880,-0.412707, 0.910864,-0.397013, 0.883661,-0.382683,0.923880
-0.412707, 0.910864,-0.426632, 0.869748,-0.397013, 0.883661,-0.412707,0.910864
-0.412707, 0.910864,-0.442289, 0.896873,-0.426632, 0.869748,-0.412707,0.910864
-0.442289, 0.896873,-0.455763, 0.854843,-0.426632, 0.869748,-0.442289,0.896873
-0.442289, 0.896873,-0.471397, 0.881921,-0.455763, 0.854843,-0.442289,0.896873
-0.471397, 0.881921,-0.484375, 0.838962,-0.455763, 0.854843,-0.471397,0.881921
-0.471397, 0.881921,-0.500000, 0.866025,-0.484375, 0.838962,-0.471397,0.881921
-0.500000, 0.866025,-0.528068, 0.849202,-0.484375, 0.838962,-0.500000,0.866025
-0.528068, 0.849202,-0.512434, 0.822124,-0.484375, 0.838962,-0.528068,0.849202
-0.528068, 0.849202,-0.555570, 0.831470,-0.512434, 0.822124,-0.528068,0.849202
-0.555570, 0.831470,-0.539908, 0.804348,-0.512434, 0.822124,-0.555570,0.831470
-0.555570, 0.831470,-0.582478, 0.812847,-0.539908, 0.804348,-0.555570,0.831470
-0.582478, 0.812847,-0.566766, 0.785654,-0.539908, 0.804348,-0.582478,0.812847
-0.582478, 0.812847,-0.608761, 0.793353,-0.566766, 0.785654,-0.582478,0.812847
-0.608761, 0.793353,-0.592978, 0.766064,-0.566766, 0.785654,-0.608761,0.793353
-0.608761, 0.793353,-0.634393, 0.773010,-0.592978, 0.766064,-0.608761,0.793353
-0.634393, 0.773010,-0.618513, 0.745600,-0.592978, 0.766064,-0.634393,0.773010
-0.634393, 0.773010,-0.659346, 0.751840,-0.618513, 0.745600,-0.634393,0.773010
-0.659346, 0.751840,-0.643342, 0.724285,-0.618513, 0.745600,-0.659346,0.751840
-0.659346, 0.751840,-0.683592, 0.729864,-0.643342, 0.724285,-0.659346,0.751840
-0.683592, 0.729864,-0.667437, 0.702143,-0.643342, 0.724285,-0.683592,0.729864
-0.683592, 0.729864,-0.707107, 0.707107,-0.667437, 0.702143,-0.683592,0.729864
-0.707107, 0.707107,-0.690770, 0.679200,-0.667437, 0.702143,-0.707107,0.707107
-0.707107, 0.707107,-0.729864, 0.683592,-0.690770, 0.679200,-0.707107,0.707107
-0.729864, 0.683592,-0.713316, 0.655483,-0.690770, 0.679200,-0.729864,0.683592
-0.729864, 0.683592,-0.751840, 0.659346,-0.713316, 0.655483,-0.729864,0.683592
-0.751840, 0.659346,-0.735047, 0.631017,-0.713316, 0.655483,-0.751840,0.659346
-0.751840, 0.659346,-0.773010, 0.634393,-0.735047, 0.631017,-0.751840,0.659346
-0.773010, 0.634393,-0.755940, 0.605832,-0.735047, 0.631017,-0.773010,0.634393
-0.773010, 0.634393,-0.793353, 0.608761,-0.755940, 0.605832,-0.773010,0.634393
-0.793353, 0.608761,-0.775970, 0.579955,-0.755940, 0.605832,-0.793353,0.608761
-0.793353, 0.608761,-0.812847, 0.582478,-0.775970, 0.579955,-0.793353,0.608761
-0.812847, 0.582478,-0.795115, 0.553416,-0.775970, 0.579955,-0.812847,0.582478
-0.812847, 0.582478,-0.831470, 0.555570,-0.795115, 0.553416,-0.812847,0.582478
-0.831470, 0.555570,-0.813352, 0.526246,-0.795115, 0.553416,-0.831470,0.555570
-0.831470, 0.555570,-0.849202, 0.528068,-0.813352, 0.526246,-0.831470,0.555570
-0.849202, 0.528068,-0.830662, 0.498476,-0.813352, 0.526246,-0.849202,0.528068
-0.849202, 0.528068,-0.866025, 0.500000,-0.830662, 0.498476,-0.849202,0.528068
-0.866025, 0.500000,-0.847023, 0.470136,-0.830662, 0.498476,-0.866025,0.500000
-0.866025, 0.500000,-0.881921, 0.471397,-0.847023, 0.470136,-0.866025,0.500000
-0.881921, 0.471397,-0.862418, 0.441261,-0.847023, 0.470136,-0.881921,0.471397
-0.881921, 0.471397,-0.896873, 0.442289,-0.862418, 0.441261,-0.881921,0.471397
-0.896873, 0.442289,-0.876830, 0.411881,-0.862418, 0.441261,-0.896873,0.442289
-0.896873, 0.442289,-0.910864, 0.412707,-0.876830, 0.411881,-0.896873,0.442289
-0.910864, 0.412707,-0.890240, 0.382032,-0.876830, 0.411881,-0.910864,0.412707
-0.910864, 0.412707,-0.923880, 0.382683,-0.890240, 0.382032,-0.910864,0.412707
-0.923880, 0.382683,-0.902635, 0.351747,-0.890240, 0.382032,-0.923880,0.382683
-0.923880, 0.382683,-0.935906, 0.352250,-0.902635, 0.351747,-0.923880,0.382683
-0.935906, 0.352250,-0.914000, 0.321061,-0.902635, 0.351747,-0.935906,0.352250
-0.935906, 0.352250,-0.946930, 0.321439,-0.914000, 0.321061,-0.935906,0.352250
-0.946930, 0.321439,-0.924322, 0.290008,-0.914000, 0.321061,-0.946930,0.321439
-0.946930, 0.321439,-0.956940, 0.290285,-0.924322, 0.290008,-0.946930,0.321439
-0.956940, 0.290285,-0.933590, 0.258624,-0.924322, 0.290008,-0.956940,0.290285
-0.956940, 0.290285,-0.965926, 0.258819,-0.933590, 0.258624,-0.956940,0.290285
-0.965926, 0.258819,-0.941792, 0.226946,-0.933590, 0.258624,-0.965926,0.258819
-0.965926, 0.258819,-0.973877, 0.227076,-0.941792, 0.226946,-0.965926,0.258819
-0.973877, 0.227076,-0.948920, 0.195008,-0.941792, 0.226946,-0.973877,0.227076
-0.973877, 0.227076,-0.980785, 0.195090,-0.948920, 0.195008,-0.973877,0.227076
-0.980785, 0.195090,-0.954964, 0.162848,-0.948920, 0.195008,-0.980785,0.195090
-0.980785, 0.195090,-0.986643, 0.162895,-0.954964, 0.162848,-0.980785,0.195090
-0.986643, 0.162895,-0.959920, 0.130502,-0.954964, 0.162848,-0.986643,0.162895
-0.986643, 0.162895,-0.991445, 0.130526,-0.959920, 0.130502,-0.986643,0.162895
-0.991445, 0.130526,-0.963780, 0.098007,-0.959920, 0.130502,-0.991445,0.130526
-0.991445, 0.130526,-0.995185, 0.098017,-0.963780, 0.098007,-0.991445,0.130526
-0.995185, 0.098017,-0.966540, 0.065400,-0.963780, 0.098007,-0.995185,0.098017
-0.995185, 0.098017,-0.997859, 0.065403,-0.966540, 0.065400,-0.995185,0.098017
-0.997859, 0.065403,-0.968197, 0.032719,-0.966540, 0.065400,-0.997859,0.065403
-0.997859, 0.065403,-0.999465, 0.032719,-0.968197, 0.032719,-0.997859,0.065403
-0.999465, 0.032719,-0.968750, 0.000000,-0.968197, 0.032719,-0.999465,0.032719
-0.999465, 0.032719,-1.000000, 0.000000,-0.968750, 0.000000,-0.999465,0.032719
-1.000000, 0.000000,-0.999465, -0.032719,-0.968750, 0.000000,-1.000000,0.000000
-0.999465, -0.032719,-0.968197, -0.032719,-0.968750, 0.000000,-0.999465,-0.032719
-0.999465, -0.032719,-0.997859, -0.065403,-0.968197, -0.032719,-0.999465,-0.032719
-0.997859, -0.065403,-0.966540, -0.065400,-0.968197, -0.032719,-0.997859,-0.065403
-0.997859, -0.065403,-0.995185, -0.098017,-0.966540, -0.065400,-0.997859,-0.065403
-0.995185, -0.098017,-0.963780, -0.098007,-0.966540, -0.065400,-0.995185,-0.098017
-0.995185, -0.098017,-0.991445, -0.130526,-0.963780, -0.098007,-0.995185,-0.098017
-0.991445, -0.130526,-0.959920, -0.130502,-0.963780, -0.098007,-0.991445,-0.130526
-0.991445, -0.130526,-0.986643, -0.162895,-0.959920, -0.130502,-0.991445,-0.130526
-0.986643, -0.162895,-0.954964, -0.162848,-0.959920, -0.130502,-0.986643,-0.162895
-0.986643, -0.162895,-0.980785, -0.195090,-0.954964, -0.162848,-0.986643,-0.162895
-0.980785, -0.195090,-0.948920, -0.195008,-0.954964, -0.162848,-0.980785,-0.195090
-0.980785, -0.195090,-0.973877, -0.227076,-0.948920, -0.195008,-0.980785,-0.195090
-0.973877, -0.227076,-0.941792, -0.226946,-0.948920, -0.195008,-0.973877,-0.227076
-0.973877, -0.227076,-0.965926, -0.258819,-0.941792, -0.226946,-0.973877,-0.227076
-0.965926, -0.258819,-0.933590, -0.258624,-0.941792, -0.226946,-0.965926,-0.258819
-0.965926, -0.258819,-0.956940, -0.290285,-0.933590, -0.258624,-0.965926,-0.258819
-0.956940, -0.290285,-0.924322, -0.290008,-0.933590, -0.258624,-0.956940,-0.290285
-0.956940, -0.290285,-0.946930, -0.321439,-0.924322, -0.290008,-0.956940,-0.290285
-0.946930, -0.321439,-0.914000, -0.321061,-0.924322, -0.290008,-0.946930,-0.321439
-0.946930, -0.321439,-0.935906, -0.352250,-0.914000, -0.321061,-0.946930,-0.321439
-0.935906, -0.352250,-0.902635, -0.351747,-0.914000, -0.321061,-0.935906,-0.352250
-0.935906, -0.352250,-0.923880, -0.382683,-0.902635, -0.351747,-0.935906,-0.352250
-0.923880, -0.382683,-0.890240, -0.382032,-0.902635, -0.351747,-0.923880,-0.382683
-0.923880, -0.382683,-0.910864, -0.412707,-0.890240, -0.382032,-0.923880,-0.382683
-0.910864, -0.412707,-0.876830, -0.411881,-0.890240, -0.382032,-0.910864,-0.412707
-0.910864, -0.412707,-0.896873, -0.442289,-0.876830, -0.411881,-0.910864,-0.412707
-0.896873, -0.442289,-0.862418, -0.441261,-0.876830, -0.411881,-0.896873,-0.442289
-0.896873, -0.442289,-0.881921, -0.471397,-0.862418, -0.441261,-0.896873,-0.442289
-0.881921, -0.471397,-0.847023, -0.470136,-0.862418, -0.441261,-0.881921,-0.471397
-0.881921, -0.471397,-0.866025, -0.500000,-0.847023, -0.470136,-0.881921,-0.471397
-0.866025, -0.500000,-0.830662, -0.498476,-0.847023, -0.470136,-0.866025,-0.500000
-0.866025, -0.500000,-0.849202, -0.528068,-0.830662, -0.498476,-0.866025,-0.500000
-0.849202, -0.528068,-0.813352, -0.526246,-0.830662, -0.498476,-0.849202,-0.528068
-0.849202, -0.528068,-0.831470, -0.555570,-0.813352, -0.526246,-0.849202,-0.528068
-0.831470, -0.555570,-0.795115, -0.553416,-0.813352, -0.526246,-0.831470,-0.555570
-0.831470, -0.555570,-0.812847, -0.582478,-0.795115, -0.553416,-0.831470,-0.555570
-0.812847, -0.582478,-0.775970, -0.579955,-0.795115, -0.553416,-0.812847,-0.582478
-0.812847, -0.582478,-0.793353, -0.608761,-0.775970, -0.579955,-0.812847,-0.582478
-0.793353, -0.608761,-0.755940, -0.605832,-0.775970, -0.579955,-0.793353,-0.608761
-0.793353, -0.608761,-0.773010, -0.634393,-0.755940, -0.605832,-0.793353,-0.608761
-0.773010, -0.634393,-0.735047, -0.631017,-0.755940, -0.605832,-0.773010,-0.634393
-0.773010, -0.634393,-0.751840, -0.659346,-0.735047, -0.631017,-0.773010,-0.634393
-0.751840, -0.659346,-0.713316, -0.655483,-0.735047, -0.631017,-0.751840,-0.659346
-0.751840, -0.659346,-0.729864, -0.683592,-0.713316, -0.655483,-0.751840,-0.659346
-0.729864, -0.683592,-0.690770, -0.679200,-0.713316, -0.655483,-0.729864,-0.683592
-0.729864, -0.683592,-0.707107, -0.707107,-0.690770, -0.679200,-0.729864,-0.683592
-0.707107, -0.707107,-0.667437, -0.702143,-0.690770, -0.679200,-0.707107,-0.707107
-0.707107, -0.707107,-0.683592, -0.729864,-0.667437, -0.702143,-0.707107,-0.707107
-0.683592, -0.729864,-0.643342, -0.724285,-0.667437, -0.702143,-0.683592,-0.729864
-0.683592, -0.729864,-0.659346, -0.751840,-0.643342, -0.724285,-0.683592,-0.729864
-0.659346, -0.751840,-0.618513, -0.745600,-0.643342, -0.724285,-0.659346,-0.751840
-0.659346, -0.751840,-0.634393, -0.773010,-0.618513, -0.745600,-0.659346,-0.751840
-0.634393, -0.773010,-0.592978, -0.766064,-0.618513, -0.745600,-0.634393,-0.773010
-0.634393, -0.773010,-0.608761, -0.793353,-0.592978, -0.766064,-0.634393,-0.773010
-0.608761, -0.793353,-0.566766, -0.785654,-0.592978, -0.766064,-0.608761,-0.793353
-0.608761, -0.793353,-0.582478, -0.812847,-0.566766, -0.785654,-0.608761,-0.793353
-0.582478, -0.812847,-0.539908, -0.804348,-0.566766, -0.785654,-0.582478,-0.812847
-0.582478, -0.812847,-0.555570, -0.831470,-0.539908, -0.804348,-0.582478,-0.812847
-0.555570, -0.831470,-0.512434, -0.822124,-0.539908, -0.804348,-0.555570,-0.831470
-0.555570, -0.831470,-0.528068, -0.849202,-0.512434, -0.822124,-0.555570,-0.831470
-0.528068, -0.849202,-0.484375, -0.838962,-0.512434, -0.822124,-0.528068,-0.849202
-0.528068, -0.849202,-0.500000, -0.866025,-0.484375, -0.838962,-0.528068,-0.849202
-0.500000, -0.866025,-0.471397, -0.881921,-0.484375, -0.838962,-0.500000,-0.866025
-0.471397, -0.881921,-0.455763, -0.854843,-0.484375, -0.838962,-0.471397,-0.881921
-0.471397, -0.881921,-0.442289, -0.896873,-0.455763, -0.854843,-0.471397,-0.881921
-0.442289, -0.896873,-0.426632, -0.869748,-0.455763, -0.854843,-0.442289,-0.896873
-0.442289, -0.896873,-0.412707, -0.910864,-0.426632, -0.869748,-0.442289,-0.896873
-0.412707, -0.910864,-0.397013, -0.883661,-0.426632, -0.869748,-0.412707,-0.910864
-0.412707, -0.910864,-0.382683, -0.923880,-0.397013, -0.883661,-0.412707,-0.910864
-0.382683, -0.923880,-0.366942, -0.896566,-0.397013, -0.883661,-0.382683,-0.923880
-0.382683, -0.923880,-0.352250, -0.935906,-0.366942, -0.896566,-0.382683,-0.923880
-0.352250, -0.935906,-0.336452, -0.908447,-0.366942, -0.896566,-0.352250,-0.935906
-0.352250, -0.935906,-0.321439, -0.946930,-0.336452, -0.908447,-0.352250,-0.935906
-0.321439, -0.946930,-0.305578, -0.919292,-0.336452, -0.908447,-0.321439,-0.946930
-0.321439, -0.946930,-0.290285, -0.956940,-0.305578, -0.919292,-0.321439,-0.946930
-0.290285, -0.956940,-0.274355, -0.929089,-0.305578, -0.919292,-0.290285,-0.956940
-0.290285, -0.956940,-0.258819, -0.965926,-0.274355, -0.929089,-0.290285,-0.956940
-0.258819, -0.965926,-0.242820, -0.937825,-0.274355, -0.929089,-0.258819,-0.965926
-0.258819, -0.965926,-0.227076, -0.973877,-0.242820, -0.937825,-0.258819,-0.965926
-0.227076, -0.973877,-0.211007, -0.945491,-0.242820, -0.937825,-0.227076,-0.973877
-0.227076, -0.973877,-0.195090, -0.980785,-0.211007, -0.945491,-0.227076,-0.973877
-0.195090, -0.980785,-0.178953, -0.952078,-0.211007, -0.945491,-0.195090,-0.980785
-0.195090, -0.980785,-0.162895, -0.986643,-0.178953, -0.952078,-0.195090,-0.980785
-0.162895, -0.986643,-0.146696, -0.957579,-0.178953, -0.952078,-0.162895,-0.986643
-0.162895, -0.986643,-0.130526, -0.991445,-0.146696, -0.957579,-0.162895,-0.986643
-0.130526, -0.991445,-0.114271, -0.961987,-0.146696, -0.957579,-0.130526,-0.991445
-0.130526, -0.991445,-0.098017, -0.995185,-0.114271, -0.961987,-0.130526,-0.991445
-0.098017, -0.995185,-0.081715, -0.965297,-0.114271, -0.961987,-0.098017,-0.995185
-0.098017, -0.995185,-0.065403, -0.997859,-0.081715, -0.965297,-0.098017,-0.995185
-0.065403, -0.997859,-0.049066, -0.967507,-0.081715, -0.965297,-0.065403,-0.997859
-0.065403, -0.997859,-0.032719, -0.999465,-0.049066, -0.967507,-0.065403,-0.997859
-0.032719, -0.999465,-0.016362, -0.968612,-0.049066, -0.967507,-0.032719,-0.999465
-0.032719, -0.999465,0.000000, -1.000000,-0.016362, -0.968612,-0.032719,-0.999465
0.000000, -1.000000,0.016362, -0.968612,-0.016362, -0.968612,0.000000,-1.000000
0.000000, -1.000000,0.032719, -0.999465,0.016362, -0.968612,0.000000,-1.000000
0.032719, -0.999465,0.049066, -0.967507,0.016362, -0.968612,0.032719,-0.999465
0.032719, -0.999465,0.065403, -0.997859,0.049066, -0.967507,0.032719,-0.999465
0.065403, -0.997859,0.081715, -0.965297,0.049066, -0.967507,0.065403,-0.997859
0.065403, -0.997859,0.098017, -0.995185,0.081715, -0.965297,0.065403,-0.997859
0.098017, -0.995185,0.114271, -0.961987,0.081715, -0.965297,0.098017,-0.995185
0.098017, -0.995185,0.130526, -0.991445,0.114271, -0.961987,0.098017,-0.995185
0.130526, -0.991445,0.146696, -0.957579,0.114271, -0.961987,0.130526,-0.991445
0.130526, -0.991445,0.162895, -0.986643,0.146696, -0.957579,0.130526,-0.991445
0.162895, -0.986643,0.178953, -0.952078,0.146696, -0.957579,0.162895,-0.986643
0.162895, -0.986643,0.195090, -0.980785,0.178953, -0.952078,0.162895,-0.986643
0.195090, -0.980785,0.211007, -0.945491,0.178953, -0.952078,0.195090,-0.980785
0.195090, -0.980785,0.227076, -0.973877,0.211007, -0.945491,0.195090,-0.980785
0.227076, -0.973877,0.242820, -0.937825,0.211007, -0.945491,0.227076,-0.973877
0.227076, -0.973877,0.258819, -0.965926,0.242820, -0.937825,0.227076,-0.973877
0.258819, -0.965926,0.274355, -0.929089,0.242820, -0.937825,0.258819,-0.965926
0.258819, -0.965926,0.290285, -0.956940,0.274355, -0.929089,0.258819,-0.965926
0.290285, -0.956940,0.305578, -0.919292,0.274355, -0.929089,0.290285,-0.956940
0.290285, -0.956940,0.321439, -0.946930,0.305578, -0.919292,0.290285,-0.956940
0.321439, -0.946930,0.336452, -0.908447,0.305578, -0.919292,0.321439,-0.946930
0.321439, -0.946930,0.352250, -0.935906,0.336452, -0.908447,0.321439,-0.946930
0.352250, -0.935906,0.366942, -0.896566,0.336452, -0.908447,0.352250,-0.935906
0.352250, -0.935906,0.382683, -0.923880,0.366942, -0.896566,0.352250,-0.935906
0.382683, -0.923880,0.397013, -0.883661,0.366942, -0.896566,0.382683,-0.923880
0.382683, -0.923880,0.412707, -0.910864,0.397013, -0.883661,0.382683,-0.923880
0.412707, -0.910864,0.426632, -0.869748,0.397013, -0.883661,0.412707,-0.910864
0.412707, -0.910864,0.442289, -0.896873,0.426632, -0.869748,0.412707,-0.910864
0.442289, -0.896873,0.455763, -0.854843,0.426632, -0.869748,0.442289,-0.896873
0.442289, -0.896873,0.471397, -0.881921,0.455763, -0.854843,0.442289,-0.896873
0.471397, -0.881921,0.484375, -0.838962,0.455763, -0.854843,0.471397,-0.881921
0.471397, -0.881921,0.500000, -0.866025,0.484375, -0.838962,0.471397,-0.881921
0.500000, -0.866025,0.528068, -0.849202,0.484375, -0.838962,0.500000,-0.866025
0.528068, -0.849202,0.512434, -0.822124,0.484375, -0.838962,0.528068,-0.849202
0.528068, -0.849202,0.555570, -0.831470,0.512434, -0.822124,0.528068,-0.849202
0.555570, -0.831470,0.539908, -0.804348,0.512434, -0.822124,0.555570,-0.831470
0.555570, -0.831470,0.582478, -0.812847,0.539908, -0.804348,0.555570,-0.831470
0.582478, -0.812847,0.566766, -0.785654,0.539908, -0.804348,0.582478,-0.812847
0.582478, -0.812847,0.608761, -0.793353,0.566766, -0.785654,0.582478,-0.812847
0.608761, -0.793353,0.592978, -0.766064,0.566766, -0.785654,0.608761,-0.793353
0.608761, -0.793353,0.634393, -0.773010,0.592978, -0.766064,0.608761,-0.793353
0.634393, -0.773010,0.618513, -0.745600,0.592978, -0.766064,0.634393,-0.773010
0.634393, -0.773010,0.659346, -0.751840,0.618513, -0.745600,0.634393,-0.773010
0.659346, -0.751840,0.643342, -0.724285,0.618513, -0.745600,0.659346,-0.751840
0.659346, -0.751840,0.683592, -0.729864,0.643342, -0.724285,0.659346,-0.751840
0.683592, -0.729864,0.667437, -0.702143,0.643342, -0.724285,0.683592,-0.729864
0.683592, -0.729864,0.707107, -0.707107,0.667437, -0.702143,0.683592,-0.729864
0.707107, -0.707107,0.690770, -0.679200,0.667437, -0.702143,0.707107,-0.707107
0.707107, -0.707107,0.729864, -0.683592,0.690770, -0.679200,0.707107,-0.707107
0.729864, -0.683592,0.713316, -0.655483,0.690770, -0.679200,0.729864,-0.683592
0.729864, -0.683592,0.751840, -0.659346,0.713316, -0.655483,0.729864,-0.683592
0.751840, -0.659346,0.735047, -0.631017,0.713316, -0.655483,0.751840,-0.659346
0.751840, -0.659346,0.773010, -0.634393,0.735047, -0.631017,0.751840,-0.659346
0.773010, -0.634393,0.755940, -0.605832,0.735047, -0.631017,0.773010,-0.634393
0.773010, -0.634393,0.793353, -0.608761,0.755940, -0.605832,0.773010,-0.634393
0.793353, -0.608761,0.775970, -0.579955,0.755940, -0.605832,0.793353,-0.608761
0.793353, -0.608761,0.812847, -0.582478,0.775970, -0.579955,0.793353,-0.608761
0.812847, -0.582478,0.795115, -0.553416,0.775970, -0.579955,0.812847,-0.582478
0.812847, -0.582478,0.831470, -0.555570,0.795115, -0.553416,0.812847,-0.582478
0.831470, -0.555570,0.813352, -0.526246,0.795115, -0.553416,0.831470,-0.555570
0.831470, -0.555570,0.849202, -0.528068,0.813352, -0.526246,0.831470,-0.555570
0.849202, -0.528068,0.830662, -0.498476,0.813352, -0.526246,0.849202,-0.528068
0.849202, -0.528068,0.866025, -0.500000,0.830662, -0.498476,0.849202,-0.528068
0.866025, -0.500000,0.847023, -0.470136,0.830662, -0.498476,0.866025,-0.500000
0.866025, -0.500000,0.881921, -0.471397,0.847023, -0.470136,0.866025,-0.500000
0.881921, -0.471397,0.862418, -0.441261,0.847023, -0.470136,0.881921,-0.471397
0.881921, -0.471397,0.896873, -0.442289,0.862418, -0.441261,0.881921,-0.471397
0.896873, -0.442289,0.876830, -0.411881,0.862418, -0.441261,0.896873,-0.442289
0.896873, -0.442289,0.910864, -0.412707,0.876830, -0.411881,0.896873,-0.442289
0.910864, -0.412707,0.890240, -0.382032,0.876830, -0.411881,0.910864,-0.412707
0.910864, -0.412707,0.923880, -0.382683,0.890240, -0.382032,0.910864,-0.412707
0.923880, -0.382683,0.902635, -0.351747,0.890240, -0.382032,0.923880,-0.382683
0.923880, -0.382683,0.935906, -0.352250,0.902635, -0.351747,0.923880,-0.382683
0.935906, -0.352250,0.914000, -0.321061,0.902635, -0.351747,0.935906,-0.352250
0.935906, -0.352250,0.946930, -0.321439,0.914000, -0.321061,0.935906,-0.352250
0.946930, -0.321439,0.924322, -0.290008,0.914000, -0.321061,0.946930,-0.321439
0.946930, -0.321439,0.956940, -0.290285,0.924322, -0.290008,0.946930,-0.321439
0.956940, -0.290285,0.933590, -0.258624,0.924322, -0.290008,0.956940,-0.290285
0.956940, -0.290285,0.965926, -0.258819,0.933590, -0.258624,0.956940,-0.290285
0.965926, -0.258819,0.941792, -0.226946,0.933590, -0.258624,0.965926,-0.258819
0.965926, -0.258819,0.973877, -0.227076,0.941792, -0.226946,0.965926,-0.258819
0.973877, -0.227076,0.948920, -0.195008,0.941792, -0.226946,0.973877,-0.227076
0.973877, -0.227076,0.980785, -0.195090,0.948920, -0.195008,0.973877,-0.227076
0.980785, -0.195090,0.954964, -0.162848,0.948920, -0.195008,0.980785,-0.195090
0.980785, -0.195090,0.986643, -0.162895,0.954964, -0.162848,0.980785,-0.195090
0.986643, -0.162895,0.959920, -0.130502,0.954964, -0.162848,0.986643,-0.162895
0.986643, -0.162895,0.991445, -0.130526,0.959920, -0.130502,0.986643,-0.162895
0.991445, -0.130526,0.963780, -0.098007,0.959920, -0.130502,0.991445,-0.130526
0.991445, -0.130526,0.995185, -0.098017,0.963780, -0.098007,0.991445,-0.130526
0.995185, -0.098017,0.966540, -0.065400,0.963780, -0.098007,0.995185,-0.098017
0.995185, -0.098017,0.997859, -0.065403,0.966540, -0.065400,0.995185,-0.098017
0.997859, -0.065403,0.968197, -0.032719,0.966540, -0.065400,0.997859,-0.065403
0.997859, -0.065403,0.999465, -0.032719,0.968197, -0.032719,0.997859,-0.065403
0.999465, -0.032719,0.968750, 0.000000,0.968197, -0.032719,0.999465,-0.032719
0.999465, -0.032719,1.000000, 0.000000,0.968750, 0.000000,0.999465,-0.032719

