0.195090, 0.000000,0.188443, 0.050493,0.000000, 0.000000,0.195090,0.000000
0.188443, 0.050493,0.168953, 0.097545,0.000000, 0.000000,0.188443,0.050493
0.168953, 0.097545,0.137950, 0.137950,0.000000, 0.000000,0.168953,0.097545
0.137950, 0.137950,0.097545, 0.168953,0.000000, 0.000000,0.137950,0.137950
0.097545, 0.168953,0.050493, 0.188443,0.000000, 0.000000,0.097545,0.168953
0.050493, 0.188443,0.000000, 0.195090,0.000000, 0.000000,0.050493,0.188443
0.000000, 0.195090,-0.050493, 0.188443,0.000000, 0.000000,0.000000,0.195090
-0.050493, 0.188443,-0.097545, 0.168953,0.000000, 0.000000,-0.050493,0.188443
-0.097545, 0.168953,-0.137950, 0.137950,0.000000, 0.000000,-0.097545,0.168953
-0.137950, 0.137950,-0.168953, 0.097545,0.000000, 0.000000,-0.137950,0.137950
-0.168953, 0.097545,-0.188443, 0.050493,0.000000, 0.000000,-0.168953,0.097545
-0.188443, 0.050493,-0.195090, 0.000000,0.000000, 0.000000,-0.188443,0.050493
-0.195090, 0.000000,-0.188443, -0.050493,0.000000, 0.000000,-0.195090,0.000000
-0.188443, -0.050493,-0.168953, -0.097545,0.000000, 0.000000,-0.188443,-0.050493
-0.168953, -0.097545,-0.137950, -0.137950,0.000000, 0.000000,-0.168953,-0.097545
-0.137950, -0.137950,-0.097545, -0.168953,0.000000, 0.000000,-0.137950,-0.137950
-0.097545, -0.168953,-0.050493, -0.188443,0.000000, 0.000000,-0.097545,-0.168953
-0.050493, -0.188443,-0.000000, -0.195090,0.000000, 0.000000,-0.050493,-0.188443
-0.000000, -0.195090,0.050493, -0.188443,0.000000, 0.000000,-0.000000,-0.195090
0.050493, -0.188443,0.097545, -0.168953,0.000000, 0.000000,0.050493,-0.188443
0.097545, -0.168953,0.137950, -0.137950,0.000000, 0.000000,0.097545,-0.168953
0.137950, -0.137950,0.168953, -0.097545,0.000000, 0.000000,0.137950,-0.137950
0.168953, -0.097545,0.188443, -0.050493,0.000000, 0.000000,0.168953,-0.097545
0.188443, -0.050493,0.195090, 0.000000,0.000000, 0.000000,0.188443,-0.050493
0.382683, 0.000000,0.369644, 0.099046,0.188443, 0.050493,0.195090, 0.000000,0.382683,0.000000
0.369644, 0.099046,0.331414, 0.191342,0.168953, 0.097545,0.188443, 0.050493,0.369644,0.099046
0.331414, 0.191342,0.270598, 0.270598,0.137950, 0.137950,0.168953, 0.097545,0.331414,0.191342
0.270598, 0.270598,0.191342, 0.331414,0.097545, 0.168953,0.137950, 0.137950,0.270598,0.270598
0.191342, 0.331414,0.099046, 0.369644,0.050493, 0.188443,0.097545, 0.168953,0.191342,0.331414
0.099046, 0.369644,0.000000, 0.382683,0.000000, 0.195090,0.050493, 0.188443,0.099046,0.369644
0.000000, 0.382683,-0.099046, 0.369644,-0.050493, 0.188443,0.000000, 0.195090,0.000000,0.382683
-0.099046, 0.369644,-0.191342, 0.331414,-0.097545, 0.168953,-0.050493, 0.188443,-0.099046,0.369644
-0.191342, 0.331414,-0.270598, 0.270598,-0.137950, 0.137950,-0.097545, 0.168953,-0.191342,0.331414
-0.270598, 0.270598,-0.331414, 0.191342,-0.168953, 0.097545,-0.137950, 0.137950,-0.270598,0.270598
-0.331414, 0.191342,-0.369644, 0.099046,-0.188443, 0.050493,-0.168953, 0.097545,-0.331414,0.191342
-0.369644, 0.099046,-0.382683, 0.000000,-0.195090, 0.000000,-0.188443, 0.050493,-0.369644,0.099046
-0.382683, 0.000000,-0.369644, -0.099046,-0.188443, -0.050493,-0.195090, 0.000000,-0.382683,0.000000
-0.369644, -0.099046,-0.331414, -0.191342,-0.168953, -0.097545,-0.188443, -0.050493,-0.369644,-0.099046
-0.331414, -0.191342,-0.270598, -0.270598,-0.137950, -0.137950,-0.168953, -0.097545,-0.331414,-0.191342
-0.270598, -0.270598,-0.191342, -0.331414,-0.097545, -0.168953,-0.137950, -0.137950,-0.270598,-0.270598
-0.191342, -0.331414,-0.099046, -0.369644,-0.050493, -0.188443,-0.097545, -0.168953,-0.191342,-0.331414
-0.099046, -0.369644,-0.000000, -0.382683,-0.000000, -0.195090,-0.050493, -0.188443,-0.099046,-0.369644
-0.000000, -0.382683,0.099046, -0.369644,0.050493, -0.188443,-0.000000, -0.195090,-0.000000,-0.382683
0.099046, -0.369644,0.191342, -0.331414,0.097545, -0.168953,0.050493, -0.188443,0.099046,-0.369644
0.191342, -0.331414,0.270598, -0.270598,0.137950, -0.137950,0.097545, -0.168953,0.191342,-0.331414
0.270598, -0.270598,0.331414, -0.191342,0.168953, -0.097545,0.137950, -0.137950,0.270598,-0.270598
0.331414, -0.191342,0.369644, -0.099046,0.188443, -0.050493,0.168953, -0.097545,0.331414,-0.191342
0.369644, -0.099046,0.382683, 0.000000,0.195090, 0.000000,0.188443, -0.050493,0.369644,-0.099046
0.555570, 0.000000,0.536640, 0.143792,0.369644, 0.099046,0.382683, 0.000000,0.555570,0.000000
0.536640, 0.143792,0.481138, 0.277785,0.331414, 0.191342,0.369644, 0.099046,0.536640,0.143792
0.481138, 0.277785,0.392847, 0.392847,0.270598, 0.270598,0.331414, 0.191342,0.481138,0.277785
0.392847, 0.392847,0.277785, 0.481138,0.191342, 0.331414,0.270598, 0.270598,0.392847,0.392847
0.277785, 0.481138,0.143792, 0.536640,0.099046, 0.369644,0.191342, 0.331414,0.277785,0.481138
0.143792, 0.536640,0.000000, 0.555570,0.000000, 0.382683,0.099046, 0.369644,0.143792,0.536640
0.000000, 0.555570,-0.143792, 0.536640,-0.099046, 0.369644,0.000000, 0.382683,0.000000,0.555570
-0.143792, 0.536640,-0.277785, 0.481138,-0.191342, 0.331414,-0.099046, 0.369644,-0.143792,0.536640
-0.277785, 0.481138,-0.392847, 0.392847,-0.270598, 0.270598,-0.191342, 0.331414,-0.277785,0.481138
-0.392847, 0.392847,-0.481138, 0.277785,-0.331414, 0.191342,-0.270598, 0.270598,-0.392847,0.392847
-0.481138, 0.277785,-0.536640, 0.143792,-0.369644, 0.099046,-0.331414, 0.191342,-0.481138,0.277785
-0.536640, 0.143792,-0.555570, 0.000000,-0.382683, 0.000000,-0.369644, 0.099046,-0.536640,0.143792
-0.555570, 0.000000,-0.536640, -0.143792,-0.369644, -0.099046,-0.382683, 0.000000,-0.555570,0.000000
-0.536640, -0.143792,-0.481138, -0.277785,-0.331414, -0.191342,-0.369644, -0.099046,-0.536640,-0.143792
-0.481138, -0.277785,-0.392847, -0.392847,-0.270598, -0.270598,-0.331414, -0.191342,-0.481138,-0.277785
-0.392847, -0.392847,-0.277785, -0.481138,-0.191342, -0.331414,-0.270598, -0.270598,-0.392847,-0.392847
-0.277785, -0.481138,-0.143792, -0.536640,-0.099046, -0.369644,-0.191342, -0.331414,-0.277785,-0.481138
-0.143792, -0.536640,-0.000000, -0.555570,-0.000000, -0.382683,-0.099046, -0.369644,-0.143792,-0.536640
-0.000000, -0.555570,0.143792, -0.536640,0.099046, -0.369644,-0.000000, -0.382683,-0.000000,-0.555570
0.143792, -0.536640,0.277785, -0.481138,0.191342, -0.331414,0.099046, -0.369644,0.143792,-0.536640
0.277785, -0.481138,0.392847, -0.392847,0.270598, -0.270598,0.191342, -0.331414,0.277785,-0.481138
0.392847, -0.392847,0.481138, -0.277785,0.331414, -0.191342,0.270598, -0.270598,0.392847,-0.392847
0.481138, -0.277785,0.536640, -0.143792,0.369644, -0.099046,0.331414, -0.191342,0.481138,-0.277785
0.536640, -0.143792,0.555570, 0.000000,0.382683, 0.000000,0.369644, -0.099046,0.536640,-0.143792
0.707107, 0.000000,0.683013, 0.183013,0.536640, 0.143792,0.555570, 0.000000,0.707107,0.000000
0.683013, 0.183013,0.612372, 0.353553,0.481138, 0.277785,0.536640, 0.143792,0.683013,0.183013
0.612372, 0.353553,0.500000, 0.500000,0.392847, 0.392847,0.481138, 0.277785,0.612372,0.353553
0.500000, 0.500000,0.353553, 0.612372,0.277785, 0.481138,0.392847, 0.392847,0.500000,0.500000
0.353553, 0.612372,0.183013, 0.683013,0.143792, 0.536640,0.277785, 0.481138,0.353553,0.612372
0.183013, 0.683013,0.000000, 0.707107,0.000000, 0.555570,0.143792, 0.536640,0.183013,0.683013
0.000000, 0.707107,-0.183013, 0.683013,-0.143792, 0.536640,0.000000, 0.555570,0.000000,0.707107
-0.183013, 0.683013,-0.353553, 0.612372,-0.277785, 0.481138,-0.143792, 0.536640,-0.183013,0.683013
-0.353553, 0.612372,-0.500000, 0.500000,-0.392847, 0.392847,-0.277785, 0.481138,-0.353553,0.612372
-0.500000, 0.500000,-0.612372, 0.353553,-0.481138, 0.277785,-0.392847, 0.392847,-0.500000,0.500000
-0.612372, 0.353553,-0.683013, 0.183013,-0.536640, 0.143792,-0.481138, 0.277785,-0.612372,0.353553
-0.683013, 0.183013,-0.707107, 0.000000,-0.555570, 0.000000,-0.536640, 0.143792,-0.683013,0.183013
-0.707107, 0.000000,-0.683013, -0.183013,-0.536640, -0.143792,-0.555570, 0.000000,-0.707107,0.000000
-0.683013, -0.183013,-0.612372, -0.353553,-0.481138, -0.277785,-0.536640, -0.143792,-0.683013,-0.183013
-0.612372, -0.353553,-0.500000, -0.500000,-0.392847, -0.392847,-0.481138, -0.277785,-0.612372,-0.353553
-0.500000, -0.500000,-0.353553, -0.612372,-0.277785, -0.481138,-0.392847, -0.392847,-0.500000,-0.500000
-0.353553, -0.612372,-0.183013, -0.683013,-0.143792, -0.536640,-0.277785, -0.481138,-0.353553,-0.612372
-0.183013, -0.683013,-0.000000, -0.707107,-0.000000, -0.555570,-0.143792, -0.536640,-0.183013,-0.683013
-0.000000, -0.707107,0.183013, -0.683013,0.143792, -0.536640,-0.000000, -0.555570,-0.000000,-0.707107
0.183013, -0.683013,0.353553, -0.612372,0.277785, -0.481138,0.143792, -0.536640,0.183013,-0.683013
0.353553, -0.612372,0.500000, -0.500000,0.392847, -0.392847,0.277785, -0.481138,0.353553,-0.612372
0.500000, -0.500000,0.612372, -0.353553,0.481138, -0.277785,0.392847, -0.392847,0.500000,-0.500000
0.612372, -0.353553,0.683013, -0.183013,0.536640, -0.143792,0.481138, -0.277785,0.612372,-0.353553
0.683013, -0.183013,0.707107, 0.000000,0.555570, 0.000000,0.536640, -0.143792,0.683013,-0.183013
0.831470, 0.000000,0.803138, 0.215200,0.683013, 0.183013,0.707107, 0.000000,0.831470,0.000000
0.803138, 0.215200,0.720074, 0.415735,0.612372, 0.353553,0.683013, 0.183013,0.803138,0.215200
0.720074, 0.415735,0.587938, 0.587938,0.500000, 0.500000,0.612372, 0.353553,0.720074,0.415735
0.587938, 0.587938,0.415735, 0.720074,0.353553, 0.612372,0.500000, 0.500000,0.587938,0.587938
0.415735, 0.720074,0.215200, 0.803138,0.183013, 0.683013,0.353553, 0.612372,0.415735,0.720074
0.215200, 0.803138,0.000000, 0.831470,0.000000, 0.707107,0.183013, 0.683013,0.215200,0.803138
0.000000, 0.831470,-0.215200, 0.803138,-0.183013, 0.683013,0.000000, 0.707107,0.000000,0.831470
-0.215200, 0.803138,-0.415735, 0.720074,-0.353553, 0.612372,-0.183013, 0.683013,-0.215200,0.803138
-0.415735, 0.720074,-0.587938, 0.587938,-0.500000, 0.500000,-0.353553, 0.612372,-0.415735,0.720074
-0.587938, 0.587938,-0.720074, 0.415735,-0.612372, 0.353553,-0.500000, 0.500000,-0.587938,0.587938
-0.720074, 0.415735,-0.803138, 0.215200,-0.683013, 0.183013,-0.612372, 0.353553,-0.720074,0.415735
-0.803138, 0.215200,-0.831470, 0.000000,-0.707107, 0.000000,-0.683013, 0.183013,-0.803138,0.215200
-0.831470, 0.000000,-0.803138, -0.215200,-0.683013, -0.183013,-0.707107, 0.000000,-0.831470,0.000000
-0.803138, -0.215200,-0.720074, -0.415735,-0.612372, -0.353553,-0.683013, -0.183013,-0.803138,-0.215200
-0.720074, -0.415735,-0.587938, -0.587938,-0.500000, -0.500000,-0.612372, -0.353553,-0.720074,-0.415735
-0.587938, -0.587938,-0.415735, -0.720074,-0.353553, -0.612372,-0.500000, -0.500000,-0.587938,-0.587938
-0.415735, -0.720074,-0.215200, -0.803138,-0.183013, -0.683013,-0.353553, -0.612372,-0.415735,-0.720074
-0.215200, -0.803138,-0.000000, -0.831470,-0.000000, -0.707107,-0.183013, -0.683013,-0.215200,-0.803138
-0.000000, -0.831470,0.215200, -0.803138,0.183013, -0.683013,-0.000000, -0.707107,-0.000000,-0.831470
0.215200, -0.803138,0.415735, -0.720074,0.353553, -0.612372,0.183013, -0.683013,0.215200,-0.803138
0.415735, -0.720074,0.587938, -0.587938,0.500000, -0.500000,0.353553, -0.612372,0.415735,-0.720074
0.587938, -0.587938,0.720074, -0.415735,0.612372, -0.353553,0.500000, -0.500000,0.587938,-0.587938
0.720074, -0.415735,0.803138, -0.215200,0.683013, -0.183013,0.612372, -0.353553,0.720074,-0.415735
0.803138, -0.215200,0.831470, 0.000000,0.707107, 0.000000,0.683013, -0.183013,0.803138,-0.215200
0.923880, 0.000000,0.892399, 0.239118,0.803138, 0.215200,0.831470, 0.000000,0.923880,0.000000
0.892399, 0.239118,0.800103, 0.461940,0.720074, 0.415735,0.803138, 0.215200,0.892399,0.239118
0.800103, 0.461940,0.653281, 0.653281,0.587938, 0.587938,0.720074, 0.415735,0.800103,0.461940
0.653281, 0.653281,0.461940, 0.800103,0.415735, 0.720074,0.587938, 0.587938,0.653281,0.653281
0.461940, 0.800103,0.239118, 0.892399,0.215200, 0.803138,0.415735, 0.720074,0.461940,0.800103
0.239118, 0.892399,0.000000, 0.923880,0.000000, 0.831470,0.215200, 0.803138,0.239118,0.892399
0.000000, 0.923880,-0.239118, 0.892399,-0.215200, 0.803138,0.000000, 0.831470,0.000000,0.923880
-0.239118, 0.892399,-0.461940, 0.800103,-0.415735, 0.720074,-0.215200, 0.803138,-0.239118,0.892399
-0.461940, 0.800103,-0.653281, 0.653281,-0.587938, 0.587938,-0.415735, 0.720074,-0.461940,0.800103
-0.653281, 0.653281,-0.800103, 0.461940,-0.720074, 0.415735,-0.587938, 0.587938,-0.653281,0.653281
-0.800103, 0.461940,-0.892399, 0.239118,-0.803138, 0.215200,-0.720074, 0.415735,-0.800103,0.461940
-0.892399, 0.239118,-0.923880, 0.000000,-0.831470, 0.000000,-0.803138, 0.215200,-0.892399,0.239118
-0.923880, 0.000000,-0.892399, -0.239118,-0.803138, -0.215200,-0.831470, 0.000000,-0.923880,0.000000
-0.892399, -0.239118,-0.800103, -0.461940,-0.720074, -0.415735,-0.803138, -0.215200,-0.892399,-0.239118
-0.800103, -0.461940,-0.653281, -0.653281,-0.587938, -0.587938,-0.720074, -0.415735,-0.800103,-0.461940
-0.653281, -0.653281,-0.461940, -0.800103,-0.415735, -0.720074,-0.587938, -0.587938,-0.653281,-0.653281
-0.461940, -0.800103,-0.239118, -0.892399,-0.215200, -0.803138,-0.415735, -0.720074,-0.461940,-0.800103
-0.239118, -0.892399,-0.000000, -0.923880,-0.000000, -0.831470,-0.215200, -0.803138,-0.239118,-0.892399
-0.000000, -0.923880,0.239118, -0.892399,0.215200, -0.803138,-0.000000, -0.831470,-0.000000,-0.923880
0.239118, -0.892399,0.461940, -0.800103,0.415735, -0.720074,0.215200, -0.803138,0.239118,-0.892399
0.461940, -0.800103,0.653281, -0.653281,0.587938, -0.587938,0.415735, -0.720074,0.461940,-0.800103
0.653281, -0.653281,0.800103, -0.461940,0.720074, -0.415735,0.587938, -0.587938,0.653281,-0.653281
0.800103, -0.461940,0.892399, -0.239118,0.803138, -0.215200,0.720074, -0.415735,0.800103,-0.461940
0.892399, -0.239118,0.923880, 0.000000,0.831470, 0.000000,0.803138, -0.215200,0.892399,-0.239118
0.980785, 0.000000,0.947366, 0.253846,0.892399, 0.239118,0.923880, 0.000000,0.980785,0.000000
0.947366, 0.253846,0.849385, 0.490393,0.800103, 0.461940,0.892399, 0.239118,0.947366,0.253846
0.849385, 0.490393,0.693520, 0.693520,0.653281, 0.653281,0.800103, 0.461940,0.849385,0.490393
0.693520, 0.693520,0.490393, 0.849385,0.461940, 0.800103,0.653281, 0.653281,0.693520,0.693520
0.490393, 0.849385,0.253846, 0.947366,0.239118, 0.892399,0.461940, 0.800103,0.490393,0.849385
0.253846, 0.947366,0.000000, 0.980785,0.000000, 0.923880,0.239118, 0.892399,0.253846,0.947366
0.000000, 0.980785,-0.253846, 0.947366,-0.239118, 0.892399,0.000000, 0.923880,0.000000,0.980785
-0.253846, 0.947366,-0.490393, 0.849385,-0.461940, 0.800103,-0.239118, 0.892399,-0.253846,0.947366
-0.490393, 0.849385,-0.693520, 0.693520,-0.653281, 0.653281,-0.461940, 0.800103,-0.490393,0.849385
-0.693520, 0.693520,-0.849385, 0.490393,-0.800103, 0.461940,-0.653281, 0.653281,-0.693520,0.693520
-0.849385, 0.490393,-0.947366, 0.253846,-0.892399, 0.239118,-0.800103, 0.461940,-0.849385,0.490393
-0.947366, 0.253846,-0.980785, 0.000000,-0.923880, 0.000000,-0.892399, 0.239118,-0.947366,0.253846
-0.980785, 0.000000,-0.947366, -0.253846,-0.892399, -0.239118,-0.923880, 0.000000,-0.980785,0.000000
-0.947366, -0.253846,-0.849385, -0.490393,-0.800103, -0.461940,-0.892399, -0.239118,-0.947366,-0.253846
-0.849385, -0.490393,-0.693520, -0.693520,-0.653281, -0.653281,-0.800103, -0.461940,-0.849385,-0.490393
-0.693520, -0.693520,-0.490393, -0.849385,-0.461940, -0.800103,-0.653281, -0.653281,-0.693520,-0.693520
-0.490393, -0.849385,-0.253846, -0.947366,-0.239118, -0.892399,-0.461940, -0.800103,-0.490393,-0.849385
-0.253846, -0.947366,-0.000000, -0.980785,-0.000000, -0.923880,-0.239118, -0.892399,-0.253846,-0.947366
-0.000000, -0.980785,0.253846, -0.947366,0.239118, -0.892399,-0.000000, -0.923880,-0.000000,-0.980785
0.253846, -0.947366,0.490393, -0.849385,0.461940, -0.800103,0.239118, -0.892399,0.253846,-0.947366
0.490393, -0.849385,0.693520, -0.693520,0.653281, -0.653281,0.461940, -0.800103,0.490393,-0.849385
0.693520, -0.693520,0.849385, -0.490393,0.800103, -0.461940,0.653281, -0.653281,0.693520,-0.693520
0.849385, -0.490393,0.947366, -0.253846,0.892399, -0.239118,0.800103, -0.461940,0.849385,-0.490393
0.947366, -0.253846,0.980785, 0.000000,0.923880, 0.000000,0.892399, -0.239118,0.947366,-0.253846
1.000000, 0.000000,0.965926, 0.258819,0.947366, 0.253846,0.980785, 0.000000,1.000000,0.000000
0.965926, 0.258819,0.866025, 0.500000,0.849385, 0.490393,0.947366, 0.253846,0.965926,0.258819
0.866025, 0.500000,0.707107, 0.707107,0.693520, 0.693520,0.849385, 0.490393,0.866025,0.500000
0.707107, 0.707107,0.500000, 0.866025,0.490393, 0.849385,0.693520, 0.693520,0.707107,0.707107
0.500000, 0.866025,0.258819, 0.965926,0.253846, 0.947366,0.490393, 0.849385,0.500000,0.866025
0.258819, 0.965926,0.000000, 1.000000,0.000000, 0.980785,0.253846, 0.947366,0.258819,0.965926
0.000000, 1.000000,-0.258819, 0.965926,-0.253846, 0.947366,0.000000, 0.980785,0.000000,1.000000
-0.258819, 0.965926,-0.500000, 0.866025,-0.490393, 0.849385,-0.253846, 0.947366,-0.258819,0.965926
-0.500000, 0.866025,-0.707107, 0.707107,-0.693520, 0.693520,-0.490393, 0.849385,-0.500000,0.866025
-0.707107, 0.707107,-0.866025, 0.500000,-0.849385, 0.490393,-0.693520, 0.693520,-0.707107,0.707107
-0.866025, 0.500000,-0.965926, 0.258819,-0.947366, 0.253846,-0.849385, 0.490393,-0.866025,0.500000
-0.965926, 0.258819,-1.000000, 0.000000,-0.980785, 0.000000,-0.947366, 0.253846,-0.965926,0.258819
-1.000000, 0.000000,-0.965926, -0.258819,-0.947366, -0.253846,-0.980785, 0.000000,-1.000000,0.000000
-0.965926, -0.258819,-0.866025, -0.500000,-0.849385, -0.490393,-0.947366, -0.253846,-0.965926,-0.258819
-0.866025, -0.500000,-0.707107, -0.707107,-0.693520, -0.693520,-0.849385, -0.490393,-0.866025,-0.500000
-0.707107, -0.707107,-0.500000, -0.866025,-0.490393, -0.849385,-0.693520, -0.693520,-0.707107,-0.707107
-0.500000, -0.866025,-0.258819, -0.965926,-0.253846, -0.947366,-0.490393, -0.849385,-0.500000,-0.866025
-0.258819, -0.965926,-0.000000, -1.000000,-0.000000, -0.980785,-0.253846, -0.947366,-0.258819,-0.965926
-0.000000, -1.000000,0.258819, -0.965926,0.253846, -0.947366,-0.000000, -0.980785,-0.000000,-1.000000
0.258819, -0.965926,0.500000, -0.866025,0.490393, -0.849385,0.253846, -0.947366,0.258819,-0.965926
0.500000, -0.866025,0.707107, -0.707107,0.693520, -0.693520,0.490393, -0.849385,0.500000,-0.866025
0.707107, -0.707107,0.866025, -0.500000,0.849385, -0.490393,0.693520, -0.693520,0.707107,-0.707107
0.866025, -0.500000,0.965926, -0.258819,0.947366, -0.253846,0.849385, -0.490393,0.866025,-0.500000
0.965926, -0.258819,1.000000, 0.000000,0.980785, 0.000000,0.947366, -0.253846,0.965926,-0.258819

