1.000000,0.000000
0.999866,0.016362
0.999465,0.032719
0.998795,0.049068
0.997859,0.065403
0.996655,0.081721
0.995185,0.098017
0.993448,0.114287
0.991445,0.130526
0.989177,0.146730
0.986643,0.162895
0.983846,0.179017
0.980785,0.195090
0.977462,0.211112
0.973877,0.227076
0.970031,0.242980
0.965926,0.258819
0.961562,0.274589
0.956940,0.290285
0.952063,0.305903
0.946930,0.321439
0.941544,0.336890
0.935906,0.352250
0.930017,0.367516
0.923880,0.382683
0.917494,0.397748
0.910864,0.412707
0.903989,0.427555
0.896873,0.442289
0.889516,0.456904
0.881921,0.471397
0.874090,0.485763
0.866025,0.500000
0.857729,0.514103
0.849202,0.528068
0.840448,0.541892
0.831470,0.555570
0.822268,0.569100
0.812847,0.582478
0.803208,0.595699
0.793353,0.608761
0.783287,0.621661
0.773010,0.634393
0.762527,0.646956
0.751840,0.659346
0.740951,0.671559
0.729864,0.683592
0.718582,0.695443
0.707107,0.707107
0.695443,0.718582
0.683592,0.729864
0.671559,0.740951
0.659346,0.751840
0.646956,0.762527
0.634393,0.773010
0.621661,0.783287
0.608761,0.793353
0.595699,0.803208
0.582478,0.812847
0.569100,0.822268
0.555570,0.831470
0.541892,0.840448
0.528068,0.849202
0.514103,0.857729
0.500000,0.866025
0.485763,0.874090
0.471397,0.881921
0.456904,0.889516
0.442289,0.896873
0.427555,0.903989
0.412707,0.910864
0.397748,0.917494
0.382683,0.923880
0.367516,0.930017
0.352250,0.935906
0.336890,0.941544
0.321439,0.946930
0.305903,0.952063
0.290285,0.956940
0.274589,0.961562
0.258819,0.965926
0.242980,0.970031
0.227076,0.973877
0.211112,0.977462
0.195090,0.980785
0.179017,0.983846
0.162895,0.986643
0.146730,0.989177
0.130526,0.991445
0.114287,0.993448
0.098017,0.995185
0.081721,0.996655
0.065403,0.997859
0.049068,0.998795
0.032719,0.999465
0.016362,0.999866
0.000000,1.000000
-0.016362,0.999866
-0.032719,0.999465
-0.049068,0.998795
-0.065403,0.997859
-0.081721,0.996655
-0.098017,0.995185
-0.114287,0.993448
-0.130526,0.991445
-0.146730,0.989177
-0.162895,0.986643
-0.179017,0.983846
-0.195090,0.980785
-0.211112,0.977462
-0.227076,0.973877
-0.242980,0.970031
-0.258819,0.965926
-0.274589,0.961562
-0.290285,0.956940
-0.305903,0.952063
-0.321439,0.946930
-0.336890,0.941544
-0.352250,0.935906
-0.367516,0.930017
-0.382683,0.923880
-0.397748,0.917494
-0.412707,0.910864
-0.427555,0.903989
-0.442289,0.896873
-0.456904,0.889516
-0.471397,0.881921
-0.485763,0.874090
-0.500000,0.866025
-0.514103,0.857729
-0.528068,0.849202
-0.541892,0.840448
-0.555570,0.831470
-0.569100,0.822268
-0.582478,0.812847
-0.595699,0.803208
-0.608761,0.793353
-0.621661,0.783287
-0.634393,0.773010
-0.646956,0.762527
-0.659346,0.751840
-0.671559,0.740951
-0.683592,0.729864
-0.695443,0.718582
-0.707107,0.707107
-0.718582,0.695443
-0.729864,0.683592
-0.740951,0.671559
-0.751840,0.659346
-0.762527,0.646956
-0.773010,0.634393
-0.783287,0.621661
-0.793353,0.608761
-0.803208,0.595699
-0.812847,0.582478
-0.822268,0.569100
-0.831470,0.555570
-0.840448,0.541892
-0.849202,0.528068
-0.857729,0.514103
-0.866025,0.500000
-0.874090,0.485763
-0.881921,0.471397
-0.889516,0.456904
-0.896873,0.442289
-0.903989,0.427555
-0.910864,0.412707
-0.917494,0.397748
-0.923880,0.382683
-0.930017,0.367516
-0.935906,0.352250
-0.941544,0.336890
-0.946930,0.321439
-0.952063,0.305903
-0.956940,0.290285
-0.961562,0.274589
-0.965926,0.258819
-0.970031,0.242980
-0.973877,0.227076
-0.977462,0.211112
-0.980785,0.195090
-0.983846,0.179017
-0.986643,0.162895
-0.989177,0.146730
-0.991445,0.130526
-0.993448,0.114287
-0.995185,0.098017
-0.996655,0.081721
-0.997859,0.065403
-0.998795,0.049068
-0.999465,0.032719
-0.999866,0.016362
-1.000000,-0.000000
-0.999866,-0.016362
-0.999465,-0.032719
-0.998795,-0.049068
-0.997859,-0.065403
-0.996655,-0.081721
-0.995185,-0.098017
-0.993448,-0.114287
-0.991445,-0.130526
-0.989177,-0.146730
-0.986643,-0.162895
-0.983846,-0.179017
-0.980785,-0.195090
-0.977462,-0.211112
-0.973877,-0.227076
-0.970031,-0.242980
-0.965926,-0.258819
-0.961562,-0.274589
-0.956940,-0.290285
-0.952063,-0.305903
-0.946930,-0.321439
-0.941544,-0.336890
-0.935906,-0.352250
-0.930017,-0.367516
-0.923880,-0.382683
-0.917494,-0.397748
-0.910864,-0.412707
-0.903989,-0.427555
-0.896873,-0.442289
-0.889516,-0.456904
-0.881921,-0.471397
-0.874090,-0.485763
-0.866025,-0.500000
-0.857729,-0.514103
-0.849202,-0.528068
-0.840448,-0.541892
-0.831470,-0.555570
-0.822268,-0.569100
-0.812847,-0.582478
-0.803208,-0.595699
-0.793353,-0.608761
-0.783287,-0.621661
-0.773010,-0.634393
-0.762527,-0.646956
-0.751840,-0.659346
-0.740951,-0.671559
-0.729864,-0.683592
-0.718582,-0.695443
-0.707107,-0.707107
-0.695443,-0.718582
-0.683592,-0.729864
-0.671559,-0.740951
-0.659346,-0.751840
-0.646956,-0.762527
-0.634393,-0.773010
-0.621661,-0.783287
-0.608761,-0.793353
-0.595699,-0.803208
-0.582478,-0.812847
-0.569100,-0.822268
-0.555570,-0.831470
-0.541892,-0.840448
-0.528068,-0.849202
-0.514103,-0.857729
-0.500000,-0.866025
-0.485763,-0.874090
-0.471397,-0.881921
-0.456904,-0.889516
-0.442289,-0.896873
-0.427555,-0.903989
-0.412707,-0.910864
-0.397748,-0.917494
-0.382683,-0.923880
-0.367516,-0.930017
-0.352250,-0.935906
-0.336890,-0.941544
-0.321439,-0.946930
-0.305903,-0.952063
-0.290285,-0.956940
-0.274589,-0.961562
-0.258819,-0.965926
-0.242980,-0.970031
-0.227076,-0.973877
-0.211112,-0.977462
-0.195090,-0.980785
-0.179017,-0.983846
-0.162895,-0.986643
-0.146730,-0.989177
-0.130526,-0.991445
-0.114287,-0.993448
-0.098017,-0.995185
-0.081721,-0.996655
-0.065403,-0.997859
-0.049068,-0.998795
-0.032719,-0.999465
-0.016362,-0.999866
-0.000000,-1.000000
0.016362,-0.999866
0.032719,-0.999465
0.049068,-0.998795
0.065403,-0.997859
0.081721,-0.996655
0.098017,-0.995185
0.114287,-0.993448
0.130526,-0.991445
0.146730,-0.989177
0.162895,-0.986643
0.179017,-0.983846
0.195090,-0.980785
0.211112,-0.977462
0.227076,-0.973877
0.242980,-0.970031
0.258819,-0.965926
0.274589,-0.961562
0.290285,-0.956940
0.305903,-0.952063
0.321439,-0.946930
0.336890,-0.941544
0.352250,-0.935906
0.367516,-0.930017
0.382683,-0.923880
0.397748,-0.917494
0.412707,-0.910864
0.427555,-0.903989
0.442289,-0.896873
0.456904,-0.889516
0.471397,-0.881921
0.485763,-0.874090
0.500000,-0.866025
0.514103,-0.857729
0.528068,-0.849202
0.541892,-0.840448
0.555570,-0.831470
0.569100,-0.822268
0.582478,-0.812847
0.595699,-0.803208
0.608761,-0.793353
0.621661,-0.783287
0.634393,-0.773010
0.646956,-0.762527
0.659346,-0.751840
0.671559,-0.740951
0.683592,-0.729864
0.695443,-0.718582
0.707107,-0.707107
0.718582,-0.695443
0.729864,-0.683592
0.740951,-0.671559
0.751840,-0.659346
0.762527,-0.646956
0.773010,-0.634393
0.783287,-0.621661
0.793353,-0.608761
0.803208,-0.595699
0.812847,-0.582478
0.822268,-0.569100
0.831470,-0.555570
0.840448,-0.541892
0.849202,-0.528068
0.857729,-0.514103
0.866025,-0.500000
0.874090,-0.485763
0.881921,-0.471397
0.889516,-0.456904
0.896873,-0.442289
0.903989,-0.427555
0.910864,-0.412707
0.917494,-0.397748
0.923880,-0.382683
0.930017,-0.367516
0.935906,-0.352250
0.941544,-0.336890
0.946930,-0.321439
0.952063,-0.305903
0.956940,-0.290285
0.961562,-0.274589
0.965926,-0.258819
0.970031,-0.242980
0.973877,-0.227076
0.977462,-0.211112
0.980785,-0.195090
0.983846,-0.179017
0.986643,-0.162895
0.989177,-0.146730
0.991445,-0.130526
0.993448,-0.114287
0.995185,-0.098017
0.996655,-0.081721
0.997859,-0.065403
0.998795,-0.049068
0.999465,-0.032719
0.999866,-0.016362
0.000000,0.000000
0.428571,0.000000
0.392857,0.061859
0.357143,0.123718
0.321429,0.185577
0.285714,0.247436
0.250000,0.309295
0.357143,0.000000
0.321429,0.061859
0.285714,0.123718
0.250000,0.185577
0.214286,0.247436
0.285714,0.000000
0.250000,0.061859
0.214286,0.123718
0.178571,0.185577
0.214286,0.000000
0.178571,0.061859
0.142857,0.123718
0.142857,0.000000
0.107143,0.061859
0.071429,0.000000
0.214286,0.371154
0.142857,0.371154
0.071429,0.371154
0.000000,0.371154
-0.071429,0.371154
-0.142857,0.371154
0.178571,0.309295
0.107143,0.309295
0.035714,0.309295
-0.035714,0.309295
-0.107143,0.309295
0.142857,0.247436
0.071429,0.247436
0.000000,0.247436
-0.071429,0.247436
0.107143,0.185577
0.035714,0.185577
-0.035714,0.185577
0.071429,0.123718
0.000000,0.123718
0.035714,0.061859
-0.214286,0.371154
-0.250000,0.309295
-0.285714,0.247436
-0.321429,0.185577
-0.357143,0.123718
-0.392857,0.061859
-0.178571,0.309295
-0.214286,0.247436
-0.250000,0.185577
-0.285714,0.123718
-0.321429,0.061859
-0.142857,0.247436
-0.178571,0.185577
-0.214286,0.123718
-0.250000,0.061859
-0.107143,0.185577
-0.142857,0.123718
-0.178571,0.061859
-0.071429,0.123718
-0.107143,0.061859
-0.035714,0.061859
-0.428571,0.000000
-0.392857,-0.061859
-0.357143,-0.123718
-0.321429,-0.185577
-0.285714,-0.247436
-0.250000,-0.309295
-0.357143,0.000000
-0.321429,-0.061859
-0.285714,-0.123718
-0.250000,-0.185577
-0.214286,-0.247436
-0.285714,0.000000
-0.250000,-0.061859
-0.214286,-0.123718
-0.178571,-0.185577
-0.214286,0.000000
-0.178571,-0.061859
-0.142857,-0.123718
-0.142857,0.000000
-0.107143,-0.061859
-0.071429,0.000000
-0.214286,-0.371154
-0.142857,-0.371154
-0.071429,-0.371154
-0.000000,-0.371154
0.071429,-0.371154
0.142857,-0.371154
-0.178571,-0.309295
-0.107143,-0.309295
-0.035714,-0.309295
0.035714,-0.309295
0.107143,-0.309295
-0.142857,-0.247436
-0.071429,-0.247436
-0.000000,-0.247436
0.071429,-0.247436
-0.107143,-0.185577
-0.035714,-0.185577
0.035714,-0.185577
-0.071429,-0.123718
-0.000000,-0.123718
-0.035714,-0.061859
0.214286,-0.371154
0.250000,-0.309295
0.285714,-0.247436
0.321429,-0.185577
0.357143,-0.123718
0.392857,-0.061859
0.178571,-0.309295
0.214286,-0.247436
0.250000,-0.185577
0.285714,-0.123718
0.321429,-0.061859
0.142857,-0.247436
0.178571,-0.185577
0.214286,-0.123718
0.250000,-0.061859
0.107143,-0.185577
0.142857,-0.123718
0.178571,-0.061859
0.071429,-0.123718
0.107143,-0.061859
0.035714,-0.061859
0.500000,0.000000
0.458333,0.072169
0.416667,0.144338
0.375000,0.216506
0.333333,0.288675
0.291667,0.360844
0.250000,0.433013
0.166667,0.433013
0.083333,0.433013
0.000000,0.433013
-0.083333,0.433013
-0.166667,0.433013
-0.250000,0.433013
-0.291667,0.360844
-0.333333,0.288675
-0.375000,0.216506
-0.416667,0.144338
-0.458333,0.072169
-0.500000,0.000000
-0.458333,-0.072169
-0.416667,-0.144338
-0.375000,-0.216506
-0.333333,-0.288675
-0.291667,-0.360844
-0.250000,-0.433013
-0.166667,-0.433013
-0.083333,-0.433013
-0.000000,-0.433013
0.083333,-0.433013
0.166667,-0.433013
0.250000,-0.433013
0.291667,-0.360844
0.333333,-0.288675
0.375000,-0.216506
0.416667,-0.144338
0.458333,-0.072169
0.708333,0.000000
0.700795,0.042753
0.693256,0.085505
0.685718,0.128258
0.678180,0.171010
0.666667,0.000000
0.659128,0.042753
0.651590,0.085505
0.644051,0.128258
0.625000,0.000000
0.617462,0.042753
0.609923,0.085505
0.583333,0.000000
0.575795,0.042753
0.541667,0.000000
0.670641,0.213763
0.645608,0.257121
0.620576,0.300479
0.595543,0.343837
0.570510,0.387195
0.545477,0.430553
0.636513,0.171010
0.608153,0.220130
0.579794,0.269251
0.551434,0.318371
0.523075,0.367491
0.494715,0.416611
0.602385,0.128258
0.570698,0.183140
0.539012,0.238022
0.507326,0.292905
0.475639,0.347787
0.443953,0.402669
0.568256,0.085505
0.533243,0.146150
0.498230,0.206794
0.463217,0.267439
0.428204,0.328083
0.393191,0.388728
0.534128,0.042753
0.495788,0.109159
0.457448,0.175566
0.419109,0.241972
0.380769,0.308379
0.342429,0.374786
0.520444,0.473911
0.487189,0.501816
0.453933,0.529720
0.420678,0.557625
0.387422,0.585530
0.466356,0.465731
0.433100,0.493636
0.399844,0.521541
0.366589,0.549446
0.412267,0.457552
0.379011,0.485456
0.345756,0.513361
0.358178,0.449372
0.324922,0.477277
0.304089,0.441192
0.354167,0.613435
0.313373,0.628282
0.272579,0.643130
0.231785,0.657978
0.190991,0.672826
0.333333,0.577350
0.292539,0.592198
0.251745,0.607046
0.210951,0.621894
0.312500,0.541266
0.271706,0.556114
0.230912,0.570961
0.291667,0.505181
0.250873,0.520029
0.270833,0.469097
0.150197,0.687674
0.100131,0.687674
0.050066,0.687674
0.000000,0.687674
-0.050066,0.687674
-0.100131,0.687674
0.170157,0.636741
0.113438,0.636741
0.056719,0.636741
0.000000,0.636741
-0.056719,0.636741
-0.113438,0.636741
0.190118,0.585809
0.126745,0.585809
0.063373,0.585809
0.000000,0.585809
-0.063373,0.585809
-0.126745,0.585809
0.210079,0.534877
0.140052,0.534877
0.070026,0.534877
0.000000,0.534877
-0.070026,0.534877
-0.140052,0.534877
0.230039,0.483945
0.153360,0.483945
0.076680,0.483945
0.000000,0.483945
-0.076680,0.483945
-0.153360,0.483945
-0.150197,0.687674
-0.190991,0.672826
-0.231785,0.657978
-0.272579,0.643130
-0.313373,0.628282
-0.170157,0.636741
-0.210951,0.621894
-0.251745,0.607046
-0.292539,0.592198
-0.190118,0.585809
-0.230912,0.570961
-0.271706,0.556114
-0.210079,0.534877
-0.250873,0.520029
-0.230039,0.483945
-0.354167,0.613435
-0.387422,0.585530
-0.420678,0.557625
-0.453933,0.529720
-0.487189,0.501816
-0.333333,0.577350
-0.366589,0.549446
-0.399844,0.521541
-0.433100,0.493636
-0.312500,0.541266
-0.345756,0.513361
-0.379011,0.485456
-0.291667,0.505181
-0.324922,0.477277
-0.270833,0.469097
-0.520444,0.473911
-0.545477,0.430553
-0.570510,0.387195
-0.595543,0.343837
-0.620576,0.300479
-0.645608,0.257121
-0.466356,0.465731
-0.494715,0.416611
-0.523075,0.367491
-0.551434,0.318371
-0.579794,0.269251
-0.608153,0.220130
-0.412267,0.457552
-0.443953,0.402669
-0.475639,0.347787
-0.507326,0.292905
-0.539012,0.238022
-0.570698,0.183140
-0.358178,0.449372
-0.393191,0.388728
-0.428204,0.328083
-0.463217,0.267439
-0.498230,0.206794
-0.533243,0.146150
-0.304089,0.441192
-0.342429,0.374786
-0.380769,0.308379
-0.419109,0.241972
-0.457448,0.175566
-0.495788,0.109159
-0.670641,0.213763
-0.678180,0.171010
-0.685718,0.128258
-0.693256,0.085505
-0.700795,0.042753
-0.636513,0.171010
-0.644051,0.128258
-0.651590,0.085505
-0.659128,0.042753
-0.602385,0.128258
-0.609923,0.085505
-0.617462,0.042753
-0.568256,0.085505
-0.575795,0.042753
-0.534128,0.042753
-0.708333,-0.000000
-0.700795,-0.042753
-0.693256,-0.085505
-0.685718,-0.128258
-0.678180,-0.171010
-0.666667,-0.000000
-0.659128,-0.042753
-0.651590,-0.085505
-0.644051,-0.128258
-0.625000,-0.000000
-0.617462,-0.042753
-0.609923,-0.085505
-0.583333,-0.000000
-0.575795,-0.042753
-0.541667,-0.000000
-0.670641,-0.213763
-0.645608,-0.257121
-0.620576,-0.300479
-0.595543,-0.343837
-0.570510,-0.387195
-0.545477,-0.430553
-0.636513,-0.171010
-0.608153,-0.220130
-0.579794,-0.269251
-0.551434,-0.318371
-0.523075,-0.367491
-0.494715,-0.416611
-0.602385,-0.128258
-0.570698,-0.183140
-0.539012,-0.238022
-0.507326,-0.292905
-0.475639,-0.347787
-0.443953,-0.402669
-0.568256,-0.085505
-0.533243,-0.146150
-0.498230,-0.206794
-0.463217,-0.267439
-0.428204,-0.328083
-0.393191,-0.388728
-0.534128,-0.042753
-0.495788,-0.109159
-0.457448,-0.175566
-0.419109,-0.241972
-0.380769,-0.308379
-0.342429,-0.374786
-0.520444,-0.473911
-0.487189,-0.501816
-0.453933,-0.529720
-0.420678,-0.557625
-0.387422,-0.585530
-0.466356,-0.465731
-0.433100,-0.493636
-0.399844,-0.521541
-0.366589,-0.549446
-0.412267,-0.457552
-0.379011,-0.485456
-0.345756,-0.513361
-0.358178,-0.449372
-0.324922,-0.477277
-0.304089,-0.441192
-0.354167,-0.613435
-0.313373,-0.628282
-0.272579,-0.643130
-0.231785,-0.657978
-0.190991,-0.672826
-0.333333,-0.577350
-0.292539,-0.592198
-0.251745,-0.607046
-0.210951,-0.621894
-0.312500,-0.541266
-0.271706,-0.556114
-0.230912,-0.570961
-0.291667,-0.505181
-0.250873,-0.520029
-0.270833,-0.469097
-0.150197,-0.687674
-0.100131,-0.687674
-0.050066,-0.687674
0.000000,-0.687674
0.050066,-0.687674
0.100131,-0.687674
-0.170157,-0.636741
-0.113438,-0.636741
-0.056719,-0.636741
0.000000,-0.636741
0.056719,-0.636741
0.113438,-0.636741
-0.190118,-0.585809
-0.126745,-0.585809
-0.063373,-0.585809
0.000000,-0.585809
0.063373,-0.585809
0.126745,-0.585809
-0.210079,-0.534877
-0.140052,-0.534877
-0.070026,-0.534877
0.000000,-0.534877
0.070026,-0.534877
0.140052,-0.534877
-0.230039,-0.483945
-0.153360,-0.483945
-0.076680,-0.483945
-0.000000,-0.483945
0.076680,-0.483945
0.153360,-0.483945
0.150197,-0.687674
0.190991,-0.672826
0.231785,-0.657978
0.272579,-0.643130
0.313373,-0.628282
0.170157,-0.636741
0.210951,-0.621894
0.251745,-0.607046
0.292539,-0.592198
0.190118,-0.585809
0.230912,-0.570961
0.271706,-0.556114
0.210079,-0.534877
0.250873,-0.520029
0.230039,-0.483945
0.354167,-0.613435
0.387422,-0.585530
0.420678,-0.557625
0.453933,-0.529720
0.487189,-0.501816
0.333333,-0.577350
0.366589,-0.549446
0.399844,-0.521541
0.433100,-0.493636
0.312500,-0.541266
0.345756,-0.513361
0.379011,-0.485456
0.291667,-0.505181
0.324922,-0.477277
0.270833,-0.469097
0.520444,-0.473911
0.545477,-0.430553
0.570510,-0.387195
0.595543,-0.343837
0.620576,-0.300479
0.645608,-0.257121
0.466356,-0.465731
0.494715,-0.416611
0.523075,-0.367491
0.551434,-0.318371
0.579794,-0.269251
0.608153,-0.220130
0.412267,-0.457552
0.443953,-0.402669
0.475639,-0.347787
0.507326,-0.292905
0.539012,-0.238022
0.570698,-0.183140
0.358178,-0.449372
0.393191,-0.388728
0.428204,-0.328083
0.463217,-0.267439
0.498230,-0.206794
0.533243,-0.146150
0.304089,-0.441192
0.342429,-0.374786
0.380769,-0.308379
0.419109,-0.241972
0.457448,-0.175566
0.495788,-0.109159
0.670641,-0.213763
0.678180,-0.171010
0.685718,-0.128258
0.693256,-0.085505
0.700795,-0.042753
0.636513,-0.171010
0.644051,-0.128258
0.651590,-0.085505
0.659128,-0.042753
0.602385,-0.128258
0.609923,-0.085505
0.617462,-0.042753
0.568256,-0.085505
0.575795,-0.042753
0.534128,-0.042753
0.750000,0.000000
0.740954,0.051303
0.731908,0.102606
0.722862,0.153909
0.713816,0.205212
0.704769,0.256515
0.678722,0.301630
0.652675,0.346745
0.626628,0.391860
0.600581,0.436976
0.574533,0.482091
0.534627,0.515576
0.494720,0.549062
0.454813,0.582548
0.414907,0.616033
0.375000,0.649519
0.326047,0.667336
0.277094,0.685154
0.228142,0.702971
0.179189,0.720788
0.130236,0.738606
0.078142,0.738606
0.026047,0.738606
-0.026047,0.738606
-0.078142,0.738606
-0.130236,0.738606
-0.179189,0.720788
-0.228142,0.702971
-0.277094,0.685154
-0.326047,0.667336
-0.375000,0.649519
-0.414907,0.616033
-0.454813,0.582548
-0.494720,0.549062
-0.534627,0.515576
-0.574533,0.482091
-0.600581,0.436976
-0.626628,0.391860
-0.652675,0.346745
-0.678722,0.301630
-0.704769,0.256515
-0.713816,0.205212
-0.722862,0.153909
-0.731908,0.102606
-0.740954,0.051303
-0.750000,-0.000000
-0.740954,-0.051303
-0.731908,-0.102606
-0.722862,-0.153909
-0.713816,-0.205212
-0.704769,-0.256515
-0.678722,-0.301630
-0.652675,-0.346745
-0.626628,-0.391860
-0.600581,-0.436976
-0.574533,-0.482091
-0.534627,-0.515576
-0.494720,-0.549062
-0.454813,-0.582548
-0.414907,-0.616033
-0.375000,-0.649519
-0.326047,-0.667336
-0.277094,-0.685154
-0.228142,-0.702971
-0.179189,-0.720788
-0.130236,-0.738606
-0.078142,-0.738606
-0.026047,-0.738606
0.026047,-0.738606
0.078142,-0.738606
0.130236,-0.738606
0.179189,-0.720788
0.228142,-0.702971
0.277094,-0.685154
0.326047,-0.667336
0.375000,-0.649519
0.414907,-0.616033
0.454813,-0.582548
0.494720,-0.549062
0.534627,-0.515576
0.574533,-0.482091
0.600581,-0.436976
0.626628,-0.391860
0.652675,-0.346745
0.678722,-0.301630
0.704769,-0.256515
0.713816,-0.205212
0.722862,-0.153909
0.731908,-0.102606
0.740954,-0.051303
0.850000,0.000000
0.848045,0.026082
0.846091,0.052165
0.844136,0.078247
0.825000,0.000000
0.823045,0.026082
0.821091,0.052165
0.800000,0.000000
0.798045,0.026082
0.775000,0.000000
0.842182,0.104330
0.835716,0.134990
0.829251,0.165650
0.822786,0.196311
0.816320,0.226971
0.819136,0.078247
0.812026,0.114068
0.804915,0.149889
0.797805,0.185710
0.790694,0.221531
0.796091,0.052165
0.788335,0.093147
0.780579,0.134128
0.772824,0.175110
0.765068,0.216092
0.773045,0.026082
0.764644,0.072225
0.756244,0.118367
0.747843,0.164510
0.739442,0.210652
0.809855,0.257632
0.800299,0.281979
0.790743,0.306327
0.781188,0.330674
0.783584,0.257353
0.774028,0.281700
0.764472,0.306048
0.757312,0.257073
0.747756,0.281421
0.731041,0.256794
0.771632,0.355022
0.755960,0.382166
0.740289,0.409310
0.724617,0.436454
0.708945,0.463598
0.754916,0.330395
0.736651,0.362032
0.718385,0.393669
0.700120,0.425306
0.681854,0.456942
0.738201,0.305768
0.717341,0.341898
0.696482,0.378028
0.675622,0.414157
0.654763,0.450287
0.721485,0.281142
0.698032,0.321764
0.674578,0.362386
0.651125,0.403009
0.627672,0.443631
0.693274,0.490742
0.676966,0.511191
0.660658,0.531641
0.644351,0.552090
0.663589,0.488579
0.647281,0.509029
0.630973,0.529478
0.633904,0.486416
0.617596,0.506866
0.604218,0.484254
0.628043,0.572539
0.604723,0.593468
0.581403,0.614398
0.558083,0.635327
0.534763,0.656256
0.614666,0.549927
0.587199,0.573995
0.559732,0.598064
0.532266,0.622132
0.504799,0.646201
0.601288,0.527315
0.569675,0.554522
0.538061,0.581730
0.506448,0.608937
0.474835,0.636145
0.587911,0.504703
0.552151,0.535049
0.516391,0.565396
0.480631,0.595743
0.444871,0.626089
0.511443,0.677186
0.489832,0.691920
0.468221,0.706654
0.446611,0.721388
0.477332,0.670269
0.455721,0.685003
0.434111,0.699737
0.443221,0.663352
0.421611,0.678086
0.409111,0.656436
0.425000,0.736122
0.401435,0.747470
0.377869,0.758819
0.354304,0.770167
0.412500,0.714471
0.388935,0.725819
0.365369,0.737168
0.400000,0.692820
0.376435,0.704169
0.387500,0.671170
0.330739,0.781515
0.300953,0.791246
0.271168,0.800978
0.241383,0.810709
0.211597,0.820440
0.341804,0.748516
0.307227,0.760269
0.272650,0.772022
0.238072,0.783774
0.203495,0.795527
0.352869,0.715517
0.313500,0.729291
0.274131,0.743066
0.234762,0.756840
0.195393,0.770614
0.363935,0.682518
0.319774,0.698314
0.275613,0.714110
0.231452,0.729905
0.187291,0.745701
0.181812,0.830171
0.155948,0.834069
0.130085,0.837967
0.104222,0.841866
0.168918,0.807279
0.143055,0.811178
0.117191,0.815076
0.156024,0.784388
0.130161,0.788287
0.143130,0.761497
0.078358,0.845764
0.047015,0.845764
0.015672,0.845764
-0.015672,0.845764
-0.047015,0.845764
0.091328,0.818974
0.054797,0.818974
0.018266,0.818974
-0.018266,0.818974
-0.054797,0.818974
0.104297,0.792185
0.062578,0.792185
0.020859,0.792185
-0.020859,0.792185
-0.062578,0.792185
0.117267,0.765395
0.070360,0.765395
0.023453,0.765395
-0.023453,0.765395
-0.070360,0.765395
-0.078358,0.845764
-0.104222,0.841866
-0.130085,0.837967
-0.155948,0.834069
-0.091328,0.818974
-0.117191,0.815076
-0.143055,0.811178
-0.104297,0.792185
-0.130161,0.788287
-0.117267,0.765395
-0.181812,0.830171
-0.211597,0.820440
-0.241383,0.810709
-0.271168,0.800978
-0.300953,0.791246
-0.168918,0.807279
-0.203495,0.795527
-0.238072,0.783774
-0.272650,0.772022
-0.307227,0.760269
-0.156024,0.784388
-0.195393,0.770614
-0.234762,0.756840
-0.274131,0.743066
-0.313500,0.729291
-0.143130,0.761497
-0.187291,0.745701
-0.231452,0.729905
-0.275613,0.714110
-0.319774,0.698314
-0.330739,0.781515
-0.354304,0.770167
-0.377869,0.758819
-0.401435,0.747470
-0.341804,0.748516
-0.365369,0.737168
-0.388935,0.725819
-0.352869,0.715517
-0.376435,0.704169
-0.363935,0.682518
-0.425000,0.736122
-0.446611,0.721388
-0.468221,0.706654
-0.489832,0.691920
-0.412500,0.714471
-0.434111,0.699737
-0.455721,0.685003
-0.400000,0.692820
-0.421611,0.678086
-0.387500,0.671170
-0.511443,0.677186
-0.534763,0.656256
-0.558083,0.635327
-0.581403,0.614398
-0.604723,0.593468
-0.477332,0.670269
-0.504799,0.646201
-0.532266,0.622132
-0.559732,0.598064
-0.587199,0.573995
-0.443221,0.663352
-0.474835,0.636145
-0.506448,0.608937
-0.538061,0.581730
-0.569675,0.554522
-0.409111,0.656436
-0.444871,0.626089
-0.480631,0.595743
-0.516391,0.565396
-0.552151,0.535049
-0.628043,0.572539
-0.644351,0.552090
-0.660658,0.531641
-0.676966,0.511191
-0.614666,0.549927
-0.630973,0.529478
-0.647281,0.509029
-0.601288,0.527315
-0.617596,0.506866
-0.587911,0.504703
-0.693274,0.490742
-0.708945,0.463598
-0.724617,0.436454
-0.740289,0.409310
-0.755960,0.382166
-0.663589,0.488579
-0.681854,0.456942
-0.700120,0.425306
-0.718385,0.393669
-0.736651,0.362032
-0.633904,0.486416
-0.654763,0.450287
-0.675622,0.414157
-0.696482,0.378028
-0.717341,0.341898
-0.604218,0.484254
-0.627672,0.443631
-0.651125,0.403009
-0.674578,0.362386
-0.698032,0.321764
-0.771632,0.355022
-0.781188,0.330674
-0.790743,0.306327
-0.800299,0.281979
-0.754916,0.330395
-0.764472,0.306048
-0.774028,0.281700
-0.738201,0.305768
-0.747756,0.281421
-0.721485,0.281142
-0.809855,0.257632
-0.816320,0.226971
-0.822786,0.196311
-0.829251,0.165650
-0.835716,0.134990
-0.783584,0.257353
-0.790694,0.221531
-0.797805,0.185710
-0.804915,0.149889
-0.812026,0.114068
-0.757312,0.257073
-0.765068,0.216092
-0.772824,0.175110
-0.780579,0.134128
-0.788335,0.093147
-0.731041,0.256794
-0.739442,0.210652
-0.747843,0.164510
-0.756244,0.118367
-0.764644,0.072225
-0.842182,0.104330
-0.844136,0.078247
-0.846091,0.052165
-0.848045,0.026082
-0.819136,0.078247
-0.821091,0.052165
-0.823045,0.026082
-0.796091,0.052165
-0.798045,0.026082
-0.773045,0.026082
-0.850000,-0.000000
-0.848045,-0.026082
-0.846091,-0.052165
-0.844136,-0.078247
-0.825000,-0.000000
-0.823045,-0.026082
-0.821091,-0.052165
-0.800000,-0.000000
-0.798045,-0.026082
-0.775000,-0.000000
-0.842182,-0.104330
-0.835716,-0.134990
-0.829251,-0.165650
-0.822786,-0.196311
-0.816320,-0.226971
-0.819136,-0.078247
-0.812026,-0.114068
-0.804915,-0.149889
-0.797805,-0.185710
-0.790694,-0.221531
-0.796091,-0.052165
-0.788335,-0.093147
-0.780579,-0.134128
-0.772824,-0.175110
-0.765068,-0.216092
-0.773045,-0.026082
-0.764644,-0.072225
-0.756244,-0.118367
-0.747843,-0.164510
-0.739442,-0.210652
-0.809855,-0.257632
-0.800299,-0.281979
-0.790743,-0.306327
-0.781188,-0.330674
-0.783584,-0.257353
-0.774028,-0.281700
-0.764472,-0.306048
-0.757312,-0.257073
-0.747756,-0.281421
-0.731041,-0.256794
-0.771632,-0.355022
-0.755960,-0.382166
-0.740289,-0.409310
-0.724617,-0.436454
-0.708945,-0.463598
-0.754916,-0.330395
-0.736651,-0.362032
-0.718385,-0.393669
-0.700120,-0.425306
-0.681854,-0.456942
-0.738201,-0.305768
-0.717341,-0.341898
-0.696482,-0.378028
-0.675622,-0.414157
-0.654763,-0.450287
-0.721485,-0.281142
-0.698032,-0.321764
-0.674578,-0.362386
-0.651125,-0.403009
-0.627672,-0.443631
-0.693274,-0.490742
-0.676966,-0.511191
-0.660658,-0.531641
-0.644351,-0.552090
-0.663589,-0.488579
-0.647281,-0.509029
-0.630973,-0.529478
-0.633904,-0.486416
-0.617596,-0.506866
-0.604218,-0.484254
-0.628043,-0.572539
-0.604723,-0.593468
-0.581403,-0.614398
-0.558083,-0.635327
-0.534763,-0.656256
-0.614666,-0.549927
-0.587199,-0.573995
-0.559732,-0.598064
-0.532266,-0.622132
-0.504799,-0.646201
-0.601288,-0.527315
-0.569675,-0.554522
-0.538061,-0.581730
-0.506448,-0.608937
-0.474835,-0.636145
-0.587911,-0.504703
-0.552151,-0.535049
-0.516391,-0.565396
-0.480631,-0.595743
-0.444871,-0.626089
-0.511443,-0.677186
-0.489832,-0.691920
-0.468221,-0.706654
-0.446611,-0.721388
-0.477332,-0.670269
-0.455721,-0.685003
-0.434111,-0.699737
-0.443221,-0.663352
-0.421611,-0.678086
-0.409111,-0.656436
-0.425000,-0.736122
-0.401435,-0.747470
-0.377869,-0.758819
-0.354304,-0.770167
-0.412500,-0.714471
-0.388935,-0.725819
-0.365369,-0.737168
-0.400000,-0.692820
-0.376435,-0.704169
-0.387500,-0.671170
-0.330739,-0.781515
-0.300953,-0.791246
-0.271168,-0.800978
-0.241383,-0.810709
-0.211597,-0.820440
-0.341804,-0.748516
-0.307227,-0.760269
-0.272650,-0.772022
-0.238072,-0.783774
-0.203495,-0.795527
-0.352869,-0.715517
-0.313500,-0.729291
-0.274131,-0.743066
-0.234762,-0.756840
-0.195393,-0.770614
-0.363935,-0.682518
-0.319774,-0.698314
-0.275613,-0.714110
-0.231452,-0.729905
-0.187291,-0.745701
-0.181812,-0.830171
-0.155948,-0.834069
-0.130085,-0.837967
-0.104222,-0.841866
-0.168918,-0.807279
-0.143055,-0.811178
-0.117191,-0.815076
-0.156024,-0.784388
-0.130161,-0.788287
-0.143130,-0.761497
-0.078358,-0.845764
-0.047015,-0.845764
-0.015672,-0.845764
0.015672,-0.845764
0.047015,-0.845764
-0.091328,-0.818974
-0.054797,-0.818974
-0.018266,-0.818974
0.018266,-0.818974
0.054797,-0.818974
-0.104297,-0.792185
-0.062578,-0.792185
-0.020859,-0.792185
0.020859,-0.792185
0.062578,-0.792185
-0.117267,-0.765395
-0.070360,-0.765395
-0.023453,-0.765395
0.023453,-0.765395
0.070360,-0.765395
0.078358,-0.845764
0.104222,-0.841866
0.130085,-0.837967
0.155948,-0.834069
0.091328,-0.818974
0.117191,-0.815076
0.143055,-0.811178
0.104297,-0.792185
0.130161,-0.788287
0.117267,-0.765395
0.181812,-0.830171
0.211597,-0.820440
0.241383,-0.810709
0.271168,-0.800978
0.300953,-0.791246
0.168918,-0.807279
0.203495,-0.795527
0.238072,-0.783774
0.272650,-0.772022
0.307227,-0.760269
0.156024,-0.784388
0.195393,-0.770614
0.234762,-0.756840
0.274131,-0.743066
0.313500,-0.729291
0.143130,-0.761497
0.187291,-0.745701
0.231452,-0.729905
0.275613,-0.714110
0.319774,-0.698314
0.330739,-0.781515
0.354304,-0.770167
0.377869,-0.758819
0.401435,-0.747470
0.341804,-0.748516
0.365369,-0.737168
0.388935,-0.725819
0.352869,-0.715517
0.376435,-0.704169
0.363935,-0.682518
0.425000,-0.736122
0.446611,-0.721388
0.468221,-0.706654
0.489832,-0.691920
0.412500,-0.714471
0.434111,-0.699737
0.455721,-0.685003
0.400000,-0.692820
0.421611,-0.678086
0.387500,-0.671170
0.511443,-0.677186
0.534763,-0.656256
0.558083,-0.635327
0.581403,-0.614398
0.604723,-0.593468
0.477332,-0.670269
0.504799,-0.646201
0.532266,-0.622132
0.559732,-0.598064
0.587199,-0.573995
0.443221,-0.663352
0.474835,-0.636145
0.506448,-0.608937
0.538061,-0.581730
0.569675,-0.554522
0.409111,-0.656436
0.444871,-0.626089
0.480631,-0.595743
0.516391,-0.565396
0.552151,-0.535049
0.628043,-0.572539
0.644351,-0.552090
0.660658,-0.531641
0.676966,-0.511191
0.614666,-0.549927
0.630973,-0.529478
0.647281,-0.509029
0.601288,-0.527315
0.617596,-0.506866
0.587911,-0.504703
0.693274,-0.490742
0.708945,-0.463598
0.724617,-0.436454
0.740289,-0.409310
0.755960,-0.382166
0.663589,-0.488579
0.681854,-0.456942
0.700120,-0.425306
0.718385,-0.393669
0.736651,-0.362032
0.633904,-0.486416
0.654763,-0.450287
0.675622,-0.414157
0.696482,-0.378028
0.717341,-0.341898
0.604218,-0.484254
0.627672,-0.443631
0.651125,-0.403009
0.674578,-0.362386
0.698032,-0.321764
0.771632,-0.355022
0.781188,-0.330674
0.790743,-0.306327
0.800299,-0.281979
0.754916,-0.330395
0.764472,-0.306048
0.774028,-0.281700
0.738201,-0.305768
0.747756,-0.281421
0.721485,-0.281142
0.809855,-0.257632
0.816320,-0.226971
0.822786,-0.196311
0.829251,-0.165650
0.835716,-0.134990
0.783584,-0.257353
0.790694,-0.221531
0.797805,-0.185710
0.804915,-0.149889
0.812026,-0.114068
0.757312,-0.257073
0.765068,-0.216092
0.772824,-0.175110
0.780579,-0.134128
0.788335,-0.093147
0.731041,-0.256794
0.739442,-0.210652
0.747843,-0.164510
0.756244,-0.118367
0.764644,-0.072225
0.842182,-0.104330
0.844136,-0.078247
0.846091,-0.052165
0.848045,-0.026082
0.819136,-0.078247
0.821091,-0.052165
0.823045,-0.026082
0.796091,-0.052165
0.798045,-0.026082
0.773045,-0.026082
0.875000,0.000000
0.872557,0.032603
0.870113,0.065206
0.867670,0.097809
0.865227,0.130412
0.857952,0.162287
0.850677,0.194161
0.843401,0.226036
0.836126,0.257911
0.824182,0.288345
0.812237,0.318780
0.800292,0.349214
0.788348,0.379648
0.772001,0.407962
0.755653,0.436277
0.739306,0.464591
0.722959,0.492905
0.702574,0.518467
0.682190,0.544028
0.661805,0.569590
0.641420,0.595151
0.617454,0.617389
0.593487,0.639627
0.569520,0.661865
0.545554,0.684103
0.518540,0.702520
0.491527,0.720937
0.464513,0.739355
0.437500,0.757772
0.408043,0.771958
0.378587,0.786143
0.349130,0.800329
0.319673,0.814515
0.288432,0.824151
0.257190,0.833788
0.225948,0.843425
0.194706,0.853062
0.162377,0.857935
0.130047,0.862808
0.097718,0.867680
0.065389,0.872553
0.032694,0.872553
0.000000,0.872553
-0.032694,0.872553
-0.065389,0.872553
-0.097718,0.867680
-0.130047,0.862808
-0.162377,0.857935
-0.194706,0.853062
-0.225948,0.843425
-0.257190,0.833788
-0.288432,0.824151
-0.319673,0.814515
-0.349130,0.800329
-0.378587,0.786143
-0.408043,0.771958
-0.437500,0.757772
-0.464513,0.739355
-0.491527,0.720937
-0.518540,0.702520
-0.545554,0.684103
-0.569520,0.661865
-0.593487,0.639627
-0.617454,0.617389
-0.641420,0.595151
-0.661805,0.569590
-0.682190,0.544028
-0.702574,0.518467
-0.722959,0.492905
-0.739306,0.464591
-0.755653,0.436277
-0.772001,0.407962
-0.788348,0.379648
-0.800292,0.349214
-0.812237,0.318780
-0.824182,0.288345
-0.836126,0.257911
-0.843401,0.226036
-0.850677,0.194161
-0.857952,0.162287
-0.865227,0.130412
-0.867670,0.097809
-0.870113,0.065206
-0.872557,0.032603
-0.875000,-0.000000
-0.872557,-0.032603
-0.870113,-0.065206
-0.867670,-0.097809
-0.865227,-0.130412
-0.857952,-0.162287
-0.850677,-0.194161
-0.843401,-0.226036
-0.836126,-0.257911
-0.824182,-0.288345
-0.812237,-0.318780
-0.800292,-0.349214
-0.788348,-0.379648
-0.772001,-0.407962
-0.755653,-0.436277
-0.739306,-0.464591
-0.722959,-0.492905
-0.702574,-0.518467
-0.682190,-0.544028
-0.661805,-0.569590
-0.641420,-0.595151
-0.617454,-0.617389
-0.593487,-0.639627
-0.569520,-0.661865
-0.545554,-0.684103
-0.518540,-0.702520
-0.491527,-0.720937
-0.464513,-0.739355
-0.437500,-0.757772
-0.408043,-0.771958
-0.378587,-0.786143
-0.349130,-0.800329
-0.319673,-0.814515
-0.288432,-0.824151
-0.257190,-0.833788
-0.225948,-0.843425
-0.194706,-0.853062
-0.162377,-0.857935
-0.130047,-0.862808
-0.097718,-0.867680
-0.065389,-0.872553
-0.032694,-0.872553
0.000000,-0.872553
0.032694,-0.872553
0.065389,-0.872553
0.097718,-0.867680
0.130047,-0.862808
0.162377,-0.857935
0.194706,-0.853062
0.225948,-0.843425
0.257190,-0.833788
0.288432,-0.824151
0.319673,-0.814515
0.349130,-0.800329
0.378587,-0.786143
0.408043,-0.771958
0.437500,-0.757772
0.464513,-0.739355
0.491527,-0.720937
0.518540,-0.702520
0.545554,-0.684103
0.569520,-0.661865
0.593487,-0.639627
0.617454,-0.617389
0.641420,-0.595151
0.661805,-0.569590
0.682190,-0.544028
0.702574,-0.518467
0.722959,-0.492905
0.739306,-0.464591
0.755653,-0.436277
0.772001,-0.407962
0.788348,-0.379648
0.800292,-0.349214
0.812237,-0.318780
0.824182,-0.288345
0.836126,-0.257911
0.843401,-0.226036
0.850677,-0.194161
0.857952,-0.162287
0.865227,-0.130412
0.867670,-0.097809
0.870113,-0.065206
0.872557,-0.032603
0.921875,0.000000
0.921304,0.016349
0.920733,0.032698
0.906250,0.000000
0.905679,0.016349
0.890625,0.000000
0.920162,0.049048
0.918269,0.069400
0.916376,0.089753
0.914482,0.110106
0.905108,0.032698
0.903032,0.057135
0.900955,0.081571
0.898878,0.106007
0.890054,0.016349
0.887794,0.044869
0.885534,0.073388
0.883274,0.101908
0.912589,0.130459
0.909748,0.146570
0.906908,0.162680
0.896802,0.130443
0.893961,0.146554
0.881014,0.130428
0.904067,0.178791
0.899280,0.198664
0.894493,0.218538
0.889706,0.238412
0.891120,0.162665
0.885504,0.186539
0.879887,0.210412
0.874271,0.234286
0.878174,0.146538
0.871728,0.174413
0.865282,0.202287
0.858836,0.230161
0.884919,0.258285
0.879863,0.273844
0.874808,0.289402
0.868655,0.258160
0.863599,0.273719
0.852390,0.258036
0.869753,0.304961
0.862171,0.323945
0.854588,0.342930
0.847006,0.361914
0.858544,0.289277
0.849508,0.312078
0.840471,0.334880
0.831435,0.357681
0.847335,0.273594
0.836845,0.300212
0.826354,0.326830
0.815864,0.353447
0.839424,0.380899
0.832252,0.395602
0.825081,0.410306
0.822398,0.380482
0.815227,0.395185
0.805373,0.380065
0.817909,0.425009
0.807688,0.442713
0.797467,0.460418
0.787245,0.478122
0.808056,0.409889
0.795792,0.431130
0.783529,0.452371
0.771265,0.473611
0.798202,0.394769
0.783896,0.419546
0.769591,0.444324
0.755286,0.469101
0.777024,0.495826
0.767876,0.509388
0.758728,0.522950
0.759002,0.494852
0.749854,0.508415
0.740980,0.493879
0.749580,0.536513
0.736930,0.552572
0.724280,0.568630
0.711630,0.584689
0.740706,0.521977
0.725478,0.541203
0.710250,0.560430
0.695022,0.579656
0.731833,0.507441
0.714026,0.529835
0.696220,0.552229
0.678413,0.574623
0.698980,0.600748
0.688034,0.612905
0.677087,0.625062
0.679794,0.598882
0.668847,0.611039
0.660607,0.597017
0.666141,0.637219
0.651323,0.651302
0.636506,0.665384
0.621688,0.679467
0.657901,0.623197
0.640033,0.639998
0.622166,0.656799
0.604299,0.673599
0.649661,0.609174
0.628744,0.628693
0.607827,0.648213
0.586910,0.667732
0.606871,0.693549
0.594339,0.704065
0.581807,0.714580
0.586432,0.690400
0.573900,0.700916
0.565993,0.687251
0.569275,0.725096
0.552596,0.736912
0.535916,0.748728
0.519237,0.760544
0.561368,0.711431
0.541244,0.725448
0.521120,0.739464
0.500996,0.753481
0.553461,0.697767
0.529892,0.713984
0.506323,0.730201
0.482755,0.746418
0.502558,0.772360
0.488684,0.781029
0.474811,0.789698
0.480872,0.767497
0.466998,0.776166
0.459186,0.762635
0.460938,0.798367
0.446493,0.806047
0.432049,0.813727
0.453125,0.784836
0.438681,0.792516
0.445313,0.771304
0.417605,0.821408
0.399032,0.829944
0.380459,0.838481
0.361886,0.847018
0.424236,0.800196
0.402036,0.810616
0.379835,0.821035
0.357634,0.831455
0.430868,0.778984
0.405040,0.791287
0.379211,0.803589
0.353382,0.815892
0.343314,0.855555
0.327941,0.861150
0.312568,0.866745
0.335434,0.841875
0.320061,0.847470
0.327553,0.828195
0.297196,0.872340
0.277591,0.878131
0.257987,0.883922
0.238382,0.889714
0.304688,0.853065
0.281205,0.860138
0.257721,0.867211
0.234237,0.874284
0.312181,0.833790
0.284818,0.842145
0.257455,0.850500
0.230093,0.858855
0.218778,0.895505
0.202776,0.898906
0.186774,0.902307
0.210754,0.881357
0.194752,0.884758
0.202730,0.867210
0.170773,0.905708
0.150541,0.908634
0.130308,0.911560
0.110076,0.914486
0.178750,0.888160
0.154486,0.891734
0.130221,0.895309
0.105957,0.898884
0.186728,0.870611
0.158431,0.874835
0.130134,0.879058
0.101837,0.883282
0.089844,0.917412
0.073524,0.918553
0.057205,0.919694
0.081692,0.902459
0.065373,0.903600
0.073540,0.887506
0.040886,0.920835
0.020443,0.920835
0.000000,0.920835
-0.020443,0.920835
0.049054,0.904741
0.024527,0.904741
0.000000,0.904741
-0.024527,0.904741
0.057221,0.888647
0.028611,0.888647
0.000000,0.888647
-0.028611,0.888647
-0.040886,0.920835
-0.057205,0.919694
-0.073524,0.918553
-0.049054,0.904741
-0.065373,0.903600
-0.057221,0.888647
-0.089844,0.917412
-0.110076,0.914486
-0.130308,0.911560
-0.150541,0.908634
-0.081692,0.902459
-0.105957,0.898884
-0.130221,0.895309
-0.154486,0.891734
-0.073540,0.887506
-0.101837,0.883282
-0.130134,0.879058
-0.158431,0.874835
-0.170773,0.905708
-0.186774,0.902307
-0.202776,0.898906
-0.178750,0.888160
-0.194752,0.884758
-0.186728,0.870611
-0.218778,0.895505
-0.238382,0.889714
-0.257987,0.883922
-0.277591,0.878131
-0.210754,0.881357
-0.234237,0.874284
-0.257721,0.867211
-0.281205,0.860138
-0.202730,0.867210
-0.230093,0.858855
-0.257455,0.850500
-0.284818,0.842145
-0.297196,0.872340
-0.312568,0.866745
-0.327941,0.861150
-0.304688,0.853065
-0.320061,0.847470
-0.312181,0.833790
-0.343314,0.855555
-0.361886,0.847018
-0.380459,0.838481
-0.399032,0.829944
-0.335434,0.841875
-0.357634,0.831455
-0.379835,0.821035
-0.402036,0.810616
-0.327553,0.828195
-0.353382,0.815892
-0.379211,0.803589
-0.405040,0.791287
-0.417605,0.821408
-0.432049,0.813727
-0.446493,0.806047
-0.424236,0.800196
-0.438681,0.792516
-0.430868,0.778984
-0.460937,0.798367
-0.474811,0.789698
-0.488684,0.781029
-0.453125,0.784836
-0.466998,0.776166
-0.445313,0.771304
-0.502558,0.772360
-0.519237,0.760544
-0.535916,0.748728
-0.552596,0.736912
-0.480872,0.767497
-0.500996,0.753481
-0.521120,0.739464
-0.541244,0.725448
-0.459186,0.762635
-0.482755,0.746418
-0.506323,0.730201
-0.529892,0.713984
-0.569275,0.725096
-0.581807,0.714580
-0.594339,0.704065
-0.561368,0.711431
-0.573900,0.700916
-0.553461,0.697767
-0.606871,0.693549
-0.621688,0.679467
-0.636506,0.665384
-0.651323,0.651302
-0.586432,0.690400
-0.604299,0.673599
-0.622166,0.656799
-0.640033,0.639998
-0.565993,0.687251
-0.586910,0.667732
-0.607827,0.648213
-0.628744,0.628693
-0.666141,0.637219
-0.677087,0.625062
-0.688034,0.612905
-0.657901,0.623197
-0.668847,0.611039
-0.649661,0.609174
-0.698980,0.600748
-0.711630,0.584689
-0.724280,0.568630
-0.736930,0.552572
-0.679794,0.598882
-0.695022,0.579656
-0.710250,0.560430
-0.725478,0.541203
-0.660607,0.597017
-0.678413,0.574623
-0.696220,0.552229
-0.714026,0.529835
-0.749580,0.536513
-0.758728,0.522950
-0.767876,0.509388
-0.740706,0.521977
-0.749854,0.508415
-0.731833,0.507441
-0.777024,0.495826
-0.787245,0.478122
-0.797467,0.460418
-0.807688,0.442713
-0.759002,0.494852
-0.771265,0.473611
-0.783529,0.452371
-0.795792,0.431130
-0.740980,0.493879
-0.755286,0.469101
-0.769591,0.444324
-0.783896,0.419546
-0.817909,0.425009
-0.825081,0.410306
-0.832252,0.395602
-0.808056,0.409889
-0.815227,0.395185
-0.798202,0.394769
-0.839424,0.380899
-0.847006,0.361914
-0.854588,0.342930
-0.862171,0.323945
-0.822398,0.380482
-0.831435,0.357681
-0.840471,0.334880
-0.849508,0.312078
-0.805373,0.380065
-0.815864,0.353447
-0.826354,0.326830
-0.836845,0.300212
-0.869753,0.304961
-0.874808,0.289402
-0.879863,0.273844
-0.858544,0.289277
-0.863599,0.273719
-0.847335,0.273594
-0.884919,0.258285
-0.889706,0.238412
-0.894493,0.218538
-0.899280,0.198664
-0.868655,0.258160
-0.874271,0.234286
-0.879887,0.210412
-0.885504,0.186539
-0.852390,0.258036
-0.858836,0.230161
-0.865282,0.202287
-0.871728,0.174413
-0.904067,0.178791
-0.906908,0.162680
-0.909748,0.146570
-0.891120,0.162665
-0.893961,0.146554
-0.878174,0.146538
-0.912589,0.130459
-0.914482,0.110106
-0.916376,0.089753
-0.918269,0.069400
-0.896802,0.130443
-0.898878,0.106007
-0.900955,0.081571
-0.903032,0.057135
-0.881014,0.130428
-0.883274,0.101908
-0.885534,0.073388
-0.887794,0.044869
-0.920162,0.049048
-0.920733,0.032698
-0.921304,0.016349
-0.905108,0.032698
-0.905679,0.016349
-0.890054,0.016349
-0.921875,-0.000000
-0.921304,-0.016349
-0.920733,-0.032698
-0.906250,-0.000000
-0.905679,-0.016349
-0.890625,-0.000000
-0.920162,-0.049048
-0.918269,-0.069400
-0.916376,-0.089753
-0.914482,-0.110106
-0.905108,-0.032698
-0.903032,-0.057135
-0.900955,-0.081571
-0.898878,-0.106007
-0.890054,-0.016349
-0.887794,-0.044869
-0.885534,-0.073388
-0.883274,-0.101908
-0.912589,-0.130459
-0.909748,-0.146570
-0.906908,-0.162680
-0.896802,-0.130443
-0.893961,-0.146554
-0.881014,-0.130428
-0.904067,-0.178791
-0.899280,-0.198664
-0.894493,-0.218538
-0.889706,-0.238412
-0.891120,-0.162665
-0.885504,-0.186539
-0.879887,-0.210412
-0.874271,-0.234286
-0.878174,-0.146538
-0.871728,-0.174413
-0.865282,-0.202287
-0.858836,-0.230161
-0.884919,-0.258285
-0.879863,-0.273844
-0.874808,-0.289402
-0.868655,-0.258160
-0.863599,-0.273719
-0.852390,-0.258036
-0.869753,-0.304961
-0.862171,-0.323945
-0.854588,-0.342930
-0.847006,-0.361914
-0.858544,-0.289277
-0.849508,-0.312078
-0.840471,-0.334880
-0.831435,-0.357681
-0.847335,-0.273594
-0.836845,-0.300212
-0.826354,-0.326830
-0.815864,-0.353447
-0.839424,-0.380899
-0.832252,-0.395602
-0.825081,-0.410306
-0.822398,-0.380482
-0.815227,-0.395185
-0.805373,-0.380065
-0.817909,-0.425009
-0.807688,-0.442713
-0.797467,-0.460418
-0.787245,-0.478122
-0.808056,-0.409889
-0.795792,-0.431130
-0.783529,-0.452371
-0.771265,-0.473611
-0.798202,-0.394769
-0.783896,-0.419546
-0.769591,-0.444324
-0.755286,-0.469101
-0.777024,-0.495826
-0.767876,-0.509388
-0.758728,-0.522950
-0.759002,-0.494852
-0.749854,-0.508415
-0.740980,-0.493879
-0.749580,-0.536513
-0.736930,-0.552572
-0.724280,-0.568630
-0.711630,-0.584689
-0.740706,-0.521977
-0.725478,-0.541203
-0.710250,-0.560430
-0.695022,-0.579656
-0.731833,-0.507441
-0.714026,-0.529835
-0.696220,-0.552229
-0.678413,-0.574623
-0.698980,-0.600748
-0.688034,-0.612905
-0.677087,-0.625062
-0.679794,-0.598882
-0.668847,-0.611039
-0.660607,-0.597017
-0.666141,-0.637219
-0.651323,-0.651302
-0.636506,-0.665384
-0.621688,-0.679467
-0.657901,-0.623197
-0.640033,-0.639998
-0.622166,-0.656799
-0.604299,-0.673599
-0.649661,-0.609174
-0.628744,-0.628693
-0.607827,-0.648213
-0.586910,-0.667732
-0.606871,-0.693549
-0.594339,-0.704065
-0.581807,-0.714580
-0.586432,-0.690400
-0.573900,-0.700916
-0.565993,-0.687251
-0.569275,-0.725096
-0.552596,-0.736912
-0.535916,-0.748728
-0.519237,-0.760544
-0.561368,-0.711431
-0.541244,-0.725448
-0.521120,-0.739464
-0.500996,-0.753481
-0.553461,-0.697767
-0.529892,-0.713984
-0.506323,-0.730201
-0.482755,-0.746418
-0.502558,-0.772360
-0.488684,-0.781029
-0.474811,-0.789698
-0.480872,-0.767497
-0.466998,-0.776166
-0.459186,-0.762635
-0.460938,-0.798367
-0.446493,-0.806047
-0.432049,-0.813727
-0.453125,-0.784836
-0.438681,-0.792516
-0.445312,-0.771304
-0.417605,-0.821408
-0.399032,-0.829944
-0.380459,-0.838481
-0.361886,-0.847018
-0.424236,-0.800196
-0.402036,-0.810616
-0.379835,-0.821035
-0.357634,-0.831455
-0.430868,-0.778984
-0.405040,-0.791287
-0.379211,-0.803589
-0.353382,-0.815892
-0.343314,-0.855555
-0.327941,-0.861150
-0.312568,-0.866745
-0.335434,-0.841875
-0.320061,-0.847470
-0.327553,-0.828195
-0.297196,-0.872340
-0.277591,-0.878131
-0.257987,-0.883922
-0.238382,-0.889714
-0.304688,-0.853065
-0.281205,-0.860138
-0.257721,-0.867211
-0.234237,-0.874284
-0.312181,-0.833790
-0.284818,-0.842145
-0.257455,-0.850500
-0.230093,-0.858855
-0.218778,-0.895505
-0.202776,-0.898906
-0.186774,-0.902307
-0.210754,-0.881357
-0.194752,-0.884758
-0.202730,-0.867210
-0.170773,-0.905708
-0.150541,-0.908634
-0.130308,-0.911560
-0.110076,-0.914486
-0.178750,-0.888160
-0.154486,-0.891734
-0.130221,-0.895309
-0.105957,-0.898884
-0.186728,-0.870611
-0.158431,-0.874835
-0.130134,-0.879058
-0.101837,-0.883282
-0.089844,-0.917412
-0.073524,-0.918553
-0.057205,-0.919694
-0.081692,-0.902459
-0.065373,-0.903600
-0.073540,-0.887506
-0.040886,-0.920835
-0.020443,-0.920835
-0.000000,-0.920835
0.020443,-0.920835
-0.049054,-0.904741
-0.024527,-0.904741
-0.000000,-0.904741
0.024527,-0.904741
-0.057221,-0.888647
-0.028611,-0.888647
0.000000,-0.888647
0.028611,-0.888647
0.040886,-0.920835
0.057205,-0.919694
0.073524,-0.918553
0.049054,-0.904741
0.065373,-0.903600
0.057221,-0.888647
0.089844,-0.917412
0.110076,-0.914486
0.130308,-0.911560
0.150541,-0.908634
0.081692,-0.902459
0.105957,-0.898884
0.130221,-0.895309
0.154486,-0.891734
0.073540,-0.887506
0.101837,-0.883282
0.130134,-0.879058
0.158431,-0.874835
0.170773,-0.905708
0.186774,-0.902307
0.202776,-0.898906
0.178750,-0.888160
0.194752,-0.884758
0.186728,-0.870611
0.218778,-0.895505
0.238382,-0.889714
0.257987,-0.883922
0.277591,-0.878131
0.210754,-0.881357
0.234237,-0.874284
0.257721,-0.867211
0.281205,-0.860138
0.202730,-0.867210
0.230093,-0.858855
0.257455,-0.850500
0.284818,-0.842145
0.297196,-0.872340
0.312568,-0.866745
0.327941,-0.861150
0.304688,-0.853065
0.320061,-0.847470
0.312181,-0.833790
0.343314,-0.855555
0.361886,-0.847018
0.380459,-0.838481
0.399032,-0.829944
0.335434,-0.841875
0.357634,-0.831455
0.379835,-0.821035
0.402036,-0.810616
0.327553,-0.828195
0.353382,-0.815892
0.379211,-0.803589
0.405040,-0.791287
0.417605,-0.821408
0.432049,-0.813727
0.446493,-0.806047
0.424236,-0.800196
0.438681,-0.792516
0.430868,-0.778984
0.460937,-0.798367
0.474811,-0.789698
0.488684,-0.781029
0.453125,-0.784836
0.466998,-0.776166
0.445313,-0.771304
0.502558,-0.772360
0.519237,-0.760544
0.535916,-0.748728
0.552596,-0.736912
0.480872,-0.767497
0.500996,-0.753481
0.521120,-0.739464
0.541244,-0.725448
0.459186,-0.762635
0.482755,-0.746418
0.506323,-0.730201
0.529892,-0.713984
0.569275,-0.725096
0.581807,-0.714580
0.594339,-0.704065
0.561368,-0.711431
0.573900,-0.700916
0.553461,-0.697767
0.606871,-0.693549
0.621688,-0.679467
0.636506,-0.665384
0.651323,-0.651302
0.586432,-0.690400
0.604299,-0.673599
0.622166,-0.656799
0.640033,-0.639998
0.565993,-0.687251
0.586910,-0.667732
0.607827,-0.648213
0.628744,-0.628693
0.666141,-0.637219
0.677087,-0.625062
0.688034,-0.612905
0.657901,-0.623197
0.668847,-0.611039
0.649661,-0.609174
0.698980,-0.600748
0.711630,-0.584689
0.724280,-0.568630
0.736930,-0.552572
0.679794,-0.598882
0.695022,-0.579656
0.710250,-0.560430
0.725478,-0.541203
0.660607,-0.597017
0.678413,-0.574623
0.696220,-0.552229
0.714026,-0.529835
0.749580,-0.536513
0.758728,-0.522950
0.767876,-0.509388
0.740706,-0.521977
0.749854,-0.508415
0.731833,-0.507441
0.777024,-0.495826
0.787245,-0.478122
0.797467,-0.460418
0.807688,-0.442713
0.759002,-0.494852
0.771265,-0.473611
0.783529,-0.452371
0.795792,-0.431130
0.740980,-0.493879
0.755286,-0.469101
0.769591,-0.444324
0.783896,-0.419546
0.817909,-0.425009
0.825081,-0.410306
0.832252,-0.395602
0.808056,-0.409889
0.815227,-0.395185
0.798202,-0.394769
0.839424,-0.380899
0.847006,-0.361914
0.854588,-0.342930
0.862171,-0.323945
0.822398,-0.380482
0.831435,-0.357681
0.840471,-0.334880
0.849508,-0.312078
0.805373,-0.380065
0.815864,-0.353447
0.826354,-0.326830
0.836845,-0.300212
0.869753,-0.304961
0.874808,-0.289402
0.879863,-0.273844
0.858544,-0.289277
0.863599,-0.273719
0.847335,-0.273594
0.884919,-0.258285
0.889706,-0.238412
0.894493,-0.218538
0.899280,-0.198664
0.868655,-0.258160
0.874271,-0.234286
0.879887,-0.210412
0.885504,-0.186539
0.852390,-0.258036
0.858836,-0.230161
0.865282,-0.202287
0.871728,-0.174413
0.904067,-0.178791
0.906908,-0.162680
0.909748,-0.146570
0.891120,-0.162665
0.893961,-0.146554
0.878174,-0.146538
0.912589,-0.130459
0.914482,-0.110106
0.916376,-0.089753
0.918269,-0.069400
0.896802,-0.130443
0.898878,-0.106007
0.900955,-0.081571
0.903032,-0.057135
0.881014,-0.130428
0.883274,-0.101908
0.885534,-0.073388
0.887794,-0.044869
0.920162,-0.049048
0.920733,-0.032698
0.921304,-0.016349
0.905108,-0.032698
0.905679,-0.016349
0.890054,-0.016349
0.937500,0.000000
0.936739,0.021799
0.935978,0.043598
0.935216,0.065397
0.932936,0.087089
0.930656,0.108782
0.928376,0.130475
0.924589,0.151956
0.920801,0.173436
0.917013,0.194917
0.911737,0.216081
0.906460,0.237246
0.901183,0.258410
0.894443,0.279155
0.887702,0.299899
0.880962,0.320644
0.872791,0.340868
0.864620,0.361092
0.856449,0.381316
0.846887,0.400920
0.837325,0.420525
0.827763,0.440130
0.816857,0.459019
0.805951,0.477909
0.795045,0.496799
0.782848,0.514882
0.770651,0.532966
0.758453,0.551049
0.745025,0.568237
0.731596,0.585425
0.718167,0.602613
0.703571,0.618823
0.688976,0.635033
0.674381,0.651242
0.658691,0.666394
0.643000,0.681546
0.627310,0.696698
0.610601,0.710719
0.593892,0.724739
0.577183,0.738760
0.559536,0.751581
0.541890,0.764402
0.524243,0.777223
0.505746,0.788781
0.487248,0.800340
0.468750,0.811899
0.449491,0.822139
0.430232,0.832379
0.410973,0.842619
0.391047,0.851491
0.371120,0.860363
0.351194,0.869235
0.330697,0.876695
0.310200,0.884155
0.289703,0.891615
0.268736,0.897628
0.247769,0.903640
0.226802,0.909652
0.205466,0.914187
0.184131,0.918722
0.162795,0.923257
0.141195,0.926293
0.119595,0.929329
0.097995,0.932364
0.076236,0.933886
0.054477,0.935407
0.032718,0.936929
0.010906,0.936929
-0.010906,0.936929
-0.032718,0.936929
-0.054477,0.935407
-0.076236,0.933886
-0.097995,0.932364
-0.119595,0.929329
-0.141195,0.926293
-0.162795,0.923257
-0.184131,0.918722
-0.205466,0.914187
-0.226802,0.909652
-0.247769,0.903640
-0.268736,0.897628
-0.289703,0.891615
-0.310200,0.884155
-0.330697,0.876695
-0.351194,0.869235
-0.371120,0.860363
-0.391047,0.851491
-0.410973,0.842619
-0.430232,0.832379
-0.449491,0.822139
-0.468750,0.811899
-0.487248,0.800340
-0.505746,0.788781
-0.524243,0.777223
-0.541890,0.764402
-0.559536,0.751581
-0.577183,0.738760
-0.593892,0.724739
-0.610601,0.710719
-0.627310,0.696698
-0.643000,0.681546
-0.658691,0.666394
-0.674381,0.651242
-0.688976,0.635033
-0.703571,0.618823
-0.718167,0.602613
-0.731596,0.585425
-0.745025,0.568237
-0.758453,0.551049
-0.770651,0.532966
-0.782848,0.514882
-0.795045,0.496799
-0.805951,0.477909
-0.816857,0.459019
-0.827763,0.440130
-0.837325,0.420525
-0.846887,0.400920
-0.856449,0.381316
-0.864620,0.361092
-0.872791,0.340868
-0.880962,0.320644
-0.887702,0.299899
-0.894443,0.279155
-0.901183,0.258410
-0.906460,0.237246
-0.911737,0.216081
-0.917013,0.194917
-0.920801,0.173436
-0.924589,0.151956
-0.928376,0.130475
-0.930656,0.108782
-0.932936,0.087089
-0.935216,0.065397
-0.935978,0.043598
-0.936739,0.021799
-0.937500,-0.000000
-0.936739,-0.021799
-0.935978,-0.043598
-0.935216,-0.065397
-0.932936,-0.087089
-0.930656,-0.108782
-0.928376,-0.130475
-0.924589,-0.151956
-0.920801,-0.173436
-0.917013,-0.194917
-0.911737,-0.216081
-0.906460,-0.237246
-0.901183,-0.258410
-0.894443,-0.279155
-0.887702,-0.299899
-0.880962,-0.320644
-0.872791,-0.340868
-0.864620,-0.361092
-0.856449,-0.381316
-0.846887,-0.400920
-0.837325,-0.420525
-0.827763,-0.440130
-0.816857,-0.459019
-0.805951,-0.477909
-0.795045,-0.496799
-0.782848,-0.514882
-0.770651,-0.532966
-0.758453,-0.551049
-0.745025,-0.568237
-0.731596,-0.585425
-0.718167,-0.602613
-0.703571,-0.618823
-0.688976,-0.635033
-0.674381,-0.651242
-0.658691,-0.666394
-0.643000,-0.681546
-0.627310,-0.696698
-0.610601,-0.710719
-0.593892,-0.724739
-0.577183,-0.738760
-0.559536,-0.751581
-0.541890,-0.764402
-0.524243,-0.777223
-0.505746,-0.788781
-0.487248,-0.800340
-0.468750,-0.811899
-0.449491,-0.822139
-0.430232,-0.832379
-0.410973,-0.842619
-0.391047,-0.851491
-0.371120,-0.860363
-0.351194,-0.869235
-0.330697,-0.876695
-0.310200,-0.884155
-0.289703,-0.891615
-0.268736,-0.897628
-0.247769,-0.903640
-0.226802,-0.909652
-0.205466,-0.914187
-0.184131,-0.918722
-0.162795,-0.923257
-0.141195,-0.926293
-0.119595,-0.929329
-0.097995,-0.932364
-0.076236,-0.933886
-0.054477,-0.935407
-0.032718,-0.936929
-0.010906,-0.936929
0.010906,-0.936929
0.032718,-0.936929
0.054477,-0.935407
0.076236,-0.933886
0.097995,-0.932364
0.119595,-0.929329
0.141195,-0.926293
0.162795,-0.923257
0.184131,-0.918722
0.205466,-0.914187
0.226802,-0.909652
0.247769,-0.903640
0.268736,-0.897628
0.289703,-0.891615
0.310200,-0.884155
0.330697,-0.876695
0.351194,-0.869235
0.371120,-0.860363
0.391047,-0.851491
0.410973,-0.842619
0.430232,-0.832379
0.449491,-0.822139
0.468750,-0.811899
0.487248,-0.800340
0.505746,-0.788781
0.524243,-0.777223
0.541890,-0.764402
0.559536,-0.751581
0.577183,-0.738760
0.593892,-0.724739
0.610601,-0.710719
0.627310,-0.696698
0.643000,-0.681546
0.658691,-0.666394
0.674381,-0.651242
0.688976,-0.635033
0.703571,-0.618823
0.718167,-0.602613
0.731596,-0.585425
0.745025,-0.568237
0.758453,-0.551049
0.770651,-0.532966
0.782848,-0.514882
0.795045,-0.496799
0.805951,-0.477909
0.816857,-0.459019
0.827763,-0.440130
0.837325,-0.420525
0.846887,-0.400920
0.856449,-0.381316
0.864620,-0.361092
0.872791,-0.340868
0.880962,-0.320644
0.887702,-0.299899
0.894443,-0.279155
0.901183,-0.258410
0.906460,-0.237246
0.911737,-0.216081
0.917013,-0.194917
0.920801,-0.173436
0.924589,-0.151956
0.928376,-0.130475
0.930656,-0.108782
0.932936,-0.087089
0.935216,-0.065397
0.935978,-0.043598
0.936739,-0.021799
0.958333,0.000000
0.958149,0.010906
0.947917,0.000000
0.957965,0.021812
0.957343,0.036341
0.956721,0.050870
0.947732,0.010906
0.947041,0.029070
0.946349,0.047234
0.956099,0.065399
0.955179,0.076268
0.945658,0.065398
0.954259,0.087137
0.952641,0.101589
0.951023,0.116041
0.944737,0.076267
0.942789,0.094339
0.940840,0.112411
0.949405,0.130493
0.947754,0.141275
0.938891,0.130484
0.946102,0.152057
0.943496,0.166364
0.940890,0.180671
0.937239,0.141266
0.934042,0.159160
0.930846,0.177054
0.938284,0.194978
0.935908,0.205624
0.927649,0.194947
0.933532,0.216269
0.929951,0.230364
0.926369,0.244458
0.925273,0.205593
0.920844,0.223223
0.916414,0.240852
0.922788,0.258553
0.919698,0.269014
0.911985,0.258481
0.916609,0.279475
0.912069,0.293291
0.907528,0.307106
0.908896,0.268943
0.903256,0.286223
0.897615,0.303503
0.902987,0.320922
0.899199,0.331151
0.891975,0.320783
0.895411,0.341379
0.889933,0.354851
0.884455,0.368322
0.888186,0.331012
0.881362,0.347859
0.874537,0.364707
0.878977,0.381793
0.874506,0.391743
0.867713,0.381554
0.870036,0.401693
0.863646,0.414756
0.857257,0.427820
0.863242,0.391504
0.855267,0.407838
0.847291,0.424172
0.850867,0.440884
0.845735,0.450509
0.839315,0.440507
0.840603,0.460134
0.833332,0.472728
0.826061,0.485323
0.834183,0.450132
0.825095,0.465874
0.816006,0.481616
0.818789,0.497917
0.813020,0.507174
0.806917,0.497358
0.807250,0.516430
0.799131,0.528496
0.791013,0.540561
0.801147,0.506615
0.790990,0.521689
0.780832,0.536764
0.782894,0.552627
0.776513,0.561473
0.770674,0.551838
0.770131,0.570319
0.761204,0.581799
0.752276,0.593279
0.764292,0.560684
0.753114,0.575018
0.741936,0.589352
0.743349,0.604759
0.736384,0.613154
0.730758,0.603686
0.729420,0.621549
0.719726,0.632389
0.710032,0.643229
0.723793,0.612081
0.711649,0.625606
0.699504,0.639131
0.700337,0.654069
0.692822,0.661975
0.687359,0.652656
0.685307,0.669881
0.674892,0.680030
0.664476,0.690179
0.679844,0.660562
0.666791,0.673212
0.653738,0.685863
0.654061,0.700328
0.646029,0.707709
0.640686,0.698513
0.637998,0.715089
0.626910,0.724499
0.615823,0.733910
0.632654,0.705894
0.618756,0.717609
0.604857,0.729325
0.604736,0.743320
0.596224,0.750141
0.590959,0.741040
0.587713,0.756963
0.576006,0.765590
0.564299,0.774217
0.582448,0.747861
0.567771,0.758585
0.553094,0.769309
0.552592,0.782844
0.543639,0.789075
0.538418,0.780033
0.534686,0.795306
0.522415,0.803109
0.510144,0.810913
0.529465,0.786265
0.514080,0.795945
0.498696,0.805626
0.497873,0.818716
0.488520,0.824328
0.483311,0.815307
0.479167,0.829941
0.469629,0.835235
0.473958,0.820920
0.460092,0.840528
0.447199,0.847254
0.434306,0.853980
0.464421,0.826213
0.448345,0.834696
0.432269,0.843179
0.421412,0.860705
0.411539,0.865343
0.416193,0.851662
0.401667,0.869981
0.388342,0.875805
0.375017,0.881630
0.406320,0.856300
0.389694,0.863648
0.373069,0.870997
0.361693,0.887455
0.351529,0.891416
0.356443,0.878345
0.341366,0.895377
0.327673,0.900273
0.313980,0.905170
0.346280,0.882306
0.329185,0.888484
0.312090,0.894663
0.300286,0.910067
0.289879,0.913332
0.294995,0.900841
0.279471,0.916598
0.265474,0.920543
0.251477,0.924488
0.284587,0.904107
0.267105,0.909085
0.249623,0.914064
0.237480,0.928434
0.226876,0.930989
0.232141,0.919043
0.216272,0.933545
0.202037,0.936520
0.187802,0.939496
0.221537,0.921598
0.203752,0.925354
0.185966,0.929109
0.173567,0.942471
0.162815,0.944305
0.168181,0.932864
0.152062,0.946138
0.137657,0.948130
0.123251,0.950121
0.157429,0.934698
0.139426,0.937211
0.121423,0.939725
0.108846,0.952113
0.097994,0.953216
0.103420,0.942238
0.087142,0.954320
0.072634,0.955318
0.058125,0.956316
0.092569,0.943342
0.074435,0.944602
0.056301,0.945862
0.043617,0.957314
0.032715,0.957682
0.038168,0.947121
0.021814,0.958051
0.007271,0.958051
-0.007271,0.958051
0.027266,0.947490
0.009089,0.947490
-0.009089,0.947490
-0.021814,0.958051
-0.032715,0.957682
-0.027266,0.947490
-0.043617,0.957314
-0.058125,0.956316
-0.072634,0.955318
-0.038168,0.947121
-0.056301,0.945862
-0.074435,0.944602
-0.087142,0.954320
-0.097994,0.953216
-0.092569,0.943342
-0.108846,0.952113
-0.123251,0.950121
-0.137657,0.948130
-0.103420,0.942238
-0.121423,0.939725
-0.139426,0.937211
-0.152062,0.946138
-0.162815,0.944305
-0.157429,0.934698
-0.173567,0.942471
-0.187802,0.939496
-0.202037,0.936520
-0.168181,0.932864
-0.185966,0.929109
-0.203752,0.925354
-0.216272,0.933545
-0.226876,0.930989
-0.221537,0.921598
-0.237480,0.928434
-0.251477,0.924488
-0.265474,0.920543
-0.232141,0.919043
-0.249623,0.914064
-0.267105,0.909085
-0.279471,0.916598
-0.289879,0.913332
-0.284587,0.904107
-0.300286,0.910067
-0.313980,0.905170
-0.327673,0.900273
-0.294995,0.900841
-0.312090,0.894663
-0.329185,0.888484
-0.341366,0.895377
-0.351529,0.891416
-0.346280,0.882306
-0.361693,0.887455
-0.375017,0.881630
-0.388342,0.875805
-0.356443,0.878345
-0.373069,0.870997
-0.389694,0.863648
-0.401667,0.869981
-0.411539,0.865343
-0.406320,0.856300
-0.421412,0.860705
-0.434306,0.853980
-0.447199,0.847254
-0.416193,0.851662
-0.432269,0.843179
-0.448345,0.834696
-0.460092,0.840528
-0.469629,0.835235
-0.464421,0.826213
-0.479167,0.829941
-0.488520,0.824328
-0.473958,0.820920
-0.497873,0.818716
-0.510144,0.810913
-0.522415,0.803109
-0.483311,0.815307
-0.498696,0.805626
-0.514080,0.795945
-0.534686,0.795306
-0.543639,0.789075
-0.529465,0.786265
-0.552592,0.782844
-0.564299,0.774217
-0.576006,0.765590
-0.538418,0.780033
-0.553094,0.769309
-0.567771,0.758585
-0.587713,0.756963
-0.596224,0.750141
-0.582448,0.747861
-0.604736,0.743320
-0.615823,0.733910
-0.626910,0.724499
-0.590959,0.741040
-0.604857,0.729325
-0.618756,0.717609
-0.637998,0.715089
-0.646029,0.707709
-0.632654,0.705894
-0.654061,0.700328
-0.664476,0.690179
-0.674892,0.680030
-0.640686,0.698513
-0.653738,0.685863
-0.666791,0.673212
-0.685307,0.669881
-0.692822,0.661975
-0.679844,0.660562
-0.700337,0.654069
-0.710032,0.643229
-0.719726,0.632389
-0.687359,0.652656
-0.699504,0.639131
-0.711649,0.625606
-0.729420,0.621549
-0.736384,0.613154
-0.723793,0.612081
-0.743349,0.604759
-0.752276,0.593279
-0.761204,0.581799
-0.730758,0.603686
-0.741936,0.589352
-0.753114,0.575018
-0.770131,0.570319
-0.776513,0.561473
-0.764292,0.560684
-0.782894,0.552627
-0.791013,0.540561
-0.799131,0.528496
-0.770674,0.551838
-0.780832,0.536764
-0.790990,0.521689
-0.807250,0.516430
-0.813020,0.507174
-0.801147,0.506615
-0.818789,0.497917
-0.826061,0.485323
-0.833332,0.472728
-0.806917,0.497358
-0.816006,0.481616
-0.825095,0.465874
-0.840603,0.460134
-0.845735,0.450509
-0.834183,0.450132
-0.850867,0.440884
-0.857257,0.427820
-0.863646,0.414756
-0.839315,0.440507
-0.847291,0.424172
-0.855267,0.407838
-0.870036,0.401693
-0.874506,0.391743
-0.863242,0.391504
-0.878977,0.381793
-0.884455,0.368322
-0.889933,0.354851
-0.867713,0.381554
-0.874537,0.364707
-0.881362,0.347859
-0.895411,0.341379
-0.899199,0.331151
-0.888186,0.331012
-0.902987,0.320922
-0.907528,0.307106
-0.912069,0.293291
-0.891975,0.320783
-0.897615,0.303503
-0.903256,0.286223
-0.916609,0.279475
-0.919698,0.269014
-0.908896,0.268943
-0.922788,0.258553
-0.926369,0.244458
-0.929951,0.230364
-0.911985,0.258481
-0.916414,0.240852
-0.920844,0.223223
-0.933532,0.216269
-0.935908,0.205624
-0.925273,0.205593
-0.938284,0.194978
-0.940890,0.180671
-0.943496,0.166364
-0.927649,0.194947
-0.930846,0.177054
-0.934042,0.159160
-0.946102,0.152057
-0.947754,0.141275
-0.937239,0.141266
-0.949405,0.130493
-0.951023,0.116041
-0.952641,0.101589
-0.938891,0.130484
-0.940840,0.112411
-0.942789,0.094339
-0.954259,0.087137
-0.955179,0.076268
-0.944737,0.076267
-0.956099,0.065399
-0.956721,0.050870
-0.957343,0.036341
-0.945658,0.065398
-0.946349,0.047234
-0.947041,0.029070
-0.957965,0.021812
-0.958149,0.010906
-0.947732,0.010906
-0.958333,0.000000
-0.958149,-0.010906
-0.947917,0.000000
-0.957965,-0.021812
-0.957343,-0.036341
-0.956721,-0.050870
-0.947732,-0.010906
-0.947041,-0.029070
-0.946349,-0.047234
-0.956099,-0.065399
-0.955179,-0.076268
-0.945658,-0.065398
-0.954259,-0.087137
-0.952641,-0.101589
-0.951023,-0.116041
-0.944737,-0.076267
-0.942789,-0.094339
-0.940840,-0.112411
-0.949405,-0.130493
-0.947754,-0.141275
-0.938891,-0.130484
-0.946102,-0.152057
-0.943496,-0.166364
-0.940890,-0.180671
-0.937239,-0.141266
-0.934042,-0.159160
-0.930846,-0.177054
-0.938284,-0.194978
-0.935908,-0.205624
-0.927649,-0.194947
-0.933532,-0.216269
-0.929951,-0.230364
-0.926369,-0.244458
-0.925273,-0.205593
-0.920844,-0.223223
-0.916414,-0.240852
-0.922788,-0.258553
-0.919698,-0.269014
-0.911985,-0.258481
-0.916609,-0.279475
-0.912069,-0.293291
-0.907528,-0.307106
-0.908896,-0.268943
-0.903256,-0.286223
-0.897615,-0.303503
-0.902987,-0.320922
-0.899199,-0.331151
-0.891975,-0.320783
-0.895411,-0.341379
-0.889933,-0.354851
-0.884455,-0.368322
-0.888186,-0.331012
-0.881362,-0.347859
-0.874537,-0.364707
-0.878977,-0.381793
-0.874506,-0.391743
-0.867713,-0.381554
-0.870036,-0.401693
-0.863646,-0.414756
-0.857257,-0.427820
-0.863242,-0.391504
-0.855267,-0.407838
-0.847291,-0.424172
-0.850867,-0.440884
-0.845735,-0.450509
-0.839315,-0.440507
-0.840603,-0.460134
-0.833332,-0.472728
-0.826061,-0.485323
-0.834183,-0.450132
-0.825095,-0.465874
-0.816006,-0.481616
-0.818789,-0.497917
-0.813020,-0.507174
-0.806917,-0.497358
-0.807250,-0.516430
-0.799131,-0.528496
-0.791013,-0.540561
-0.801147,-0.506615
-0.790990,-0.521689
-0.780832,-0.536764
-0.782894,-0.552627
-0.776513,-0.561473
-0.770674,-0.551838
-0.770131,-0.570319
-0.761204,-0.581799
-0.752276,-0.593279
-0.764292,-0.560684
-0.753114,-0.575018
-0.741936,-0.589352
-0.743349,-0.604759
-0.736384,-0.613154
-0.730758,-0.603686
-0.729420,-0.621549
-0.719726,-0.632389
-0.710032,-0.643229
-0.723793,-0.612081
-0.711649,-0.625606
-0.699504,-0.639131
-0.700337,-0.654069
-0.692822,-0.661975
-0.687359,-0.652656
-0.685307,-0.669881
-0.674892,-0.680030
-0.664476,-0.690179
-0.679844,-0.660562
-0.666791,-0.673212
-0.653738,-0.685863
-0.654061,-0.700328
-0.646029,-0.707709
-0.640686,-0.698513
-0.637998,-0.715089
-0.626910,-0.724499
-0.615823,-0.733910
-0.632654,-0.705894
-0.618756,-0.717609
-0.604857,-0.729325
-0.604736,-0.743320
-0.596224,-0.750141
-0.590959,-0.741040
-0.587713,-0.756963
-0.576006,-0.765590
-0.564299,-0.774217
-0.582448,-0.747861
-0.567771,-0.758585
-0.553094,-0.769309
-0.552592,-0.782844
-0.543639,-0.789075
-0.538418,-0.780033
-0.534686,-0.795306
-0.522415,-0.803109
-0.510144,-0.810913
-0.529465,-0.786265
-0.514080,-0.795945
-0.498696,-0.805626
-0.497873,-0.818716
-0.488520,-0.824328
-0.483311,-0.815307
-0.479167,-0.829941
-0.469629,-0.835235
-0.473958,-0.820920
-0.460092,-0.840528
-0.447199,-0.847254
-0.434306,-0.853980
-0.464421,-0.826213
-0.448345,-0.834696
-0.432269,-0.843179
-0.421412,-0.860705
-0.411539,-0.865343
-0.416193,-0.851662
-0.401667,-0.869981
-0.388342,-0.875805
-0.375017,-0.881630
-0.406320,-0.856300
-0.389694,-0.863648
-0.373069,-0.870997
-0.361693,-0.887455
-0.351529,-0.891416
-0.356443,-0.878345
-0.341366,-0.895377
-0.327673,-0.900273
-0.313980,-0.905170
-0.346280,-0.882306
-0.329185,-0.888484
-0.312090,-0.894663
-0.300286,-0.910067
-0.289879,-0.913332
-0.294995,-0.900841
-0.279471,-0.916598
-0.265474,-0.920543
-0.251477,-0.924488
-0.284587,-0.904107
-0.267105,-0.909085
-0.249623,-0.914064
-0.237480,-0.928434
-0.226876,-0.930989
-0.232141,-0.919043
-0.216272,-0.933545
-0.202037,-0.936520
-0.187802,-0.939496
-0.221537,-0.921598
-0.203752,-0.925354
-0.185966,-0.929109
-0.173567,-0.942471
-0.162815,-0.944305
-0.168181,-0.932864
-0.152062,-0.946138
-0.137657,-0.948130
-0.123251,-0.950121
-0.157429,-0.934698
-0.139426,-0.937211
-0.121423,-0.939725
-0.108846,-0.952113
-0.097994,-0.953216
-0.103420,-0.942238
-0.087142,-0.954320
-0.072634,-0.955318
-0.058125,-0.956316
-0.092569,-0.943342
-0.074435,-0.944602
-0.056301,-0.945862
-0.043617,-0.957314
-0.032715,-0.957682
-0.038168,-0.947121
-0.021814,-0.958051
-0.007271,-0.958051
0.007271,-0.958051
-0.027266,-0.947490
-0.009089,-0.947490
0.009089,-0.947490
0.021814,-0.958051
0.032715,-0.957682
0.027266,-0.947490
0.043617,-0.957314
0.058125,-0.956316
0.072634,-0.955318
0.038168,-0.947121
0.056301,-0.945862
0.074435,-0.944602
0.087142,-0.954320
0.097994,-0.953216
0.092569,-0.943342
0.108846,-0.952113
0.123251,-0.950121
0.137657,-0.948130
0.103420,-0.942238
0.121423,-0.939725
0.139426,-0.937211
0.152062,-0.946138
0.162815,-0.944305
0.157429,-0.934698
0.173567,-0.942471
0.187802,-0.939496
0.202037,-0.936520
0.168181,-0.932864
0.185966,-0.929109
0.203752,-0.925354
0.216272,-0.933545
0.226876,-0.930989
0.221537,-0.921598
0.237480,-0.928434
0.251477,-0.924488
0.265474,-0.920543
0.232141,-0.919043
0.249623,-0.914064
0.267105,-0.909085
0.279471,-0.916598
0.289879,-0.913332
0.284587,-0.904107
0.300286,-0.910067
0.313980,-0.905170
0.327673,-0.900273
0.294995,-0.900841
0.312090,-0.894663
0.329185,-0.888484
0.341366,-0.895377
0.351529,-0.891416
0.346280,-0.882306
0.361693,-0.887455
0.375017,-0.881630
0.388342,-0.875805
0.356443,-0.878345
0.373069,-0.870997
0.389694,-0.863648
0.401667,-0.869981
0.411539,-0.865343
0.406320,-0.856300
0.421412,-0.860705
0.434306,-0.853980
0.447199,-0.847254
0.416193,-0.851662
0.432269,-0.843179
0.448345,-0.834696
0.460092,-0.840528
0.469629,-0.835235
0.464421,-0.826213
0.479167,-0.829941
0.488520,-0.824328
0.473958,-0.820920
0.497873,-0.818716
0.510144,-0.810913
0.522415,-0.803109
0.483311,-0.815307
0.498696,-0.805626
0.514080,-0.795945
0.534686,-0.795306
0.543639,-0.789075
0.529465,-0.786265
0.552592,-0.782844
0.564299,-0.774217
0.576006,-0.765590
0.538418,-0.780033
0.553094,-0.769309
0.567771,-0.758585
0.587713,-0.756963
0.596224,-0.750141
0.582448,-0.747861
0.604736,-0.743320
0.615823,-0.733910
0.626910,-0.724499
0.590959,-0.741040
0.604857,-0.729325
0.618756,-0.717609
0.637998,-0.715089
0.646029,-0.707709
0.632654,-0.705894
0.654061,-0.700328
0.664476,-0.690179
0.674892,-0.680030
0.640686,-0.698513
0.653738,-0.685863
0.666791,-0.673212
0.685307,-0.669881
0.692822,-0.661975
0.679844,-0.660562
0.700337,-0.654069
0.710032,-0.643229
0.719726,-0.632389
0.687359,-0.652656
0.699504,-0.639131
0.711649,-0.625606
0.729420,-0.621549
0.736384,-0.613154
0.723793,-0.612081
0.743349,-0.604759
0.752276,-0.593279
0.761204,-0.581799
0.730758,-0.603686
0.741936,-0.589352
0.753114,-0.575018
0.770131,-0.570319
0.776513,-0.561473
0.764292,-0.560684
0.782894,-0.552627
0.791013,-0.540561
0.799131,-0.528496
0.770674,-0.551838
0.780832,-0.536764
0.790990,-0.521689
0.807250,-0.516430
0.813020,-0.507174
0.801147,-0.506615
0.818789,-0.497917
0.826061,-0.485323
0.833332,-0.472728
0.806917,-0.497358
0.816006,-0.481616
0.825095,-0.465874
0.840603,-0.460134
0.845735,-0.450509
0.834183,-0.450132
0.850867,-0.440884
0.857257,-0.427820
0.863646,-0.414756
0.839315,-0.440507
0.847291,-0.424172
0.855267,-0.407838
0.870036,-0.401693
0.874506,-0.391743
0.863242,-0.391504
0.878977,-0.381793
0.884455,-0.368322
0.889933,-0.354851
0.867713,-0.381554
0.874537,-0.364707
0.881362,-0.347859
0.895411,-0.341379
0.899199,-0.331151
0.888186,-0.331012
0.902987,-0.320922
0.907528,-0.307106
0.912069,-0.293291
0.891975,-0.320783
0.897615,-0.303503
0.903256,-0.286223
0.916609,-0.279475
0.919698,-0.269014
0.908896,-0.268943
0.922788,-0.258553
0.926369,-0.244458
0.929951,-0.230364
0.911985,-0.258481
0.916414,-0.240852
0.920844,-0.223223
0.933532,-0.216269
0.935908,-0.205624
0.925273,-0.205593
0.938284,-0.194978
0.940890,-0.180671
0.943496,-0.166364
0.927649,-0.194947
0.930846,-0.177054
0.934042,-0.159160
0.946102,-0.152057
0.947754,-0.141275
0.937239,-0.141266
0.949405,-0.130493
0.951023,-0.116041
0.952641,-0.101589
0.938891,-0.130484
0.940840,-0.112411
0.942789,-0.094339
0.954259,-0.087137
0.955179,-0.076268
0.944737,-0.076267
0.956099,-0.065399
0.956721,-0.050870
0.957343,-0.036341
0.945658,-0.065398
0.946349,-0.047234
0.947041,-0.029070
0.957965,-0.021812
0.958149,-0.010906
0.947732,-0.010906
0.968750,0.000000
0.968474,0.016359
0.968197,0.032719
0.967369,0.049059
0.966540,0.065400
0.965160,0.081703
0.963780,0.098007
0.961850,0.114254
0.959920,0.130502
0.957442,0.146675
0.954964,0.162848
0.951942,0.178928
0.948920,0.195008
0.945356,0.210977
0.941792,0.226946
0.937691,0.242785
0.933590,0.258624
0.928956,0.274316
0.924322,0.290008
0.919161,0.305534
0.914000,0.321061
0.908318,0.336404
0.902635,0.351747
0.896438,0.366890
0.890240,0.382032
0.883535,0.396957
0.876830,0.411881
0.869624,0.426571
0.862418,0.441261
0.854721,0.455698
0.847023,0.470136
0.838842,0.484306
0.830662,0.498476
0.822007,0.512361
0.813352,0.526246
0.804233,0.539831
0.795115,0.553416
0.785542,0.566685
0.775970,0.579955
0.765955,0.592893
0.755940,0.605832
0.745493,0.618424
0.735047,0.631017
0.724181,0.643250
0.713316,0.655483
0.702043,0.667342
0.690770,0.679200
0.679103,0.690672
0.667437,0.702143
0.655389,0.713214
0.643342,0.724285
0.630927,0.734942
0.618513,0.745600
0.605745,0.755832
0.592978,0.766064
0.579872,0.775859
0.566766,0.785654
0.553337,0.795001
0.539908,0.804348
0.526171,0.813236
0.512434,0.822124
0.498404,0.830543
0.484375,0.838962
0.470069,0.846902
0.455763,0.854843
0.441198,0.862295
0.426632,0.869748
0.411823,0.876705
0.397013,0.883661
0.381978,0.890113
0.366942,0.896566
0.351697,0.902507
0.336452,0.908447
0.321015,0.913870
0.305578,0.919292
0.289967,0.924191
0.274355,0.929089
0.258587,0.933457
0.242820,0.937825
0.226913,0.941658
0.211007,0.945491
0.194980,0.948784
0.178953,0.952078
0.162825,0.954828
0.146696,0.957579
0.130483,0.959783
0.114271,0.961987
0.097993,0.963642
0.081715,0.965297
0.065391,0.966402
0.049066,0.967507
0.032714,0.968059
0.016362,0.968612
0.000000,0.968612
-0.016362,0.968612
-0.032714,0.968059
-0.049066,0.967507
-0.065391,0.966402
-0.081715,0.965297
-0.097993,0.963642
-0.114271,0.961987
-0.130483,0.959783
-0.146696,0.957579
-0.162825,0.954828
-0.178953,0.952078
-0.194980,0.948784
-0.211007,0.945491
-0.226913,0.941658
-0.242820,0.937825
-0.258587,0.933457
-0.274355,0.929089
-0.289967,0.924191
-0.305578,0.919292
-0.321015,0.913870
-0.336452,0.908447
-0.351697,0.902507
-0.366942,0.896566
-0.381978,0.890113
-0.397013,0.883661
-0.411823,0.876705
-0.426632,0.869748
-0.441198,0.862295
-0.455763,0.854843
-0.470069,0.846902
-0.484375,0.838962
-0.498404,0.830543
-0.512434,0.822124
-0.526171,0.813236
-0.539908,0.804348
-0.553337,0.795001
-0.566766,0.785654
-0.579872,0.775859
-0.592978,0.766064
-0.605745,0.755832
-0.618513,0.745600
-0.630927,0.734942
-0.643342,0.724285
-0.655389,0.713214
-0.667437,0.702143
-0.679103,0.690672
-0.690770,0.679200
-0.702043,0.667342
-0.713316,0.655483
-0.724181,0.643250
-0.735047,0.631017
-0.745493,0.618424
-0.755940,0.605832
-0.765955,0.592893
-0.775970,0.579955
-0.785542,0.566685
-0.795115,0.553416
-0.804233,0.539831
-0.813352,0.526246
-0.822007,0.512361
-0.830662,0.498476
-0.838842,0.484306
-0.847023,0.470136
-0.854721,0.455698
-0.862418,0.441261
-0.869624,0.426571
-0.876830,0.411881
-0.883535,0.396957
-0.890240,0.382032
-0.896438,0.366890
-0.902635,0.351747
-0.908318,0.336404
-0.914000,0.321061
-0.919161,0.305534
-0.924322,0.290008
-0.928956,0.274316
-0.933590,0.258624
-0.937691,0.242785
-0.941792,0.226946
-0.945356,0.210977
-0.948920,0.195008
-0.951942,0.178928
-0.954964,0.162848
-0.957442,0.146675
-0.959920,0.130502
-0.961850,0.114254
-0.963780,0.098007
-0.965160,0.081703
-0.966540,0.065400
-0.967369,0.049059
-0.968197,0.032719
-0.968474,0.016359
-0.968750,0.000000
-0.968474,-0.016359
-0.968197,-0.032719
-0.967369,-0.049059
-0.966540,-0.065400
-0.965160,-0.081703
-0.963780,-0.098007
-0.961850,-0.114254
-0.959920,-0.130502
-0.957442,-0.146675
-0.954964,-0.162848
-0.951942,-0.178928
-0.948920,-0.195008
-0.945356,-0.210977
-0.941792,-0.226946
-0.937691,-0.242785
-0.933590,-0.258624
-0.928956,-0.274316
-0.924322,-0.290008
-0.919161,-0.305534
-0.914000,-0.321061
-0.908318,-0.336404
-0.902635,-0.351747
-0.896438,-0.366890
-0.890240,-0.382032
-0.883535,-0.396957
-0.876830,-0.411881
-0.869624,-0.426571
-0.862418,-0.441261
-0.854721,-0.455698
-0.847023,-0.470136
-0.838842,-0.484306
-0.830662,-0.498476
-0.822007,-0.512361
-0.813352,-0.526246
-0.804233,-0.539831
-0.795115,-0.553416
-0.785542,-0.566685
-0.775970,-0.579955
-0.765955,-0.592893
-0.755940,-0.605832
-0.745493,-0.618424
-0.735047,-0.631017
-0.724181,-0.643250
-0.713316,-0.655483
-0.702043,-0.667342
-0.690770,-0.679200
-0.679103,-0.690672
-0.667437,-0.702143
-0.655389,-0.713214
-0.643342,-0.724285
-0.630927,-0.734942
-0.618513,-0.745600
-0.605745,-0.755832
-0.592978,-0.766064
-0.579872,-0.775859
-0.566766,-0.785654
-0.553337,-0.795001
-0.539908,-0.804348
-0.526171,-0.813236
-0.512434,-0.822124
-0.498404,-0.830543
-0.484375,-0.838962
-0.470069,-0.846902
-0.455763,-0.854843
-0.441198,-0.862295
-0.426632,-0.869748
-0.411823,-0.876705
-0.397013,-0.883661
-0.381978,-0.890113
-0.366942,-0.896566
-0.351697,-0.902507
-0.336452,-0.908447
-0.321015,-0.913870
-0.305578,-0.919292
-0.289967,-0.924191
-0.274355,-0.929089
-0.258587,-0.933457
-0.242820,-0.937825
-0.226913,-0.941658
-0.211007,-0.945491
-0.194980,-0.948784
-0.178953,-0.952078
-0.162825,-0.954828
-0.146696,-0.957579
-0.130483,-0.959783
-0.114271,-0.961987
-0.097993,-0.963642
-0.081715,-0.965297
-0.065391,-0.966402
-0.049066,-0.967507
-0.032714,-0.968059
-0.016362,-0.968612
-0.000000,-0.968612
0.016362,-0.968612
0.032714,-0.968059
0.049066,-0.967507
0.065391,-0.966402
0.081715,-0.965297
0.097993,-0.963642
0.114271,-0.961987
0.130483,-0.959783
0.146696,-0.957579
0.162825,-0.954828
0.178953,-0.952078
0.194980,-0.948784
0.211007,-0.945491
0.226913,-0.941658
0.242820,-0.937825
0.258587,-0.933457
0.274355,-0.929089
0.289967,-0.924191
0.305578,-0.919292
0.321015,-0.913870
0.336452,-0.908447
0.351697,-0.902507
0.366942,-0.896566
0.381978,-0.890113
0.397013,-0.883661
0.411823,-0.876705
0.426632,-0.869748
0.441198,-0.862295
0.455763,-0.854843
0.470069,-0.846902
0.484375,-0.838962
0.498404,-0.830543
0.512434,-0.822124
0.526171,-0.813236
0.539908,-0.804348
0.553337,-0.795001
0.566766,-0.785654
0.579872,-0.775859
0.592978,-0.766064
0.605745,-0.755832
0.618513,-0.745600
0.630927,-0.734942
0.643342,-0.724285
0.655389,-0.713214
0.667437,-0.702143
0.679103,-0.690672
0.690770,-0.679200
0.702043,-0.667342
0.713316,-0.655483
0.724181,-0.643250
0.735047,-0.631017
0.745493,-0.618424
0.755940,-0.605832
0.765955,-0.592893
0.775970,-0.579955
0.785542,-0.566685
0.795115,-0.553416
0.804233,-0.539831
0.813352,-0.526246
0.822007,-0.512361
0.830662,-0.498476
0.838842,-0.484306
0.847023,-0.470136
0.854721,-0.455698
0.862418,-0.441261
0.869624,-0.426571
0.876830,-0.411881
0.883535,-0.396957
0.890240,-0.382032
0.896438,-0.366890
0.902635,-0.351747
0.908318,-0.336404
0.914000,-0.321061
0.919161,-0.305534
0.924322,-0.290008
0.928956,-0.274316
0.933590,-0.258624
0.937691,-0.242785
0.941792,-0.226946
0.945356,-0.210977
0.948920,-0.195008
0.951942,-0.178928
0.954964,-0.162848
0.957442,-0.146675
0.959920,-0.130502
0.961850,-0.114254
0.963780,-0.098007
0.965160,-0.081703
0.966540,-0.065400
0.967369,-0.049059
0.968197,-0.032719
0.968474,-0.016359
0.976562,0.000000
0.976495,0.008181
0.976254,0.020450
0.976014,0.032719
0.975674,0.040893
0.975022,0.053147
0.974370,0.065401
0.973759,0.073559
0.972695,0.085784
0.971632,0.098009
0.970749,0.106143
0.969276,0.118325
0.967802,0.130508
0.966650,0.138608
0.964768,0.150734
0.962886,0.162860
0.961465,0.170917
0.959177,0.182973
0.956888,0.195029
0.955201,0.203034
0.952509,0.215007
0.949817,0.226979
0.947864,0.234924
0.944771,0.246799
0.941678,0.258674
0.939462,0.266550
0.935972,0.278314
0.932482,0.290079
0.930006,0.297876
0.926123,0.309517
0.922239,0.321158
0.919505,0.328868
0.915233,0.340372
0.910961,0.351876
0.907972,0.359491
0.903316,0.370845
0.898659,0.382199
0.895419,0.389711
0.890384,0.400902
0.885349,0.412093
0.881860,0.419493
0.876452,0.430508
0.871044,0.441524
0.867312,0.448804
0.861537,0.459631
0.855761,0.470459
0.851789,0.477611
0.845653,0.488238
0.839518,0.498866
0.835310,0.505882
0.828821,0.516297
0.822331,0.526712
0.817893,0.533584
0.811057,0.543776
0.804222,0.553967
0.799557,0.560688
0.792383,0.570644
0.785209,0.580600
0.780324,0.587162
0.772819,0.596872
0.765315,0.606581
0.760214,0.612977
0.752387,0.622429
0.744561,0.631881
0.739250,0.638104
0.731111,0.647287
0.722971,0.656471
0.717457,0.662514
0.709013,0.671419
0.700570,0.680323
0.694857,0.686180
0.686120,0.694796
0.677382,0.703412
0.671478,0.709076
0.662456,0.717393
0.653433,0.725711
0.647344,0.731175
0.638048,0.739185
0.628751,0.747195
0.622484,0.752454
0.612923,0.760147
0.603363,0.767840
0.596924,0.772887
0.587111,0.780255
0.577297,0.787622
0.570694,0.792453
0.560639,0.799486
0.550583,0.806520
0.543824,0.811129
0.533538,0.817821
0.523251,0.824512
0.516342,0.828894
0.505837,0.835236
0.495332,0.841579
0.488281,0.845728
0.481162,0.849759
0.470417,0.855686
0.459672,0.861612
0.452423,0.865405
0.441485,0.870967
0.430546,0.876530
0.423175,0.880079
0.412056,0.885271
0.400937,0.890462
0.393452,0.893765
0.382165,0.898580
0.370878,0.903395
0.363287,0.906447
0.351845,0.910880
0.340402,0.915314
0.332714,0.918112
0.321129,0.922158
0.309544,0.926204
0.301768,0.928745
0.290053,0.932400
0.278339,0.936055
0.270482,0.938336
0.258651,0.941595
0.246821,0.944854
0.238892,0.946873
0.226959,0.949733
0.215025,0.952593
0.207035,0.954347
0.195012,0.956804
0.182989,0.959261
0.174944,0.960749
0.162846,0.962801
0.150747,0.964853
0.142657,0.966072
0.130496,0.967717
0.118336,0.969361
0.110210,0.970311
0.098001,0.971546
0.085792,0.972781
0.077639,0.973460
0.065395,0.974284
0.053151,0.975108
0.044980,0.975516
0.032716,0.975928
0.020451,0.976340
0.012271,0.976476
0.000000,0.976476
-0.012271,0.976476
-0.020451,0.976340
-0.032716,0.975928
-0.044980,0.975516
-0.053151,0.975108
-0.065395,0.974284
-0.077639,0.973460
-0.085792,0.972781
-0.098001,0.971546
-0.110210,0.970311
-0.118336,0.969361
-0.130496,0.967717
-0.142657,0.966072
-0.150747,0.964853
-0.162846,0.962801
-0.174944,0.960749
-0.182989,0.959261
-0.195012,0.956804
-0.207035,0.954347
-0.215025,0.952593
-0.226959,0.949733
-0.238892,0.946873
-0.246821,0.944854
-0.258651,0.941595
-0.270482,0.938336
-0.278339,0.936055
-0.290053,0.932400
-0.301768,0.928745
-0.309544,0.926204
-0.321129,0.922158
-0.332714,0.918112
-0.340402,0.915314
-0.351845,0.910880
-0.363287,0.906447
-0.370878,0.903395
-0.382165,0.898580
-0.393452,0.893765
-0.400937,0.890462
-0.412056,0.885271
-0.423175,0.880079
-0.430546,0.876530
-0.441485,0.870967
-0.452423,0.865405
-0.459672,0.861612
-0.470417,0.855686
-0.481162,0.849759
-0.488281,0.845728
-0.495332,0.841579
-0.505837,0.835236
-0.516342,0.828894
-0.523251,0.824512
-0.533538,0.817821
-0.543824,0.811129
-0.550583,0.806520
-0.560639,0.799486
-0.570694,0.792453
-0.577297,0.787622
-0.587111,0.780255
-0.596924,0.772887
-0.603363,0.767840
-0.612923,0.760147
-0.622484,0.752454
-0.628751,0.747195
-0.638048,0.739185
-0.647344,0.731175
-0.653433,0.725711
-0.662456,0.717393
-0.671478,0.709076
-0.677382,0.703412
-0.686120,0.694796
-0.694857,0.686180
-0.700570,0.680323
-0.709013,0.671419
-0.717457,0.662514
-0.722971,0.656471
-0.731111,0.647287
-0.739250,0.638104
-0.744561,0.631881
-0.752387,0.622429
-0.760214,0.612977
-0.765315,0.606581
-0.772819,0.596872
-0.780324,0.587162
-0.785209,0.580600
-0.792383,0.570644
-0.799557,0.560688
-0.804222,0.553967
-0.811057,0.543776
-0.817893,0.533584
-0.822331,0.526712
-0.828821,0.516297
-0.835310,0.505882
-0.839518,0.498866
-0.845653,0.488238
-0.851789,0.477611
-0.855761,0.470459
-0.861537,0.459631
-0.867312,0.448804
-0.871044,0.441524
-0.876452,0.430508
-0.881860,0.419493
-0.885349,0.412093
-0.890384,0.400902
-0.895419,0.389711
-0.898659,0.382199
-0.903316,0.370845
-0.907972,0.359491
-0.910961,0.351876
-0.915233,0.340372
-0.919505,0.328868
-0.922239,0.321158
-0.926123,0.309517
-0.930006,0.297876
-0.932482,0.290079
-0.935972,0.278314
-0.939462,0.266550
-0.941678,0.258674
-0.944771,0.246799
-0.947864,0.234924
-0.949817,0.226979
-0.952509,0.215007
-0.955201,0.203034
-0.956888,0.195029
-0.959177,0.182973
-0.961465,0.170917
-0.962886,0.162860
-0.964768,0.150734
-0.966650,0.138608
-0.967802,0.130508
-0.969276,0.118325
-0.970749,0.106143
-0.971632,0.098009
-0.972695,0.085784
-0.973759,0.073559
-0.974370,0.065401
-0.975022,0.053147
-0.975674,0.040893
-0.976014,0.032719
-0.976254,0.020450
-0.976495,0.008181
-0.976562,-0.000000
-0.976495,-0.008181
-0.976254,-0.020450
-0.976014,-0.032719
-0.975674,-0.040893
-0.975022,-0.053147
-0.974370,-0.065401
-0.973759,-0.073559
-0.972695,-0.085784
-0.971632,-0.098009
-0.970749,-0.106143
-0.969276,-0.118325
-0.967802,-0.130508
-0.966650,-0.138608
-0.964768,-0.150734
-0.962886,-0.162860
-0.961465,-0.170917
-0.959177,-0.182973
-0.956888,-0.195029
-0.955201,-0.203034
-0.952509,-0.215007
-0.949817,-0.226979
-0.947864,-0.234924
-0.944771,-0.246799
-0.941678,-0.258674
-0.939462,-0.266550
-0.935972,-0.278314
-0.932482,-0.290079
-0.930006,-0.297876
-0.926123,-0.309517
-0.922239,-0.321158
-0.919505,-0.328868
-0.915233,-0.340372
-0.910961,-0.351876
-0.907972,-0.359491
-0.903316,-0.370845
-0.898659,-0.382199
-0.895419,-0.389711
-0.890384,-0.400902
-0.885349,-0.412093
-0.881860,-0.419493
-0.876452,-0.430508
-0.871044,-0.441524
-0.867312,-0.448804
-0.861537,-0.459631
-0.855761,-0.470459
-0.851789,-0.477611
-0.845653,-0.488238
-0.839518,-0.498866
-0.835310,-0.505882
-0.828821,-0.516297
-0.822331,-0.526712
-0.817893,-0.533584
-0.811057,-0.543776
-0.804222,-0.553967
-0.799557,-0.560688
-0.792383,-0.570644
-0.785209,-0.580600
-0.780324,-0.587162
-0.772819,-0.596872
-0.765315,-0.606581
-0.760214,-0.612977
-0.752387,-0.622429
-0.744561,-0.631881
-0.739250,-0.638104
-0.731111,-0.647287
-0.722971,-0.656471
-0.717457,-0.662514
-0.709013,-0.671419
-0.700570,-0.680323
-0.694857,-0.686180
-0.686120,-0.694796
-0.677382,-0.703412
-0.671478,-0.709076
-0.662456,-0.717393
-0.653433,-0.725711
-0.647344,-0.731175
-0.638048,-0.739185
-0.628751,-0.747195
-0.622484,-0.752454
-0.612923,-0.760147
-0.603363,-0.767840
-0.596924,-0.772887
-0.587111,-0.780255
-0.577297,-0.787622
-0.570694,-0.792453
-0.560639,-0.799486
-0.550583,-0.806520
-0.543824,-0.811129
-0.533538,-0.817821
-0.523251,-0.824512
-0.516342,-0.828894
-0.505837,-0.835236
-0.495332,-0.841579
-0.488281,-0.845728
-0.481162,-0.849759
-0.470417,-0.855686
-0.459672,-0.861612
-0.452423,-0.865405
-0.441485,-0.870967
-0.430546,-0.876530
-0.423175,-0.880079
-0.412056,-0.885271
-0.400937,-0.890462
-0.393452,-0.893765
-0.382165,-0.898580
-0.370878,-0.903395
-0.363287,-0.906447
-0.351845,-0.910880
-0.340402,-0.915314
-0.332714,-0.918112
-0.321129,-0.922158
-0.309544,-0.926204
-0.301768,-0.928745
-0.290053,-0.932400
-0.278339,-0.936055
-0.270482,-0.938336
-0.258651,-0.941595
-0.246821,-0.944854
-0.238892,-0.946873
-0.226959,-0.949733
-0.215025,-0.952593
-0.207035,-0.954347
-0.195012,-0.956804
-0.182989,-0.959261
-0.174944,-0.960749
-0.162846,-0.962801
-0.150747,-0.964853
-0.142657,-0.966072
-0.130496,-0.967717
-0.118336,-0.969361
-0.110210,-0.970311
-0.098001,-0.971546
-0.085792,-0.972781
-0.077639,-0.973460
-0.065395,-0.974284
-0.053151,-0.975108
-0.044980,-0.975516
-0.032716,-0.975928
-0.020451,-0.976340
-0.012271,-0.976476
0.000000,-0.976476
0.012271,-0.976476
0.020451,-0.976340
0.032716,-0.975928
0.044980,-0.975516
0.053151,-0.975108
0.065395,-0.974284
0.077639,-0.973460
0.085792,-0.972781
0.098001,-0.971546
0.110210,-0.970311
0.118336,-0.969361
0.130496,-0.967717
0.142657,-0.966072
0.150747,-0.964853
0.162846,-0.962801
0.174944,-0.960749
0.182989,-0.959261
0.195012,-0.956804
0.207035,-0.954347
0.215025,-0.952593
0.226959,-0.949733
0.238892,-0.946873
0.246821,-0.944854
0.258651,-0.941595
0.270482,-0.938336
0.278339,-0.936055
0.290053,-0.932400
0.301768,-0.928745
0.309544,-0.926204
0.321129,-0.922158
0.332714,-0.918112
0.340402,-0.915314
0.351845,-0.910880
0.363287,-0.906447
0.370878,-0.903395
0.382165,-0.898580
0.393452,-0.893765
0.400937,-0.890462
0.412056,-0.885271
0.423175,-0.880079
0.430546,-0.876530
0.441485,-0.870967
0.452423,-0.865405
0.459672,-0.861612
0.470417,-0.855686
0.481162,-0.849759
0.488281,-0.845728
0.495332,-0.841579
0.505837,-0.835236
0.516342,-0.828894
0.523251,-0.824512
0.533538,-0.817821
0.543824,-0.811129
0.550583,-0.806520
0.560639,-0.799486
0.570694,-0.792453
0.577297,-0.787622
0.587111,-0.780255
0.596924,-0.772887
0.603363,-0.767840
0.612923,-0.760147
0.622484,-0.752454
0.628751,-0.747195
0.638048,-0.739185
0.647344,-0.731175
0.653433,-0.725711
0.662456,-0.717393
0.671478,-0.709076
0.677382,-0.703412
0.686120,-0.694796
0.694857,-0.686180
0.700570,-0.680323
0.709013,-0.671419
0.717457,-0.662514
0.722971,-0.656471
0.731111,-0.647287
0.739250,-0.638104
0.744561,-0.631881
0.752387,-0.622429
0.760214,-0.612977
0.765315,-0.606581
0.772819,-0.596872
0.780324,-0.587162
0.785209,-0.580600
0.792383,-0.570644
0.799557,-0.560688
0.804222,-0.553967
0.811057,-0.543776
0.817893,-0.533584
0.822331,-0.526712
0.828821,-0.516297
0.835310,-0.505882
0.839518,-0.498866
0.845653,-0.488238
0.851789,-0.477611
0.855761,-0.470459
0.861537,-0.459631
0.867312,-0.448804
0.871044,-0.441524
0.876452,-0.430508
0.881860,-0.419493
0.885349,-0.412093
0.890384,-0.400902
0.895419,-0.389711
0.898659,-0.382199
0.903316,-0.370845
0.907972,-0.359491
0.910961,-0.351876
0.915233,-0.340372
0.919505,-0.328868
0.922239,-0.321158
0.926123,-0.309517
0.930006,-0.297876
0.932482,-0.290079
0.935972,-0.278314
0.939462,-0.266550
0.941678,-0.258674
0.944771,-0.246799
0.947864,-0.234924
0.949817,-0.226979
0.952509,-0.215007
0.955201,-0.203034
0.956888,-0.195029
0.959177,-0.182973
0.961465,-0.170917
0.962886,-0.162860
0.964768,-0.150734
0.966650,-0.138608
0.967802,-0.130508
0.969276,-0.118325
0.970749,-0.106143
0.971632,-0.098009
0.972695,-0.085784
0.973759,-0.073559
0.974370,-0.065401
0.975022,-0.053147
0.975674,-0.040893
0.976014,-0.032719
0.976254,-0.020450
0.976495,-0.008181
0.984375,0.000000
0.984239,0.016362
0.983831,0.032719
0.983151,0.049067
0.982200,0.065402
0.980977,0.081718
0.979483,0.098012
0.977719,0.114279
0.975684,0.130514
0.973380,0.146713
0.970807,0.162872
0.967966,0.178986
0.964857,0.195050
0.961482,0.211060
0.957841,0.227012
0.953935,0.242902
0.949766,0.258724
0.945335,0.274475
0.940642,0.290150
0.935689,0.305744
0.930478,0.321255
0.925010,0.336676
0.919286,0.352005
0.913308,0.367236
0.907078,0.382366
0.900597,0.397390
0.893868,0.412304
0.886891,0.427104
0.879670,0.441787
0.872205,0.456347
0.864499,0.470781
0.856555,0.485085
0.848374,0.499256
0.839958,0.513288
0.831311,0.527178
0.822433,0.540923
0.813329,0.554518
0.804000,0.567960
0.794448,0.581245
0.784677,0.594370
0.774690,0.607330
0.764488,0.620123
0.754075,0.632744
0.743454,0.645190
0.732627,0.657459
0.721598,0.669545
0.710369,0.681447
0.698945,0.693160
0.687327,0.704681
0.675519,0.716008
0.663525,0.727138
0.651347,0.738066
0.638989,0.748790
0.626455,0.759308
0.613748,0.769615
0.600871,0.779710
0.587828,0.789590
0.574623,0.799251
0.561259,0.808692
0.547739,0.817909
0.534069,0.826901
0.520251,0.835663
0.506289,0.844195
0.492188,0.852494
0.477950,0.860557
0.463580,0.868382
0.449082,0.875968
0.434461,0.883311
0.419719,0.890410
0.404861,0.897264
0.389891,0.903869
0.374814,0.910225
0.359633,0.916329
0.344352,0.922180
0.328977,0.927776
0.313510,0.933116
0.297957,0.938198
0.282322,0.943021
0.266609,0.947583
0.250822,0.951884
0.234965,0.955921
0.219044,0.959695
0.203062,0.963203
0.187024,0.966445
0.170935,0.969420
0.154798,0.972127
0.138619,0.974566
0.122401,0.976735
0.106149,0.978635
0.089868,0.980264
0.073562,0.981622
0.057236,0.982710
0.040894,0.983525
0.024541,0.984069
0.008181,0.984341
-0.008181,0.984341
-0.024541,0.984069
-0.040894,0.983525
-0.057236,0.982710
-0.073562,0.981622
-0.089868,0.980264
-0.106149,0.978635
-0.122401,0.976735
-0.138619,0.974566
-0.154798,0.972127
-0.170935,0.969420
-0.187024,0.966445
-0.203062,0.963203
-0.219044,0.959695
-0.234965,0.955921
-0.250822,0.951884
-0.266609,0.947583
-0.282322,0.943021
-0.297957,0.938198
-0.313510,0.933116
-0.328977,0.927776
-0.344352,0.922180
-0.359633,0.916329
-0.374814,0.910225
-0.389891,0.903869
-0.404861,0.897264
-0.419719,0.890410
-0.434461,0.883311
-0.449082,0.875968
-0.463580,0.868382
-0.477950,0.860557
-0.492188,0.852494
-0.506289,0.844195
-0.520251,0.835663
-0.534069,0.826901
-0.547739,0.817909
-0.561259,0.808692
-0.574623,0.799251
-0.587828,0.789590
-0.600871,0.779710
-0.613748,0.769615
-0.626455,0.759308
-0.638989,0.748790
-0.651347,0.738066
-0.663525,0.727138
-0.675519,0.716008
-0.687327,0.704681
-0.698945,0.693160
-0.710369,0.681447
-0.721598,0.669545
-0.732627,0.657459
-0.743454,0.645190
-0.754075,0.632744
-0.764488,0.620123
-0.774690,0.607330
-0.784677,0.594370
-0.794448,0.581245
-0.804000,0.567960
-0.813329,0.554518
-0.822433,0.540923
-0.831311,0.527178
-0.839958,0.513288
-0.848374,0.499256
-0.856555,0.485085
-0.864499,0.470781
-0.872205,0.456347
-0.879670,0.441787
-0.886891,0.427104
-0.893868,0.412304
-0.900597,0.397390
-0.907078,0.382366
-0.913308,0.367236
-0.919286,0.352005
-0.925010,0.336676
-0.930478,0.321255
-0.935689,0.305744
-0.940642,0.290150
-0.945335,0.274475
-0.949766,0.258724
-0.953935,0.242902
-0.957841,0.227012
-0.961482,0.211060
-0.964857,0.195050
-0.967966,0.178986
-0.970807,0.162872
-0.973380,0.146713
-0.975684,0.130514
-0.977719,0.114279
-0.979483,0.098012
-0.980977,0.081718
-0.982200,0.065402
-0.983151,0.049067
-0.983831,0.032719
-0.984239,0.016362
-0.984375,-0.000000
-0.984239,-0.016362
-0.983831,-0.032719
-0.983151,-0.049067
-0.982200,-0.065402
-0.980977,-0.081718
-0.979483,-0.098012
-0.977719,-0.114279
-0.975684,-0.130514
-0.973380,-0.146713
-0.970807,-0.162872
-0.967966,-0.178986
-0.964857,-0.195050
-0.961482,-0.211060
-0.957841,-0.227012
-0.953935,-0.242902
-0.949766,-0.258724
-0.945335,-0.274475
-0.940642,-0.290150
-0.935689,-0.305744
-0.930478,-0.321255
-0.925010,-0.336676
-0.919286,-0.352005
-0.913308,-0.367236
-0.907078,-0.382366
-0.900597,-0.397390
-0.893868,-0.412304
-0.886891,-0.427104
-0.879670,-0.441787
-0.872205,-0.456347
-0.864499,-0.470781
-0.856555,-0.485085
-0.848374,-0.499256
-0.839958,-0.513288
-0.831311,-0.527178
-0.822433,-0.540923
-0.813329,-0.554518
-0.804000,-0.567960
-0.794448,-0.581245
-0.784677,-0.594370
-0.774690,-0.607330
-0.764488,-0.620123
-0.754075,-0.632744
-0.743454,-0.645190
-0.732627,-0.657459
-0.721598,-0.669545
-0.710369,-0.681447
-0.698945,-0.693160
-0.687327,-0.704681
-0.675519,-0.716008
-0.663525,-0.727138
-0.651347,-0.738066
-0.638989,-0.748790
-0.626455,-0.759308
-0.613748,-0.769615
-0.600871,-0.779710
-0.587828,-0.789590
-0.574623,-0.799251
-0.561259,-0.808692
-0.547739,-0.817909
-0.534069,-0.826901
-0.520251,-0.835663
-0.506289,-0.844195
-0.492187,-0.852494
-0.477950,-0.860557
-0.463580,-0.868382
-0.449082,-0.875968
-0.434461,-0.883311
-0.419719,-0.890410
-0.404861,-0.897264
-0.389891,-0.903869
-0.374814,-0.910225
-0.359633,-0.916329
-0.344352,-0.922180
-0.328977,-0.927776
-0.313510,-0.933116
-0.297957,-0.938198
-0.282322,-0.943021
-0.266609,-0.947583
-0.250822,-0.951884
-0.234965,-0.955921
-0.219044,-0.959695
-0.203062,-0.963203
-0.187024,-0.966445
-0.170935,-0.969420
-0.154798,-0.972127
-0.138619,-0.974566
-0.122401,-0.976735
-0.106149,-0.978635
-0.089868,-0.980264
-0.073562,-0.981622
-0.057236,-0.982710
-0.040894,-0.983525
-0.024541,-0.984069
-0.008181,-0.984341
0.008181,-0.984341
0.024541,-0.984069
0.040894,-0.983525
0.057236,-0.982710
0.073562,-0.981622
0.089868,-0.980264
0.106149,-0.978635
0.122401,-0.976735
0.138619,-0.974566
0.154798,-0.972127
0.170935,-0.969420
0.187024,-0.966445
0.203062,-0.963203
0.219044,-0.959695
0.234965,-0.955921
0.250822,-0.951884
0.266609,-0.947583
0.282322,-0.943021
0.297957,-0.938198
0.313510,-0.933116
0.328977,-0.927776
0.344352,-0.922180
0.359633,-0.916329
0.374814,-0.910225
0.389891,-0.903869
0.404861,-0.897264
0.419719,-0.890410
0.434461,-0.883311
0.449082,-0.875968
0.463580,-0.868382
0.477950,-0.860557
0.492188,-0.852494
0.506289,-0.844195
0.520251,-0.835663
0.534069,-0.826901
0.547739,-0.817909
0.561259,-0.808692
0.574623,-0.799251
0.587828,-0.789590
0.600871,-0.779710
0.613748,-0.769615
0.626455,-0.759308
0.638989,-0.748790
0.651347,-0.738066
0.663525,-0.727138
0.675519,-0.716008
0.687327,-0.704681
0.698945,-0.693160
0.710369,-0.681447
0.721598,-0.669545
0.732627,-0.657459
0.743454,-0.645190
0.754075,-0.632744
0.764488,-0.620123
0.774690,-0.607330
0.784677,-0.594370
0.794448,-0.581245
0.804000,-0.567960
0.813329,-0.554518
0.822433,-0.540923
0.831311,-0.527178
0.839958,-0.513288
0.848374,-0.499256
0.856555,-0.485085
0.864499,-0.470781
0.872205,-0.456347
0.879670,-0.441787
0.886891,-0.427104
0.893868,-0.412304
0.900597,-0.397390
0.907078,-0.382366
0.913308,-0.367236
0.919286,-0.352005
0.925010,-0.336676
0.930478,-0.321255
0.935689,-0.305744
0.940642,-0.290150
0.945335,-0.274475
0.949766,-0.258724
0.953935,-0.242902
0.957841,-0.227012
0.961482,-0.211060
0.964857,-0.195050
0.967966,-0.178986
0.970807,-0.162872
0.973380,-0.146713
0.975684,-0.130514
0.977719,-0.114279
0.979483,-0.098012
0.980977,-0.081718
0.982200,-0.065402
0.983151,-0.049067
0.983831,-0.032719
0.984239,-0.016362
