0.500000, 0.000000,0.250000, 0.433013,0.000000, 0.000000,0.500000,0.000000
0.250000, 0.433013,-0.250000, 0.433013,0.000000, 0.000000,0.250000,0.433013
-0.250000, 0.433013,-0.500000, 0.000000,0.000000, 0.000000,-0.250000,0.433013
-0.500000, 0.000000,-0.250000, -0.433013,0.000000, 0.000000,-0.500000,0.000000
-0.250000, -0.433013,0.250000, -0.433013,0.000000, 0.000000,-0.250000,-0.433013
0.250000, -0.433013,0.500000, 0.000000,0.000000, 0.000000,0.250000,-0.433013
0.750000, 0.000000,0.704769, 0.256515,0.500000, 0.000000,0.750000,0.000000
0.704769, 0.256515,0.574533, 0.482091,0.250000, 0.433013,0.500000, 0.000000,0.704769,0.256515
0.574533, 0.482091,0.375000, 0.649519,0.250000, 0.433013,0.574533,0.482091
0.375000, 0.649519,0.130236, 0.738606,0.250000, 0.433013,0.375000,0.649519
0.130236, 0.738606,-0.130236, 0.738606,-0.250000, 0.433013,0.250000, 0.433013,0.130236,0.738606
-0.130236, 0.738606,-0.375000, 0.649519,-0.250000, 0.433013,-0.130236,0.738606
-0.375000, 0.649519,-0.574533, 0.482091,-0.250000, 0.433013,-0.375000,0.649519
-0.574533, 0.482091,-0.704769, 0.256515,-0.500000, 0.000000,-0.250000, 0.433013,-0.574533,0.482091
-0.704769, 0.256515,-0.750000, -0.000000,-0.500000, 0.000000,-0.704769,0.256515
-0.750000, -0.000000,-0.704769, -0.256515,-0.500000, 0.000000,-0.750000,-0.000000
-0.704769, -0.256515,-0.574533, -0.482091,-0.250000, -0.433013,-0.500000, 0.000000,-0.704769,-0.256515
-0.574533, -0.482091,-0.375000, -0.649519,-0.250000, -0.433013,-0.574533,-0.482091
-0.375000, -0.649519,-0.130236, -0.738606,-0.250000, -0.433013,-0.375000,-0.649519
-0.130236, -0.738606,0.130236, -0.738606,0.250000, -0.433013,-0.250000, -0.433013,-0.130236,-0.738606
0.130236, -0.738606,0.375000, -0.649519,0.250000, -0.433013,0.130236,-0.738606
0.375000, -0.649519,0.574533, -0.482091,0.250000, -0.433013,0.375000,-0.649519
0.574533, -0.482091,0.704769, -0.256515,0.500000, 0.000000,0.250000, -0.433013,0.574533,-0.482091
0.704769, -0.256515,0.750000, 0.000000,0.500000, 0.000000,0.704769,-0.256515
1.000000, 0.000000,0.965926, 0.258819,0.750000, 0.000000,1.000000,0.000000
0.965926, 0.258819,0.704769, 0.256515,0.750000, 0.000000,0.965926,0.258819
0.965926, 0.258819,0.866025, 0.500000,0.704769, 0.256515,0.965926,0.258819
0.866025, 0.500000,0.574533, 0.482091,0.704769, 0.256515,0.866025,0.500000
0.866025, 0.500000,0.707107, 0.707107,0.574533, 0.482091,0.866025,0.500000
0.707107, 0.707107,0.375000, 0.649519,0.574533, 0.482091,0.707107,0.707107
0.707107, 0.707107,0.500000, 0.866025,0.375000, 0.649519,0.707107,0.707107
0.500000, 0.866025,0.258819, 0.965926,0.375000, 0.649519,0.500000,0.866025
0.258819, 0.965926,0.130236, 0.738606,0.375000, 0.649519,0.258819,0.965926
0.258819, 0.965926,0.000000, 1.000000,0.130236, 0.738606,0.258819,0.965926
0.000000, 1.000000,-0.130236, 0.738606,0.130236, 0.738606,0.000000,1.000000
0.000000, 1.000000,-0.258819, 0.965926,-0.130236, 0.738606,0.000000,1.000000
-0.258819, 0.965926,-0.375000, 0.649519,-0.130236, 0.738606,-0.258819,0.965926
-0.258819, 0.965926,-0.500000, 0.866025,-0.375000, 0.649519,-0.258819,0.965926
-0.500000, 0.866025,-0.707107, 0.707107,-0.375000, 0.649519,-0.500000,0.866025
-0.707107, 0.707107,-0.574533, 0.482091,-0.375000, 0.649519,-0.707107,0.707107
-0.707107, 0.707107,-0.866025, 0.500000,-0.574533, 0.482091,-0.707107,0.707107
-0.866025, 0.500000,-0.704769, 0.256515,-0.574533, 0.482091,-0.866025,0.500000
-0.866025, 0.500000,-0.965926, 0.258819,-0.704769, 0.256515,-0.866025,0.500000
-0.965926, 0.258819,-0.750000, -0.000000,-0.704769, 0.256515,-0.965926,0.258819
-0.965926, 0.258819,-1.000000, 0.000000,-0.750000, -0.000000,-0.965926,0.258819
-1.000000, 0.000000,-0.965926, -0.258819,-0.750000, -0.000000,-1.000000,0.000000
-0.965926, -0.258819,-0.704769, -0.256515,-0.750000, -0.000000,-0.965926,-0.258819
-0.965926, -0.258819,-0.866025, -0.500000,-0.704769, -0.256515,-0.965926,-0.258819
-0.866025, -0.500000,-0.574533, -0.482091,-0.704769, -0.256515,-0.866025,-0.500000
-0.866025, -0.500000,-0.707107, -0.707107,-0.574533, -0.482091,-0.866025,-0.500000
-0.707107, -0.707107,-0.375000, -0.649519,-0.574533, -0.482091,-0.707107,-0.707107
-0.707107, -0.707107,-0.500000, -0.866025,-0.375000, -0.649519,-0.707107,-0.707107
-0.500000, -0.866025,-0.258819, -0.965926,-0.375000, -0.649519,-0.500000,-0.866025
-0.258819, -0.965926,-0.130236, -0.738606,-0.375000, -0.649519,-0.258819,-0.965926
-0.258819, -0.965926,-0.000000, -1.000000,-0.130236, -0.738606,-0.258819,-0.965926
-0.000000, -1.000000,0.130236, -0.738606,-0.130236, -0.738606,-0.000000,-1.000000
-0.000000, -1.000000,0.258819, -0.965926,0.130236, -0.738606,-0.000000,-1.000000
0.258819, -0.965926,0.375000, -0.649519,0.130236, -0.738606,0.258819,-0.965926
0.258819, -0.965926,0.500000, -0.866025,0.375000, -0.649519,0.258819,-0.965926
0.500000, -0.866025,0.707107, -0.707107,0.375000, -0.649519,0.500000,-0.866025
0.707107, -0.707107,0.574533, -0.482091,0.375000, -0.649519,0.707107,-0.707107
0.707107, -0.707107,0.866025, -0.500000,0.574533, -0.482091,0.707107,-0.707107
0.866025, -0.500000,0.704769, -0.256515,0.574533, -0.482091,0.866025,-0.500000
0.866025, -0.500000,0.965926, -0.258819,0.704769, -0.256515,0.866025,-0.500000
0.965926, -0.258819,0.750000, 0.000000,0.704769, -0.256515,0.965926,-0.258819
0.965926, -0.258819,1.000000, 0.000000,0.750000, 0.000000,0.965926,-0.258819

