0.707107, 0.000000,0.353553, 0.612372,0.000000, 0.000000,0.707107,0.000000
0.353553, 0.612372,-0.353553, 0.612372,0.000000, 0.000000,0.353553,0.612372
-0.353553, 0.612372,-0.707107, 0.000000,0.000000, 0.000000,-0.353553,0.612372
-0.707107, 0.000000,-0.353553, -0.612372,0.000000, 0.000000,-0.707107,0.000000
-0.353553, -0.612372,0.353553, -0.612372,0.000000, 0.000000,-0.353553,-0.612372
0.353553, -0.612372,0.707107, 0.000000,0.000000, 0.000000,0.353553,-0.612372
1.000000, 0.000000,0.500000, 0.866025,0.353553, 0.612372,0.707107, 0.000000,1.000000,0.000000
0.500000, 0.866025,-0.500000, 0.866025,-0.353553, 0.612372,0.353553, 0.612372,0.500000,0.866025
-0.500000, 0.866025,-1.000000, 0.000000,-0.707107, 0.000000,-0.353553, 0.612372,-0.500000,0.866025
-1.000000, 0.000000,-0.500000, -0.866025,-0.353553, -0.612372,-0.707107, 0.000000,-1.000000,0.000000
-0.500000, -0.866025,0.500000, -0.866025,0.353553, -0.612372,-0.353553, -0.612372,-0.500000,-0.866025
0.500000, -0.866025,1.000000, 0.000000,0.707107, 0.000000,0.353553, -0.612372,0.500000,-0.866025

