0.000000,0.000000
0.333333,0.000000
0.666667,0.000000
1.000000,0.000000
0.000000,0.250000
0.250000,0.250000
0.500000,0.250000
0.750000,0.250000
1.000000,0.250000
0.000000,0.500000
0.250000,0.500000
0.500000,0.500000
0.750000,0.500000
1.000000,0.500000
0.000000,0.750000
0.250000,0.750000
0.500000,0.750000
0.750000,0.750000
1.000000,0.750000
0.000000,1.000000
0.250000,1.000000
0.500000,1.000000
0.750000,1.000000
1.000000,1.000000
